target,output
0.12385321,0.18820394
0.12844037,0.15997706
0.35779817,0.1823949
0.28899083,0.32378953
0.46788991,0.25544725
0.48165138,0.44495413
0.35321101,0.40338303
0.32568807,0.27637615
0.27981651,0.30899021
0.2706422,0.24731634
0.22477064,0.25189666
0.11926606,0.23225232
0.05963303,0.15282489
0.2293578,0.13245413
0.18348624,0.21129587
0.12385321,0.1771789
0.12385321,0.17173165
0.2293578,0.17144495
0.13302752,0.25086009
0.17889908,0.18542764
0.22018349,0.24309319
0.0733945,0.23495153
0.11009174,0.13963681
0.18348624,0.17345183
0.23853211,0.20154817
0.19724771,0.24893169
0.13761468,0.21941966
0.25688073,0.14449541
0.35779817,0.25057339
0.40366972,0.28956422
0.36635252,0.3540711
0.27981651,0.30819954
0.26605505,0.25458716
0.21100917,0.23526821
0.20183486,0.19722381
0.22477064,0.19763049
0.24311927,0.22434409
0.20999023,0.24946526
0.19899864,0.22578931
0.18049606,0.2108932
0.16232778,0.16933304
0.18139481,0.21791559
0.1687658,0.19770614
0.18722984,0.21218164
0.26146789,0.20739892
0.11009174,0.27694954
0.20183486,0.14832634
0.26605505,0.18836009
0.2706422,0.27981651
0.26605505,0.26400711
0.2629453,0.23622008
0.23853211,0.23250396
0.25427931,0.21052969
0.41284404,0.2499678
0.39449541,0.34260321
0.27522936,0.35120413
0.26146789,0.26232798
0.21559633,0.24072368
0.32568807,0.2295678
0.4587156,0.27178899
0.43577982,0.4165711
0.42201835,0.36066514
0.25229358,0.39191514
0.20642202,0.23021789
0.14220183,0.20720542
0.0733945,0.15051606
0.19724771,0.15280963
0.14678899,0.2502867
0.05963303,0.15883028
0.16972477,0.14429872
0.21100917,0.22075688
0.21100917,0.20969742
0.23394495,0.21005007
0.23394495,0.25989819
0.16972477,0.22673217
0.23394495,0.17889908
0.43119266,0.26790624
0.50458716,0.37270642
0.30733945,0.46100917
0.31192661,0.2912844
0.27981651,0.25860092
0.16972477,0.25088593
0.19724771,0.17287844
0.13302752,0.175878
0.2706422,0.1559633
0.60091743,0.25430046
0.50458716,0.44868119
0.40366972,0.37586009
0.19266055,0.29357798
0.23394495,0.20126147
0.22477064,0.22590173
0.10091743,0.25494621
0.14220183,0.12730883
0.12385321,0.15802362
0.23853211,0.15768349
0.37614679,0.25774083
0.39908257,0.37729358
0.27981651,0.36869266
0.24311927,0.25860092
0.29816514,0.23320528
0.46788991,0.31508028
0.47247706,0.4481078
0.36959471,0.38704128
0.32858248,0.32138761
0.2706422,0.26974394
0.26605505,0.26569209
0.2486967,0.23622008
0.23312887,0.22299202
0.2477132,0.20521026
0.76605505,0.23133822
0.60928572,0.4684633
0.2293578,0.42603211
0.17889908,0.23623853
0.06880734,0.18483761
0.08715596,0.13388761
0.22018349,0.19896789
0.1559633,0.22161697
0.25688073,0.1687992
0.25229358,0.23709862
0.20642202,0.24242952
0.25229358,0.20720542
0.25229358,0.22564688
0.10550459,0.24355743
0.25229358,0.15397168
0.33027523,0.26748853
0.33944954,0.26582927
0.39449541,0.30845499
0.42201835,0.3540711
0.44495413,0.39678899
0.38990826,0.44094037
0.36238532,0.34661697
0.58256881,0.27866972
0.55045872,0.41743119
0.40825688,0.41800459
0.34862385,0.32110092
0.2706422,0.31450688
0.33027523,0.26490826
0.12844037,0.26195464
0.11009174,0.19610581
0.08715596,0.19352064
0.15959659,0.17631881
0.20664758,0.18277259
0.24116494,0.21932339
0.29357798,0.26970075
0.33486239,0.28641055
0.20183486,0.33993629
0.18365799,0.19281802
0.25172055,0.17503206
0.27156858,0.26146789
0.36238532,0.28824533
0.27522936,0.31212666
0.49082569,0.26720183
0.80275229,0.44208716
0.59642337,0.55361239
0.39449541,0.38818807
0.30733945,0.30647936
0.6559633,0.26834862
0.55449131,0.42861239
0.58715596,0.39908257
0.68348624,0.48623853
0.16055046,0.53038991
0.20642202,0.18176606
0.23293635,0.21932339
0.43577982,0.26088568
0.28899083,0.37270642
0.16055046,0.23738532
0.12844037,0.17803899
0.16055046,0.19151376
0.2293578,0.22219037
0.22477064,0.28354358
0.23394495,0.2351028
0.24770642,0.23118649
0.55504587,0.23477859
0.54587156,0.46416284
0.42201835,0.39162844
0.42201835,0.30389908
0.27522936,0.40940367
0.24770642,0.24799312
0.23853211,0.22806733
0.13761468,0.20923912
0.02752294,0.19180046
0.47247706,0.13856477
0.64678899,0.30314733
0.50458716,0.50774083
0.1559633,0.34948394
0.19724771,0.16313073
0.14220183,0.23021789
0.17730689,0.14793578
0.16486816,0.2286921
0.27522936,0.20186054
0.26146789,0.27150229
0.29357798,0.24072368
0.29816514,0.26261468
0.26729487,0.2793687
0.27981651,0.25124811
0.22018349,0.26850217
0.36697248,0.21272936
0.37614679,0.3756042
0.47247706,0.30733945
0.44495413,0.39879587
0.44954128,0.34088303
0.45412844,0.39019495
0.31651376,0.38847477
0.25688073,0.29271789
0.68807339,0.2481771
0.68807339,0.47821101
0.63761468,0.48193807
0.6146789,0.47706422
0.83486239,0.47505734
0.59174312,0.55590596
0.32126993,0.34977064
0.25586609,0.27780963
0.2293578,0.25448444
0.24093511,0.22396615
0.23394495,0.23659637
0.29168571,0.2153346
0.23661593,0.29013761
0.2241975,0.21750452
0.25688073,0.24294631
0.27522936,0.23554035
0.29730254,0.26176545
0.59633028,0.22632971
0.40366972,0.45212156
0.3853211,0.33428899
0.35321101,0.33142202
0.35739876,0.26720183
0.21100917,0.2712156
0.2706422,0.21747398
0.39449541,0.26175459
0.46791454,0.34260321
0.25229358,0.4266055
0.18807339,0.21215596
0.34969525,0.18376254
0.32096552,0.29561567
0.26955462,0.30510814
0.20038131,0.25221732
0.30275229,0.20470183
0.17889908,0.29472477
0.18997308,0.17173165
0.21477949,0.20965673
0.18928387,0.22741675
0.15878589,0.21479746
0.17904034,0.19985366
0.19713046,0.19642306
0.20473909,0.18546165
0.27327695,0.21094705
0.29650183,0.27236239
0.32386867,0.22632971
0.27960222,0.32216107
0.28850399,0.25107053
0.25317134,0.23951779
0.26637826,0.23728663
0.25876768,0.27774601
0.29645367,0.25070534
0.25985067,0.29077193
0.22103586,0.24713565
0.20048255,0.23556752
0.21507776,0.19785699
0.20486069,0.26333428
0.19092616,0.19584466
0.21088894,0.21233448
0.19473897,0.22552108
0.20162234,0.20885181
0.18617842,0.18265902
0.19583139,0.19538756
0.18343968,0.20083439
0.20083019,0.18662459
0.20119404,0.2057001
0.21060767,0.19918524
0.22372146,0.23188992
0.23843273,0.22320452
0.24985233,0.23537803
0.24627716,0.24403819
0.24754049,0.21886714
0.23679388,0.23125175
0.24308409,0.19943797
0.2370636,0.22585262
0.24556813,0.20726982
0.23405069,0.23244666
0.22377288,0.20476884
0.20394857,0.25439073
0.20169522,0.20541996
0.19460838,0.20175858
0.194862,0.18056008
0.19648159,0.21346393
0.19818142,0.19946983
0.19923597,0.19236634
0.19684464,0.19273445
0.19982525,0.18625719
0.19747567,0.19165111
0.20659523,0.18551028
0.20895591,0.21707108
0.21723131,0.2069376
0.219177,0.2354469
0.22659446,0.20887068
0.22810661,0.22486979
0.23014807,0.2234588
0.22911611,0.23041442
0.2706422,0.22995516
0.32568807,0.22951069
0.6559633,0.26367483
0.91284404,0.42832569
0.76605505,0.54587156
0.52293578,0.45699541
0.44495413,0.33801606
0.16972477,0.31077982
0.08256881,0.19008028
0.15137615,0.13245413
0.11926606,0.18305929
0.04587156,0.18635321
0.14344173,0.12442661
0.18807339,0.17636473
0.25229358,0.23712378
0.08256881,0.27006881
0.14704587,0.11897936
0.28440367,0.19925459
0.61009174,0.27809633
0.60091743,0.45527523
0.63302752,0.46559633
0.58256881,0.53469037
0.50458716,0.43979358
0.42430639,0.36725917
0.50458716,0.30533257
0.63302752,0.46530963
0.58715596,0.52207569
0.79816514,0.46674312
0.61178722,0.55561927
0.58715596,0.39707569
0.78899083,0.47161697
0.49541284,0.55561927
0.16055046,0.31536697
0.32110092,0.16313073
0.51834862,0.28411697
0.15137615,0.42517202
0.23853211,0.16284404
0.23394495,0.28727064
0.23853211,0.21977063
0.22018349,0.22885833
0.22893128,0.23647971
0.26401202,0.22631597
0.37934263,0.23171654
0.45934585,0.33056193
0.36238532,0.40797018
0.42555906,0.35177752
0.45895821,0.3546445
0.42425737,0.44380734
0.48016073,0.34202982
0.51472608,0.46014908
0.49943398,0.45441514
0.53962155,0.36840596
0.51591778,0.43233945
0.4437966,0.39650229
0.39072391,0.30647936
0.35320197,0.34661697
0.21842217,0.27866972
0.20480102,0.21948086
0.23550815,0.20156536
0.1948326,0.26970079
0.18664753,0.22056645
0.17582597,0.19298082
0.18239634,0.21375657
0.16781495,0.20957989
0.20401781,0.20386742
0.18932701,0.19472759
0.24019926,0.20918081
0.2951908,0.24814771
0.31082165,0.30045872
0.32718911,0.27780963
0.35064349,0.29558486
0.37140775,0.32769315
0.38423308,0.31192661
0.18348624,0.32568807
0.12385321,0.1845038
0.12385321,0.17173165
0.21709044,0.17144495
0.16055046,0.2296445
0.39449541,0.16083716
0.56880734,0.41516842
0.23853211,0.47419725
0.10091743,0.22391055
0.13302752,0.17060012
0.14678899,0.17207178
0.17889908,0.16404628
0.22477064,0.22336231
0.24770642,0.23428365
0.15137615,0.2236146
0.3440367,0.15997706
0.40366972,0.31336009
0.26146789,0.34575688
0.55504587,0.23595183
0.66055046,0.45412844
0.63302752,0.51204128
0.25688073,0.48595183
0.22477064,0.25802752
0.1559633,0.23498337
0.17889908,0.17195287
0.29357798,0.20043682
0.53669725,0.28038991
0.53669725,0.4481078
0.28440367,0.42173165
0.31192661,0.27752294
0.12844037,0.26490826
0.04587156,0.19724771
0.03211009,0.11419551
0.16055046,0.13618119
0.11009174,0.20990831
0.26146789,0.15911697
0.25229358,0.28006506
0.24311927,0.23837976
0.21100917,0.21004589
0.31651376,0.21587161
0.21100917,0.26720183
0.47247706,0.20212156
0.34862385,0.39048165
0.33944954,0.31966743
0.32568807,0.30453475
0.23853211,0.3096953
0.25229358,0.2360345
0.20183486,0.24308706
0.19266055,0.19610092
0.17889908,0.18859496
0.33944954,0.15739016
0.05504587,0.27436927
0.22018349,0.14794067
0.28899083,0.22563073
0.35321101,0.25229358
0.29357798,0.32244776
0.1559633,0.24827982
0.11009174,0.17201835
0.13761468,0.18692661
0.10550459,0.17617855
0.23394495,0.20584862
0.27981651,0.22792431
0.23853211,0.2495795
0.19724771,0.21075003
0.26605505,0.21941966
0.25688073,0.28899083
0.27981651,0.24666865
0.25688073,0.29337484
0.24770642,0.23895721
0.25229358,0.2231357
0.38073394,0.23409642
0.43577982,0.34489679
0.18348624,0.37557339
0.15137615,0.19208716
0.46788991,0.19065367
0.64678899,0.40739679
0.69266055,0.50774083
0.44954128,0.51519495
0.44036697,0.33686927
0.46788991,0.37557339
0.2706422,0.42029817
0.25229358,0.22448394
0.17889908,0.22633848
0.16972477,0.15107905
0.18348624,0.20214724
0.21100917,0.20023149
0.16972477,0.20976325
0.14220183,0.18271954
0.37614679,0.18262615
0.4266055,0.35704641
0.55045872,0.36897936
0.4587156,0.46674312
0.71559633,0.34489679
0.83944954,0.51318807
0.86238532,0.5
0.71100917,0.47505734
0.46330275,0.43004587
0.30733945,0.34231651
0.28440367,0.27838303
0.37155963,0.26694098
0.39449541,0.3171166
0.32110092,0.34719037
0.36697248,0.27653115
0.39908257,0.34951339
0.22018349,0.3434633
0.19266055,0.20326835
0.27981651,0.21022484
0.29357798,0.28583716
0.16513761,0.23636412
0.25688073,0.1768922
0.24770642,0.26748853
0.20642202,0.2231357
0.30275229,0.20407564
0.35779817,0.28526376
0.32110092,0.34521294
0.3440367,0.30128063
0.36697248,0.33483113
0.27522936,0.31823394
0.30733945,0.26376147
0.26146789,0.2484054
0.18348624,0.25010132
0.13761468,0.18549312
0.37155963,0.17889908
0.46788991,0.36450054
0.28899083,0.37786697
0.21559633,0.27580275
0.64678899,0.20240826
0.67889908,0.43836009
0.17431193,0.50286697
0.08256881,0.21158257
0.11009174,0.13216743
0.1559633,0.1565367
0.18807339,0.17359828
0.24311927,0.22251251
0.1559633,0.25013155
0.14678899,0.17029817
0.29357798,0.1983945
0.38990826,0.26949541
0.28899083,0.32399734
0.23853211,0.25774083
0.36238532,0.21205727
0.32568807,0.37614679
0.33944954,0.30644118
0.27981651,0.32565682
0.24311927,0.26636758
0.09633028,0.23320528
0.57798165,0.1519648
0.60550459,0.41829128
0.6146789,0.48193807
0.47247706,0.47735092
0.43577982,0.35751147
0.17431193,0.34317661
0.29816514,0.19294725
0.21100917,0.27350917
0.17889908,0.18520642
0.23394495,0.18905005
0.24770642,0.25179813
0.26146789,0.23477859
0.28899083,0.26622661
0.2293578,0.28899083
0.28899083,0.21215596
0.49082569,0.27809633
0.38073394,0.46244266
0.28440367,0.31880734
0.32110092,0.25716743
0.35321101,0.29377804
0.31651376,0.32683306
0.29816514,0.30080768
0.68348624,0.26000727
0.78440367,0.43893349
0.82568807,0.5
0.77981651,0.5
0.31651376,0.45699541
0.32110092,0.24426606
0.16055046,0.26258343
0.25229358,0.17889908
0.11926606,0.24713303
0.16055046,0.15692726
0.2706422,0.19667431
0.21100917,0.27866972
0.13302752,0.18463303
0.19266055,0.15797018
0.21559633,0.21297736
0.18348624,0.23483267
0.43577982,0.2187892
0.52752294,0.43807339
0.3440367,0.46817661
0.33486239,0.30619266
0.35321101,0.33148429
0.31192661,0.32479673
0.29357798,0.29768527
0.26605505,0.26350061
0.18348624,0.25344299
0.13761468,0.1981078
0.66513761,0.17889908
0.53669725,0.39908257
0.60091743,0.41456422
0.19724771,0.48623853
0.09174312,0.20154817
0.25229358,0.16886468
0.17889908,0.23279817
0.27981651,0.15107905
0.13761468,0.27637615
0.14220183,0.16524148
0.26146789,0.17293389
0.24311927,0.24025229
0.14678899,0.208465
0.14220183,0.17402523
0.36697248,0.19529628
0.46330275,0.35704641
0.36238532,0.37155963
0.43119266,0.35034404
0.36238532,0.35521789
0.29816514,0.30418578
0.29357798,0.2815367
0.27981651,0.26532054
0.30733945,0.25745413
0.44495413,0.2377976
0.57798165,0.42631881
0.73853211,0.47161697
0.73394495,0.54988532
1,0.47792431
0.57798165,0.51605505
0.27522936,0.31938073
0.21100917,0.26576835
0.1146789,0.18950688
0.06422018,0.14707569
0.15137615,0.15825688
0.18348624,0.20646794
0.30733945,0.23411364
0.38990826,0.23595183
0.51376147,0.34951339
0.47706422,0.43922018
0.46330275,0.33686927
0.65137615,0.33457569
0.47247706,0.50774083
0.29357798,0.34461009
0.3853211,0.27866972
0.2706422,0.32973128
0.58715596,0.24942661
0.4266055,0.4377867
0.39908257,0.34919725
0.49541284,0.36668578
0.55963303,0.45040138
0.49541284,0.44266055
0.16972477,0.37844037
0.29816514,0.17545872
0.47706422,0.29013761
0.46788991,0.45584862
0.15137615,0.32138761
0.24770642,0.17459862
0.29357798,0.25315367
0.28440367,0.30389908
0.35779817,0.26044668
0.26146789,0.34308996
0.17431193,0.23881881
0.26146789,0.1766055
0.4266055,0.28985092
0.48623853,0.34977064
0.46330275,0.44610092
0.4266055,0.3233945
0.3853211,0.3337156
0.5412844,0.36009174
0.44954128,0.47133028
0.39449541,0.33830275
0.31192661,0.34690367
0.44954128,0.28010321
0.90366972,0.43405963
0.7706422,0.52178899
0.6146789,0.45699541
0.19724771,0.42603211
0.26605505,0.21330275
0.3440367,0.28899083
0.24311927,0.27514272
0.12844037,0.24559761
0.17889908,0.1766055
0.16972477,0.20685188
0.13302752,0.20214724
0.25229358,0.17918578
0.32568807,0.28555046
0.29357798,0.27443019
0.55045872,0.25601935
0.38073394,0.43033257
0.27981651,0.29415138
0.5412844,0.25573394
0.71100917,0.46760321
0.68348624,0.53956422
0.54587156,0.48537844
0.59174312,0.4165711
0.52752294,0.48623853
0.43119266,0.37327982
0.53211009,0.30733945
0.47706422,0.46817661
0.22018349,0.34432339
0.20642202,0.21158257
0.12385321,0.20252477
0.16513761,0.13904817
0.1146789,0.21401931
0.15137615,0.17775229
0.24770642,0.17646525
0.22018349,0.25315367
0.18348624,0.21670781
0.21559633,0.20607963
0.24770642,0.22151784
0.37155963,0.22471603
0.33486239,0.33572248
0.50458716,0.27203751
0.59633028,0.4483945
0.41284404,0.49311927
0.37155963,0.33858945
0.38990826,0.30447248
0.21100917,0.34002294
0.15137615,0.20699541
0.17431193,0.16621892
0.41743119,0.20446636
0.18348624,0.41370413
0.08715596,0.20011468
0.18807339,0.16055046
0.14220183,0.23394495
0.22018349,0.15022936
0.13761468,0.27522936
0.19266055,0.16937259
0.17431193,0.25115932
0.0733945,0.16808818
0.16972477,0.13102064
0.18807339,0.20642202
0.21559633,0.20739892
0.20642202,0.22655666
0.38990826,0.20524076
0.59174312,0.42147576
0.43577982,0.42488532
0.44036697,0.32826835
0.32568807,0.42173165
0.32568807,0.31163991
0.24770642,0.29870728
0.26605505,0.24492212
0.20642202,0.26479312
0.07798165,0.2084289
0.17889908,0.16399083
0.29357798,0.23021789
0.19724771,0.28038991
0.26146789,0.18176606
0.19266055,0.25974771
0.1559633,0.19036697
0.09633028,0.19409404
0.21100917,0.1774656
0.30275229,0.20126147
0.22477064,0.28411697
0.2293578,0.21244266
0.21559633,0.223593
0.12844037,0.22319488
0.31651376,0.14994266
0.4587156,0.31995413
0.3853211,0.43491972
0.59174312,0.32941514
0.60550459,0.42488532
0.53211009,0.48652523
0.58715596,0.39162844
0.46788991,0.48795872
0.19724771,0.36009174
0.22018349,0.20355505
0.12844037,0.2383241
0.26605505,0.15561112
0.24311927,0.24799312
0.60550459,0.22899006
0.62844037,0.43004587
0.47247706,0.49369266
0.51376147,0.34604358
0.35779817,0.44724771
0.17889908,0.3127867
0.21100917,0.19023774
0.13761468,0.2080897
0.12844037,0.16593222
0.1559633,0.17178711
0.13761468,0.19128252
0.1559633,0.19294725
0.25229358,0.22052564
0.38073394,0.24713303
0.50458716,0.34489679
0.50917431,0.4584289
0.30275229,0.40194954
0.27522936,0.27895642
0.3440367,0.24780774
0.21559633,0.29463813
0.1559633,0.2260749
0.09174312,0.16163177
0.37155963,0.17201835
0.25688073,0.30314733
0.3440367,0.21932339
0.23853211,0.29042431
0.14678899,0.24158384
0.1146789,0.1788336
0.2293578,0.16886468
0.18807339,0.22591743
0.1146789,0.19586459
0.09174312,0.17947248
0.13761468,0.1671445
0.21559633,0.18927362
0.16513761,0.23350211
0.16513761,0.14793578
0.2706422,0.19667431
0.49082569,0.27924312
0.36697248,0.44208716
0.30275229,0.29013761
0.26605505,0.27474949
0.28440367,0.24838113
0.2293578,0.2815367
0.17431193,0.21387615
0.43119266,0.18828837
0.49082569,0.41284404
0.58256881,0.45183486
0.32110092,0.49913991
0.12844037,0.27780963
0.10091743,0.19037186
0.1559633,0.19352064
0.06422018,0.18363268
0.27981651,0.1460189
0.16513761,0.29554671
0.12385321,0.18692661
0.15137615,0.16829128
0.2293578,0.19128252
0.30275229,0.27465596
0.19266055,0.29558486
0.06880734,0.18606651
0.28899083,0.1353211
0.36238532,0.29526002
0.26146789,0.32075703
0.3853211,0.23709862
0.66972477,0.33944954
0.76146789,0.42402523
0.74770642,0.5
0.71100917,0.47792431
0.44036697,0.45699541
0.20183486,0.32081422
0.51834862,0.19896789
0.53669725,0.40854358
0.42201835,0.41800459
0.34862385,0.30934633
0.32568807,0.35235092
0.28899083,0.33320447
0.20642202,0.2614666
0.09633028,0.19524083
0.25229358,0.15454507
0.24311927,0.24426606
0.17889908,0.21004589
0.23394495,0.1677075
0.22018349,0.25179813
0.11926606,0.24457666
0.29816514,0.13820333
0.34862385,0.30242745
0.27522936,0.34796382
0.24770642,0.26548165
0.33944954,0.22806733
0.39908257,0.29300459
0.30275229,0.35321101
0.25229358,0.27981651
0.24770642,0.23681455
0.25688073,0.22761952
0.49082569,0.25129826
0.40825688,0.42345183
0.37614679,0.30045872
0.25229358,0.31909404
0.37155963,0.21616972
0.22477064,0.30963303
0.11926606,0.20699541
0.19266055,0.15282489
0.26146789,0.20269495
,
,