Target,Output
 0.12151899, 0.06223296
 0.09113924, 0.10993068
 0.02025316, 0.1057286
 0.04303797, 0.09990595
 0.0835443, 0.1756635
 0.18987342, 0.19108225
 0.23291139, 0.2906713
 0.05822785, 0.31861219
 0.22278481, 0.15965469
 0.49873418, 0.33304257
 0.57721519, 0.51166169
 0.6278481, 0.50742014
 0.46582278, 0.52119855
 0.17974684, 0.3607406
 0.17468354, 0.13944151
 0.18481013, 0.17648043
 0.16202532, 0.14965803
 0.09620253, 0.12621519
 0.09367089, 0.09886326
 0.10126582, 0.107198
 0.09113924, 0.06144906
 0.12151899, 0.07563027
 0.09620253, 0.14105585
 0.11392405, 0.12107557
 0.12405063, 0.13201282
 0.10632911, 0.12144943
 0.04810127, 0.11557252
 0.08101266, 0.07945882
 0.03037975, 0.14963924
 0.13417722, 0.09436219
 0.16962025, 0.19406552
 0.29113924, 0.21527245
 0.2556962, 0.35826383
 0.35189873, 0.32466418
 0.49367089, 0.39150521
 0.64810127, 0.49302103
 0.52151899, 0.5392337
 0.38481013, 0.41067086
 0.2, 0.34834693
 0.23544304, 0.17891898
 0.21265823, 0.2026137
 0.24556962, 0.15648526
 0.08860759, 0.19215808
 0.06075949, 0.08309179
 0.05822785, 0.09366303
 0.08860759, 0.08767705
 0.09367089, 0.10189894
 0.13417722, 0.09865527
 0.10379747, 0.14622326
 0.04303797, 0.09879724
 0.07341772, 0.04238279
 0.01772152, 0.0921988
 0.10126582, 0.07034608
 0.16455696, 0.18963341
 0.14177215, 0.23564459
 0.22025316, 0.19495021
 0.18227848, 0.28187173
 0.26329114, 0.25024361
 0.35443038, 0.33369527
 0.26329114, 0.38791624
 0.08607595, 0.25654025
 0.10886076, 0.09570769
 0.18481013, 0.13731156
 0.18227848, 0.20097863
 0.09367089, 0.19245832
 0.11898734, 0.08082631
 0.14683544, 0.11977933
 0.16962025, 0.12794288
 0.12405063, 0.1619998
 0.20253165, 0.12419985
 0.12911392, 0.19959508
 0.13670886, 0.1215889
 0.15189873, 0.13765169
 0.15189873, 0.11829128
 0.0835443, 0.13661029
 0.02025316, 0.09458791
 0.04303797, 0.08836993
 0.09113924, 0.0897024
 0.16202532, 0.14445222
 0.14683544, 0.2213966
 0.17974684, 0.19103857
 0.19746835, 0.22659828
 0.61518987, 0.22713401
 0.53164557, 0.55159754
 0.35443038, 0.43333348
 0.16962025, 0.28881534
 0.21772152, 0.17483063
 0.15696203, 0.22314058
 0.21518987, 0.13585784
 0.27088608, 0.20512208
 0.29620253, 0.26039577
 0.16202532, 0.29068238
 0.11139241, 0.14928047
 0.17468354, 0.11111183
 0.0556962, 0.1517075
 0.10126582, 0.08302983
 0.13924051, 0.16756627
 0.10126582, 0.16069332
 0.10632911, 0.08311052
 0.08860759, 0.14330889
 0.15949367, 0.13672875
 0.48607595, 0.18841051
 0.55696203, 0.48555962
 0.46329114, 0.49810855
 0.4556962, 0.46322004
 0.68101266, 0.49183541
 0.72911392, 0.66060684
 0.72151899, 0.63897856
 0.58227848, 0.58771772
 0.55443038, 0.47693453
 0.55443038, 0.48487949
 0.42025316, 0.49488649
 0.17721519, 0.3407456
 0.16455696, 0.12249139
 0.16708861, 0.19794617
 0.10379747, 0.19389202
 0.20506329, 0.10741212
 0.14683544, 0.20210899
 0.34177215, 0.10710591
 0.38481013, 0.34459605
 0.30632911, 0.33047838
 0.16455696, 0.23426968
 0.27341772, 0.15541574
 0.38987342, 0.33162156
 0.60506329, 0.49793876
 0.75189873, 0.69071061
 0.70126582, 0.76540385
 0.73670886, 0.67814123
 0.74177215, 0.75465037
 0.78227848, 0.72692912
 0.8, 0.74989238
 0.7721519, 0.72815366
 0.54177215, 0.74593406
 0.79240506, 0.51771268
 0.87594937, 0.66685717
 0.73417722, 0.66214136
 0.60506329, 0.53648236
 0.27848101, 0.47926995
 0.18481013, 0.24311292
 0.23797468, 0.2023596
 0.09367089, 0.23396504
 0.12911392, 0.11728526
 0.07594937, 0.18130725
 0.11139241, 0.1003286
 0.07848101, 0.09816957
 0.09367089, 0.04922682
 0.03291139, 0.09944023
 0.03544304, 0.0982865
 0.07088608, 0.16103417
 0.0556962, 0.18293879
 0.24303797, 0.13591004
 0.51898734, 0.33224777
 0.6, 0.55697801
 0.63544304, 0.62158102
 0.44050633, 0.58058047
 0.36202532, 0.42162995
 0.37721519, 0.34933219
 0.22278481, 0.44118211
 0.23797468, 0.2659342
 0.23797468, 0.23989255
 0.08860759, 0.2076235
 0.05063291, 0.06919416
 0.07341772, 0.040525
 0.0556962, 0.07186403
 0.04556962, 0.12494853
 0.08607595, 0.12547793
 0.04303797, 0.14163693
 0.07848101, 0.07596595
 0.08101266, 0.09791556
 0.11898734, 0.08785946
 0.0556962, 0.09192388
 0.0278481, 0.0293695
 0.17974684, 0.06262918
 0.24556962, 0.21940294
 0.21265823, 0.29572625
 0.16962025, 0.28666799
 0.32658228, 0.29176508
 0.30632911, 0.39184314
 0.29113924, 0.32931326
 0.18987342, 0.29161385
 0.15949367, 0.18825441
 0.06835443, 0.16491646
 0.12658228, 0.07235737
 0.10126582, 0.12548412
 0.10886076, 0.06671707
 0.10632911, 0.11898284
 0.12658228, 0.12509361
 0.08860759, 0.12651901
 0.14177215, 0.08293905
 0.12405063, 0.14112465
 0.13924051, 0.11706067
 0.15189873, 0.12967577
 0.14936709, 0.1414102
 0.13670886, 0.15761266
 0.14177215, 0.14637563
 0.08607595, 0.17764377
 0.05822785, 0.131142
 0.01265823, 0.11164405
 0.22278481, 0.08685726
 0.27594937, 0.29098442
 0.33417722, 0.3002516
 0.3721519, 0.33752235
 0.35696203, 0.36769653
 0.57974684, 0.31436965
 0.41518987, 0.49897588
 0.35189873, 0.31170282
 0.15949367, 0.29239836
 0.18481013, 0.14290461
 0.11392405, 0.18747324
 0.2278481, 0.11083852
 0.09873418, 0.23003713
 0.10886076, 0.09185536
 0.04556962, 0.13118658
 0.08860759, 0.06361753
 0.09620253, 0.10969973
 0.08101266, 0.1188059
 0.06582278, 0.12273261
 0.09873418, 0.11066848
 0.05316456, 0.14010473
 0.20253165, 0.07513858
 0.45822785, 0.25588141
 0.5443038, 0.46622669
 0.53417722, 0.52133086
 0.49113924, 0.50732765
 0.56202532, 0.46718271
 0.64810127, 0.52471908
 0.71898734, 0.60534118
 0.72405063, 0.64337678
 0.57974684, 0.59504717
 0.60253165, 0.47335762
 0.50886076, 0.49966119
 0.56455696, 0.41381653
 0.4278481, 0.45109848
 0.23544304, 0.3346007
 0.0835443, 0.17096428
 0.12405063, 0.10316585
 0.15696203, 0.12114748
 0.18734177, 0.13701426
 0.13164557, 0.19101442
 0.16455696, 0.10782454
 0.0556962, 0.1610548
 0.10632911, 0.03893986
 0.0556962, 0.15148211
 0.03544304, 0.12786633
 0.03037975, 0.16436728
 0.03291139, 0.16966429
 0.07088608, 0.16090481
 0.12658228, 0.16781703
 0.15696203, 0.23513581
 0.30886076, 0.25897621
 0.6, 0.39203076
 0.65822785, 0.58863411
 0.47848101, 0.56620999
 0.39746835, 0.42909683
 0.21772152, 0.3572126
 0.19240506, 0.22437727
 0.1164557, 0.18009545
 0.08101266, 0.09219778
 0.03544304, 0.07135882
 0.10126582, 0.04866178
 0.08101266, 0.10569162
 0.04810127, 0.08218748
 0.12151899, 0.09748163
 0.04303797, 0.13539532
 0.07594937, 0.0979848
 0.09113924, 0.0835943
 0.03291139, 0.09543181
 0.04303797, 0.01697687
 0.11392405, 0.05358969
 0.2, 0.1385075
 0.30886076, 0.21746475
 0.39493671, 0.32304166
 0.3721519, 0.42903638
 0.37721519, 0.43397102
 0.32405063, 0.46409854
 0.34936709, 0.32980492
 0.37468354, 0.34181624
 0.18987342, 0.34618933
 0.12911392, 0.16867921
 0.1443038, 0.208302
 0.12911392, 0.18301096
 0.13164557, 0.10177357
 0.12658228, 0.10944087
 0.15443038, 0.12198109
 0.14177215, 0.16899186
 0.13417722, 0.15568498
 0.15443038, 0.13682395
 0.10379747, 0.12966979
 0.14683544, 0.09110171
 0.1164557, 0.14859215
 0.07594937, 0.11573202
 0.01518987, 0.08414509
 0.02025316, 0.09310803
 0.19746835, 0.13243945
 0.18227848, 0.28732067
 0.08860759, 0.24593839
 0.19493671, 0.16292537
 0.4278481, 0.27314507
 0.68607595, 0.432839
 0.61265823, 0.57964982
 0.48607595, 0.50082658
 0.37974684, 0.38002911
 0.2556962, 0.32348624
 0.24303797, 0.21802525
 0.22278481, 0.20223001
 0.25822785, 0.18318435
 0.24303797, 0.2343874
 0.11392405, 0.22969605
 0.06075949, 0.08524847
 0.06835443, 0.05616482
 0.04303797, 0.09223107
 0.07848101, 0.07967174
 0.05316456, 0.10873673
 0.05822785, 0.07630671
 0.04303797, 0.09650032
 0.04303797, 0.07550282
 0.03291139, 0.08150991
 0.04810127, 0.09357636
 0.34683544, 0.1146001
 0.3721519, 0.41164155
 0.43797468, 0.39845765
 0.47341772, 0.48804767
 0.51139241, 0.50659493
 0.54936709, 0.48574442
 0.47848101, 0.49430928
 0.3164557, 0.40435237
 0.27594937, 0.27162898
 0.25063291, 0.28922877
 0.22278481, 0.22463246
 0.21772152, 0.16227041
 0.08860759, 0.15978042
 0.09873418, 0.0732214
 0.05316456, 0.11878225
 0.05063291, 0.054716
 0.04556962, 0.0631528
 0.07341772, 0.06877868
 0.09873418, 0.06990203
 0.11139241, 0.08167363
 0.05316456, 0.09512224
 0.03544304, 0.06213705
 0.08860759, 0.09674862
 0.12405063, 0.17064316
 0.1164557, 0.2196612
 0.07594937, 0.2030394
 0.23037975, 0.18324559
 0.70126582, 0.32426556
 0.67594937, 0.64614223
 0.57974684, 0.5946189
 0.35949367, 0.51440966
 0.22531646, 0.30728503
 0.21772152, 0.21418432
 0.17974684, 0.20409367
 0.04303797, 0.14212595
 0.04556962, 0.04518734
 0.06835443, 0.07292702
 0.05316456, 0.07643871
 0.08860759, 0.03099506
 0.05822785, 0.08697948
 0.09620253, 0.09732006
 0.07088608, 0.12719894
 0.09873418, 0.08496963
 0.09367089, 0.09083243
 0.05822785, 0.10883933
 0.0556962, 0.08242482
 0.07341772, 0.10598528
 0.25316456, 0.11953826
 0.22531646, 0.2917264
 0.32151899, 0.26897182
 0.27848101, 0.38845969
 0.36202532, 0.34442064
 0.40759494, 0.38072863
 0.36708861, 0.41456043
 0.49620253, 0.32539547
 0.21265823, 0.45071976
 0.16202532, 0.19303275
 0.15696203, 0.18724566
 0.12658228, 0.11906151
 0.17974684, 0.0774336
 0.14177215, 0.16676729
 0.1164557, 0.14792072
 0.07088608, 0.11499448
 0.09367089, 0.0871714
 0.09873418, 0.1027446
 0.06582278, 0.08766903
 0.11392405, 0.06235102
 0.11898734, 0.12000156
 0.05063291, 0.13425391
 0.01518987, 0.07663605
 0.04556962, 0.10106975
 0.0556962, 0.14369918
 0.17974684, 0.13693842
 0.16455696, 0.27003909
 0.18987342, 0.21535389
 0.29113924, 0.25400798
 0.3164557, 0.33861172
 0.23797468, 0.3236269
 0.4278481, 0.23162977
 0.22025316, 0.39012687
 0.27594937, 0.16523593
 0.2, 0.26980296
 0.11392405, 0.16285966
 0.13670886, 0.0939953
 0.09873418, 0.13694117
 0.12658228, 0.10489215
 0.07341772, 0.12191091
 0.07088608, 0.07176679
 0.07848101, 0.09209286
 0.10379747, 0.09906025
 0.11139241, 0.09910659
 0.10126582, 0.12189351
 0.04303797, 0.12585334
 0.02278481, 0.05823386
 0.18734177, 0.07326399
 0.19493671, 0.23301802
 0.21265823, 0.22646061
 0.21265823, 0.25088805
 0.29367089, 0.24688665
 0.20506329, 0.32035972
 0.20253165, 0.21909103
 0.25822785, 0.24043832
 0.23544304, 0.28221725
 0.25316456, 0.2163024
 0.33670886, 0.25222178
 0.59493671, 0.33977888
 0.30886076, 0.4932782
 0.49113924, 0.21456045
 0.4556962, 0.43872318
 0.12658228, 0.36585371
 0.16202532, 0.06814036
 0.16202532, 0.18608129
 0.18227848, 0.16186725
 0.18481013, 0.17077174
 0.13670886, 0.18893623
 0.07341772, 0.12655943
 0.07341772, 0.0704491
 0.03037975, 0.10520816
 0.10886076, 0.0930286
 0.34683544, 0.16762417
 0.46329114, 0.3954458
 0.37974684, 0.47126955
 0.30126582, 0.38705054
 0.4278481, 0.28923649
 0.52405063, 0.45072285
 0.5443038, 0.49318601
 0.48860759, 0.51036847
 0.52405063, 0.46915762
 0.40506329, 0.49811033
 0.23544304, 0.42228173
 0.22278481, 0.23226914
 0.27341772, 0.23451339
 0.18481013, 0.26906286
 0.21265823, 0.1601255
 0.40506329, 0.22744547
 0.15189873, 0.34889304
 0.10632911, 0.10368253
 0.11898734, 0.13912986
 0.12658228, 0.14113378
 0.09620253, 0.11945468
 0.1164557, 0.10729714
 0.31139241, 0.15718098
 0.58734177, 0.34074094
 0.64303797, 0.59309254
 0.55949367, 0.57798376
 0.52911392, 0.52090201
 0.47848101, 0.48073514
 0.53924051, 0.52017753
 0.57974684, 0.59776515
 0.5443038, 0.60436707
 0.39746835, 0.53628718
 0.42278481, 0.37381123
 0.35189873, 0.38372301
 0.14177215, 0.29034751
 0.21265823, 0.10018265
 0.26582278, 0.2296317
 0.17721519, 0.25292075
 0.06075949, 0.15505611
 0.09620253, 0.0770717
 0.0556962, 0.10541527
 0.05822785, 0.07047114
 0.04810127, 0.05598811
 0.0278481, 0.04369369
 0.11898734, 0.04079284
 0.0278481, 0.16384716
 0.04810127, 0.10519206
 0.07848101, 0.14915492
 0.19493671, 0.17054543
 0.18481013, 0.27382426
 0.15696203, 0.24668908
 0.21012658, 0.19689974
 0.24050633, 0.27264453
 0.30126582, 0.28753631
 0.20506329, 0.30134752
 0.24303797, 0.18705639
 0.26075949, 0.2351868
 0.21265823, 0.24613523
 0.21772152, 0.17962152
 0.12151899, 0.18221235
 0.12151899, 0.10648091
 0.16962025, 0.11777282
 0.17721519, 0.14718192
 0.13670886, 0.12832504
 0.18734177, 0.10419484
 0.18987342, 0.18609069
 0.12405063, 0.18651144
 0.14936709, 0.11008771
 0.13670886, 0.12899652
 0.0556962, 0.13751931
 0.01012658, 0.09693925
 0.05063291, 0.06249285
 0.56708861, 0.10631693
 0.57974684, 0.54355296
 0.46582278, 0.52305774
 0.39240506, 0.44050341
 0.35949367, 0.3707693
 0.36202532, 0.3438031
 0.41772152, 0.34740649
 0.44303797, 0.39211438
 0.2, 0.38996788
 0.14936709, 0.19303171
 0.18481013, 0.18493703
 0.27088608, 0.18031926
 0.16962025, 0.22215612
 0.18734177, 0.16433104
 0.10126582, 0.22533543
 0.03544304, 0.09925454
 0.06075949, 0.05630364
 0.07341772, 0.10059625
 0.07848101, 0.11092303
 0.03797468, 0.10608555
 0.10379747, 0.0687663
 0.02278481, 0.12796806
 0.06329114, 0.05464537
 0.06835443, 0.16461546
 0.16708861, 0.19222642
 0.51139241, 0.24564881
 0.57721519, 0.5351466
 0.58481013, 0.5324171
 0.58481013, 0.53958352
 0.63037975, 0.56488853
 0.70632911, 0.56193371
 0.59746835, 0.59831013
 0.39240506, 0.44284148
 0.31392405, 0.2943577
 0.23291139, 0.2934483
 0.20506329, 0.20048696
 0.19493671, 0.15543405
 0.1443038, 0.14745457
 0.10632911, 0.10072718
 0.11898734, 0.09972934
 0.10379747, 0.09162538
 0.12658228, 0.09622766
 0.07594937, 0.15723039
 0.07594937, 0.09570957
 0.07594937, 0.10397561
 0.07341772, 0.08459559
 0.03544304, 0.10177127
 0.29873418, 0.1057274
