Target,Output
 0.19354839, 0.35248233
 0.15483871, 0.22142626
 0.27096774, 0.17697383
 0.21290323, 0.1690984
 0.13548387, 0.14532004
 0.09354839, 0.09142013
 0.16774194, 0.11454512
 0.09354839, 0.11792952
 0.14516129, 0.09914551
 0.14516129, 0.1177832
 0.06451613, 0.08253993
 0.12258065, 0.06492108
 0.11612903, 0.08043527
 0.03225806, 0.08601295
 0.08387097, 0.08589572
 0.12258065, 0.08390037
 0.04193548, 0.11123793
 0.08064516, 0.10009849
 0.14516129, 0.12113007
 0.33225806, 0.17067919
 0.26129032, 0.33274144
 0.26129032, 0.27819577
 0.58709677, 0.30644538
 0.82580645, 0.5649388
 0.9, 0.7134448
 0.7, 0.71664995
 0.57419355, 0.67411121
 0.59032258, 0.52624184
 0.55806452, 0.46336657
 0.62258065, 0.43946962
 0.51612903, 0.42730644
 0.12258065, 0.33595305
 0.21935484, 0.12095099
 0.12903226, 0.18561146
 0.12903226, 0.17395497
 0.10967742, 0.11672068
 0.12580645, 0.08155859
 0.13870968, 0.1081655
 0.05806452, 0.0902658
 0.01290323, 0.12155491
 0.04516129, 0.08161909
 0.1516129, 0.12123851
 0.29354839, 0.15476292
 0.21612903, 0.2215402
 0.29032258, 0.26221184
 0.53548387, 0.40878942
 0.48387097, 0.6372924
 0.36451613, 0.66441644
 0.35483871, 0.37661673
 0.54516129, 0.36892627
 0.50967742, 0.49199777
 0.28709677, 0.37017347
 0.10967742, 0.30284412
 0.05806452, 0.13071705
 0.09032258, 0.10485715
 0.09354839, 0.08792557
 0.18064516, 0.07486698
 0.17419355, 0.10562657
 0.09354839, 0.07651651
 0.06774194, 0.08477281
 0.11612903, 0.10669318
 0.17419355, 0.08487751
 0.1483871, 0.07168956
 0.11935484, 0.06167038
 0.0483871, 0.08075508
 0.12258065, 0.10009208
 0.12258065, 0.14070503
 0.17419355, 0.19666864
 0.21612903, 0.22389968
 0.20322581, 0.23669657
 0.20645161, 0.21599553
 0.17741935, 0.25234465
 0.10645161, 0.27798418
 0.02580645, 0.18109031
 0.19354839, 0.11371767
 0.17741935, 0.13602047
 0.20645161, 0.12510308
 0.07096774, 0.14727147
 0.06451613, 0.08920804
 0.0516129, 0.1156556
 0.15806452, 0.09467029
 0.08709677, 0.11189641
 0.06129032, 0.07022417
 0.11935484, 0.07016786
 0.05806452, 0.07453231
 0.06129032, 0.09261695
 0.08387097, 0.09865579
 0.03548387, 0.11361838
 0.03548387, 0.07774308
 0.08064516, 0.09852006
 0.12258065, 0.10615172
 0.18064516, 0.15100609
 0.27419355, 0.19957258
 0.29354839, 0.27995513
 0.29354839, 0.27953181
 0.3483871, 0.26875043
 0.30645161, 0.26081525
 0.18387097, 0.26360784
 0.28387097, 0.20980723
 0.21612903, 0.2048744
 0.10645161, 0.14813597
 0.06129032, 0.11605682
 0.15806452, 0.0945816
 0.1516129, 0.13942809
 0.06774194, 0.1169441
 0.10967742, 0.10773347
 0.12258065, 0.12458615
 0.17741935, 0.13863899
 0.06774194, 0.12206606
 0.05483871, 0.09333769
 0.0516129, 0.09938621
 0.0483871, 0.09458726
 0.04193548, 0.09523356
 0.06451613, 0.12973692
 0.12903226, 0.12980448
 0.24193548, 0.15943108
 0.30182593, 0.24069116
 0.35806452, 0.29494692
 0.31290323, 0.37392798
 0.34516129, 0.27075183
 0.33870968, 0.30512325
 0.21290323, 0.26425133
 0.25806452, 0.18702412
 0.22903226, 0.18124656
 0.15806452, 0.17085235
 0.10967742, 0.14384316
 0.1, 0.13227819
 0.13870968, 0.13665228
 0.15806452, 0.12110427
 0.06129032, 0.1339526
 0.10322581, 0.09428438
 0.14516129, 0.0993502
 0.23225806, 0.1053136
 0.16129032, 0.14747729
 0.06774194, 0.11810452
 0.04516129, 0.11091949
 0.04193548, 0.09158734
 0.03870968, 0.12354494
 0.11290323, 0.11167324
 0.20322581, 0.17033732
 0.29354839, 0.22473292
 0.23870968, 0.26507457
 0.20645161, 0.28751682
 0.31290323, 0.25339361
 0.26774194, 0.2715693
 0.18709677, 0.22009783
 0.15483871, 0.1461555
 0.28064516, 0.14367938
 0.17096774, 0.19379282
 0.10967742, 0.12579917
 0.18064516, 0.14637464
 0.16129032, 0.15939688
 0.0483871, 0.13861004
 0.07741935, 0.0845278
 0.18064516, 0.10924197
 0.14193548, 0.15106826
 0.16451613, 0.09772111
 0.06451613, 0.10808031
 0.08064516, 0.10002834
 0.10645161, 0.10265888
 0.08064516, 0.10621708
 0.0483871, 0.11543177
 0.17419355, 0.12393693
 0.27741935, 0.20331988
 0.21935484, 0.23742768
 0.28387097, 0.25002348
 0.22903226, 0.27941888
 0.25483871, 0.23014942
 0.33225806, 0.22356902
 0.25806452, 0.26395911
 0.13225806, 0.21403746
 0.17096774, 0.13999354
 0.19677419, 0.14581956
 0.05483871, 0.14717345
 0.12903226, 0.10727248
 0.1, 0.12682562
 0.05483871, 0.10382036
 0.15483871, 0.10571458
 0.12903226, 0.14298436
 0.11612903, 0.11619965
 0.03870968, 0.11896245
 0.10645161, 0.08052195
 0.08387097, 0.10273028
 0.06774194, 0.10260205
 0.08064516, 0.10664054
 0.07741935, 0.11280433
 0.15806452, 0.14838577
 0.23548387, 0.17603802
 0.22580645, 0.2159731
 0.13225806, 0.23301801
 0.21612903, 0.16581214
 0.3, 0.2185921
 0.22580645, 0.26103064
 0.18387097, 0.1785697
 0.21612903, 0.15833945
 0.26129032, 0.1809532
 0.26129032, 0.19331645
 0.07419355, 0.18656608
 0.10967742, 0.10988949
 0.20645161, 0.13683461
 0.06451613, 0.15271955
 0.07096774, 0.08930437
 0.08709677, 0.10185837
 0.1483871, 0.10015904
 0.10645161, 0.11071569
 0.08709677, 0.10400923
 0.04516129, 0.12572072
 0.03870968, 0.09608315
 0.03225806, 0.09335434
 0.05806452, 0.09904116
 0.10645161, 0.12485278
 0.14516129, 0.13583139
 0.17419355, 0.15175759
 0.27096774, 0.19191874
 0.20322581, 0.29391937
 0.21935484, 0.20730758
 0.25582057, 0.23333399
 0.25091533, 0.19046291
 0.25717897, 0.23743577
 0.23737097, 0.19235713
 0.17526662, 0.17038619
 0.13983845, 0.1588825
 0.13291478, 0.13780362
 0.11619741, 0.12813057
 0.11207425, 0.12163227
 0.10139353, 0.10980958
 0.09870956, 0.11178125
 0.10016856, 0.10423602
 0.10079081, 0.10844653
 0.08601532, 0.10205791
 0.07634353, 0.09657943
 0.06915017, 0.10105414
 0.0760462, 0.09701926
 0.09456967, 0.11176807
 0.12198763, 0.13655972
 0.1541958, 0.14967787
 0.20099692, 0.1786568
 0.22744976, 0.20210806
 0.2460137, 0.22385221
 0.26295398, 0.23161916
 0.27219397, 0.27249136
 0.26604155, 0.23803323
 0.24292, 0.22082265
 0.20964977, 0.22327169
 0.17293986, 0.16967201
 0.14595474, 0.14306894
 0.1264799, 0.14339756
 0.11490299, 0.12398821
 0.10719543, 0.12685088
 0.10240611, 0.11471412
 0.09936335, 0.10618686
 0.09648958, 0.1121645
 0.09211932, 0.10270964
 0.08858783, 0.09382195
 0.0851727, 0.10342347
 0.08537016, 0.10300882
 0.09277328, 0.10686508
 0.10989363, 0.11985491
 0.13464875, 0.1317223
 0.16791807, 0.15541009
 0.20329828, 0.19084318
 0.23490821, 0.2107976
 0.25829776, 0.23691493
 0.27222292, 0.25928777
 0.27298861, 0.25119409
 0.25808854, 0.24694268
 0.23107504, 0.22445628
 0.19720516, 0.18621474
 0.16513081, 0.16746872
 0.13943109, 0.14705422
 0.12211888, 0.12990881
 0.1115328, 0.12315228
 0.10538071, 0.11623342
 0.10162045, 0.11131795
 0.09840515, 0.10964456
 0.09463073, 0.10650019
 0.09078942, 0.10262264
 0.08818091, 0.101487
 0.08837936, 0.10162633
 0.09278901, 0.10482653
 0.10321327, 0.11304236
 0.12101619, 0.12501684
 0.14705547, 0.14253211
 0.17943223, 0.16734736
 0.21381433, 0.19506332
 0.24386859, 0.22250038
 0.26466605, 0.24466737
 0.27306572, 0.25459956
 0.26739111, 0.25181916
 0.24813716, 0.2361321
 0.21848948, 0.20977948
 0.18510625, 0.18199737
 0.1550623, 0.15754938
 0.13262442, 0.13868315
 0.1179069, 0.12621893
 0.10918549, 0.11858082
 0.10417477, 0.11400451
 0.10065616, 0.11095375
 0.09711853, 0.10832972
 0.09322074, 0.10543498
 0.08986105, 0.10305739
 0.08858867, 0.1020326
 0.09089849, 0.10335111
 0.09804758, 0.10827655
 0.11124368, 0.11758243
 0.13164187, 0.13196583
 0.15933161, 0.15192094
 0.19217575, 0.17694253
 0.22511407, 0.2046322
 0.25196409, 0.2303328
 0.26799181, 0.2481024
 0.27085919, 0.25344898
 0.25998167, 0.2453638
 0.23661656, 0.22561491
 0.2051375, 0.19906109
 0.17269173, 0.17199757
 0.14566588, 0.14941243
 0.12644127, 0.13316124
 0.11429263, 0.12268235
 0.10723957, 0.11644104
 0.10296905, 0.11268575
 0.09948869, 0.10996567
 0.09575225, 0.10734764
 0.09196247, 0.10479773
 0.08936225, 0.10289314
 0.08953862, 0.10269846
 0.09382882, 0.10538142
 0.1033754, 0.11190598
 0.1193192, 0.12306035
 0.14241005, 0.13941373
 0.17202962, 0.16116498
 0.20503311, 0.18722923
 0.23582236, 0.21430043
 0.25851862, 0.23710052
 0.26934514, 0.25016122
 0.26680366, 0.25028067
 0.25093744, 0.2375229
 0.223992, 0.21491711
 0.19159837, 0.1878229
 0.16108262, 0.16230775
 0.13728725, 0.14230798
 0.12112375, 0.12856599
 0.1112502, 0.11995127
 0.10552769, 0.11483677
 0.10171484, 0.11161331
 0.09816933, 0.10901296
 0.09434881, 0.10647503
 0.09091543, 0.10415591
 0.08932977, 0.10285751
 0.09109759, 0.1037196
 0.09742888, 0.107842
 0.10943728, 0.11611144
 0.12814428, 0.12919169
 0.15384453, 0.14755201
 0.18500874, 0.17099848
 0.21747647, 0.19764943
 0.24531527, 0.22336217
 0.26336219, 0.24257663
 0.26885339, 0.25056032
 0.2483871, 0.24546006
 0.18387097, 0.2201849
 0.08064516, 0.17147927
 0.15806452, 0.11703871
 0.18709677, 0.14135062
 0.08709677, 0.14160035
 0.09677419, 0.10675359
 0.14516129, 0.11435568
 0.16451613, 0.13600668
 0.2, 0.13435934
 0.17419355, 0.15182883
 0.10967742, 0.1374193
 0.08387097, 0.10959715
 0.06774194, 0.09995495
 0.12580645, 0.09731933
 0.13225806, 0.12644095
 0.17741935, 0.12958164
 0.09354839, 0.1544692
 0.09677419, 0.14824564
 0.17096774, 0.1680832
 0.15806452, 0.18088686
 0.13225806, 0.18899317
 0.32258065, 0.14707067
 0.30322581, 0.26256078
 0.30645161, 0.2294652
 0.48387097, 0.25342266
 0.57096774, 0.41282372
 0.29354839, 0.50487482
 0.22580645, 0.22813265
 0.29677419, 0.2108915
 0.22903226, 0.21086722
 0.18709677, 0.18249575
 0.16129032, 0.12546779
 0.09032258, 0.13778592
 0.07419355, 0.12000728
 0.05806452, 0.10015099
 0.02903226, 0.09813197
 0.05483871, 0.10752244
 0.08709677, 0.08559297
 0.10322581, 0.09187227
 0.08709677, 0.11747546
 0.0516129, 0.12776794
 0.0516129, 0.1029845
 0.1483871, 0.11585559
 0.2, 0.17361442
 0.20645161, 0.19635423
 0.20645161, 0.23156032
 0.23870968, 0.2551131
 0.30322581, 0.26519389
 0.20967742, 0.31079576
 0.11290323, 0.19267033
 0.14193548, 0.1242185
 0.12580645, 0.12813728
 0.10322581, 0.12859981
 0.11612903, 0.10565005
 0.07741935, 0.11784001
 0.17096774, 0.11194881
 0.13225806, 0.13718066
 0.07419355, 0.10446048
 0.11935484, 0.09728348
 0.08709677, 0.10251364
 0.02903226, 0.09251551
 0.0483871, 0.07179985
 0.08387097, 0.09449551
 0.03870968, 0.08527919
 0.07741935, 0.07392383
 0.04193548, 0.12178236
 0.08709677, 0.11556496
 0.19354839, 0.13876548
 0.21290323, 0.1955796
 0.32258065, 0.21081429
 0.6, 0.30130149
 0.60322581, 0.52849169
 0.55806452, 0.51384445
 0.32903226, 0.54000413
 0.21935484, 0.32923034
 0.1, 0.22930945
 0.1, 0.10530465
 0.17741935, 0.1129724
 0.1516129, 0.11431528
 0.09677419, 0.11822998
 0.06774194, 0.11385748
 0.07741935, 0.13596559
 0.07096774, 0.12275545
 0.03870968, 0.09249313
 0.04516129, 0.06619639
 0.04193548, 0.07263601
 0.2, 0.07135635
 0.13225806, 0.14620705
 0.03225806, 0.13488136
 0.08064516, 0.13880511
 0.19032258, 0.15224166
 0.67419355, 0.22577076
 0.66451613, 0.64788847
 0.76129032, 0.64764042
 0.76129032, 0.76031607
 0.72903226, 0.73367278
 0.58709677, 0.67931711
 0.6, 0.47518436
 0.57096774, 0.46066593
 0.25806452, 0.34801527
 0.23870968, 0.19064161
 0.24516129, 0.19849282
 0.10645161, 0.23359034
 0.18709677, 0.12871527
 0.09677419, 0.12802823
 0.2, 0.08169951
 0.18387097, 0.13047759
 0.11935484, 0.09501282
 0.14193548, 0.11764278
 0.16129032, 0.11956825
 0.16774194, 0.10653943
 0.07096774, 0.1024238
 0.07419355, 0.09996502
 0.16451613, 0.15525653
 0.54193548, 0.27730646
 0.68387097, 0.6548259
 0.76129032, 0.73979215
 0.71612903, 0.76599568
 0.62903226, 0.75519867
 0.53548387, 0.65993606
 0.46774194, 0.50362751
 0.37419355, 0.4097243
 0.35483871, 0.22023727
 0.33225806, 0.22492171
 0.25483871, 0.18958659
 0.29677419, 0.17453832
 0.08709677, 0.19997078
 0.07741935, 0.09011229
 0.09354839, 0.10092854
 0.10967742, 0.07285526
 0.10967742, 0.06821804
 0.07419355, 0.05539528
 0.17741935, 0.06033835
 0.06451613, 0.09825848
 0.12258065, 0.07998457
 0.07419355, 0.12386838
 0.03225806, 0.13114886
 0.07096774, 0.14950049
 0.1, 0.19954216
 0.16774194, 0.24841188
 0.17741935, 0.24763255
 0.24193548, 0.23671546
 0.30322581, 0.27993747
 0.33548387, 0.28505445
 0.29354839, 0.31587516
 0.1483871, 0.25916143
 0.37419355, 0.13761488
 0.18709677, 0.29877703
 0.30967742, 0.09257994
 0.10322581, 0.15440606
 0.11290323, 0.07422686
 0.17419355, 0.09229555
 0.17096774, 0.09625827
 0.07096774, 0.1398215
 0.09032258, 0.06178797
 0.09354839, 0.09851097
 0.1483871, 0.06007718
 0.16129032, 0.09704836
 0.05806452, 0.10621388
 0.04516129, 0.08869269
 0.01935484, 0.08667439
 0.06774194, 0.1201862
 0.13225806, 0.11880232
 0.19354839, 0.19276177
 0.21612903, 0.20448983
 0.22903226, 0.23935344
 0.21612903, 0.3147955
 0.25806452, 0.25339941
 0.21612903, 0.23460527
 0.20322581, 0.20415595
 0.23548387, 0.15050975
 0.21612903, 0.1793542
 0.18709677, 0.14988327
 0.07741935, 0.14999903
 0.11935484, 0.11947556
 0.07096774, 0.12072978
 0.09032258, 0.09824984
 0.06774194, 0.09545734
 0.08709677, 0.08706421
 0.05483871, 0.11836111
 0.07741935, 0.0736698
 0.08709677, 0.11055091
 0.10322581, 0.08733802
 0.11935484, 0.10675684
