original,reconstructed
'0.439169139466', 0.43916914
'0.370919881306', 0.37091988
'0.243323442136', 0.24332344
'0.344213649852', 0.34421365
'0.145400593472', 0.14540059
'0.106824925816', 0.10682493
'0.3353115727', 0.33531157
'0.255192878338', 0.25519288
'0.160237388724', 0.16023739
'0.0741839762611', 0.07418398
'0.0712166172107', 0.07121662
'0.0593471810089', 0.05934718
'NA', 0.08443833
'0.0385756676558', 0.03857567
'0.0771513353116', 0.07715134
'0.163204747774', 0.16320475
'0.26706231454', 0.26706231
'0.228486646884', 0.22848665
'0.219584569733', 0.21958457
'0.293768545994', 0.29376855
'0.341246290801', 0.34124629
'0.557863501484', 0.5578635
'0.658753709199', 0.65875371
'0.821958456973', 0.82195846
'0.682492581602', 0.68249258
'0.477744807122', 0.47774481
'0.367952522255', 0.36795252
'0.222551928783', 0.22255193
'0.252225519288', 0.25222552
'0.0949554896142', 0.09495549
'0.163204747774', 0.16320475
'0.0979228486647', 0.09792285
'0.109792284866', 0.10979228
'0.106824925816', 0.10682493
'0.166172106825', 0.16617211
'0.222551928783', 0.22255193
'0.100890207715', 0.10089021
'0.0415430267062', 0.04154303
'0.13353115727', 0.13353116
'0.0563798219585', 0.05637982
'0.112759643917', 0.11275964
'0.115727002967', 0.115727
'0.151335311573', 0.15133531
'0.275964391691', 0.27596439
'0.296735905045', 0.29673591
'0.421364985163', 0.42136499
'0.676557863501', 0.67655786
'0.777448071217', 0.77744807
'0.637982195846', 0.6379822
'0.302670623145', 0.30267062
'0.281899109792', 0.28189911
'0.320474777448', 0.32047478
'0.344213649852', 0.34421365
'0.46884272997', 0.46884273
'0.391691394659', 0.39169139
'0.385756676558', 0.38575668
'0.356083086053', 0.35608309
'0.305637982196', 0.30563798
'0.189910979228', 0.18991098
'0.109792284866', 0.10979228
'0.127596439169', 0.12759644
'0.0712166172107', 0.07121662
'0.0682492581602', 0.06824926
'0.115727002967', 0.115727
'0.181008902077', 0.1810089
'0.270029673591', 0.27002967
'0.26706231454', 0.26706231
'0.326409495549', 0.3264095
'0.255192878338', 0.25519288
'0.344213649852', 0.34421365
'0.287833827893', 0.28783383
'0.231454005935', 0.23145401
'0.557863501484', 0.5578635
'0.406528189911', 0.40652819
'0.391691394659', 0.39169139
'0.234421364985', 0.23442136
'0.118694362018', 0.11869436
'0.314540059347', 0.31454006
'0.462908011869', 0.46290801
'0.33234421365', 0.33234421
'0.317507418398', 0.31750742
'0.317507418398', 0.31750742
'0.26409495549', 0.26409496
'0.100890207715', 0.10089021
'0.0415430267062', 0.04154303
'0.0830860534125', 0.08308605
'0.115727002967', 0.115727
'0.207715133531', 0.20771513
'0.172106824926', 0.17210682
'0.148367952522', 0.14836795
'0.189910979228', 0.18991098
'0.181008902077', 0.1810089
'0.240356083086', 0.24035608
'0.329376854599', 0.32937685
'0.385756676558', 0.38575668
'0.459940652819', 0.45994065
'0.3353115727', 0.33531157
'0.406528189911', 0.40652819
'0.344213649852', 0.34421365
'0.26706231454', 0.26706231
'0.186943620178', 0.18694362
'0.222551928783', 0.22255193
'0.296735905045', 0.29673591
'0.204747774481', 0.20474777
'0.258160237389', 0.25816024
'0.192878338279', 0.19287834
'0.112759643917', 0.11275964
'0.192878338279', 0.19287834
'0.299703264095', 0.29970326
'0.26706231454', 0.26706231
'0.252225519288', 0.25222552
'0.139465875371', 0.13946588
'0.103857566766', 0.10385757
'0.157270029674', 0.15727003
'0.178041543027', 0.17804154
'0.228486646884', 0.22848665
'0.13649851632', 0.13649852
'0.308605341246', 0.30860534
'0.151335311573', 0.15133531
'0.228486646884', 0.22848665
'0.632047477745', 0.63204748
'0.492581602374', 0.4925816
'0.501483679525', 0.50148368
'0.403560830861', 0.40356083
'0.563798219585', 0.56379822
'0.311572700297', 0.3115727
'0.186943620178', 0.18694362
'0.0593471810089', 0.05934718
'0.178041543027', 0.17804154
'0.0890207715134', 0.08902077
'0.112759643917', 0.11275964
'0.0652818991098', 0.0652819
'0.103857566766', 0.10385757
'0.0563798219585', 0.05637982
'0.0979228486647', 0.09792285
'0.0563798219585', 0.05637982
'0.106824925816', 0.10682493
'0.0741839762611', 0.07418398
'0.13353115727', 0.13353116
'0.142433234421', 0.14243323
'0.142433234421', 0.14243323
'0.483679525223', 0.48367953
'0.341246290801', 0.34124629
'0.13056379822', 0.1305638
'0.172106824926', 0.17210682
'0.311572700297', 0.3115727
'0.329376854599', 0.32937685
'0.166172106825', 0.16617211
'0.0385756676558', 0.03857567
'0.103857566766', 0.10385757
'0.0504451038576', 0.0504451
'0.0741839762611', 0.07418398
'0.0652818991098', 0.0652819
'0.0919881305638', 0.09198813
'0.109792284866', 0.10979228
'0.0919881305638', 0.09198813
'0.0445103857567', 0.04451039
'0.151335311573', 0.15133531
'0.0356083086053', 0.03560831
'0.0919881305638', 0.09198813
'0.13056379822', 0.1305638
'0.0919881305638', 0.09198813
'0.157270029674', 0.15727003
'0.275964391691', 0.27596439
'0.804154302671', 0.8041543
'0.314540059347', 0.31454006
'0.127596439169', 0.12759644
'0.0563798219585', 0.05637982
'0.0860534124629', 0.08605341
'0.160237388724', 0.16023739
'0.151335311573', 0.15133531
'0.275964391691', 0.27596439
'0.510385756677', 0.51038576
'0.53115727003', 0.53115727
'0.258160237389', 0.25816024
'0.142433234421', 0.14243323
'0.207715133531', 0.20771513
'0.0890207715134', 0.08902077
'0.154302670623', 0.15430267
'0.127596439169', 0.12759644
'0.053412462908', 0.05341246
'0.0712166172107', 0.07121662
'0.0830860534125', 0.08308605
'0.0949554896142', 0.09495549
'0.172106824926', 0.17210682
'0.13649851632', 0.13649852
'0.169139465875', 0.16913947
'0.275964391691', 0.27596439
'0.338278931751', 0.33827893
'0.872403560831', 0.87240356
'0.243323442136', 0.24332344
'0.394658753709', 0.39465875
'0.421364985163', 0.42136499
'0.344213649852', 0.34421365
'0.0890207715134', 0.08902077
'0.160237388724', 0.16023739
'0.252225519288', 0.25222552
'0.317507418398', 0.31750742
'0.166172106825', 0.16617211
'0.103857566766', 0.10385757
'0.053412462908', 0.05341246
'0.0979228486647', 0.09792285
'0.103857566766', 0.10385757
'0.118694362018', 0.11869436
'0.0593471810089', 0.05934718
'0.103857566766', 0.10385757
'0.103857566766', 0.10385757
'0.0860534124629', 0.08605341
'0.13649851632', 0.13649852
'0.145400593472', 0.14540059
'0.19881305638', 0.19881306
'0.305637982196', 0.30563798
'0.403560830861', 0.40356083
'0.661721068249', 0.66172107
'0.635014836795', 0.63501484
'0.376854599407', 0.3768546
'0.175074183976', 0.17507418
'0.195845697329', 0.1958457
'0.270029673591', 0.27002967
'0.216617210682', 0.21661721
'0.439169139466', 0.43916914
'0.317507418398', 0.31750742
'0.0860534124629', 0.08605341
'0.13649851632', 0.13649852
'0.160237388724', 0.16023739
'0.142433234421', 0.14243323
'0.053412462908', 0.05341246
'0.121661721068', 0.12166172
'0.0771513353116', 0.07715134
'0.0771513353116', 0.07715134
'0.246290801187', 0.2462908
'0.157270029674', 0.15727003
'0.0949554896142', 0.09495549
'0.127596439169', 0.12759644
'0.0979228486647', 0.09792285
'0.0919881305638', 0.09198813
'0.320474777448', 0.32047478
'0.376854599407', 0.3768546
'0.551928783383', 0.55192878
'0.741839762611', 0.74183976
'0.415430267062', 0.41543027
'0.186943620178', 0.18694362
'0.231454005935', 0.23145401
'0.421364985163', 0.42136499
'0.311572700297', 0.3115727
'0.106824925816', 0.10682493
'0.0445103857567', 0.04451039
'0.0178041543027', 0.01780415
'0.0771513353116', 0.07715134
'0.0326409495549', 0.03264095
'0.106824925816', 0.10682493
'0.0563798219585', 0.05637982
'0.0474777448071', 0.04747774
'0.157270029674', 0.15727003
'0.186943620178', 0.18694362
'0.103857566766', 0.10385757
'0.234421364985', 0.23442136
'0.362017804154', 0.3620178
'0.403560830861', 0.40356083
'0.477744807122', 0.47774481
'0.724035608309', 0.72403561
'0.270029673591', 0.27002967
'0.528189910979', 0.52818991
'0.528189910979', 0.52818991
'0.181008902077', 0.1810089
'0.26706231454', 0.26706231
'0.60237388724', 0.60237389
'0.620178041543', 0.62017804
'0.456973293769', 0.45697329
'0.462908011869', 0.46290801
'0.471810089021', 0.47181009
'0.308605341246', 0.30860534
'0.234421364985', 0.23442136
'0.308605341246', 0.30860534
'0.323442136499', 0.32344214
'0.181008902077', 0.1810089
'0.204747774481', 0.20474777
'0.275964391691', 0.27596439
'0.480712166172', 0.48071217
'0.353115727003', 0.35311573
'0.415430267062', 0.41543027
'0.501483679525', 0.50148368
'0.436201780415', 0.43620178
'0.620178041543', 0.62017804
'0.813056379822', 0.81305638
'0.685459940653', 0.68545994
'0.605341246291', 0.60534125
'0.454005934718', 0.45400593
'0.3353115727', 0.33531157
'0.406528189911', 0.40652819
'0.376854599407', 0.3768546
'0.33234421365', 0.33234421
'0.237388724036', 0.23738872
'0.275964391691', 0.27596439
'0.255192878338', 0.25519288
'0.246290801187', 0.2462908
'0.0860534124629', 0.08605341
'0.115727002967', 0.115727
'0.0712166172107', 0.07121662
'0.100890207715', 0.10089021
'0.142433234421', 0.14243323
'0.0415430267062', 0.04154303
'0.0949554896142', 0.09495549
'0.13649851632', 0.13649852
'0.178041543027', 0.17804154
'0.183976261128', 0.18397626
'0.169139465875', 0.16913947
'0.139465875371', 0.13946588
'0.296735905045', 0.29673591
'0.462908011869', 0.46290801
'0.249258160237', 0.24925816
'0.210682492582', 0.21068249
'0.234421364985', 0.23442136
'0.127596439169', 0.12759644
'0.166172106825', 0.16617211
'0.216617210682', 0.21661721
'NA', 0.1893379
'0.189910979228', 0.18991098
'0.228486646884', 0.22848665
'0.181008902077', 0.1810089
'0.0504451038576', 0.0504451
'0.0415430267062', 0.04154303
'0.145400593472', 0.14540059
'0.195845697329', 0.1958457
'0.0949554896142', 0.09495549
'0.0623145400593', 0.06231454
'0.0682492581602', 0.06824926
'NA', 0.12104755
'0.148367952522', 0.14836795
'0.204747774481', 0.20474777
'0.13649851632', 0.13649852
'0.106824925816', 0.10682493
'0.26706231454', 0.26706231
'0.341246290801', 0.34124629
'0.59940652819', 0.59940653
'0.3353115727', 0.33531157
'0.344213649852', 0.34421365
'0.175074183976', 0.17507418
'0.0771513353116', 0.07715134
'0.080118694362', 0.08011869
'0.13353115727', 0.13353116
'0.186943620178', 0.18694362
'0.13649851632', 0.13649852
'0.00890207715134', 0.00890208
'0.0712166172107', 0.07121662
'0.151335311573', 0.15133531
'0.19881305638', 0.19881306
'0.115727002967', 0.115727
'0.0237388724036', 0.02373887
'0.0504451038576', 0.0504451
'0.0593471810089', 0.05934718
'0.0207715133531', 0.02077151
'0.103857566766', 0.10385757
'0.115727002967', 0.115727
'0.106824925816', 0.10682493
'0.290801186944', 0.29080119
'0.344213649852', 0.34421365
'0.0949554896142', 0.09495549
'0.323442136499', 0.32344214
'0.290801186944', 0.29080119
'0.341246290801', 0.34124629
'0.169139465875', 0.16913947
'0.240356083086', 0.24035608
'0.181008902077', 0.1810089
'0.139465875371', 0.13946588
'0.222551928783', 0.22255193
'0.127596439169', 0.12759644
'0.154302670623', 0.15430267
'0.0504451038576', 0.0504451
'0.0771513353116', 0.07715134
'0.0326409495549', 0.03264095
'0.080118694362', 0.08011869
'0.0563798219585', 0.05637982
'0.0296735905045', 0.02967359
'0.0415430267062', 0.04154303
'0.0919881305638', 0.09198813
'0.0830860534125', 0.08308605
'0.0860534124629', 0.08605341
'0.20178041543', 0.20178042
'0.278931750742', 0.27893175
'0.308605341246', 0.30860534
'0.367952522255', 0.36795252
'0.483679525223', 0.48367953
'0.338278931751', 0.33827893
'0.261127596439', 0.2611276
'0.228486646884', 0.22848665
'0.175074183976', 0.17507418
'0.154302670623', 0.15430267
'0.151335311573', 0.15133531
'0.151335311573', 0.15133531
'0.186943620178', 0.18694362
'0.0949554896142', 0.09495549
'0.0445103857567', 0.04451039
'0.0771513353116', 0.07715134
'0.0474777448071', 0.04747774
'0.0504451038576', 0.0504451
'0.0504451038576', 0.0504451
'0.124629080119', 0.12462908
'0.0623145400593', 0.06231454
'0.0712166172107', 0.07121662
'0.0771513353116', 0.07715134
'0.258160237389', 0.25816024
'0.234421364985', 0.23442136
'0.311572700297', 0.3115727
'0.272997032641', 0.27299703
'0.142433234421', 0.14243323
'0.151335311573', 0.15133531
'0.103857566766', 0.10385757
'0.186943620178', 0.18694362
'0.364985163205', 0.36498516
'0.109792284866', 0.10979228
'0.0415430267062', 0.04154303
'0.0237388724036', 0.02373887
'0.181008902077', 0.1810089
'0.163204747774', 0.16320475
'0.20178041543', 0.20178042
'0.0356083086053', 0.03560831
'0.053412462908', 0.05341246
'0.0830860534125', 0.08308605
'0.0118694362018', 0.01186944
'0.0682492581602', 0.06824926
'0.0830860534125', 0.08308605
'0.0445103857567', 0.04451039
'0.0890207715134', 0.08902077
'0.148367952522', 0.14836795
'0.0949554896142', 0.09495549
'0.231454005935', 0.23145401
'0.326409495549', 0.3264095
'0.344213649852', 0.34421365
'0.270029673591', 0.27002967
'0.326409495549', 0.3264095
'0.275964391691', 0.27596439
'0.252225519288', 0.25222552
'0.192878338279', 0.19287834
'0.172106824926', 0.17210682
'0.0890207715134', 0.08902077
'0.145400593472', 0.14540059
'0.207715133531', 0.20771513
'0.225519287834', 0.22551929
'0.20178041543', 0.20178042
'0.124629080119', 0.12462908
'0.13056379822', 0.1305638
'0.0712166172107', 0.07121662
'0.178041543027', 0.17804154
'0.195845697329', 0.1958457
'0.109792284866', 0.10979228
'0.0860534124629', 0.08605341
'0.0771513353116', 0.07715134
'0.163204747774', 0.16320475
'0.293768545994', 0.29376855
'0.323442136499', 0.32344214
'0.249258160237', 0.24925816
'0.100890207715', 0.10089021
'0.228486646884', 0.22848665
'0.26706231454', 0.26706231
'0.249258160237', 0.24925816
'0.26409495549', 0.26409496
'0.112759643917', 0.11275964
'0.0652818991098', 0.0652819
'0.127596439169', 0.12759644
'0.0326409495549', 0.03264095
'0.0385756676558', 0.03857567
'0.142433234421', 0.14243323
'0.210682492582', 0.21068249
'0.169139465875', 0.16913947
'0.118694362018', 0.11869436
'0.106824925816', 0.10682493
'0.0563798219585', 0.05637982
'0.169139465875', 0.16913947
'0.320474777448', 0.32047478
'0.172106824926', 0.17210682
'0.0860534124629', 0.08605341
'0.112759643917', 0.11275964
'0.100890207715', 0.10089021
'0.103857566766', 0.10385757
'0.154302670623', 0.15430267
'0.46587537092', 0.46587537
'0.26409495549', 0.26409496
'0.181008902077', 0.1810089
'0.243323442136', 0.24332344
'0.367952522255', 0.36795252
'0.13056379822', 0.1305638
'0.0593471810089', 0.05934718
'0.0623145400593', 0.06231454
'0.0949554896142', 0.09495549
'0.0682492581602', 0.06824926
'0.124629080119', 0.12462908
'0.0237388724036', 0.02373887
'0.0979228486647', 0.09792285
'0.0385756676558', 0.03857567
'0.112759643917', 0.11275964
'0.341246290801', 0.34124629
'0.287833827893', 0.28783383
'0.169139465875', 0.16913947
'0.192878338279', 0.19287834
'0.219584569733', 0.21958457
'0.237388724036', 0.23738872
'0.157270029674', 0.15727003
'0.139465875371', 0.13946588
'0.296735905045', 0.29673591
'0.563798219585', 0.56379822
'0.308605341246', 0.30860534
'0.249258160237', 0.24925816
'0.192878338279', 0.19287834
'0.139465875371', 0.13946588
'0.290801186944', 0.29080119
'0.0860534124629', 0.08605341
'0.13649851632', 0.13649852
'0.163204747774', 0.16320475
'0.516320474777', 0.51632047
'0.20178041543', 0.20178042
'0.228486646884', 0.22848665
'0.39762611276', 0.39762611
'0.409495548961', 0.40949555
'0.26409495549', 0.26409496
'0.376854599407', 0.3768546
'0.388724035608', 0.38872404
'0.20178041543', 0.20178042
'0.370919881306', 0.37091988
'0.364985163205', 0.36498516
'0.454005934718', 0.45400593
'0.551928783383', 0.55192878
'0.575667655786', 0.57566766
'0.483679525223', 0.48367953
'0.308605341246', 0.30860534
'0.495548961424', 0.49554896
'0.281899109792', 0.28189911
'0.272997032641', 0.27299703
'0.243323442136', 0.24332344
'0.219584569733', 0.21958457
'0.13649851632', 0.13649852
'0.261127596439', 0.2611276
'0.270029673591', 0.27002967
'0.284866468843', 0.28486647
'0.109792284866', 0.10979228
'0.0979228486647', 0.09792285
'0.0415430267062', 0.04154303
'0.0296735905045', 0.02967359
'0.0682492581602', 0.06824926
'0.0504451038576', 0.0504451
'0.118694362018', 0.11869436
'0.0682492581602', 0.06824926
'0.0356083086053', 0.03560831
'0.100890207715', 0.10089021
'0.26409495549', 0.26409496
'0.275964391691', 0.27596439
'0.169139465875', 0.16913947
'0.379821958457', 0.37982196
'0.519287833828', 0.51928783
'0.560830860534', 0.56083086
'0.507418397626', 0.5074184
'0.370919881306', 0.37091988
'0.33234421365', 0.33234421
'0.192878338279', 0.19287834
'0.293768545994', 0.29376855
'0.240356083086', 0.24035608
'0.0563798219585', 0.05637982
'0.207715133531', 0.20771513
'0.442136498516', 0.4421365
'0.474777448071', 0.47477745
'0.225519287834', 0.22551929
'0.195845697329', 0.1958457
'0.106824925816', 0.10682493
'0.172106824926', 0.17210682
'0.053412462908', 0.05341246
'0.124629080119', 0.12462908
'0.243323442136', 0.24332344
'0.13056379822', 0.1305638
'0.112759643917', 0.11275964
'0.172106824926', 0.17210682
'0.415430267062', 0.41543027
'0.474777448071', 0.47477745
'0.486646884273', 0.48664688
'0.46884272997', 0.46884273
'0.471810089021', 0.47181009
'0.480712166172', 0.48071217
'0.421364985163', 0.42136499
'0.169139465875', 0.16913947
'0.169139465875', 0.16913947
'0.103857566766', 0.10385757
'0.0919881305638', 0.09198813
'0.0623145400593', 0.06231454
'0.0593471810089', 0.05934718
'0.0504451038576', 0.0504451
'0.0207715133531', 0.02077151
'0.0593471810089', 0.05934718
'0.0504451038576', 0.0504451
'0.0741839762611', 0.07418398
'0.169139465875', 0.16913947
'0.13353115727', 0.13353116
'0.0356083086053', 0.03560831
'0.124629080119', 0.12462908
'0.115727002967', 0.115727
'0.109792284866', 0.10979228
'0.109792284866', 0.10979228
'0.243323442136', 0.24332344
'0.462908011869', 0.46290801
'0.433234421365', 0.43323442
'0.249258160237', 0.24925816
'0.166172106825', 0.16617211
'0.445103857567', 0.44510386
'0.560830860534', 0.56083086
'0.270029673591', 0.27002967
'0.356083086053', 0.35608309
'0.0890207715134', 0.08902077
'0.103857566766', 0.10385757
'0.0830860534125', 0.08308605
'0.0949554896142', 0.09495549
'0.0919881305638', 0.09198813
'0.0178041543027', 0.01780415
'0.0860534124629', 0.08605341
'0.103857566766', 0.10385757
'0.100890207715', 0.10089021
'0.109792284866', 0.10979228
'0.053412462908', 0.05341246
'0.053412462908', 0.05341246
'0.106824925816', 0.10682493
'0.19881305638', 0.19881306
'0.347181008902', 0.34718101
'0.278931750742', 0.27893175
'0.270029673591', 0.27002967
'0.311572700297', 0.3115727
'0.344213649852', 0.34421365
'0.33234421365', 0.33234421
'0.421364985163', 0.42136499
'0.192878338279', 0.19287834
'0.160237388724', 0.16023739
'0.228486646884', 0.22848665
'0.219584569733', 0.21958457
'0.0445103857567', 0.04451039
'0.0860534124629', 0.08605341
'0.210682492582', 0.21068249
'0.183976261128', 0.18397626
'0.13353115727', 0.13353116
'0.0445103857567', 0.04451039
'0.0593471810089', 0.05934718
'0.0860534124629', 0.08605341
'0.0326409495549', 0.03264095
'0.053412462908', 0.05341246
'0.112759643917', 0.11275964
'0.127596439169', 0.12759644
'0.311572700297', 0.3115727
'0.329376854599', 0.32937685
'0.240356083086', 0.24035608
'0.183976261128', 0.18397626
'0.287833827893', 0.28783383
'0.186943620178', 0.18694362
'0.26706231454', 0.26706231
'0.296735905045', 0.29673591
'0.367952522255', 0.36795252
'0.240356083086', 0.24035608
'0.302670623145', 0.30267062
'0.252225519288', 0.25222552
'0.219584569733', 0.21958457
'0.148367952522', 0.14836795
'0.0979228486647', 0.09792285
'0.00296735905045', 0.00296736
'0.026706231454', 0.02670623
'0.0563798219585', 0.05637982
'0.0593471810089', 0.05934718
'0.13649851632', 0.13649852
'0.0178041543027', 0.01780415
'0.0652818991098', 0.0652819
'0.0890207715134', 0.08902077
'0.249258160237', 0.24925816
'0.228486646884', 0.22848665
'0.272997032641', 0.27299703
'0.320474777448', 0.32047478
'0.418397626113', 0.41839763
'0.442136498516', 0.4421365
'0.540059347181', 0.54005935
'0.614243323442', 0.61424332
'0.528189910979', 0.52818991
'0.347181008902', 0.34718101
'0.296735905045', 0.29673591
'0.216617210682', 0.21661721
'0.385756676558', 0.38575668
'0.442136498516', 0.4421365
'0.323442136499', 0.32344214
'0.219584569733', 0.21958457
'0.26409495549', 0.26409496
'0.442136498516', 0.4421365
'0.13056379822', 0.1305638
'0.109792284866', 0.10979228
'0.181008902077', 0.1810089
'0.148367952522', 0.14836795
'0.13353115727', 0.13353116
'0.0949554896142', 0.09495549
'0.186943620178', 0.18694362
'0.249258160237', 0.24925816
'0.388724035608', 0.38872404
'0.329376854599', 0.32937685
'0.445103857567', 0.44510386
'0.587537091988', 0.58753709
'0.804154302671', 0.8041543
'0.905044510386', 0.90504451
'0.910979228487', 0.91097923
'0.789317507418', 0.78931751
'0.682492581602', 0.68249258
'0.928783382789', 0.92878338
'0.747774480712', 0.74777448
'0.637982195846', 0.6379822
'0.46587537092', 0.46587537
'0.418397626113', 0.41839763
'0.513353115727', 0.51335312
'0.364985163205', 0.36498516
'0.243323442136', 0.24332344
'0.145400593472', 0.14540059
'0.0712166172107', 0.07121662
'0.181008902077', 0.1810089
'0.293768545994', 0.29376855
'0.0979228486647', 0.09792285
'0.148367952522', 0.14836795
'0.192878338279', 0.19287834
'0.163204747774', 0.16320475
'0.181008902077', 0.1810089
'0.382789317507', 0.38278932
'0.278931750742', 0.27893175
'0.326409495549', 0.3264095
'0.347181008902', 0.34718101
'0.347181008902', 0.34718101
'0.302670623145', 0.30267062
'0.240356083086', 0.24035608
'0.219584569733', 0.21958457
'0.160237388724', 0.16023739
'0.13056379822', 0.1305638
'0.403560830861', 0.40356083
'0.329376854599', 0.32937685
'0.13056379822', 0.1305638
'0.249258160237', 0.24925816
'0.240356083086', 0.24035608
'0.0652818991098', 0.0652819
'0.0593471810089', 0.05934718
'0.163204747774', 0.16320475
'0.127596439169', 0.12759644
'0.080118694362', 0.08011869
'0.154302670623', 0.15430267
'0.148367952522', 0.14836795
'0.243323442136', 0.24332344
'0.46884272997', 0.46884273
'0.3353115727', 0.33531157
'0.697329376855', 0.69732938
'1.0', 1.
'0.985163204748', 0.9851632
'0.789317507418', 0.78931751
'0.605341246291', 0.60534125
'0.421364985163', 0.42136499
'0.581602373887', 0.58160237
'0.551928783383', 0.55192878
'0.373887240356', 0.37388724
'0.204747774481', 0.20474777
'0.142433234421', 0.14243323
'0.20178041543', 0.20178042
'0.255192878338', 0.25519288
'0.258160237389', 0.25816024
'0.216617210682', 0.21661721
'0.186943620178', 0.18694362
'0.103857566766', 0.10385757
'0.0919881305638', 0.09198813
'0.115727002967', 0.115727
'0.148367952522', 0.14836795
'0.109792284866', 0.10979228
'0.160237388724', 0.16023739
'0.151335311573', 0.15133531
'0.151335311573', 0.15133531
'0.124629080119', 0.12462908
'0.216617210682', 0.21661721
'0.409495548961', 0.40949555
'0.305637982196', 0.30563798
'0.207715133531', 0.20771513
'0.183976261128', 0.18397626
'0.103857566766', 0.10385757
'0.0593471810089', 0.05934718
'0.240356083086', 0.24035608
'0.287833827893', 0.28783383
'0.103857566766', 0.10385757
'0.103857566766', 0.10385757
'0.124629080119', 0.12462908
'0.175074183976', 0.17507418
'0.0563798219585', 0.05637982
'0.121661721068', 0.12166172
'0.053412462908', 0.05341246
'0.0652818991098', 0.0652819
'0.121661721068', 0.12166172
'0.13056379822', 0.1305638
'0.109792284866', 0.10979228
'0.284866468843', 0.28486647
'0.317507418398', 0.31750742
'0.415430267062', 0.41543027
'0.370919881306', 0.37091988
'0.504451038576', 0.50445104
'0.3353115727', 0.33531157
'0.172106824926', 0.17210682
'0.13353115727', 0.13353116
'0.311572700297', 0.3115727
'0.255192878338', 0.25519288
'0.228486646884', 0.22848665
'0.186943620178', 0.18694362
'0.255192878338', 0.25519288
'0.0385756676558', 0.03857567
'0.026706231454', 0.02670623
'0.0652818991098', 0.0652819
'0.151335311573', 0.15133531
'0.0563798219585', 0.05637982
'0.0474777448071', 0.04747774
'0.139465875371', 0.13946588
'0.207715133531', 0.20771513
'0.195845697329', 0.1958457
'0.157270029674', 0.15727003
'0.109792284866', 0.10979228
'0.154302670623', 0.15430267
'0.296735905045', 0.29673591
'0.379821958457', 0.37982196
'0.430267062315', 0.43026706
'0.557863501484', 0.5578635
'0.489614243323', 0.48961424
'0.356083086053', 0.35608309
'0.350148367953', 0.35014837
'0.240356083086', 0.24035608
'0.40059347181', 0.40059347
'0.296735905045', 0.29673591
'0.210682492582', 0.21068249
'0.103857566766', 0.10385757
'0.216617210682', 0.21661721
'0.243323442136', 0.24332344
'0.278931750742', 0.27893175
'0.0741839762611', 0.07418398
'0.0890207715134', 0.08902077
'0.0949554896142', 0.09495549
'0.053412462908', 0.05341246
'0.0563798219585', 0.05637982
'0.0712166172107', 0.07121662
'0.106824925816', 0.10682493
'0.216617210682', 0.21661721
'0.225519287834', 0.22551929
'0.314540059347', 0.31454006
'0.234421364985', 0.23442136
'0.213649851632', 0.21364985
'0.166172106825', 0.16617211
'0.261127596439', 0.2611276
'0.225519287834', 0.22551929
'0.19881305638', 0.19881306
'0.204747774481', 0.20474777
'0.281899109792', 0.28189911
'0.367952522255', 0.36795252
'0.157270029674', 0.15727003
'0.195845697329', 0.1958457
'0.243323442136', 0.24332344
'0.20178041543', 0.20178042
'0.127596439169', 0.12759644
'0.0445103857567', 0.04451039
'0.0682492581602', 0.06824926
'0.053412462908', 0.05341246
'0.0504451038576', 0.0504451
'0.0415430267062', 0.04154303
'0.115727002967', 0.115727
'0.3353115727', 0.33531157
'0.240356083086', 0.24035608
'0.178041543027', 0.17804154
'0.216617210682', 0.21661721
'0.40059347181', 0.40059347
'0.347181008902', 0.34718101
'0.391691394659', 0.39169139
'0.329376854599', 0.32937685
'0.46587537092', 0.46587537
'0.350148367953', 0.35014837
'0.181008902077', 0.1810089
'0.249258160237', 0.24925816
'0.270029673591', 0.27002967
'0.169139465875', 0.16913947
'0.112759643917', 0.11275964
'0.19881305638', 0.19881306
'0.181008902077', 0.1810089
'0.124629080119', 0.12462908
'0.0623145400593', 0.06231454
'0.210682492582', 0.21068249
'0.0830860534125', 0.08308605
'0.080118694362', 0.08011869
'0.13649851632', 0.13649852
'0.0741839762611', 0.07418398
'0.157270029674', 0.15727003
'0.195845697329', 0.1958457
'0.19881305638', 0.19881306
'0.379821958457', 0.37982196
'0.394658753709', 0.39465875
'0.388724035608', 0.38872404
'0.296735905045', 0.29673591
'0.178041543027', 0.17804154
'0.112759643917', 0.11275964
'0.0771513353116', 0.07715134
'0.0771513353116', 0.07715134
'0.053412462908', 0.05341246
'0.189910979228', 0.18991098
'0.219584569733', 0.21958457
'0.225519287834', 0.22551929
'0.26706231454', 0.26706231
'0.186943620178', 0.18694362
'0.317507418398', 0.31750742
'0.19881305638', 0.19881306
'0.204747774481', 0.20474777
'0.0979228486647', 0.09792285
'0.106824925816', 0.10682493
'0.145400593472', 0.14540059
'0.109792284866', 0.10979228
'0.115727002967', 0.115727
'0.142433234421', 0.14243323
'0.163204747774', 0.16320475
'0.183976261128', 0.18397626
'0.305637982196', 0.30563798
'0.317507418398', 0.31750742
'0.569732937685', 0.56973294
'0.341246290801', 0.34124629
'0.296735905045', 0.29673591
'0.658753709199', 0.65875371
'0.427299703264', 0.4272997
'0.302670623145', 0.30267062
'0.204747774481', 0.20474777
'0.0563798219585', 0.05637982
'0.109792284866', 0.10979228
'0.145400593472', 0.14540059
'0.0682492581602', 0.06824926
'0.100890207715', 0.10089021
'0.0949554896142', 0.09495549
'0.151335311573', 0.15133531
'0.0623145400593', 0.06231454
'0.0682492581602', 0.06824926
'0.121661721068', 0.12166172
'0.0830860534125', 0.08308605
'0.0919881305638', 0.09198813
'0.139465875371', 0.13946588
'0.344213649852', 0.34421365
'0.394658753709', 0.39465875
'0.379821958457', 0.37982196
'0.329376854599', 0.32937685
'0.258160237389', 0.25816024
'0.261127596439', 0.2611276
'0.252225519288', 0.25222552
'0.234421364985', 0.23442136
'0.0652818991098', 0.0652819
'0.053412462908', 0.05341246
'0.115727002967', 0.115727
'0.13056379822', 0.1305638
'0.0890207715134', 0.08902077
'0.192878338279', 0.19287834
'0.0563798219585', 0.05637982
'0.0326409495549', 0.03264095
'0.0326409495549', 0.03264095
'0.0890207715134', 0.08902077
'0.080118694362', 0.08011869
'0.106824925816', 0.10682493
'0.0682492581602', 0.06824926
'0.112759643917', 0.11275964
'0.124629080119', 0.12462908
'0.13353115727', 0.13353116
'0.181008902077', 0.1810089
'0.537091988131', 0.53709199
'0.329376854599', 0.32937685
'0.382789317507', 0.38278932
'0.572700296736', 0.5727003
'0.418397626113', 0.41839763
'0.436201780415', 0.43620178
'0.344213649852', 0.34421365
'0.207715133531', 0.20771513
'0.178041543027', 0.17804154
'0.053412462908', 0.05341246
'0.0860534124629', 0.08605341
'0.0623145400593', 0.06231454
'0.0949554896142', 0.09495549
'0.103857566766', 0.10385757
'0.0652818991098', 0.0652819
'0.0682492581602', 0.06824926
'0.0474777448071', 0.04747774
'0.0949554896142', 0.09495549
'0.145400593472', 0.14540059
'0.139465875371', 0.13946588
'0.0830860534125', 0.08308605
'0.181008902077', 0.1810089
'0.169139465875', 0.16913947
'0.115727002967', 0.115727
'0.157270029674', 0.15727003
'0.231454005935', 0.23145401
'0.430267062315', 0.43026706
'0.341246290801', 0.34124629
'0.270029673591', 0.27002967
'0.151335311573', 0.15133531
'0.0771513353116', 0.07715134
'0.103857566766', 0.10385757
'0.0712166172107', 0.07121662
'0.0890207715134', 0.08902077
'0.26706231454', 0.26706231
'0.40059347181', 0.40059347
'0.528189910979', 0.52818991
'0.338278931751', 0.33827893
'0.0979228486647', 0.09792285
'0.26409495549', 0.26409496
'0.0949554896142', 0.09495549
'0.100890207715', 0.10089021
'0.0296735905045', 0.02967359
'0.0385756676558', 0.03857567
'0.0296735905045', 0.02967359
'0.118694362018', 0.11869436
'0.0860534124629', 0.08605341
'0.281899109792', 0.28189911
'0.210682492582', 0.21068249
'0.258160237389', 0.25816024
'0.249258160237', 0.24925816
'0.320474777448', 0.32047478
'0.228486646884', 0.22848665
'0.109792284866', 0.10979228
'0.121661721068', 0.12166172
'0.112759643917', 0.11275964
'0.139465875371', 0.13946588
'0.103857566766', 0.10385757
'0.394658753709', 0.39465875
'0.688427299703', 0.6884273
'0.459940652819', 0.45994065
'0.350148367953', 0.35014837
'0.0919881305638', 0.09198813
'0.0623145400593', 0.06231454
'0.053412462908', 0.05341246
'0.0890207715134', 0.08902077
'0.0979228486647', 0.09792285
'0.0385756676558', 0.03857567
'0.148367952522', 0.14836795
'0.172106824926', 0.17210682
'0.148367952522', 0.14836795
'0.207715133531', 0.20771513
'0.323442136499', 0.32344214
'0.356083086053', 0.35608309
'0.272997032641', 0.27299703
'0.53115727003', 0.53115727
'0.370919881306', 0.37091988
'0.305637982196', 0.30563798
'0.255192878338', 0.25519288
'0.243323442136', 0.24332344
'0.204747774481', 0.20474777
'0.192878338279', 0.19287834
'0.20178041543', 0.20178042
'0.192878338279', 0.19287834
'0.189910979228', 0.18991098
'0.0593471810089', 0.05934718
'0.0830860534125', 0.08308605
'0.166172106825', 0.16617211
'0.127596439169', 0.12759644
'0.0712166172107', 0.07121662
'0.0860534124629', 0.08605341
'0.0504451038576', 0.0504451
'0.0949554896142', 0.09495549
'0.148367952522', 0.14836795
'0.172106824926', 0.17210682
'0.189910979228', 0.18991098
'0.33234421365', 0.33234421
'0.261127596439', 0.2611276
'0.290801186944', 0.29080119
'0.373887240356', 0.37388724
'0.685459940653', 0.68545994
'0.373887240356', 0.37388724
'0.412462908012', 0.41246291
'0.186943620178', 0.18694362
'0.139465875371', 0.13946588
'0.195845697329', 0.1958457
'0.109792284866', 0.10979228
'0.0504451038576', 0.0504451
'0.0385756676558', 0.03857567
'0.0563798219585', 0.05637982
'0.053412462908', 0.05341246
'0.151335311573', 0.15133531
'0.142433234421', 0.14243323
'0.080118694362', 0.08011869
'0.0563798219585', 0.05637982
'0.0682492581602', 0.06824926
'0.0623145400593', 0.06231454
'0.0919881305638', 0.09198813
'0.160237388724', 0.16023739
'0.311572700297', 0.3115727
'0.234421364985', 0.23442136
'0.311572700297', 0.3115727
'0.234421364985', 0.23442136
'NA', 0.25516686
'NA', 0.29287619
'NA', 0.26311055
'NA', 0.24254795
'NA', 0.22780919
'NA', 0.21660438
'NA', 0.19569118
'NA', 0.18844176
'NA', 0.17674978
'NA', 0.17168436
'NA', 0.16927335
'0.0652818991098', 0.0652819
'0.0712166172107', 0.07121662
'0.109792284866', 0.10979228
'0.0237388724036', 0.02373887
'0.0504451038576', 0.0504451
'0.053412462908', 0.05341246
'0.0682492581602', 0.06824926
'0.178041543027', 0.17804154
'0.219584569733', 0.21958457
'0.139465875371', 0.13946588
'0.172106824926', 0.17210682
'0.222551928783', 0.22255193
'0.270029673591', 0.27002967
'0.454005934718', 0.45400593
'0.551928783383', 0.55192878
'0.382789317507', 0.38278932
'0.272997032641', 0.27299703
'0.219584569733', 0.21958457
'0.329376854599', 0.32937685
'0.409495548961', 0.40949555
'0.33234421365', 0.33234421
'0.169139465875', 0.16913947
'0.270029673591', 0.27002967
'0.103857566766', 0.10385757
'0.0979228486647', 0.09792285
'0.0445103857567', 0.04451039
'NA', 0.0811024
'NA', 0.08228661
'0.0741839762611', 0.07418398
'0.124629080119', 0.12462908
'0.183976261128', 0.18397626
'0.183976261128', 0.18397626
'0.210682492582', 0.21068249
'0.163204747774', 0.16320475
'0.204747774481', 0.20474777
'0.433234421365', 0.43323442
'0.436201780415', 0.43620178
'0.483679525223', 0.48367953
'0.483679525223', 0.48367953
'0.275964391691', 0.27596439
'0.240356083086', 0.24035608
'0.20178041543', 0.20178042
'0.0682492581602', 0.06824926
'0.0474777448071', 0.04747774
'0.391691394659', 0.39169139
'NA', 0.31159312
'NA', 0.19977809
'NA', 0.12008322
'NA', 0.12478663
'NA', 0.14787998
'NA', 0.11878128
'NA', 0.14021179
'NA', 0.15871522
'NA', 0.12992165
'NA', 0.12943588
'NA', 0.14430791
'NA', 0.16846336
'NA', 0.19191531
'NA', 0.21139875
'NA', 0.22867908
'NA', 0.24754135
'0.207715133531', 0.20771513
'0.213649851632', 0.21364985
'0.151335311573', 0.15133531
'0.0712166172107', 0.07121662
'0.0652818991098', 0.0652819
'0.0504451038576', 0.0504451
'0.0356083086053', 0.03560831
'0.0296735905045', 0.02967359
'0.0593471810089', 0.05934718
'0.0593471810089', 0.05934718
'0.0919881305638', 0.09198813
'0.118694362018', 0.11869436
'0.100890207715', 0.10089021
'0.106824925816', 0.10682493
'0.148367952522', 0.14836795
'0.109792284866', 0.10979228
'0.0830860534125', 0.08308605
'0.0741839762611', 0.07418398
'0.0919881305638', 0.09198813
'0.106824925816', 0.10682493
'0.0919881305638', 0.09198813
'0.109792284866', 0.10979228
'0.237388724036', 0.23738872
'0.287833827893', 0.28783383
'0.287833827893', 0.28783383
'0.290801186944', 0.29080119
'0.145400593472', 0.14540059
'0.3353115727', 0.33531157
'0.427299703264', 0.4272997
'0.195845697329', 0.1958457
'0.139465875371', 0.13946588
'0.13056379822', 0.1305638
'0.19881305638', 0.19881306
'0.0979228486647', 0.09792285
'0.118694362018', 0.11869436
'0.100890207715', 0.10089021
'0.0474777448071', 0.04747774
'0.106824925816', 0.10682493
'0.272997032641', 0.27299703
'0.103857566766', 0.10385757
'0.0949554896142', 0.09495549
'0.160237388724', 0.16023739
'0.204747774481', 0.20474777
'0.154302670623', 0.15430267
'0.240356083086', 0.24035608
'0.169139465875', 0.16913947
'0.290801186944', 0.29080119
'0.424332344214', 0.42433234
'0.569732937685', 0.56973294
'0.590504451039', 0.59050445
'0.614243323442', 0.61424332
'0.33234421365', 0.33234421
'0.0682492581602', 0.06824926
'0.192878338279', 0.19287834
'0.106824925816', 0.10682493
'NA', 0.14957875
'0.0504451038576', 0.0504451
'0.103857566766', 0.10385757
'0.189910979228', 0.18991098
'0.100890207715', 0.10089021
'0.103857566766', 0.10385757
'0.246290801187', 0.2462908
'0.053412462908', 0.05341246
'0.175074183976', 0.17507418
'0.127596439169', 0.12759644
'0.0593471810089', 0.05934718
'0.0979228486647', 0.09792285
'0.178041543027', 0.17804154
'0.166172106825', 0.16617211
'0.109792284866', 0.10979228
'0.169139465875', 0.16913947
'0.308605341246', 0.30860534
'0.454005934718', 0.45400593
'0.442136498516', 0.4421365
'0.501483679525', 0.50148368
'0.302670623145', 0.30267062
'0.166172106825', 0.16617211
'0.278931750742', 0.27893175
'0.195845697329', 0.1958457
'0.0949554896142', 0.09495549
'0.127596439169', 0.12759644
'0.139465875371', 0.13946588
'0.13056379822', 0.1305638
'0.0178041543027', 0.01780415
'0.0682492581602', 0.06824926
'0.145400593472', 0.14540059
'0.0385756676558', 0.03857567
'0.0682492581602', 0.06824926
'0.0771513353116', 0.07715134
'0.157270029674', 0.15727003
'0.0712166172107', 0.07121662
'0.124629080119', 0.12462908
'0.13353115727', 0.13353116
'0.166172106825', 0.16617211
'0.290801186944', 0.29080119
'0.204747774481', 0.20474777
'0.275964391691', 0.27596439
'0.498516320475', 0.49851632
'0.569732937685', 0.56973294
'0.326409495549', 0.3264095
'0.255192878338', 0.25519288
'0.172106824926', 0.17210682
'0.379821958457', 0.37982196
'0.26409495549', 0.26409496
'0.293768545994', 0.29376855
'0.0979228486647', 0.09792285
'0.121661721068', 0.12166172
'0.115727002967', 0.115727
'0.0949554896142', 0.09495549
'0.0830860534125', 0.08308605
'0.0860534124629', 0.08605341
'0.0771513353116', 0.07715134
'0.0652818991098', 0.0652819
'0.106824925816', 0.10682493
'0.169139465875', 0.16913947
'0.139465875371', 0.13946588
'0.13056379822', 0.1305638
'0.308605341246', 0.30860534
'0.382789317507', 0.38278932
'0.442136498516', 0.4421365
'0.643916913947', 0.64391691
'0.433234421365', 0.43323442
'0.53115727003', 0.53115727
'0.39762611276', 0.39762611
'0.471810089021', 0.47181009
'0.189910979228', 0.18991098
'0.151335311573', 0.15133531
'0.157270029674', 0.15727003
'0.234421364985', 0.23442136
'0.106824925816', 0.10682493
'0.172106824926', 0.17210682
'0.0771513353116', 0.07715134
'0.127596439169', 0.12759644
'0.157270029674', 0.15727003
'0.139465875371', 0.13946588
'0.186943620178', 0.18694362
'0.0563798219585', 0.05637982
'0.261127596439', 0.2611276
'0.112759643917', 0.11275964
'0.148367952522', 0.14836795
'0.13353115727', 0.13353116
'0.228486646884', 0.22848665
'0.308605341246', 0.30860534
'0.353115727003', 0.35311573
'0.127596439169', 0.12759644
'0.252225519288', 0.25222552
'0.341246290801', 0.34124629
'0.296735905045', 0.29673591
'0.275964391691', 0.27596439
'0.139465875371', 0.13946588
'0.385756676558', 0.38575668
'0.344213649852', 0.34421365
'0.148367952522', 0.14836795
'0.0474777448071', 0.04747774
'0.0712166172107', 0.07121662
'0.080118694362', 0.08011869
'0.0741839762611', 0.07418398
'0.080118694362', 0.08011869
'0.0890207715134', 0.08902077
'0.053412462908', 0.05341246
'0.118694362018', 0.11869436
'0.228486646884', 0.22848665
'0.163204747774', 0.16320475
'0.225519287834', 0.22551929
'0.192878338279', 0.19287834
'0.255192878338', 0.25519288
'0.344213649852', 0.34421365
'0.272997032641', 0.27299703
'0.362017804154', 0.3620178
'0.359050445104', 0.35905045
'0.181008902077', 0.1810089
'0.186943620178', 0.18694362
'0.258160237389', 0.25816024
'0.249258160237', 0.24925816
'0.0979228486647', 0.09792285
'0.172106824926', 0.17210682
'0.0830860534125', 0.08308605
'0.0623145400593', 0.06231454
'0.175074183976', 0.17507418
'0.124629080119', 0.12462908
'0.195845697329', 0.1958457
'0.121661721068', 0.12166172
'0.0741839762611', 0.07418398
'0.0474777448071', 0.04747774
'0.0593471810089', 0.05934718
'0.0890207715134', 0.08902077
'0.186943620178', 0.18694362
'0.13649851632', 0.13649852
'0.160237388724', 0.16023739
'0.178041543027', 0.17804154
'0.207715133531', 0.20771513
'0.362017804154', 0.3620178
'0.430267062315', 0.43026706
'0.323442136499', 0.32344214
'0.367952522255', 0.36795252
'0.362017804154', 0.3620178
'0.26706231454', 0.26706231
'0.19881305638', 0.19881306
'0.237388724036', 0.23738872
'0.115727002967', 0.115727
'0.112759643917', 0.11275964
'0.0563798219585', 0.05637982
'0.0652818991098', 0.0652819
'0.0979228486647', 0.09792285
'0.0445103857567', 0.04451039
'0.026706231454', 0.02670623
'0.0652818991098', 0.0652819
'0.0979228486647', 0.09792285
'0.13056379822', 0.1305638
'0.13353115727', 0.13353116
'0.13056379822', 0.1305638
'0.139465875371', 0.13946588
'0.124629080119', 0.12462908
'0.228486646884', 0.22848665
'0.373887240356', 0.37388724
'0.557863501484', 0.5578635
'0.385756676558', 0.38575668
'0.302670623145', 0.30267062
'0.338278931751', 0.33827893
'0.314540059347', 0.31454006
'0.293768545994', 0.29376855
'0.338278931751', 0.33827893
'0.109792284866', 0.10979228
'0.0949554896142', 0.09495549
'0.192878338279', 0.19287834
'0.278931750742', 0.27893175
'0.0623145400593', 0.06231454
'0.053412462908', 0.05341246
'0.0949554896142', 0.09495549
'0.109792284866', 0.10979228
'0.0118694362018', 0.01186944
'0.0623145400593', 0.06231454
'0.0741839762611', 0.07418398
'0.178041543027', 0.17804154
'0.231454005935', 0.23145401
'0.148367952522', 0.14836795
'0.139465875371', 0.13946588
'0.53115727003', 0.53115727
'0.415430267062', 0.41543027
'0.412462908012', 0.41246291
'0.412462908012', 0.41246291
'0.299703264095', 0.29970326
'0.646884272997', 0.64688427
'0.172106824926', 0.17210682
'0.0949554896142', 0.09495549
'0.252225519288', 0.25222552
'0.261127596439', 0.2611276
'0.311572700297', 0.3115727
'0.213649851632', 0.21364985
'0.0771513353116', 0.07715134
'0.0830860534125', 0.08308605
'0.103857566766', 0.10385757
'0.0623145400593', 0.06231454
'0.0445103857567', 0.04451039
'0.100890207715', 0.10089021
'0.13649851632', 0.13649852
'0.0504451038576', 0.0504451
'0.118694362018', 0.11869436
'0.329376854599', 0.32937685
'0.385756676558', 0.38575668
'0.501483679525', 0.50148368
'0.314540059347', 0.31454006
'0.296735905045', 0.29673591
'0.299703264095', 0.29970326
'0.293768545994', 0.29376855
'0.249258160237', 0.24925816
'0.451038575668', 0.45103858
'0.20178041543', 0.20178042
'0.195845697329', 0.1958457
'0.207715133531', 0.20771513
'0.0652818991098', 0.0652819
'0.234421364985', 0.23442136
'0.118694362018', 0.11869436
'0.106824925816', 0.10682493
'0.0919881305638', 0.09198813
'0.080118694362', 0.08011869
'0.127596439169', 0.12759644
'0.157270029674', 0.15727003
'0.127596439169', 0.12759644
'0.26706231454', 0.26706231
'0.252225519288', 0.25222552
'0.207715133531', 0.20771513
'0.118694362018', 0.11869436
'0.118694362018', 0.11869436
'0.154302670623', 0.15430267
'0.183976261128', 0.18397626
'0.151335311573', 0.15133531
'0.46587537092', 0.46587537
'0.522255192878', 0.52225519
'0.459940652819', 0.45994065
'0.281899109792', 0.28189911
'0.19881305638', 0.19881306
'0.296735905045', 0.29673591
'0.124629080119', 0.12462908
'0.323442136499', 0.32344214
'0.430267062315', 0.43026706
'0.154302670623', 0.15430267
'0.142433234421', 0.14243323
'0.0563798219585', 0.05637982
'0.0207715133531', 0.02077151
'0.0474777448071', 0.04747774
'0.0474777448071', 0.04747774
'0.0504451038576', 0.0504451
'0.118694362018', 0.11869436
'0.0890207715134', 0.08902077
'0.0504451038576', 0.0504451
'0.127596439169', 0.12759644
'0.0919881305638', 0.09198813
'0.19881305638', 0.19881306
'0.299703264095', 0.29970326
'0.495548961424', 0.49554896
'0.424332344214', 0.42433234
'0.317507418398', 0.31750742
'0.379821958457', 0.37982196
'0.350148367953', 0.35014837
'0.287833827893', 0.28783383
'0.0890207715134', 0.08902077
'0.118694362018', 0.11869436
'0.323442136499', 0.32344214
'0.118694362018', 0.11869436
'0.139465875371', 0.13946588
'0.0356083086053', 0.03560831
'0.0415430267062', 0.04154303
'0.0504451038576', 0.0504451
'0.0623145400593', 0.06231454
'0.0178041543027', 0.01780415
'0.0682492581602', 0.06824926
'0.0415430267062', 0.04154303
'0.0385756676558', 0.03857567
'0.186943620178', 0.18694362
'0.181008902077', 0.1810089
'0.0949554896142', 0.09495549
'0.160237388724', 0.16023739
'0.231454005935', 0.23145401
'0.382789317507', 0.38278932
'0.433234421365', 0.43323442
'0.290801186944', 0.29080119
'0.376854599407', 0.3768546
'0.353115727003', 0.35311573
'0.189910979228', 0.18991098
'0.186943620178', 0.18694362
'0.163204747774', 0.16320475
'0.216617210682', 0.21661721
'0.0593471810089', 0.05934718
'0.0504451038576', 0.0504451
'0.127596439169', 0.12759644
'0.0741839762611', 0.07418398
'0.0563798219585', 0.05637982
'0.0356083086053', 0.03560831
'0.0919881305638', 0.09198813
'0.0474777448071', 0.04747774
'0.0741839762611', 0.07418398
'0.0949554896142', 0.09495549
'0.0830860534125', 0.08308605
'0.0979228486647', 0.09792285
'0.115727002967', 0.115727
'0.106824925816', 0.10682493
'0.210682492582', 0.21068249
'0.228486646884', 0.22848665
'0.317507418398', 0.31750742
'0.477744807122', 0.47774481
'0.46587537092', 0.46587537
'0.39762611276', 0.39762611
'0.287833827893', 0.28783383
'0.192878338279', 0.19287834
'0.448071216617', 0.44807122
'0.237388724036', 0.23738872
'0.181008902077', 0.1810089
'0.183976261128', 0.18397626
'0.115727002967', 0.115727
'0.0652818991098', 0.0652819
'0.0712166172107', 0.07121662
'0.053412462908', 0.05341246
'0.0504451038576', 0.0504451
'0.0207715133531', 0.02077151
'0.0385756676558', 0.03857567
'0.0474777448071', 0.04747774
'0.118694362018', 0.11869436
'0.142433234421', 0.14243323
'0.109792284866', 0.10979228
'0.216617210682', 0.21661721
'0.302670623145', 0.30267062
'0.293768545994', 0.29376855
'NA', 0.32678123
'NA', 0.34850371
'0.373887240356', 0.37388724
'0.406528189911', 0.40652819
'0.175074183976', 0.17507418
'0.157270029674', 0.15727003
'0.296735905045', 0.29673591
'0.106824925816', 0.10682493
'0.207715133531', 0.20771513
'0.181008902077', 0.1810089
'0.26706231454', 0.26706231
'0.20178041543', 0.20178042
'0.115727002967', 0.115727
'0.103857566766', 0.10385757
'0.0593471810089', 0.05934718
'0.145400593472', 0.14540059
'0.231454005935', 0.23145401
'0.109792284866', 0.10979228
'0.19881305638', 0.19881306
'0.13056379822', 0.1305638
'0.163204747774', 0.16320475
'0.219584569733', 0.21958457
'0.154302670623', 0.15430267
'0.281899109792', 0.28189911
'0.353115727003', 0.35311573
'0.445103857567', 0.44510386
'0.406528189911', 0.40652819
'0.225519287834', 0.22551929
'0.323442136499', 0.32344214
'0.46884272997', 0.46884273
'0.189910979228', 0.18991098
'0.186943620178', 0.18694362
'0.0890207715134', 0.08902077
'0.053412462908', 0.05341246
'0.169139465875', 0.16913947
'0.100890207715', 0.10089021
'0.106824925816', 0.10682493
'0.0385756676558', 0.03857567
'0.0741839762611', 0.07418398
'0.0682492581602', 0.06824926
'0.124629080119', 0.12462908
'0.115727002967', 0.115727
'0.115727002967', 0.115727
'0.103857566766', 0.10385757
'0.0771513353116', 0.07715134
'0.13649851632', 0.13649852
'0.314540059347', 0.31454006
'0.19881305638', 0.19881306
'0.278931750742', 0.27893175
'0.477744807122', 0.47774481
'0.456973293769', 0.45697329
'0.53115727003', 0.53115727
'0.314540059347', 0.31454006
'0.436201780415', 0.43620178
'0.341246290801', 0.34124629
'0.178041543027', 0.17804154
'0.157270029674', 0.15727003
'0.13056379822', 0.1305638
'0.145400593472', 0.14540059
'0.142433234421', 0.14243323
'0.13056379822', 0.1305638
'0.13056379822', 0.1305638
'0.0207715133531', 0.02077151
'0.0890207715134', 0.08902077
'0.103857566766', 0.10385757
'0.0979228486647', 0.09792285
'0.053412462908', 0.05341246
'0.0949554896142', 0.09495549
'0.109792284866', 0.10979228
'0.13649851632', 0.13649852
'0.20178041543', 0.20178042
'0.115727002967', 0.115727
'0.430267062315', 0.43026706
'0.26409495549', 0.26409496
'0.261127596439', 0.2611276
'0.543026706231', 0.54302671
'0.560830860534', 0.56083086
'0.347181008902', 0.34718101
'0.0593471810089', 0.05934718
'0.109792284866', 0.10979228
'0.115727002967', 0.115727
'0.142433234421', 0.14243323
'0.0830860534125', 0.08308605
'0.0415430267062', 0.04154303
'0.0415430267062', 0.04154303
'0.0356083086053', 0.03560831
'0.0830860534125', 0.08308605
'0.0445103857567', 0.04451039
'0.178041543027', 0.17804154
'0.106824925816', 0.10682493
'0.100890207715', 0.10089021
'0.169139465875', 0.16913947
'0.172106824926', 0.17210682
'0.192878338279', 0.19287834
'0.189910979228', 0.18991098
'0.181008902077', 0.1810089
'0.308605341246', 0.30860534
'0.560830860534', 0.56083086
'0.367952522255', 0.36795252
'0.255192878338', 0.25519288
'0.154302670623', 0.15430267
'0.151335311573', 0.15133531
'0.145400593472', 0.14540059
'0.13649851632', 0.13649852
'0.0979228486647', 0.09792285
'0.0860534124629', 0.08605341
'0.186943620178', 0.18694362
'0.222551928783', 0.22255193
'0.0296735905045', 0.02967359
'0.0623145400593', 0.06231454
'0.0593471810089', 0.05934718
'0.0296735905045', 0.02967359
'0.0593471810089', 0.05934718
'0.0415430267062', 0.04154303
'0.0474777448071', 0.04747774
'0.100890207715', 0.10089021
'0.142433234421', 0.14243323
'0.40059347181', 0.40059347
'0.296735905045', 0.29673591
'0.178041543027', 0.17804154
'0.225519287834', 0.22551929
'0.204747774481', 0.20474777
'0.210682492582', 0.21068249
'0.195845697329', 0.1958457
'0.439169139466', 0.43916914
'0.13649851632', 0.13649852
'0.151335311573', 0.15133531
'0.0682492581602', 0.06824926
'0.0563798219585', 0.05637982
'0.0919881305638', 0.09198813
'0.13353115727', 0.13353116
'0.115727002967', 0.115727
'0.204747774481', 0.20474777
'0.154302670623', 0.15430267
'0.100890207715', 0.10089021
'0.0593471810089', 0.05934718
'0.145400593472', 0.14540059
'0.0741839762611', 0.07418398
'0.109792284866', 0.10979228
'0.13353115727', 0.13353116
'0.142433234421', 0.14243323
'0.379821958457', 0.37982196
'0.329376854599', 0.32937685
'0.13649851632', 0.13649852
'0.142433234421', 0.14243323
'0.142433234421', 0.14243323
'0.0148367952522', 0.0148368
'0.0623145400593', 0.06231454
'0.121661721068', 0.12166172
'0.0207715133531', 0.02077151
'0.189910979228', 0.18991098
'0.0385756676558', 0.03857567
'0.0771513353116', 0.07715134
'0.0712166172107', 0.07121662
'0.0771513353116', 0.07715134
'0.0623145400593', 0.06231454
'0.166172106825', 0.16617211
'0.124629080119', 0.12462908
'0.0623145400593', 0.06231454
'0.154302670623', 0.15430267
'0.163204747774', 0.16320475
'0.0385756676558', 0.03857567
'0.0890207715134', 0.08902077
'0.124629080119', 0.12462908
'0.13649851632', 0.13649852
'0.281899109792', 0.28189911
'0.299703264095', 0.29970326
'0.388724035608', 0.38872404
'0.498516320475', 0.49851632
'0.489614243323', 0.48961424
'0.305637982196', 0.30563798
'0.278931750742', 0.27893175
'0.249258160237', 0.24925816
'0.163204747774', 0.16320475
'0.249258160237', 0.24925816
'0.228486646884', 0.22848665
'0.109792284866', 0.10979228
'0.26706231454', 0.26706231
'0.19881305638', 0.19881306
'0.13353115727', 0.13353116
'0.0356083086053', 0.03560831
'0.0356083086053', 0.03560831
'0.100890207715', 0.10089021
'0.0474777448071', 0.04747774
'0.0623145400593', 0.06231454
'0.0741839762611', 0.07418398
'0.142433234421', 0.14243323
'0.0949554896142', 0.09495549
'0.118694362018', 0.11869436
'0.388724035608', 0.38872404
'0.519287833828', 0.51928783
'0.418397626113', 0.41839763
'0.367952522255', 0.36795252
'0.296735905045', 0.29673591
'0.186943620178', 0.18694362
'0.498516320475', 0.49851632
'0.234421364985', 0.23442136
'0.151335311573', 0.15133531
'0.142433234421', 0.14243323
'0.195845697329', 0.1958457
'0.445103857567', 0.44510386
'0.385756676558', 0.38575668
'0.293768545994', 0.29376855
'0.207715133531', 0.20771513
'0.0890207715134', 0.08902077
'0.103857566766', 0.10385757
'0.13056379822', 0.1305638
'0.0593471810089', 0.05934718
'0.0415430267062', 0.04154303
'0.246290801187', 0.2462908
'0.373887240356', 0.37388724
'0.275964391691', 0.27596439
'0.210682492582', 0.21068249
'0.293768545994', 0.29376855
'0.290801186944', 0.29080119
'0.302670623145', 0.30267062
'0.415430267062', 0.41543027
'0.353115727003', 0.35311573
'0.436201780415', 0.43620178
'0.474777448071', 0.47477745
'0.26409495549', 0.26409496
'0.109792284866', 0.10979228
'0.0830860534125', 0.08308605
'0.139465875371', 0.13946588
'0.231454005935', 0.23145401
'0.0830860534125', 0.08308605
'0.0949554896142', 0.09495549
'0.0207715133531', 0.02077151
'0.0682492581602', 0.06824926
'0.0919881305638', 0.09198813
'0.0949554896142', 0.09495549
'0.0474777448071', 0.04747774
'0.0326409495549', 0.03264095
'0.0207715133531', 0.02077151
'0.0949554896142', 0.09495549
'0.178041543027', 0.17804154
'0.115727002967', 0.115727
'0.204747774481', 0.20474777
'0.326409495549', 0.3264095
'0.427299703264', 0.4272997
'0.356083086053', 0.35608309
'0.430267062315', 0.43026706
'0.409495548961', 0.40949555
'0.326409495549', 0.3264095
'0.302670623145', 0.30267062
'0.142433234421', 0.14243323
'0.20178041543', 0.20178042
'0.299703264095', 0.29970326
'0.329376854599', 0.32937685
'0.0890207715134', 0.08902077
'0.109792284866', 0.10979228
'0.053412462908', 0.05341246
'0.186943620178', 0.18694362
'NA', 0.14995883
'0.0652818991098', 0.0652819
'0.0593471810089', 0.05934718
'0.0919881305638', 0.09198813
'NA', 0.11421837
'0.0593471810089', 0.05934718
'0.115727002967', 0.115727
'0.181008902077', 0.1810089
'0.145400593472', 0.14540059
'0.240356083086', 0.24035608
'0.451038575668', 0.45103858
'0.356083086053', 0.35608309
'0.317507418398', 0.31750742
'0.219584569733', 0.21958457
'0.302670623145', 0.30267062
'0.448071216617', 0.44807122
'0.234421364985', 0.23442136
'0.204747774481', 0.20474777
'0.249258160237', 0.24925816
'0.0593471810089', 0.05934718
'0.0652818991098', 0.0652819
'0.186943620178', 0.18694362
'0.151335311573', 0.15133531
'0.154302670623', 0.15430267
'0.0682492581602', 0.06824926
'0.0593471810089', 0.05934718
'0.0712166172107', 0.07121662
'0.189910979228', 0.18991098
'0.080118694362', 0.08011869
'0.145400593472', 0.14540059
'0.13649851632', 0.13649852
'0.183976261128', 0.18397626
'0.178041543027', 0.17804154
'0.3353115727', 0.33531157
'0.356083086053', 0.35608309
'0.350148367953', 0.35014837
'0.252225519288', 0.25222552
'0.362017804154', 0.3620178
'0.163204747774', 0.16320475
'0.0237388724036', 0.02373887
'0.160237388724', 0.16023739
'0.0771513353116', 0.07715134
'0.148367952522', 0.14836795
'0.213649851632', 0.21364985
'0.284866468843', 0.28486647
'0.115727002967', 0.115727
'0.0356083086053', 0.03560831
'NA', 0.08894926
'NA', 0.12589596
'0.0949554896142', 0.09495549
'0.145400593472', 0.14540059
'0.0563798219585', 0.05637982
'0.0623145400593', 0.06231454
'0.160237388724', 0.16023739
'0.189910979228', 0.18991098
'0.234421364985', 0.23442136
'0.210682492582', 0.21068249
'0.186943620178', 0.18694362
'0.385756676558', 0.38575668
'0.169139465875', 0.16913947
'0.13056379822', 0.1305638
'0.0919881305638', 0.09198813
'0.19881305638', 0.19881306
'0.175074183976', 0.17507418
'0.252225519288', 0.25222552
'0.46587537092', 0.46587537
'0.347181008902', 0.34718101
'0.0949554896142', 0.09495549
'0.0237388724036', 0.02373887
'0.0623145400593', 0.06231454
'0.0741839762611', 0.07418398
'0.0890207715134', 0.08902077
'0.106824925816', 0.10682493
'0.0771513353116', 0.07715134
'0.0593471810089', 0.05934718
'0.080118694362', 0.08011869
'0.13649851632', 0.13649852
'0.26409495549', 0.26409496
'0.207715133531', 0.20771513
'0.151335311573', 0.15133531
'0.151335311573', 0.15133531
'0.178041543027', 0.17804154
'0.255192878338', 0.25519288
'0.373887240356', 0.37388724
'0.186943620178', 0.18694362
'0.275964391691', 0.27596439
'0.347181008902', 0.34718101
'0.356083086053', 0.35608309
'0.302670623145', 0.30267062
'0.270029673591', 0.27002967
'0.222551928783', 0.22255193
'0.362017804154', 0.3620178
'0.415430267062', 0.41543027
'0.127596439169', 0.12759644
'0.0356083086053', 0.03560831
'0.0563798219585', 0.05637982
'0.0356083086053', 0.03560831
'0.080118694362', 0.08011869
'0.207715133531', 0.20771513
'NA', 0.15882787
'0.0712166172107', 0.07121662
'0.0563798219585', 0.05637982
'0.0741839762611', 0.07418398
'0.109792284866', 0.10979228
'0.124629080119', 0.12462908
'0.320474777448', 0.32047478
'0.189910979228', 0.18991098
'0.39762611276', 0.39762611
'0.249258160237', 0.24925816
'0.0860534124629', 0.08605341
'0.13649851632', 0.13649852
'0.0563798219585', 0.05637982
'0.0415430267062', 0.04154303
'0.0890207715134', 0.08902077
'0.0356083086053', 0.03560831
'0.0385756676558', 0.03857567
'0.0148367952522', 0.0148368
'0.0385756676558', 0.03857567
'0.080118694362', 0.08011869
'0.0623145400593', 0.06231454
'0.0652818991098', 0.0652819
'NA', 0.13456763
'NA', 0.19760309
'0.0652818991098', 0.0652819
'0.157270029674', 0.15727003
'0.154302670623', 0.15430267
'0.175074183976', 0.17507418
'0.379821958457', 0.37982196
'0.459940652819', 0.45994065
'0.480712166172', 0.48071217
'0.474777448071', 0.47477745
'0.382789317507', 0.38278932
'0.234421364985', 0.23442136
'0.080118694362', 0.08011869
'0.160237388724', 0.16023739
'0.13353115727', 0.13353116
'0.13353115727', 0.13353116
'0.0474777448071', 0.04747774
'0.139465875371', 0.13946588
'0.166172106825', 0.16617211
'0.189910979228', 0.18991098
'0.210682492582', 0.21068249
'0.183976261128', 0.18397626
'0.0207715133531', 0.02077151
'0.0415430267062', 0.04154303
'0.0356083086053', 0.03560831
'0.169139465875', 0.16913947
'0.210682492582', 0.21068249
'0.249258160237', 0.24925816
'0.430267062315', 0.43026706
'0.522255192878', 0.52225519
'0.572700296736', 0.5727003
'0.626112759644', 0.62611276
'0.545994065282', 0.54599407
'0.53412462908', 0.53412463
'0.545994065282', 0.54599407
'0.560830860534', 0.56083086
'0.516320474777', 0.51632047
'0.272997032641', 0.27299703
'0.178041543027', 0.17804154
'0.189910979228', 0.18991098
'0.160237388724', 0.16023739
'0.195845697329', 0.1958457
'0.20178041543', 0.20178042
'0.219584569733', 0.21958457
'0.3353115727', 0.33531157
'0.183976261128', 0.18397626
'0.103857566766', 0.10385757
'0.0385756676558', 0.03857567
'0.112759643917', 0.11275964
'0.183976261128', 0.18397626
'0.169139465875', 0.16913947
'0.0593471810089', 0.05934718
'0.181008902077', 0.1810089
'0.243323442136', 0.24332344
'0.231454005935', 0.23145401
'0.234421364985', 0.23442136
'0.246290801187', 0.2462908
'0.33234421365', 0.33234421
'0.246290801187', 0.2462908
'0.700296735905', 0.70029674
'0.504451038576', 0.50445104
'0.189910979228', 0.18991098
'0.154302670623', 0.15430267
'0.356083086053', 0.35608309
'0.0712166172107', 0.07121662
'0.026706231454', 0.02670623
'0.213649851632', 0.21364985
'0.118694362018', 0.11869436
'0.080118694362', 0.08011869
'0.0593471810089', 0.05934718
'0.145400593472', 0.14540059
'0.163204747774', 0.16320475
'0.115727002967', 0.115727
'0.13056379822', 0.1305638
'0.234421364985', 0.23442136
'0.225519287834', 0.22551929
'0.231454005935', 0.23145401
'0.0949554896142', 0.09495549
'0.0652818991098', 0.0652819
'0.287833827893', 0.28783383
'0.433234421365', 0.43323442
'0.382789317507', 0.38278932
'0.26706231454', 0.26706231
'0.183976261128', 0.18397626
'0.548961424332', 0.54896142
'0.356083086053', 0.35608309
'0.169139465875', 0.16913947
'0.13353115727', 0.13353116
'0.166172106825', 0.16617211
'0.0949554896142', 0.09495549
'0.121661721068', 0.12166172
'0.154302670623', 0.15430267
'0.0830860534125', 0.08308605
'0.112759643917', 0.11275964
'0.13056379822', 0.1305638
'0.109792284866', 0.10979228
'0.0860534124629', 0.08605341
'0.0504451038576', 0.0504451
'0.0504451038576', 0.0504451
'0.0741839762611', 0.07418398
'0.0890207715134', 0.08902077
'0.103857566766', 0.10385757
'0.169139465875', 0.16913947
'0.240356083086', 0.24035608
'0.240356083086', 0.24035608
'0.26409495549', 0.26409496
'0.462908011869', 0.46290801
'0.370919881306', 0.37091988
'0.412462908012', 0.41246291
'0.26409495549', 0.26409496
'0.323442136499', 0.32344214
'0.163204747774', 0.16320475
'0.0860534124629', 0.08605341
'0.0385756676558', 0.03857567
'0.148367952522', 0.14836795
'0.13649851632', 0.13649852
'0.0415430267062', 0.04154303
'0.0830860534125', 0.08308605
'0.403560830861', 0.40356083
'0.356083086053', 0.35608309
'0.261127596439', 0.2611276
'0.0445103857567', 0.04451039
'0.0504451038576', 0.0504451
'0.0771513353116', 0.07715134
'0.0652818991098', 0.0652819
'0.112759643917', 0.11275964
'0.109792284866', 0.10979228
'0.219584569733', 0.21958457
'0.207715133531', 0.20771513
'0.350148367953', 0.35014837
'0.394658753709', 0.39465875
'0.293768545994', 0.29376855
'0.26409495549', 0.26409496
'0.175074183976', 0.17507418
'0.290801186944', 0.29080119
'0.231454005935', 0.23145401
'0.255192878338', 0.25519288
'0.26409495549', 0.26409496
'0.0415430267062', 0.04154303
'0.0830860534125', 0.08308605
'0.189910979228', 0.18991098
'0.305637982196', 0.30563798
'0.112759643917', 0.11275964
'0.142433234421', 0.14243323
'0.0326409495549', 0.03264095
'0.0474777448071', 0.04747774
'0.0919881305638', 0.09198813
'0.100890207715', 0.10089021
'0.151335311573', 0.15133531
'0.0919881305638', 0.09198813
'0.166172106825', 0.16617211
'0.172106824926', 0.17210682
'0.127596439169', 0.12759644
'0.240356083086', 0.24035608
'0.26409495549', 0.26409496
'0.249258160237', 0.24925816
'0.0860534124629', 0.08605341
'0.195845697329', 0.1958457
'0.0593471810089', 0.05934718
'0.0652818991098', 0.0652819
'0.0296735905045', 0.02967359
'0.0979228486647', 0.09792285
'0.148367952522', 0.14836795
'0.0830860534125', 0.08308605
'0.0919881305638', 0.09198813
'0.112759643917', 0.11275964
'0.106824925816', 0.10682493
'0.0178041543027', 0.01780415
'0.20178041543', 0.20178042
'0.454005934718', 0.45400593
'0.26409495549', 0.26409496
'0.210682492582', 0.21068249
'0.13353115727', 0.13353116
'0.0919881305638', 0.09198813
'0.231454005935', 0.23145401
'0.373887240356', 0.37388724
'0.281899109792', 0.28189911
'0.219584569733', 0.21958457
'0.234421364985', 0.23442136
'0.255192878338', 0.25519288
'0.192878338279', 0.19287834
'0.189910979228', 0.18991098
'0.195845697329', 0.1958457
'0.151335311573', 0.15133531
'0.0178041543027', 0.01780415
'0.13056379822', 0.1305638
'0.109792284866', 0.10979228
'0.175074183976', 0.17507418
'0.181008902077', 0.1810089
'0.237388724036', 0.23738872
'0.151335311573', 0.15133531
'0.13353115727', 0.13353116
'0.121661721068', 0.12166172
'0.148367952522', 0.14836795
'0.0712166172107', 0.07121662
'0.100890207715', 0.10089021
'0.053412462908', 0.05341246
'0.100890207715', 0.10089021
'0.290801186944', 0.29080119
'0.362017804154', 0.3620178
'0.362017804154', 0.3620178
'0.290801186944', 0.29080119
'0.270029673591', 0.27002967
'0.210682492582', 0.21068249
'0.222551928783', 0.22255193
'0.0979228486647', 0.09792285
'0.103857566766', 0.10385757
'0.394658753709', 0.39465875
'0.258160237389', 0.25816024
'0.053412462908', 0.05341246
'0.0474777448071', 0.04747774
'0.186943620178', 0.18694362
'0.33234421365', 0.33234421
'0.0919881305638', 0.09198813
'0.053412462908', 0.05341246
'0.109792284866', 0.10979228
'0.0504451038576', 0.0504451
'0.0', 0.
'0.115727002967', 0.115727
'0.0979228486647', 0.09792285
'0.0741839762611', 0.07418398
'0.0890207715134', 0.08902077
'0.207715133531', 0.20771513
'0.302670623145', 0.30267062
'0.356083086053', 0.35608309
'0.281899109792', 0.28189911
'0.474777448071', 0.47477745
'0.385756676558', 0.38575668
'0.0563798219585', 0.05637982
'0.124629080119', 0.12462908
'0.178041543027', 0.17804154
'0.154302670623', 0.15430267
'0.210682492582', 0.21068249
'0.0593471810089', 0.05934718
'0.0563798219585', 0.05637982
'0.026706231454', 0.02670623
'0.0296735905045', 0.02967359
'0.0741839762611', 0.07418398
'0.0474777448071', 0.04747774
'0.0682492581602', 0.06824926
'0.0237388724036', 0.02373887
'0.0652818991098', 0.0652819
'0.0652818991098', 0.0652819
'0.0474777448071', 0.04747774
'0.0623145400593', 0.06231454
'0.178041543027', 0.17804154
'0.255192878338', 0.25519288
'0.219584569733', 0.21958457
'0.186943620178', 0.18694362
'0.255192878338', 0.25519288
'0.112759643917', 0.11275964
'0.231454005935', 0.23145401
'0.26706231454', 0.26706231
'0.106824925816', 0.10682493
'0.278931750742', 0.27893175
'0.0860534124629', 0.08605341
'0.0741839762611', 0.07418398
'0.0623145400593', 0.06231454
'0.0919881305638', 0.09198813
'0.0623145400593', 0.06231454
'0.0979228486647', 0.09792285
'0.0890207715134', 0.08902077
'0.0504451038576', 0.0504451
'0.0712166172107', 0.07121662
'0.106824925816', 0.10682493
'0.243323442136', 0.24332344
'0.106824925816', 0.10682493
'0.320474777448', 0.32047478
'0.246290801187', 0.2462908
'0.219584569733', 0.21958457
'0.240356083086', 0.24035608
'0.362017804154', 0.3620178
'0.353115727003', 0.35311573
'0.207715133531', 0.20771513
'0.243323442136', 0.24332344
'0.252225519288', 0.25222552
'0.317507418398', 0.31750742
'0.347181008902', 0.34718101
'0.320474777448', 0.32047478
'0.26706231454', 0.26706231
'0.359050445104', 0.35905045
'0.213649851632', 0.21364985
'0.26706231454', 0.26706231
'0.172106824926', 0.17210682
'0.243323442136', 0.24332344
'0.0860534124629', 0.08605341
'0.121661721068', 0.12166172
'0.106824925816', 0.10682493
'0.0563798219585', 0.05637982
'0.0474777448071', 0.04747774
'0.0326409495549', 0.03264095
'0.080118694362', 0.08011869
'0.121661721068', 0.12166172
'0.13649851632', 0.13649852
'0.163204747774', 0.16320475
'0.445103857567', 0.44510386
'0.439169139466', 0.43916914
'0.421364985163', 0.42136499
'0.483679525223', 0.48367953
'0.436201780415', 0.43620178
'0.13649851632', 0.13649852
'0.100890207715', 0.10089021
'0.195845697329', 0.1958457
'0.20178041543', 0.20178042
'0.0326409495549', 0.03264095
'0.139465875371', 0.13946588
'0.299703264095', 0.29970326
'0.189910979228', 0.18991098
'0.192878338279', 0.19287834
'0.0504451038576', 0.0504451
'0.0741839762611', 0.07418398
'0.0949554896142', 0.09495549
'0.139465875371', 0.13946588
'0.0623145400593', 0.06231454
'0.142433234421', 0.14243323
'0.121661721068', 0.12166172
'0.109792284866', 0.10979228
'0.0919881305638', 0.09198813
'0.13649851632', 0.13649852
'0.19881305638', 0.19881306
'0.166172106825', 0.16617211
'0.243323442136', 0.24332344
'0.326409495549', 0.3264095
'0.359050445104', 0.35905045
'0.370919881306', 0.37091988
'0.216617210682', 0.21661721
'0.210682492582', 0.21068249
'0.284866468843', 0.28486647
'0.338278931751', 0.33827893
'0.284866468843', 0.28486647
'0.284866468843', 0.28486647
'0.350148367953', 0.35014837
'0.228486646884', 0.22848665
'0.216617210682', 0.21661721
'0.157270029674', 0.15727003
'0.0593471810089', 0.05934718
'0.00890207715134', 0.00890208
'0.0712166172107', 0.07121662
'0.103857566766', 0.10385757
'0.0237388724036', 0.02373887
'0.142433234421', 0.14243323
'0.163204747774', 0.16320475
'0.154302670623', 0.15430267
'0.115727002967', 0.115727
'0.169139465875', 0.16913947
'0.590504451039', 0.59050445
'0.178041543027', 0.17804154
'0.364985163205', 0.36498516
'0.252225519288', 0.25222552
'0.0979228486647', 0.09792285
'0.0504451038576', 0.0504451
'0.0148367952522', 0.0148368
'0.0415430267062', 0.04154303
'0.0623145400593', 0.06231454
'0.0504451038576', 0.0504451
'0.0207715133531', 0.02077151
'0.0919881305638', 0.09198813
'0.243323442136', 0.24332344
'0.157270029674', 0.15727003
'0.080118694362', 0.08011869
'0.163204747774', 0.16320475
'0.103857566766', 0.10385757
'0.080118694362', 0.08011869
'0.127596439169', 0.12759644
'0.0949554896142', 0.09495549
'0.166172106825', 0.16617211
'0.278931750742', 0.27893175
'0.436201780415', 0.43620178
'0.362017804154', 0.3620178
'0.329376854599', 0.32937685
'0.0593471810089', 0.05934718
'0.0563798219585', 0.05637982
'0.154302670623', 0.15430267
'0.0593471810089', 0.05934718
'0.0296735905045', 0.02967359
'0.0237388724036', 0.02373887
'0.0178041543027', 0.01780415
'0.0445103857567', 0.04451039
'0.0563798219585', 0.05637982
'0.0445103857567', 0.04451039
'0.0474777448071', 0.04747774
'0.0296735905045', 0.02967359
'0.112759643917', 0.11275964
'0.103857566766', 0.10385757
'0.080118694362', 0.08011869
'0.0830860534125', 0.08308605
'0.145400593472', 0.14540059
'0.0741839762611', 0.07418398
'0.13649851632', 0.13649852
'0.163204747774', 0.16320475
'0.127596439169', 0.12759644
'0.305637982196', 0.30563798
'0.430267062315', 0.43026706
'0.329376854599', 0.32937685
'0.293768545994', 0.29376855
'0.344213649852', 0.34421365
'0.305637982196', 0.30563798
'0.195845697329', 0.1958457
'0.157270029674', 0.15727003
'0.522255192878', 0.52225519
'0.522255192878', 0.52225519
'0.207715133531', 0.20771513
'0.219584569733', 0.21958457
'0.270029673591', 0.27002967
'0.13353115727', 0.13353116
'0.0474777448071', 0.04747774
'0.13056379822', 0.1305638
'0.0623145400593', 0.06231454
'0.0741839762611', 0.07418398
'0.0504451038576', 0.0504451
'0.154302670623', 0.15430267
'0.246290801187', 0.2462908
'0.255192878338', 0.25519288
'0.33234421365', 0.33234421
'0.456973293769', 0.45697329
'0.557863501484', 0.5578635
'0.792284866469', 0.79228487
'0.896142433234', 0.89614243
'0.721068249258', 0.72106825
'0.640949554896', 0.64094955
'0.548961424332', 0.54896142
'0.359050445104', 0.35905045
'NA', 0.33478591
'NA', 0.37508187
'NA', 0.34647035
'NA', 0.2020774
'NA', 0.27779888
'NA', 0.30453953
'NA', 0.29772088
'NA', 0.2493029
'NA', 0.21246811
'NA', 0.2019759
'NA', 0.19096789
'0.0652818991098', 0.0652819
'0.112759643917', 0.11275964
'0.0504451038576', 0.0504451
'0.112759643917', 0.11275964
'0.219584569733', 0.21958457
'0.427299703264', 0.4272997
'0.222551928783', 0.22255193
'0.305637982196', 0.30563798
'0.442136498516', 0.4421365
'0.433234421365', 0.43323442
'0.409495548961', 0.40949555
'0.234421364985', 0.23442136
'0.115727002967', 0.115727
'0.13649851632', 0.13649852
'0.216617210682', 0.21661721
'0.148367952522', 0.14836795
'0.0356083086053', 0.03560831
'0.0296735905045', 0.02967359
'0.189910979228', 0.18991098
'0.195845697329', 0.1958457
'0.302670623145', 0.30267062
'0.148367952522', 0.14836795
'0.139465875371', 0.13946588
'0.121661721068', 0.12166172
'0.0415430267062', 0.04154303
'0.115727002967', 0.115727
'0.0563798219585', 0.05637982
'0.139465875371', 0.13946588
'0.124629080119', 0.12462908
'0.204747774481', 0.20474777
'0.329376854599', 0.32937685
'0.323442136499', 0.32344214
'0.314540059347', 0.31454006
'0.148367952522', 0.14836795
'0.0860534124629', 0.08605341
'0.175074183976', 0.17507418
'0.183976261128', 0.18397626
'0.127596439169', 0.12759644
'0.0593471810089', 0.05934718
'0.100890207715', 0.10089021
'NA', 0.13538943
'0.0415430267062', 0.04154303
'0.0830860534125', 0.08308605
'0.109792284866', 0.10979228
'0.157270029674', 0.15727003
'0.0623145400593', 0.06231454
'0.0415430267062', 0.04154303
'0.0890207715134', 0.08902077
'0.106824925816', 0.10682493
'0.109792284866', 0.10979228
'0.0563798219585', 0.05637982
'0.0652818991098', 0.0652819
'0.154302670623', 0.15430267
'0.109792284866', 0.10979228
'0.166172106825', 0.16617211
'0.296735905045', 0.29673591
'0.427299703264', 0.4272997
'0.39762611276', 0.39762611
'0.293768545994', 0.29376855
'0.148367952522', 0.14836795
'0.350148367953', 0.35014837
'0.33234421365', 0.33234421
'0.430267062315', 0.43026706
'0.26706231454', 0.26706231
'0.183976261128', 0.18397626
'0.13056379822', 0.1305638
'0.20178041543', 0.20178042
'0.118694362018', 0.11869436
'0.222551928783', 0.22255193
'0.139465875371', 0.13946588
'0.0712166172107', 0.07121662
'0.053412462908', 0.05341246
'0.0741839762611', 0.07418398
'0.0919881305638', 0.09198813
'0.0682492581602', 0.06824926
'0.0652818991098', 0.0652819
'0.166172106825', 0.16617211
'0.13649851632', 0.13649852
'0.166172106825', 0.16617211
'0.19881305638', 0.19881306
'0.231454005935', 0.23145401
'0.326409495549', 0.3264095
'0.323442136499', 0.32344214
'0.305637982196', 0.30563798
'0.270029673591', 0.27002967
'0.172106824926', 0.17210682
'0.302670623145', 0.30267062
'0.296735905045', 0.29673591
'0.19881305638', 0.19881306
'0.317507418398', 0.31750742
'0.305637982196', 0.30563798
'0.0830860534125', 0.08308605
'0.0474777448071', 0.04747774
'0.178041543027', 0.17804154
'0.0919881305638', 0.09198813
'0.0356083086053', 0.03560831
'0.0593471810089', 0.05934718
'0.0118694362018', 0.01186944
'0.0237388724036', 0.02373887
'0.0919881305638', 0.09198813
'0.13353115727', 0.13353116
'0.186943620178', 0.18694362
'0.320474777448', 0.32047478
'0.430267062315', 0.43026706
'0.373887240356', 0.37388724
'0.231454005935', 0.23145401
'0.225519287834', 0.22551929
'0.33234421365', 0.33234421
'0.26409495549', 0.26409496
'0.225519287834', 0.22551929
'0.112759643917', 0.11275964
'0.0979228486647', 0.09792285
'0.213649851632', 0.21364985
'0.13056379822', 0.1305638
'0.0593471810089', 0.05934718
'0.160237388724', 0.16023739
'0.121661721068', 0.12166172
'0.106824925816', 0.10682493
'0.112759643917', 0.11275964
'0.0474777448071', 0.04747774
'0.0979228486647', 0.09792285
'0.0593471810089', 0.05934718
'0.080118694362', 0.08011869
'0.112759643917', 0.11275964
'0.080118694362', 0.08011869
'0.0682492581602', 0.06824926
'0.127596439169', 0.12759644
'0.13056379822', 0.1305638
'0.195845697329', 0.1958457
'0.270029673591', 0.27002967
'0.341246290801', 0.34124629
'0.323442136499', 0.32344214
'0.308605341246', 0.30860534
'0.284866468843', 0.28486647
'0.0563798219585', 0.05637982
'0.0830860534125', 0.08308605
'0.186943620178', 0.18694362
'0.314540059347', 0.31454006
'0.412462908012', 0.41246291
'0.424332344214', 0.42433234
'0.528189910979', 0.52818991
'0.382789317507', 0.38278932
'0.353115727003', 0.35311573
'0.415430267062', 0.41543027
'0.353115727003', 0.35311573
'0.296735905045', 0.29673591
'0.100890207715', 0.10089021
'0.204747774481', 0.20474777
'0.385756676558', 0.38575668
'0.362017804154', 0.3620178
'0.145400593472', 0.14540059
'0.222551928783', 0.22255193
'0.219584569733', 0.21958457
'0.459940652819', 0.45994065
'0.26706231454', 0.26706231
'0.388724035608', 0.38872404
'0.0830860534125', 0.08308605
'0.145400593472', 0.14540059
'0.0741839762611', 0.07418398
'0.154302670623', 0.15430267
'0.053412462908', 0.05341246
'0.109792284866', 0.10979228
'0.0949554896142', 0.09495549
'0.0652818991098', 0.0652819
'0.0830860534125', 0.08308605
'0.112759643917', 0.11275964
'0.183976261128', 0.18397626
'0.13649851632', 0.13649852
'0.151335311573', 0.15133531
'0.139465875371', 0.13946588
'0.0652818991098', 0.0652819
'0.0830860534125', 0.08308605
'0.356083086053', 0.35608309
'0.519287833828', 0.51928783
'0.53115727003', 0.53115727
'0.436201780415', 0.43620178
'0.436201780415', 0.43620178
'0.747774480712', 0.74777448
'0.756676557864', 0.75667656
'0.747774480712', 0.74777448
'0.605341246291', 0.60534125
'0.501483679525', 0.50148368
'0.436201780415', 0.43620178
'0.409495548961', 0.40949555
'0.367952522255', 0.36795252
'0.629080118694', 0.62908012
'0.26409495549', 0.26409496
'0.243323442136', 0.24332344
'0.145400593472', 0.14540059
'0.100890207715', 0.10089021
'0.231454005935', 0.23145401
'0.124629080119', 0.12462908
'0.0682492581602', 0.06824926
'0.0860534124629', 0.08605341
'0.0415430267062', 0.04154303
'0.124629080119', 0.12462908
'0.293768545994', 0.29376855
'0.548961424332', 0.54896142
'0.540059347181', 0.54005935
'0.551928783383', 0.55192878
'0.614243323442', 0.61424332
'0.623145400593', 0.6231454
'0.694362017804', 0.69436202
'0.816023738872', 0.81602374
'0.709198813056', 0.70919881
'0.629080118694', 0.62908012
'0.421364985163', 0.42136499
'0.293768545994', 0.29376855
'0.445103857567', 0.44510386
'0.270029673591', 0.27002967
'0.326409495549', 0.3264095
'0.308605341246', 0.30860534
'0.474777448071', 0.47477745
'0.46884272997', 0.46884273
'0.394658753709', 0.39465875
'0.26409495549', 0.26409496
'0.195845697329', 0.1958457
'0.0623145400593', 0.06231454
'0.296735905045', 0.29673591
'0.338278931751', 0.33827893
'0.160237388724', 0.16023739
'0.0860534124629', 0.08605341
'0.210682492582', 0.21068249
'0.258160237389', 0.25816024
'0.178041543027', 0.17804154
'0.344213649852', 0.34421365
'0.581602373887', 0.58160237
'0.632047477745', 0.63204748
'0.454005934718', 0.45400593
'0.258160237389', 0.25816024
'0.139465875371', 0.13946588
'0.0207715133531', 0.02077151
'0.053412462908', 0.05341246
'0.0623145400593', 0.06231454
'0.0682492581602', 0.06824926
'0.0979228486647', 0.09792285
'0.0504451038576', 0.0504451
'0.0474777448071', 0.04747774
'0.305637982196', 0.30563798
'0.299703264095', 0.29970326
'0.222551928783', 0.22255193
'0.293768545994', 0.29376855
'0.382789317507', 0.38278932
'0.26706231454', 0.26706231
'0.0326409495549', 0.03264095
'0.284866468843', 0.28486647
'0.148367952522', 0.14836795
'0.192878338279', 0.19287834
'0.249258160237', 0.24925816
'0.290801186944', 0.29080119
'0.394658753709', 0.39465875
'0.124629080119', 0.12462908
'0.0504451038576', 0.0504451
'0.13353115727', 0.13353116
'0.109792284866', 0.10979228
'0.0445103857567', 0.04451039
'0.172106824926', 0.17210682
'0.195845697329', 0.1958457
'0.0623145400593', 0.06231454
'0.151335311573', 0.15133531
'0.118694362018', 0.11869436
'0.053412462908', 0.05341246
'0.0712166172107', 0.07121662
'0.0474777448071', 0.04747774
'0.225519287834', 0.22551929
'0.195845697329', 0.1958457
'0.272997032641', 0.27299703
'0.495548961424', 0.49554896
'0.474777448071', 0.47477745
'0.305637982196', 0.30563798
'0.421364985163', 0.42136499
'0.474777448071', 0.47477745
'0.394658753709', 0.39465875
'0.507418397626', 0.5074184
'0.477744807122', 0.47774481
'0.347181008902', 0.34718101
'0.231454005935', 0.23145401
'0.287833827893', 0.28783383
'0.246290801187', 0.2462908
'0.154302670623', 0.15430267
'0.124629080119', 0.12462908
'0.053412462908', 0.05341246
'0.0178041543027', 0.01780415
'0.0919881305638', 0.09198813
'0.080118694362', 0.08011869
'0.13353115727', 0.13353116
'0.080118694362', 0.08011869
'0.0860534124629', 0.08605341
'0.0771513353116', 0.07715134
'0.0623145400593', 0.06231454
'0.0682492581602', 0.06824926
'0.127596439169', 0.12759644
'0.178041543027', 0.17804154
'0.183976261128', 0.18397626
'0.207715133531', 0.20771513
'0.145400593472', 0.14540059
'0.189910979228', 0.18991098
'0.183976261128', 0.18397626
'0.148367952522', 0.14836795
'0.243323442136', 0.24332344
'0.192878338279', 0.19287834
'0.225519287834', 0.22551929
'0.160237388724', 0.16023739
'0.225519287834', 0.22551929
'0.275964391691', 0.27596439
'0.216617210682', 0.21661721
'0.270029673591', 0.27002967
'0.166172106825', 0.16617211
'0.0949554896142', 0.09495549
'0.100890207715', 0.10089021
'0.0504451038576', 0.0504451
'0.0356083086053', 0.03560831
'0.0623145400593', 0.06231454
'0.0474777448071', 0.04747774
'0.0474777448071', 0.04747774
'0.112759643917', 0.11275964
'0.183976261128', 0.18397626
'0.160237388724', 0.16023739
'0.118694362018', 0.11869436
'0.172106824926', 0.17210682
'0.225519287834', 0.22551929
'0.367952522255', 0.36795252
'0.456973293769', 0.45697329
'0.388724035608', 0.38872404
'0.272997032641', 0.27299703
'0.492581602374', 0.4925816
'0.231454005935', 0.23145401
'0.0890207715134', 0.08902077
'0.106824925816', 0.10682493
'0.0860534124629', 0.08605341
'0.0771513353116', 0.07715134
'0.0504451038576', 0.0504451
'0.0326409495549', 0.03264095
'0.0326409495549', 0.03264095
'0.100890207715', 0.10089021
'0.0890207715134', 0.08902077
'0.0741839762611', 0.07418398
'0.026706231454', 0.02670623
'0.118694362018', 0.11869436
'0.0712166172107', 0.07121662
'0.115727002967', 0.115727
'0.13056379822', 0.1305638
'0.20178041543', 0.20178042
'0.246290801187', 0.2462908
'0.370919881306', 0.37091988
'0.216617210682', 0.21661721
'0.275964391691', 0.27596439
'0.270029673591', 0.27002967
'0.287833827893', 0.28783383
'0.0682492581602', 0.06824926
'0.118694362018', 0.11869436
'0.0356083086053', 0.03560831
'0.0445103857567', 0.04451039
'0.026706231454', 0.02670623
'0.0296735905045', 0.02967359
'0.0474777448071', 0.04747774
'0.0890207715134', 0.08902077
'0.053412462908', 0.05341246
'0.112759643917', 0.11275964
'0.0741839762611', 0.07418398
'0.106824925816', 0.10682493
'0.0504451038576', 0.0504451
'0.0593471810089', 0.05934718
'0.0741839762611', 0.07418398
'0.0890207715134', 0.08902077
'0.100890207715', 0.10089021
'0.109792284866', 0.10979228
'0.0979228486647', 0.09792285
'0.169139465875', 0.16913947
'0.278931750742', 0.27893175
'0.557863501484', 0.5578635
'0.323442136499', 0.32344214
'0.284866468843', 0.28486647
'0.139465875371', 0.13946588
'0.118694362018', 0.11869436
'0.166172106825', 0.16617211
'0.204747774481', 0.20474777
'0.243323442136', 0.24332344
'0.109792284866', 0.10979228
'0.0712166172107', 0.07121662
'0.0118694362018', 0.01186944
'0.106824925816', 0.10682493
'0.0623145400593', 0.06231454
'0.0415430267062', 0.04154303
'0.109792284866', 0.10979228
'0.124629080119', 0.12462908
'0.0860534124629', 0.08605341
'0.0445103857567', 0.04451039
'0.0949554896142', 0.09495549
'0.0919881305638', 0.09198813
'0.106824925816', 0.10682493
'0.127596439169', 0.12759644
'0.192878338279', 0.19287834
'0.148367952522', 0.14836795
'0.26706231454', 0.26706231
'0.367952522255', 0.36795252
'0.359050445104', 0.35905045
'0.210682492582', 0.21068249
'0.0652818991098', 0.0652819
'0.13056379822', 0.1305638
'0.053412462908', 0.05341246
'0.0504451038576', 0.0504451
'0.106824925816', 0.10682493
'0.118694362018', 0.11869436
'0.080118694362', 0.08011869
'0.026706231454', 0.02670623
'0.0148367952522', 0.0148368
'0.053412462908', 0.05341246
'0.109792284866', 0.10979228
'0.0890207715134', 0.08902077
'0.0563798219585', 0.05637982
'0.0919881305638', 0.09198813
'0.127596439169', 0.12759644
'0.124629080119', 0.12462908
'0.115727002967', 0.115727
'0.157270029674', 0.15727003
'0.080118694362', 0.08011869
'0.178041543027', 0.17804154
'0.293768545994', 0.29376855
'0.222551928783', 0.22255193
'0.157270029674', 0.15727003
'0.305637982196', 0.30563798
'0.118694362018', 0.11869436
'0.0593471810089', 0.05934718
'0.080118694362', 0.08011869
'0.0652818991098', 0.0652819
'0.0652818991098', 0.0652819
'0.0682492581602', 0.06824926
'0.0296735905045', 0.02967359
'0.0445103857567', 0.04451039
'0.0890207715134', 0.08902077
'0.0830860534125', 0.08308605
'0.157270029674', 0.15727003
'0.100890207715', 0.10089021
'0.0890207715134', 0.08902077
'0.106824925816', 0.10682493
'0.100890207715', 0.10089021
'0.246290801187', 0.2462908
'0.287833827893', 0.28783383
'0.278931750742', 0.27893175
'0.219584569733', 0.21958457
'0.255192878338', 0.25519288
'0.127596439169', 0.12759644
'0.186943620178', 0.18694362
'0.19881305638', 0.19881306
'0.181008902077', 0.1810089
'0.0385756676558', 0.03857567
'0.026706231454', 0.02670623
'0.118694362018', 0.11869436
'0.142433234421', 0.14243323
'0.121661721068', 0.12166172
'0.151335311573', 0.15133531
'0.13056379822', 0.1305638
'0.0830860534125', 0.08308605
'0.0860534124629', 0.08605341
'0.13056379822', 0.1305638
'0.0504451038576', 0.0504451
'0.0385756676558', 0.03857567
'0.0207715133531', 0.02077151
'0.0563798219585', 0.05637982
'0.109792284866', 0.10979228
'0.183976261128', 0.18397626
'0.157270029674', 0.15727003
'0.189910979228', 0.18991098
'0.207715133531', 0.20771513
'0.305637982196', 0.30563798
'0.287833827893', 0.28783383
'0.231454005935', 0.23145401
'0.246290801187', 0.2462908
'0.272997032641', 0.27299703
'0.275964391691', 0.27596439
'0.323442136499', 0.32344214
'0.192878338279', 0.19287834
'0.0741839762611', 0.07418398
'0.0919881305638', 0.09198813
'0.112759643917', 0.11275964
'0.0296735905045', 0.02967359
'0.0830860534125', 0.08308605
'0.0296735905045', 0.02967359
'0.0356083086053', 0.03560831
'0.0890207715134', 0.08902077
'0.0178041543027', 0.01780415
'0.0919881305638', 0.09198813
'0.100890207715', 0.10089021
'0.115727002967', 0.115727
'0.142433234421', 0.14243323
'0.178041543027', 0.17804154
'0.172106824926', 0.17210682
'0.192878338279', 0.19287834
'0.261127596439', 0.2611276
'0.234421364985', 0.23442136
'0.234421364985', 0.23442136
'0.418397626113', 0.41839763
'0.181008902077', 0.1810089
'0.145400593472', 0.14540059
'0.204747774481', 0.20474777
'0.323442136499', 0.32344214
'0.115727002967', 0.115727
'0.0237388724036', 0.02373887
'0.103857566766', 0.10385757
'0.112759643917', 0.11275964
'0.0741839762611', 0.07418398
'0.0563798219585', 0.05637982
'0.13056379822', 0.1305638
'0.0712166172107', 0.07121662
'0.13056379822', 0.1305638
'0.0207715133531', 0.02077151
'0.0771513353116', 0.07715134
'0.219584569733', 0.21958457
'0.391691394659', 0.39169139
'0.118694362018', 0.11869436
'0.370919881306', 0.37091988
'0.462908011869', 0.46290801
'0.640949554896', 0.64094955
'0.655786350148', 0.65578635
'0.53412462908', 0.53412463
'0.3353115727', 0.33531157
'0.0830860534125', 0.08308605
'0.163204747774', 0.16320475
'0.118694362018', 0.11869436
'0.106824925816', 0.10682493
'0.0949554896142', 0.09495549
'0.0979228486647', 0.09792285
'0.0326409495549', 0.03264095
'0.121661721068', 0.12166172
'0.278931750742', 0.27893175
'0.219584569733', 0.21958457
'0.0296735905045', 0.02967359
'0.026706231454', 0.02670623
'0.0356083086053', 0.03560831
'0.178041543027', 0.17804154
'0.0860534124629', 0.08605341
'0.0593471810089', 0.05934718
'0.186943620178', 0.18694362
'0.382789317507', 0.38278932
'0.219584569733', 0.21958457
'0.240356083086', 0.24035608
'0.160237388724', 0.16023739
'0.0326409495549', 0.03264095
'0.142433234421', 0.14243323
'0.255192878338', 0.25519288
'0.175074183976', 0.17507418
'0.163204747774', 0.16320475
'0.151335311573', 0.15133531
'0.0474777448071', 0.04747774
'0.0504451038576', 0.0504451
'0.0771513353116', 0.07715134
'0.175074183976', 0.17507418
'0.121661721068', 0.12166172
'0.0771513353116', 0.07715134
'0.0979228486647', 0.09792285
'0.189910979228', 0.18991098
'0.148367952522', 0.14836795
'0.0830860534125', 0.08308605
'0.0949554896142', 0.09495549
'0.169139465875', 0.16913947
'0.320474777448', 0.32047478
'0.204747774481', 0.20474777
'0.255192878338', 0.25519288
'0.459940652819', 0.45994065
'0.427299703264', 0.4272997
'0.543026706231', 0.54302671
'0.489614243323', 0.48961424
'0.436201780415', 0.43620178
'0.213649851632', 0.21364985
'0.145400593472', 0.14540059
'0.0563798219585', 0.05637982
'0.0682492581602', 0.06824926
'0.186943620178', 0.18694362
'0.181008902077', 0.1810089
'0.0919881305638', 0.09198813
'0.0682492581602', 0.06824926
'0.109792284866', 0.10979228
'0.219584569733', 0.21958457
'0.121661721068', 0.12166172
'0.0830860534125', 0.08308605
'0.0741839762611', 0.07418398
'0.0593471810089', 0.05934718
'0.103857566766', 0.10385757
'0.148367952522', 0.14836795
'0.329376854599', 0.32937685
'0.454005934718', 0.45400593
'0.231454005935', 0.23145401
'0.519287833828', 0.51928783
'0.367952522255', 0.36795252
'0.462908011869', 0.46290801
'0.551928783383', 0.55192878
'0.436201780415', 0.43620178
'0.160237388724', 0.16023739
'0.175074183976', 0.17507418
'0.231454005935', 0.23145401
'0.222551928783', 0.22255193
'0.0474777448071', 0.04747774
'0.142433234421', 0.14243323
'0.243323442136', 0.24332344
'0.100890207715', 0.10089021
'0.0741839762611', 0.07418398
'0.13649851632', 0.13649852
'0.0712166172107', 0.07121662
'0.0771513353116', 0.07715134
'0.0860534124629', 0.08605341
'0.13649851632', 0.13649852
'0.270029673591', 0.27002967
'0.388724035608', 0.38872404
'0.370919881306', 0.37091988
'0.430267062315', 0.43026706
'0.439169139466', 0.43916914
'0.406528189911', 0.40652819
'0.341246290801', 0.34124629
'0.338278931751', 0.33827893
'0.442136498516', 0.4421365
'0.3353115727', 0.33531157
'0.109792284866', 0.10979228
'0.183976261128', 0.18397626
'0.183976261128', 0.18397626
'0.0890207715134', 0.08902077
'0.127596439169', 0.12759644
'0.231454005935', 0.23145401
'0.210682492582', 0.21068249
'0.204747774481', 0.20474777
'0.109792284866', 0.10979228
'0.0474777448071', 0.04747774
'0.0949554896142', 0.09495549
'0.160237388724', 0.16023739
'0.0326409495549', 0.03264095
'0.0949554896142', 0.09495549
'0.0682492581602', 0.06824926
'0.0682492581602', 0.06824926
'0.0593471810089', 0.05934718
'0.145400593472', 0.14540059
'0.281899109792', 0.28189911
'0.139465875371', 0.13946588
'0.142433234421', 0.14243323
'0.207715133531', 0.20771513
'0.329376854599', 0.32937685
'0.127596439169', 0.12759644
'0.127596439169', 0.12759644
'0.0979228486647', 0.09792285
'0.0860534124629', 0.08605341
'0.0385756676558', 0.03857567
'0.0593471810089', 0.05934718
'0.169139465875', 0.16913947
'0.118694362018', 0.11869436
'0.296735905045', 0.29673591
'0.13649851632', 0.13649852
'0.0919881305638', 0.09198813
'0.20178041543', 0.20178042
'0.0979228486647', 0.09792285
'0.213649851632', 0.21364985
'0.0504451038576', 0.0504451
'0.115727002967', 0.115727
'0.080118694362', 0.08011869
'0.192878338279', 0.19287834
'0.139465875371', 0.13946588
'0.181008902077', 0.1810089
'0.19881305638', 0.19881306
'0.344213649852', 0.34421365
'0.439169139466', 0.43916914
'0.507418397626', 0.5074184
'0.525222551929', 0.52522255
