Target,Output
 0.14049587, 0.15666322
 0.17768595, 0.1642562
 0.5, 0.18257231
 0.65702479, 0.52791322
 0.75619835, 0.66403926
 0.75619835, 0.69373967
 0.95867769, 0.6373657
 0.87603306, 0.6031405
 0.79752066, 0.59057851
 0.73553719, 0.57803719
 0.55785124, 0.52811983
 0.26033058, 0.46694215
 0.52892562, 0.3084814
 0.48760331, 0.34546488
 0.28099174, 0.28522727
 0.10330579, 0.19884298
 0.16942149, 0.13022727
 0.18181818, 0.16363636
 0.15702479, 0.18916322
 0.2231405, 0.15319215
 0.19421488, 0.18410124
 0.14049587, 0.19295455
 0.09504132, 0.17586777
 0.10743802, 0.14232438
 0.10330579, 0.15709711
 0.23966942, 0.15635331
 0.24793388, 0.27900826
 0.45454545, 0.29818182
 0.73966942, 0.52016529
 0.83057851, 0.72915289
 0.88842975, 0.73207645
 0.85123967, 0.69950413
 0.7231405, 0.60429752
 0.62396694, 0.57289256
 0.40909091, 0.51688017
 0.25206612, 0.35459711
 0.2768595, 0.2648657
 0.26446281, 0.24291322
 0.1446281, 0.20892562
 0.17768595, 0.19884298
 0.10330579, 0.21668388
 0.11983471, 0.17085744
 0.0785124, 0.13928719
 0.13636364, 0.14347107
 0.08264463, 0.16910124
 0.18595041, 0.12822314
 0.08264463, 0.19308884
 0.08264463, 0.13475207
 0.18595041, 0.12581612
 0.21487603, 0.2014876
 0.28512397, 0.25036157
 0.62809917, 0.34231405
 0.69421488, 0.66442149
 0.90495868, 0.72855372
 0.88016529, 0.71594008
 0.81404959, 0.61272727
 0.62809917, 0.6185124
 0.54132231, 0.50115702
 0.35950413, 0.45154959
 0.47520661, 0.31625
 0.41735537, 0.32496901
 0.3677686, 0.25448347
 0.17355372, 0.27120868
 0.21900826, 0.17668388
 0.28512397, 0.21252066
 0.19834711, 0.29213843
 0.11570248, 0.23956612
 0.19421488, 0.17669421
 0.24380165, 0.18246901
 0.22727273, 0.21241736
 0.12809917, 0.19475207
 0.1446281, 0.17455579
 0.18595041, 0.17119835
 0.19008264, 0.16756198
 0.2107438, 0.18415289
 0.26446281, 0.22266529
 0.30165289, 0.2334814
 0.54958678, 0.33766529
 0.69834711, 0.62330579
 0.59504132, 0.68940083
 0.71487603, 0.54790289
 0.5661157, 0.57356405
 0.35950413, 0.46297521
 0.18181818, 0.28297521
 0.11570248, 0.19983471
 0.15702479, 0.18827479
 0.11157025, 0.15913223
 0.12809917, 0.14916322
 0.07438017, 0.15581612
 0.06198347, 0.13451446
 0.03719008, 0.1414876
 0.18181818, 0.14264463
 0.19266529, 0.21669421
 0.21487603, 0.16677686
 0.15702479, 0.19944215
 0.0661157, 0.14788223
 0.12809917, 0.12258264
 0.13636364, 0.15928719
 0.19834711, 0.17840909
 0.23966942, 0.22217975
 0.24793388, 0.24870868
 0.26859504, 0.22380165
 0.50413223, 0.27471074
 0.30165289, 0.53818182
 0.21487603, 0.38826446
 0.29338843, 0.27967975
 0.11157025, 0.2368905
 0.06198347, 0.1952376
 0.07024793, 0.1477686
 0.09504132, 0.13512397
 0.28099174, 0.15176653
 0.23140496, 0.24084711
 0.17355372, 0.2461157
 0.25206612, 0.19157025
 0.22727273, 0.26975207
 0.15702479, 0.24438017
 0.28512397, 0.20426653
 0.46694215, 0.30658058
 0.58677686, 0.47652893
 0.75206612, 0.59267562
 0.69421488, 0.67961777
 0.59090909, 0.63306818
 0.48347107, 0.4492562
 0.4338843, 0.37975207
 0.34297521, 0.3307438
 0.26446281, 0.24919421
 0.26033058, 0.21471074
 0.66942149, 0.22600207
 0.46694215, 0.37089876
 0.24380165, 0.37194215
 0.26859504, 0.2094938
 0.28512397, 0.22097107
 0.34710744, 0.24492769
 0.15702479, 0.22246901
 0.09090909, 0.16911157
 0.1322314, 0.15150826
 0.0661157, 0.14096074
 0.06198347, 0.14035124
 0.06198347, 0.12265496
 0.16528926, 0.13652893
 0.2107438, 0.1753719
 0.16942149, 0.17107438
 0.12396694, 0.16621901
 0.04958678, 0.13225207
 0.11983471, 0.12895661
 0.25619835, 0.17622934
 0.31818182, 0.29375
 0.30578512, 0.3527376
 0.39256198, 0.4138843
 0.40909091, 0.43289256
 0.40082645, 0.43454545
 0.45041322, 0.42487603
 0.24793388, 0.44133264
 0.09917355, 0.25355372
 0.04545455, 0.15405992
 0.08264463, 0.12382231
 0.04545455, 0.13989669
 0.18595041, 0.11428719
 0.09917355, 0.20165289
 0.11157025, 0.12809917
 0.10330579, 0.13336777
 0.03719008, 0.14779959
 0.02479339, 0.12546488
 0.16528926, 0.12876033
 0.23140496, 0.17719008
 0.19421488, 0.19438017
 0.21487603, 0.18616736
 0.18181818, 0.21416322
 0.11983471, 0.18117769
 0.20661157, 0.1719938
 0.24793388, 0.2040186
 0.24793388, 0.23717975
 0.22727273, 0.25775826
 0.3677686, 0.22989669
 0.43801653, 0.41844008
 0.38429752, 0.43975207
 0.34710744, 0.45131198
 0.17768595, 0.40649793
 0.09090909, 0.20041322
 0.17768595, 0.16321281
 0.40909091, 0.14211777
 0.41322314, 0.32777893
 0.19008264, 0.39404959
 0.19008264, 0.31737603
 0.04132231, 0.20680785
 0.04132231, 0.15505165
 0.08264463, 0.13804752
 0.19834711, 0.11438017
 0.21900826, 0.26118802
 0.16115702, 0.22975207
 0.08264463, 0.15036157
 0.08264463, 0.12613636
 0.16942149, 0.14081612
 0.23140496, 0.18580579
 0.22727273, 0.24863636
 0.2892562, 0.28021694
 0.31404959, 0.32115702
 0.3553719, 0.35744835
 0.40909091, 0.38248967
 0.38429752, 0.40818182
 0.37603306, 0.42771694
 0.2892562, 0.42477273
 0.12809917, 0.30176653
 0.17768595, 0.18058884
 0.1446281, 0.14766529
 0.09504132, 0.14475207
 0.08264463, 0.14690083
 0.12809917, 0.1367562
 0.11570248, 0.1572314
 0.10743802, 0.1353719
 0.23140496, 0.1381405
 0.19834711, 0.21404959
 0.16115702, 0.23296488
 0.20247934, 0.17268595
 0.11983471, 0.17407025
 0.18181818, 0.18431818
 0.17355372, 0.17479339
 0.19834711, 0.20804752
 0.20247934, 0.18299587
 0.30578512, 0.22869835
 0.2768595, 0.29269628
 0.37603306, 0.30171488
 0.45867769, 0.39170455
 0.35950413, 0.45454545
 0.40082645, 0.42862603
 0.4214876, 0.4518595
 0.57024793, 0.39760331
 0.6322314, 0.39876033
 0.48760331, 0.45889463
 0.70247934, 0.3272314
 0.61983471, 0.51008264
 0.51239669, 0.46975207
 0.21487603, 0.37636364
 0.12396694, 0.25173554
 0.10743802, 0.16725207
 0.04132231, 0.13929752
 0.04132231, 0.12975207
 0.05785124, 0.12470041
 0.12809917, 0.12628099
 0.23553719, 0.14132231
 0.28512397, 0.17917355
 0.23140496, 0.2678719
 0.31404959, 0.27835744
 0.28099174, 0.33107438
 0.24380165, 0.32005165
 0.23140496, 0.32498967
 0.26033058, 0.24409091
 0.32644628, 0.29576446
 0.25206612, 0.38559917
 0.41735537, 0.33157025
 0.52892562, 0.43171488
 0.55785124, 0.48548554
 0.52066116, 0.50327479
 0.75619835, 0.46715909
 0.33057851, 0.62692149
 0.53719008, 0.26019628
 0.40495868, 0.33123967
 0.60743802, 0.29603306
 0.45454545, 0.29917355
 0.23553719, 0.22783058
 0.0785124, 0.24465909
 0.10330579, 0.12306818
 0.09090909, 0.15342975
 0.19008264, 0.13867769
 0.15702479, 0.14640496
 0.18181818, 0.18475207
 0.24793388, 0.1927376
 0.19834711, 0.20714876
 0.29752066, 0.20617769
 0.35950413, 0.30748967
 0.42975207, 0.38547521
 0.49586777, 0.41915289
 0.65289256, 0.50489669
 0.55371901, 0.5931405
 0.32644628, 0.45645661
 0.26446281, 0.24414256
 0.39256198, 0.26602273
 0.42561983, 0.27960744
 0.2892562, 0.24994835
 0.08677686, 0.18998967
 0.20247934, 0.16201446
 0.12319215, 0.17279959
 0.15444215, 0.13725207
 0.15315083, 0.13713843
 0.16761364, 0.15997934
 0.16503099, 0.16042355
 0.13972107, 0.1698657
 0.15340909, 0.14618802
 0.17794421, 0.1647314
 0.20015496, 0.18334711
 0.21487603, 0.21895661
 0.2231405, 0.22365702
 0.27272727, 0.20301653
 0.31404959, 0.28017562
 0.25206612, 0.34134298
 0.69008264, 0.32590909
 0.72727273, 0.62628099
 0.62396694, 0.66043388
 0.44214876, 0.57048554
 0.24380165, 0.36528926
 0.16942149, 0.28752066
 0.18181818, 0.18836777
 0.12809917, 0.17769628
 0.09504132, 0.17829545
 0.10330579, 0.13044421
 0.11983471, 0.14114669
 0.1322314, 0.16367769
 0.09917355, 0.14349174
 0.11983471, 0.14333678
 0.10743802, 0.14230372
 0.13636364, 0.14585744
 0.14876033, 0.17016529
 0.14049587, 0.16869835
 0.09504132, 0.15917355
 0.16115702, 0.1443595
 0.25206612, 0.17647727
 0.30991736, 0.24637397
 0.3553719, 0.36760331
 0.46694215, 0.45404959
 0.46280992, 0.46198347
 0.25206612, 0.49839876
 0.29338843, 0.32282025
 0.29338843, 0.24822314
 0.36363636, 0.28053719
 0.32231405, 0.30815083
 0.25619835, 0.29414256
 0.38429752, 0.33809917
 0.25206612, 0.40415289
 0.05371901, 0.27363636
 0.10330579, 0.12797521
 0.1446281, 0.13508264
 0.12396694, 0.15811983
 0.16528926, 0.12492769
 0.10330579, 0.18278926
 0.03719008, 0.14645661
 0.08677686, 0.12066116
 0.18181818, 0.16182851
 0.21487603, 0.24264463
 0.26859504, 0.23305785
 0.33884298, 0.31322314
 0.33884298, 0.45272727
 0.38429752, 0.40975207
 0.41735537, 0.42524793
 0.39669421, 0.43069215
 0.54545455, 0.42065083
 0.4214876, 0.45242769
 0.38842975, 0.35630165
 0.50826446, 0.29643595
 0.47520661, 0.34431818
 0.29752066, 0.3339876
 0.32231405, 0.27657025
 0.18595041, 0.26485537
 0.17355372, 0.23845041
 0.08677686, 0.18743802
 0.09917355, 0.15346074
 0.08677686, 0.1316219
 0.10330579, 0.14008264
 0.16115702, 0.15436983
 0.14876033, 0.16396694
 0.2107438, 0.17858471
 0.11157025, 0.20275826
 0.17355372, 0.125
 0.29338843, 0.17770661
 0.36363636, 0.23941116
 0.3553719, 0.44710744
 0.34297521, 0.41091942
 0.25619835, 0.39243802
 0.13636364, 0.34908058
 0.35123967, 0.1746281
 0.45867769, 0.31298554
 0.21487603, 0.45461777
 0.23966942, 0.26191116
 0.20661157, 0.2084814
 0.1322314, 0.20893595
 0.12809917, 0.16054752
 0.17355372, 0.1525
 0.16528926, 0.16934917
 0.10743802, 0.18279959
 0.14049587, 0.15650826
 0.18595041, 0.16619835
 0.18595041, 0.17889463
 0.18181818, 0.21364669
 0.17355372, 0.1781405
 0.24380165, 0.16127066
 0.34710744, 0.21445248
 0.18595041, 0.35833678
 0.25206612, 0.25147727
 0.23553719, 0.27471074
 0.25619835, 0.24038223
 0.28099174, 0.3032438
 0.32644628, 0.31338843
 0.21487603, 0.34990702
 0.21487603, 0.30844008
 0.17768595, 0.26953512
 0.30991736, 0.20715909
 0.38842975, 0.32269628
 0.14049587, 0.43804752
 0.35950413, 0.24590909
 0.11157025, 0.30231405
 0.04545455, 0.18039256
 0.22727273, 0.12620868
 0.23553719, 0.14034091
 0.09090909, 0.19831612
 0.20247934, 0.15391529
 0.09504132, 0.19610537
 0.04132231, 0.14612603
 0.1322314, 0.13279959
 0.38429752, 0.17290289
 0.51652893, 0.3605062
 0.4338843, 0.55889463
 0.45041322, 0.51227273
 0.44628099, 0.51990702
 0.69834711, 0.41296488
 0.54958678, 0.47858471
 0.38016529, 0.39765496
 0.3677686, 0.27984504
 0.37190083, 0.29547521
 0.2892562, 0.28984504
 0.16115702, 0.21424587
 0.20661157, 0.17288223
 0.12396694, 0.18009298
 0.26446281, 0.15022727
 0.18595041, 0.21682851
 0.09504132, 0.20232438
 0.12809917, 0.17077479
 0.14049587, 0.1677376
 0.08264463, 0.1733781
 0.12809917, 0.14483471
 0.14876033, 0.15525826
 0.17355372, 0.17805785
 0.13636364, 0.19421488
 0.11157025, 0.16633264
 0.2231405, 0.15242769
 0.13636364, 0.20508264
 0.26859504, 0.17230372
 0.2768595, 0.23990702
 0.30991736, 0.32512397
 0.38842975, 0.32678719
 0.37190083, 0.4184814
 0.48760331, 0.43214876
 0.4338843, 0.48862603
 0.23966942, 0.43576446
 0.26446281, 0.24998967
 0.23553719, 0.2543905
 0.20661157, 0.25427686
 0.17355372, 0.26344008
 0.11570248, 0.18257231
 0.02892562, 0.16582645
 0.08264463, 0.11875
 0.11983471, 0.14975207
 0.12809917, 0.1815186
 0.18595041, 0.13933884
 0.1322314, 0.16743802
 0.15702479, 0.15703512
 0.16528926, 0.17765496
 0.19834711, 0.17065083
 0.2231405, 0.17725207
 0.12396694, 0.23029959
 0.1446281, 0.17347107
 0.34297521, 0.15309917
 0.37190083, 0.3153719
 0.39256198, 0.40007231
 0.28099174, 0.41522727
 0.39669421, 0.33748967
 0.3677686, 0.42149793
 0.2107438, 0.34244835
 0.18595041, 0.22665289
 0.09504132, 0.17580579
 0.11570248, 0.15320248
 0.18181818, 0.14380165
 0.2231405, 0.16025826
 0.20247934, 0.21278926
 0.21900826, 0.22248967
 0.1446281, 0.1942562
 0.16115702, 0.17176653
 0.14876033, 0.17426653
 0.1446281, 0.17828512
 0.16942149, 0.18863636
 0.09504132, 0.1672624
 0.11157025, 0.13543388
 0.17355372, 0.15121901
 0.19008264, 0.17854339
 0.19421488, 0.20311983
 0.25619835, 0.17719008
 0.32231405, 0.20612603
 0.26859504, 0.37463843
 0.33884298, 0.29582645
 0.34710744, 0.36839876
 0.32231405, 0.35811983
 0.3677686, 0.38545455
 0.19008264, 0.39117769
 0.25619835, 0.26493802
 0.42975207, 0.24978306
 0.23553719, 0.40289256
 0.27272727, 0.27936983
 0.2231405, 0.25971074
 0.2231405, 0.24655992
 0.16528926, 0.26807851
 0.0785124, 0.17279959
 0.18181818, 0.13917355
 0.19834711, 0.17670455
 0.18181818, 0.19775826
 0.11570248, 0.19154959
 0.09917355, 0.16245868
 0.11983471, 0.1322624
 0.24793388, 0.1586157
 0.23553719, 0.27578512
 0.26446281, 0.29057851
 0.28099174, 0.2938843
 0.28512397, 0.33331612
 0.37603306, 0.33262397
 0.17768595, 0.39639463
 0.77272727, 0.27846074
 0.47520661, 0.65520661
 0.24793388, 0.4547624
 0.2231405, 0.23379132
 0.28512397, 0.21088843
 0.30991736, 0.22132231
 0.19834711, 0.20088843
 0.1322314, 0.2253719
 0.0785124, 0.20862603
 0.09917355, 0.1586157
 0.12396694, 0.14095041
 0.11983471, 0.14902893
 0.15289256, 0.1431405
 0.15289256, 0.16168388
 0.12396694, 0.1759814
 0.10330579, 0.15450413
 0.08264463, 0.15941116
 0.12809917, 0.14471074
 0.17355372, 0.1669938
 0.2107438, 0.18431818
 0.25619835, 0.25206612
 0.2231405, 0.24418388
 0.37190083, 0.23204545
 0.44214876, 0.39943182
 0.35123967, 0.44502066
 0.39256198, 0.43895661
 0.28512397, 0.44559917
 0.2892562, 0.28890496
 0.08677686, 0.26880165
 0.27272727, 0.17559917
 0.26033058, 0.2272314
 0.1446281, 0.22265496
 0.05371901, 0.16644628
 0.12396694, 0.12684917
 0.18595041, 0.16775826
 0.13636364, 0.18845041
 0.16942149, 0.17806818
 0.12396694, 0.16538223
 0.0661157, 0.13602273
 0.09917355, 0.11180785
 0.10743802, 0.15720041
 0.14876033, 0.16214876
 0.17355372, 0.18181818
 0.28099174, 0.16396694
 0.34297521, 0.31338843
 0.33057851, 0.45322314
 0.38016529, 0.41619835
 0.3677686, 0.40571281
 0.74380165, 0.40169421
 0.45867769, 0.61088843
 0.2107438, 0.39368802
 0.24793388, 0.22286157
 0.46694215, 0.19914256
 0.37190083, 0.28316116
 0.23140496, 0.18822314
 0.18595041, 0.2197314
 0.11983471, 0.16755165
 0.10330579, 0.17729339
 0.09090909, 0.14528926
 0.0661157, 0.14358471
 0.13636364, 0.13569215
 0.12396694, 0.17008264
 0.06198347, 0.15471074
 0.09917355, 0.10359504
 0.14876033, 0.15259298
 0.20247934, 0.17264463
 0.27272727, 0.24942149
 0.32644628, 0.30165289
 0.47520661, 0.42793388
 0.54545455, 0.48793388
 0.55371901, 0.54951446
 0.49586777, 0.54113636
 0.52892562, 0.4246281
 0.54545455, 0.36483471
 0.35020661, 0.37619835
 0.23140496, 0.25989669
 0.32644628, 0.2256405
 0.32231405, 0.2782438
 0.21900826, 0.25582645
 0.19421488, 0.19433884
 0.13636364, 0.20768595
