Target,Output
 0.24793388, 0.30921195
 0.45454545, 0.35580261
 0.73966942, 0.5866517
 0.83057851, 0.78296479
 0.88842975, 0.74246554
 0.85123967, 0.78420971
 0.7231405, 0.70121385
 0.62396694, 0.57457344
 0.40909091, 0.49074712
 0.25206612, 0.42712461
 0.2768595, 0.23601869
 0.26446281, 0.23041266
 0.1446281, 0.12694745
 0.17768595, 0.12976154
 0.10330579, 0.04480893
 0.11983471, 0.15959337
 0.0785124, 0.14521992
 0.13636364, 0.12691756
 0.08264463, 0.17468354
 0.18595041, 0.1031629
 0.08264463, 0.17066093
 0.08264463, 0.11856149
 0.18595041, 0.13821093
 0.21487603, 0.22862233
 0.28512397, 0.29180907
 0.62809917, 0.42070521
 0.69421488, 0.74206161
 0.90495868, 0.76448746
 0.88016529, 0.79184606
 0.81404959, 0.77408584
 0.62809917, 0.6834273
 0.54132231, 0.43129648
 0.35950413, 0.44917016
 0.47520661, 0.33662895
 0.41735537, 0.40019331
 0.3677686, 0.31804707
 0.17355372, 0.23256138
 0.21900826, 0.13277679
 0.28512397, 0.19514085
 0.19834711, 0.22764099
 0.11570248, 0.14366336
 0.19421488, 0.17060631
 0.24380165, 0.19371651
 0.22727273, 0.17690979
 0.12809917, 0.20139388
 0.1446281, 0.13228727
 0.18595041, 0.17595661
 0.19008264, 0.20379386
 0.2107438, 0.24841014
 0.26446281, 0.31111113
 0.30165289, 0.37951992
 0.54958678, 0.42213361
 0.69834711, 0.61631535
 0.59504132, 0.67377424
 0.71487603, 0.5472042
 0.5661157, 0.55624832
 0.35950413, 0.39657028
 0.18181818, 0.33991651
 0.11570248, 0.24727984
 0.15702479, 0.19822632
 0.11157025, 0.17479623
 0.12809917, 0.10908344
 0.07438017, 0.1553648
 0.06198347, 0.11318859
 0.03719008, 0.10854873
 0.18181818, 0.09814418
 0.19266529, 0.18012859
 0.21487603, 0.186407
 0.15702479, 0.21429793
 0.0661157, 0.15727284
 0.12809917, 0.11974375
 0.13636364, 0.15700847
 0.19834711, 0.19217792
 0.23966942, 0.28903097
 0.24793388, 0.31629497
 0.26859504, 0.35334642
 0.50413223, 0.36049019
 0.30165289, 0.55144837
 0.21487603, 0.31917681
 0.29338843, 0.23955407
 0.11157025, 0.22157915
 0.06198347, 0.16977614
 0.07024793, 0.08313733
 0.09504132, 0.13404641
 0.28099174, 0.07522131
 0.23140496, 0.21862753
 0.17355372, 0.18590867
 0.25206612, 0.18666467
 0.22727273, 0.20408815
 0.15702479, 0.21363968
 0.28512397, 0.1395445
 0.46694215, 0.24984728
 0.58677686, 0.4672181
 0.75206612, 0.57487446
 0.69421488, 0.61288996
 0.59090909, 0.62761184
 0.48347107, 0.57013864
 0.4338843, 0.40366092
 0.34297521, 0.36359979
 0.26446281, 0.28540175
 0.26033058, 0.30787791
 0.66942149, 0.26861335
 0.46694215, 0.49364033
 0.24380165, 0.2328079
 0.26859504, 0.18640569
 0.28512397, 0.19550849
 0.34710744, 0.27717104
 0.15702479, 0.25722213
 0.09090909, 0.15472768
 0.1322314, 0.07272398
 0.0661157, 0.10243564
 0.06198347, 0.10224022
 0.06198347, 0.14203349
 0.16528926, 0.13533463
 0.2107438, 0.25369102
 0.16942149, 0.26892658
 0.12396694, 0.24071224
 0.04958678, 0.20541348
 0.11983471, 0.13894113
 0.25619835, 0.24373899
 0.31818182, 0.28849893
 0.30578512, 0.36113088
 0.39256198, 0.32717733
 0.40909091, 0.40739666
 0.40082645, 0.43394243
 0.45041322, 0.47434307
 0.24793388, 0.43854787
 0.09917355, 0.20885358
 0.04545455, 0.16829007
 0.08264463, 0.1481952
 0.04545455, 0.1468614
 0.18595041, 0.08636905
 0.09917355, 0.16956887
 0.11157025, 0.11900122
 0.10330579, 0.14451035
 0.03719008, 0.131919
 0.02479339, 0.080726
 0.16528926, 0.07443079
 0.23140496, 0.17345759
 0.19421488, 0.24761374
 0.21487603, 0.22388941
 0.18181818, 0.24235349
 0.11983471, 0.22553795
 0.20661157, 0.17572261
 0.24793388, 0.25185486
 0.24793388, 0.27739503
 0.22727273, 0.30579129
 0.3677686, 0.25474376
 0.43801653, 0.39422453
 0.38429752, 0.41680808
 0.34710744, 0.31540625
 0.17768595, 0.26466807
 0.09090909, 0.18219802
 0.17768595, 0.14459179
 0.40909091, 0.20497961
 0.41322314, 0.36220909
 0.19008264, 0.35004482
 0.19008264, 0.16455339
 0.04132231, 0.15293808
 0.04132231, 0.09973392
 0.08264463, 0.10501095
 0.19834711, 0.11725277
 0.21900826, 0.20345421
 0.16115702, 0.20880609
 0.08264463, 0.16705986
 0.08264463, 0.13888813
 0.16942149, 0.14111727
 0.23140496, 0.20635556
 0.22727273, 0.26798094
 0.2892562, 0.26921183
 0.31404959, 0.32938508
 0.3553719, 0.33291343
 0.40909091, 0.36846772
 0.38429752, 0.38617585
 0.37603306, 0.35485972
 0.2892562, 0.32523598
 0.12809917, 0.15117563
 0.17768595, 0.19477467
 0.1446281, 0.24812354
 0.09504132, 0.12257801
 0.08264463, 0.11515895
 0.12809917, 0.11808986
 0.11570248, 0.1518268
 0.10743802, 0.14817864
 0.23140496, 0.13437294
 0.19834711, 0.21500607
 0.16115702, 0.16781015
 0.20247934, 0.17523201
 0.11983471, 0.19359058
 0.18181818, 0.14648158
 0.17355372, 0.21076441
 0.19834711, 0.19096732
 0.20247934, 0.242623
 0.30578512, 0.22600876
 0.2768595, 0.33822278
 0.37603306, 0.31158908
 0.45867769, 0.39291272
 0.35950413, 0.46099145
 0.40082645, 0.33292582
 0.4214876, 0.33972711
 0.57024793, 0.29478898
 0.6322314, 0.4620125
 0.48760331, 0.40167205
 0.70247934, 0.29984718
 0.61983471, 0.52967077
 0.51239669, 0.38099875
 0.21487603, 0.32458493
 0.12396694, 0.23046508
 0.10743802, 0.20651526
 0.04132231, 0.13689317
 0.04132231, 0.13193247
 0.05785124, 0.08313328
 0.12809917, 0.11131895
 0.23553719, 0.1350579
 0.28512397, 0.20560175
 0.23140496, 0.24878559
 0.31404959, 0.22410025
 0.28099174, 0.31394273
 0.24380165, 0.26543222
 0.23140496, 0.27353564
 0.26033058, 0.28305869
 0.32644628, 0.28094999
 0.25206612, 0.35854084
 0.41735537, 0.28790475
 0.52892562, 0.52193333
 0.55785124, 0.56837739
 0.52066116, 0.57725049
 0.75619835, 0.50565757
 0.33057851, 0.65557268
 0.53719008, 0.20583055
 0.40495868, 0.36035573
 0.60743802, 0.25478188
 0.45454545, 0.45268952
 0.23553719, 0.32076009
 0.0785124, 0.1420806
 0.10330579, 0.06935624
 0.09090909, 0.20134857
 0.19008264, 0.09504507
 0.15702479, 0.18292054
 0.18181818, 0.15102145
 0.24793388, 0.19252666
 0.19834711, 0.19524031
 0.29752066, 0.18796888
 0.35950413, 0.27945641
 0.42975207, 0.31989131
 0.49586777, 0.438001
 0.65289256, 0.43334055
 0.55371901, 0.69632054
 0.32644628, 0.61858768
 0.26446281, 0.29763459
 0.39256198, 0.27569639
 0.42561983, 0.4602423
 0.2892562, 0.31890566
 0.08677686, 0.17145868
 0.20247934, 0.22485224
 0.12319215, 0.23834374
 0.15444215, 0.16087484
 0.15315083, 0.14896801
 0.16761364, 0.14832205
 0.16503099, 0.18450482
 0.13972107, 0.18734822
 0.15340909, 0.16552666
 0.17794421, 0.12475278
 0.20015496, 0.16500373
 0.21487603, 0.22076842
 0.2231405, 0.2497224
 0.27272727, 0.26527411
 0.31404959, 0.32794652
 0.25206612, 0.35099188
 0.69008264, 0.29374504
 0.72727273, 0.74435002
 0.62396694, 0.64820927
 0.44214876, 0.54262662
 0.24380165, 0.2694926
 0.16942149, 0.32998992
 0.18181818, 0.3172592
 0.12809917, 0.21465792
 0.09504132, 0.10758743
 0.10330579, 0.12240173
 0.11983471, 0.13644536
 0.1322314, 0.12602543
 0.09917355, 0.11973761
 0.11983471, 0.13439299
 0.10743802, 0.13374855
 0.13636364, 0.14108789
 0.14876033, 0.17153556
 0.14049587, 0.17575455
 0.09504132, 0.17650247
 0.16115702, 0.17008983
 0.25206612, 0.21443703
 0.30991736, 0.31021898
 0.3553719, 0.38548249
 0.46694215, 0.44473502
 0.46280992, 0.57873954
 0.25206612, 0.53324821
 0.29338843, 0.23404303
 0.29338843, 0.25318658
 0.36363636, 0.21205342
 0.32231405, 0.22814875
 0.25619835, 0.17463667
 0.38429752, 0.20013745
 0.25206612, 0.31654851
 0.05371901, 0.20972389
 0.10330579, 0.10194263
 0.1446281, 0.12514487
 0.12396694, 0.14113432
 0.16528926, 0.12907084
 0.10330579, 0.1631933
 0.03719008, 0.12464801
 0.08677686, 0.07678926
 0.18181818, 0.13494671
 0.21487603, 0.2084012
 0.26859504, 0.25154276
 0.33884298, 0.3037475
 0.33884298, 0.39047078
 0.38429752, 0.36030714
 0.41735537, 0.40084471
 0.39669421, 0.41809524
 0.54545455, 0.37085498
 0.4214876, 0.48787391
 0.38842975, 0.35949384
 0.50826446, 0.36641364
 0.47520661, 0.45536725
 0.29752066, 0.41981994
 0.32231405, 0.26263724
 0.18595041, 0.2283879
 0.17355372, 0.17537207
 0.08677686, 0.19071365
 0.09917355, 0.11962462
 0.08677686, 0.11800004
 0.10330579, 0.07657221
 0.16115702, 0.12253142
 0.14876033, 0.15091013
 0.2107438, 0.15872675
 0.11157025, 0.22006469
 0.17355372, 0.14402136
 0.29338843, 0.20260529
 0.36363636, 0.31461767
 0.3553719, 0.40578676
 0.34297521, 0.41131716
 0.25619835, 0.37148204
 0.13636364, 0.28926821
 0.35123967, 0.17785511
 0.45867769, 0.39396799
 0.21487603, 0.46355373
 0.23966942, 0.26442496
 0.20661157, 0.25733166
 0.1322314, 0.2031224
 0.12809917, 0.15172366
 0.17355372, 0.17811643
 0.16528926, 0.17425444
 0.10743802, 0.15000822
 0.14049587, 0.15557956
 0.18595041, 0.12273437
 0.18595041, 0.16374003
 0.18181818, 0.17196605
 0.17355372, 0.19561197
 0.24380165, 0.1823125
 0.34710744, 0.25064743
 0.18595041, 0.37553543
 0.25206612, 0.20844341
 0.23553719, 0.2813612
 0.25619835, 0.22226122
 0.28099174, 0.27103515
 0.32644628, 0.25826672
 0.21487603, 0.32413008
 0.21487603, 0.23507297
 0.17768595, 0.22934348
 0.30991736, 0.16867337
 0.38842975, 0.27305401
 0.14049587, 0.32418999
 0.35950413, 0.16189914
 0.11157025, 0.33666254
 0.04545455, 0.14367389
 0.22727273, 0.08991959
 0.23553719, 0.18256083
 0.09090909, 0.21113228
 0.20247934, 0.13474896
 0.09504132, 0.18289114
 0.04132231, 0.13075897
 0.1322314, 0.08735973
 0.38429752, 0.15698596
 0.51652893, 0.45580158
 0.4338843, 0.5398931
 0.45041322, 0.38139383
 0.44628099, 0.49739095
 0.69834711, 0.38675379
 0.54958678, 0.6835277
 0.38016529, 0.42192843
 0.3677686, 0.3150283
 0.37190083, 0.27937082
 0.2892562, 0.31373227
 0.16115702, 0.23946913
 0.20661157, 0.22089253
 0.12396694, 0.1821246
 0.26446281, 0.11872441
 0.18595041, 0.17622023
 0.09504132, 0.10041727
 0.12809917, 0.12054624
 0.14049587, 0.13526733
 0.08264463, 0.12225356
 0.12809917, 0.11755515
 0.14876033, 0.16929457
 0.17355372, 0.17983097
 0.13636364, 0.22323269
 0.11157025, 0.20124367
 0.2231405, 0.17377659
 0.13636364, 0.29707894
 0.26859504, 0.21805245
 0.2768595, 0.3726765
 0.30991736, 0.3288043
 0.38842975, 0.35933705
 0.37190083, 0.37842821
 0.48760331, 0.334582
 0.4338843, 0.44910116
 0.23966942, 0.34326347
 0.26446281, 0.22996766
 0.23553719, 0.23126504
 0.20661157, 0.24802583
 0.17355372, 0.20035064
 0.11570248, 0.18491128
 0.02892562, 0.12387681
 0.08264463, 0.06098331
 0.11983471, 0.12201148
 0.12809917, 0.13241825
 0.18595041, 0.15029774
 0.1322314, 0.1751621
 0.15702479, 0.15664935
 0.16528926, 0.16138679
 0.19834711, 0.17514655
 0.2231405, 0.2209128
 0.12396694, 0.24970318
 0.1446281, 0.17968321
 0.34297521, 0.18333203
 0.37190083, 0.36758519
 0.39256198, 0.40993442
 0.28099174, 0.45464939
 0.39669421, 0.27184388
 0.3677686, 0.40135315
 0.2107438, 0.32048574
 0.18595041, 0.20583777
 0.09504132, 0.23406793
 0.11570248, 0.15216625
 0.18181818, 0.1119903
 0.2231405, 0.16862044
 0.20247934, 0.18704985
 0.21900826, 0.18941161
 0.1446281, 0.18681936
 0.16115702, 0.14544871
 0.14876033, 0.1643738
 0.1446281, 0.15266753
 0.16942149, 0.16096672
 0.09504132, 0.17719151
 0.11157025, 0.13283525
 0.17355372, 0.14825306
 0.19008264, 0.19586669
 0.19421488, 0.23001788
 0.25619835, 0.2443693
 0.32231405, 0.28336197
 0.26859504, 0.34522742
 0.33884298, 0.26638037
 0.34710744, 0.33909205
 0.32231405, 0.32270263
 0.3677686, 0.29068268
 0.19008264, 0.30818514
 0.25619835, 0.20095485
 0.42975207, 0.25393658
 0.23553719, 0.40402975
 0.27272727, 0.22000105
 0.2231405, 0.2393595
 0.2231405, 0.1933565
 0.16528926, 0.19280031
 0.0785124, 0.1666909
 0.18181818, 0.12955758
 0.19834711, 0.16086389
 0.18181818, 0.17331507
 0.11570248, 0.18327676
 0.09917355, 0.13600338
 0.11983471, 0.12656626
 0.24793388, 0.15139495
 0.23553719, 0.23835343
 0.26446281, 0.2628122
 0.28099174, 0.30913244
 0.28512397, 0.28104311
 0.37603306, 0.29656301
 0.17768595, 0.40629196
 0.77272727, 0.18605671
 0.47520661, 0.76830052
 0.24793388, 0.30393718
 0.2231405, 0.29283541
 0.28512397, 0.28618898
 0.30991736, 0.28205687
 0.19834711, 0.27564043
 0.1322314, 0.18589214
 0.0785124, 0.14704614
 0.09917355, 0.11359895
 0.12396694, 0.13667691
 0.11983471, 0.1299515
 0.15289256, 0.13652856
 0.15289256, 0.17352963
 0.12396694, 0.14007886
 0.10330579, 0.14217081
 0.08264463, 0.14160781
 0.12809917, 0.13495525
 0.17355372, 0.21855073
 0.2107438, 0.22136932
 0.25619835, 0.24028092
 0.2231405, 0.30810008
 0.37190083, 0.27419982
 0.44214876, 0.43351998
 0.35123967, 0.4918346
 0.39256198, 0.35919451
 0.28512397, 0.3199369
 0.2892562, 0.26030639
 0.08677686, 0.26574593
 0.27272727, 0.18712245
 0.26033058, 0.24730991
 0.1446281, 0.20789698
 0.05371901, 0.15460376
 0.12396694, 0.1079243
 0.18595041, 0.13003058
 0.13636364, 0.15405101
 0.16942149, 0.14597597
 0.12396694, 0.1691895
 0.0661157, 0.13929807
 0.09917355, 0.10570986
 0.10743802, 0.13643004
 0.14876033, 0.13832007
 0.17355372, 0.19713988
 0.28099174, 0.2065784
 0.34297521, 0.33656623
 0.33057851, 0.37626186
 0.38016529, 0.37211266
 0.3677686, 0.42427672
 0.74380165, 0.34919743
 0.45867769, 0.7286703
 0.2107438, 0.33661446
 0.24793388, 0.21609519
 0.46694215, 0.27403746
 0.37190083, 0.42522645
 0.23140496, 0.29081144
 0.18595041, 0.13298304
 0.11983471, 0.14040051
 0.10330579, 0.12974919
 0.09090909, 0.15488268
 0.0661157, 0.12131782
 0.13636364, 0.0773902
 0.12396694, 0.1399083
 0.06198347, 0.13144422
 0.09917355, 0.1186893
 0.14876033, 0.13136322
 0.20247934, 0.17352825
 0.27272727, 0.28462786
 0.32644628, 0.31045067
 0.47520661, 0.38403397
 0.54545455, 0.53821274
 0.55371901, 0.56836421
 0.49586777, 0.62440695
 0.52892562, 0.53477411
 0.54545455, 0.50372657
 0.35020661, 0.34104409
 0.23140496, 0.25684366
 0.32644628, 0.22913806
 0.32231405, 0.36969205
 0.21900826, 0.25466637
 0.19421488, 0.12469913
 0.13636364, 0.13223372
