Target,Output
 0.43026706, 0.27519288
 0.26706231, 0.3915727
 0.18397626, 0.23768546
 0.1305638, 0.22558437
 0.20178042, 0.16118694
 0.11869436, 0.21590504
 0.22255193, 0.12563798
 0.13946588, 0.23863501
 0.07121662, 0.14997033
 0.05341246, 0.09910979
 0.07418398, 0.09655786
 0.09198813, 0.09833828
 0.06824926, 0.1084273
 0.0652819, 0.10500354
 0.16617211, 0.10035608
 0.13649852, 0.15655786
 0.16617211, 0.16741493
 0.19881306, 0.18875213
 0.23145401, 0.21274427
 0.3264095, 0.22569733
 0.32344214, 0.32318275
 0.30563798, 0.2872997
 0.27002967, 0.27821958
 0.17210682, 0.25608309
 0.30267062, 0.21911553
 0.29673591, 0.29531157
 0.19881306, 0.28569733
 0.31750742, 0.24440931
 0.30563798, 0.30871945
 0.08308605, 0.28504451
 0.04747774, 0.12545994
 0.17804154, 0.09252226
 0.09198813, 0.17216617
 0.03560831, 0.11643728
 0.05934718, 0.08071217
 0.01186944, 0.07335312
 0.02373887, 0.08599407
 0.09198813, 0.07851632
 0.13353116, 0.11821958
 0.18694362, 0.15222552
 0.32047478, 0.21192878
 0.43026706, 0.30712166
 0.37388724, 0.39513353
 0.23145401, 0.28385757
 0.22551929, 0.23816024
 0.33234421, 0.1989911
 0.26409496, 0.30947355
 0.22551929, 0.25792285
 0.11275964, 0.20777448
 0.09792285, 0.14504451
 0.21364985, 0.10918611
 0.1305638, 0.23762611
 0.05934718, 0.1441543
 0.16023739, 0.09732938
 0.12166172, 0.15709199
 0.10682493, 0.15560484
 0.11275964, 0.13179738
 0.04747774, 0.13292498
 0.09792285, 0.08777448
 0.05934718, 0.12154303
 0.08011869, 0.09230324
 0.11275964, 0.11109792
 0.08011869, 0.12658754
 0.06824926, 0.09922849
 0.12759644, 0.10577505
 0.1305638, 0.12617211
 0.1958457, 0.14746376
 0.27002967, 0.20973294
 0.34124629, 0.27513353
 0.32344214, 0.30474777
 0.30860534, 0.27691395
 0.28486647, 0.28172107
 0.05637982, 0.27335312
 0.08308605, 0.12338279
 0.18694362, 0.11163205
 0.31454006, 0.18961424
 0.41246291, 0.29804154
 0.42433234, 0.40118694
 0.52818991, 0.34908012
 0.38278932, 0.43496229
 0.35311573, 0.29246291
 0.41543027, 0.28765579
 0.35311573, 0.37406528
 0.29673591, 0.2758457
 0.10089021, 0.26777448
 0.20474777, 0.14284866
 0.38575668, 0.2284273
 0.3620178, 0.3230093
 0.14540059, 0.28373887
 0.22255193, 0.16262889
 0.21958457, 0.23074184
 0.45994065, 0.21293769
 0.26706231, 0.36468843
 0.38872404, 0.25507418
 0.08308605, 0.37386983
 0.14540059, 0.13448071
 0.07418398, 0.16017804
 0.15430267, 0.10599479
 0.05341246, 0.1547181
 0.10979228, 0.08694362
 0.09495549, 0.13750742
 0.0652819, 0.12124629
 0.08308605, 0.10203618
 0.11275964, 0.1179822
 0.18397626, 0.12931751
 0.13649852, 0.20991098
 0.15133531, 0.16866469
 0.13946588, 0.17171949
 0.0652819, 0.18017457
 0.08308605, 0.09477745
 0.35608309, 0.1179822
 0.51928783, 0.31531157
 0.53115727, 0.43281899
 0.43620178, 0.430497
 0.43620178, 0.34997713
 0.74777448, 0.36505131
 0.75667656, 0.52415413
 0.74777448, 0.55488172
 0.60534125, 0.55488172
 0.50148368, 0.46529997
 0.43620178, 0.40001807
 0.40949555, 0.35531837
 0.36795252, 0.32652819
 0.62908012, 0.2864095
 0.26409496, 0.47462626
 0.24332344, 0.25934718
 0.14540059, 0.23537092
 0.10089021, 0.16522255
 0.23145401, 0.15222552
 0.12462908, 0.24296736
 0.06824926, 0.15038576
 0.08605341, 0.10367953
 0.04154303, 0.11875371
 0.12462908, 0.09222552
 0.29376855, 0.13941808
 0.54896142, 0.30183976
 0.54005935, 0.40278932
 0.55192878, 0.4245946
 0.61424332, 0.44334151
 0.6231454, 0.47155828
 0.69436202, 0.46959982
 0.81602374, 0.51505976
 0.70919881, 0.57197371
 0.62908012, 0.5404335
 0.42136499, 0.4709973
 0.29376855, 0.32793827
 0.44510386, 0.25252226
 0.27002967, 0.3894362
 0.3264095, 0.25020772
 0.30860534, 0.31833828
 0.47477745, 0.28540059
 0.46884273, 0.38682493
 0.39465875, 0.3757338
 0.26409496, 0.32646884
 0.1958457, 0.24813056
 0.06231454, 0.2248722
 0.29673591, 0.10308344
 0.33827893, 0.27750742
 0.16023739, 0.31875371
 0.08605341, 0.17805916
 0.21068249, 0.12165983
 0.25816024, 0.22094955
 0.17804154, 0.25970326
 0.34421365, 0.20261701
 0.58160237, 0.30575668
 0.63204748, 0.46884273
 0.45400593, 0.48568291
 0.25816024, 0.35434777
 0.13946588, 0.23412463
 0.02077151, 0.17317507
 0.05341246, 0.08183976
 0.06231454, 0.07198813
 0.06824926, 0.09376855
 0.09792285, 0.10765579
 0.0504451, 0.1095549
 0.04747774, 0.08666526
 0.30563798, 0.08676558
 0.29970326, 0.26605341
 0.22255193, 0.28676558
 0.29376855, 0.23240356
 0.38278932, 0.29352657
 0.26706231, 0.35916914
 0.03264095, 0.23946588
 0.28486647, 0.11436202
 0.14836795, 0.24961424
 0.19287834, 0.19443898
 0.24925816, 0.20841193
 0.29080119, 0.25086053
 0.39465875, 0.27572242
 0.12462908, 0.37299703
 0.0504451, 0.15205338
 0.13353116, 0.08783383
 0.10979228, 0.12902077
 0.04451039, 0.14931751
 0.17210682, 0.08658754
 0.1958457, 0.16581602
 0.06231454, 0.20645347
 0.15133531, 0.10308344
 0.11869436, 0.14884273
 0.05341246, 0.16753362
 0.07121662, 0.09442136
 0.04747774, 0.09863501
 0.22551929, 0.09578635
 0.1958457, 0.20338279
 0.27299703, 0.18185424
 0.49554896, 0.27501484
 0.47477745, 0.38599407
 0.30563798, 0.38985843
 0.42136499, 0.27311573
 0.47477745, 0.40142433
 0.39465875, 0.40552609
 0.5074184, 0.33721068
 0.47774481, 0.44166852
 0.34718101, 0.38925071
 0.23145401, 0.29068249
 0.28783383, 0.22724036
 0.2462908, 0.28723577
 0.15430267, 0.24017804
 0.12462908, 0.18207715
 0.05341246, 0.15916567
 0.01780415, 0.08925816
 0.09198813, 0.08557864
 0.08011869, 0.1104451
 0.13353116, 0.10848665
 0.08011869, 0.14065282
 0.08605341, 0.12492582
 0.07715134, 0.10860534
 0.06231454, 0.10892045
 0.06824926, 0.09271867
 0.12759644, 0.10765579
 0.17804154, 0.12617211
 0.18397626, 0.21222552
 0.20771513, 0.19453917
 0.14540059, 0.19265543
 0.18991098, 0.17501484
 0.18397626, 0.20995495
 0.14836795, 0.18387205
 0.24332344, 0.18219585
 0.19287834, 0.2525816
 0.22551929, 0.19941226
 0.16023739, 0.21893175
 0.22551929, 0.16961424
 0.27596439, 0.22807122
 0.21661721, 0.27239898
 0.27002967, 0.22374461
 0.16617211, 0.26569733
 0.09495549, 0.21472383
 0.10089021, 0.12955301
 0.0504451, 0.10801187
 0.03560831, 0.08682493
 0.06231454, 0.08350148
 0.04747774, 0.07750742
 0.04747774, 0.09744807
 0.11275964, 0.08700297
 0.18397626, 0.13531157
 0.16023739, 0.20991098
 0.11869436, 0.20557864
 0.17210682, 0.1521627
 0.22551929, 0.21489614
 0.36795252, 0.23388724
 0.45697329, 0.32734164
 0.38872404, 0.37780415
 0.27299703, 0.31495549
 0.4925816, 0.24035608
 0.23145401, 0.3884273
 0.08902077, 0.21424923
 0.10682493, 0.13673591
 0.08605341, 0.12
 0.07715134, 0.10261128
 0.0504451, 0.10892045
 0.03264095, 0.09893175
 0.03264095, 0.08700297
 0.10089021, 0.07916914
 0.08902077, 0.13940653
 0.07418398, 0.10913947
 0.02670623, 0.10547831
 0.11869436, 0.08510386
 0.07121662, 0.14541214
 0.115727, 0.09994065
 0.1305638, 0.12023739
 0.20178042, 0.13022498
 0.2462908, 0.21590504
 0.37091988, 0.24195846
 0.21661721, 0.34746034
 0.27596439, 0.20563798
 0.27002967, 0.27738872
 0.28783383, 0.23382789
 0.06824926, 0.26172107
 0.11869436, 0.12581602
 0.03560831, 0.12344214
 0.04451039, 0.08480712
 0.02670623, 0.07768546
 0.02967359, 0.07958457
 0.04747774, 0.07744807
 0.08902077, 0.07697329
 0.05341246, 0.11976261
 0.11275964, 0.09325279
 0.07418398, 0.13519288
 0.10682493, 0.10207715
 0.0504451, 0.10433234
 0.05934718, 0.08682493
 0.07418398, 0.08759644
 0.08902077, 0.10551929
 0.10089021, 0.11560831
 0.10979228, 0.10973294
 0.09792285, 0.12230183
 0.16913947, 0.11725732
 0.27893175, 0.19857567
 0.5578635, 0.29893175
 0.32344214, 0.39548961
 0.28486647, 0.27715134
 0.13946588, 0.26320475
 0.11869436, 0.16682493
 0.16617211, 0.15892828
 0.20474777, 0.20904887
 0.24332344, 0.20451039
 0.10979228, 0.23881306
 0.07121662, 0.14468843
 0.01186944, 0.10706231
 0.10682493, 0.07424332
 0.06231454, 0.12897297
 0.04154303, 0.0942617
 0.10979228, 0.09050445
 0.12462908, 0.13750742
 0.08605341, 0.13644373
 0.04451039, 0.10801187
 0.09495549, 0.09436202
 0.09198813, 0.12338279
 0.10682493, 0.11293769
 0.12759644, 0.12189911
 0.19287834, 0.13679525
 0.14836795, 0.2220178
 0.26706231, 0.1705638
 0.36795252, 0.28658754
 0.35905045, 0.33125855
 0.21068249, 0.29602374
 0.0652819, 0.21175074
 0.1305638, 0.10937425
 0.05341246, 0.12937685
 0.0504451, 0.08694362
 0.10682493, 0.08563798
 0.11869436, 0.13768546
 0.08011869, 0.13523952
 0.02670623, 0.11299703
 0.0148368, 0.08694362
 0.05341246, 0.07454006
 0.10979228, 0.07222552
 0.08902077, 0.13750742
 0.05637982, 0.10551929
 0.09198813, 0.09562668
 0.12759644, 0.1189911
 0.12462908, 0.14860534
 0.115727, 0.15123388
 0.15727003, 0.14101346
 0.08011869, 0.16999843
 0.17804154, 0.11145212
 0.29376855, 0.18913947
 0.22255193, 0.30735905
 0.15727003, 0.22979228
 0.30563798, 0.16860534
 0.11869436, 0.31169139
 0.05934718, 0.14480712
 0.08011869, 0.09329377
 0.0652819, 0.11109792
 0.0652819, 0.10239226
 0.06824926, 0.10551929
 0.02967359, 0.10706231
 0.04451039, 0.0851632
 0.08902077, 0.07501484
 0.08308605, 0.11839763
 0.15727003, 0.10771513
 0.10089021, 0.16813056
 0.08902077, 0.14089093
 0.10682493, 0.10913947
 0.10089021, 0.12
 0.2462908, 0.11518017
 0.28783383, 0.2388724
 0.27893175, 0.27162746
 0.21958457, 0.26433234
 0.25519288, 0.21643917
 0.12759644, 0.26047478
 0.18694362, 0.1568546
 0.19881306, 0.23679525
 0.1810089, 0.20387205
 0.03857567, 0.18921329
 0.02670623, 0.08943359
 0.11869436, 0.07661721
 0.14243323, 0.14541214
 0.12166172, 0.13962993
 0.15133531, 0.17412116
 0.1305638, 0.16841332
 0.08308605, 0.16237042
 0.08605341, 0.11982196
 0.1305638, 0.10866469
 0.0504451, 0.14504451
 0.03857567, 0.08688427
 0.02077151, 0.08385757
 0.05637982, 0.07827893
 0.10979228, 0.07038576
 0.18397626, 0.1315727
 0.15727003, 0.2104451
 0.18991098, 0.20373887
 0.20771513, 0.2005781
 0.30563798, 0.21176522
 0.28783383, 0.30302212
 0.23145401, 0.27916914
 0.2462908, 0.22682493
 0.27299703, 0.22884273
 0.27596439, 0.2347181
 0.32344214, 0.25430267
 0.19287834, 0.30979228
 0.07418398, 0.20429061
 0.09198813, 0.11174885
 0.11275964, 0.1084273
 0.02967359, 0.12694362
 0.08308605, 0.08017804
 0.02967359, 0.10830861
 0.03560831, 0.09186944
 0.08902077, 0.07833828
 0.01780415, 0.11074184
 0.09198813, 0.08106825
 0.10089021, 0.1104451
 0.115727, 0.10961424
 0.14243323, 0.13363714
 0.17804154, 0.15138068
 0.17210682, 0.20740303
 0.19287834, 0.20526653
 0.2611276, 0.20651282
 0.23442136, 0.26290801
 0.23442136, 0.22575668
 0.41839763, 0.21287834
 0.1810089, 0.3514366
 0.14540059, 0.17519878
 0.20474777, 0.17893175
 0.32344214, 0.20949555
 0.115727, 0.31198354
 0.02373887, 0.1436378
 0.10385757, 0.07988131
 0.11275964, 0.13508573
 0.07418398, 0.13607038
 0.05637982, 0.10207715
 0.1305638, 0.0935905
 0.07121662, 0.12747774
 0.1305638, 0.10308605
 0.02077151, 0.13477745
 0.07715134, 0.08219585
 0.21958457, 0.10005935
 0.39169139, 0.22302671
 0.11869436, 0.33007161
 0.37091988, 0.14540059
 0.46290801, 0.31988131
 0.64094955, 0.37946588
 0.65578635, 0.50480695
 0.53412463, 0.48075709
 0.33531157, 0.41188751
 0.08308605, 0.28195846
 0.16320475, 0.12759644
 0.11869436, 0.16575668
 0.10682493, 0.15181009
 0.09495549, 0.11951251
 0.09792285, 0.1125816
 0.03264095, 0.11210682
 0.12166172, 0.07958457
 0.27893175, 0.14642104
 0.21958457, 0.2862908
 0.02967359, 0.21643917
 0.02670623, 0.104033
 0.03560831, 0.07626113
 0.17804154, 0.07513353
 0.08605341, 0.17210682
 0.05934718, 0.11566577
 0.18694362, 0.09835665
 0.38278932, 0.17602374
 0.21958457, 0.33090247
 0.24035608, 0.21952522
 0.16023739, 0.23097923
 0.03264095, 0.1725816
 0.14243323, 0.08379822
 0.25519288, 0.14416585
 0.17507418, 0.28005935
 0.16320475, 0.1901541
 0.15133531, 0.19980659
 0.04747774, 0.1742992
 0.0504451, 0.08557864
 0.07715134, 0.08456973
 0.17507418, 0.11198813
 0.12166172, 0.1779822
 0.07715134, 0.14308605
 0.09792285, 0.11222552
 0.18991098, 0.11068249
 0.14836795, 0.20065282
 0.08308605, 0.17756677
 0.09495549, 0.13370992
 0.16913947, 0.10207715
 0.32047478, 0.19454006
 0.20474777, 0.2937092
 0.25519288, 0.20909774
 0.45994065, 0.26712166
 0.4272997, 0.36593472
 0.54302671, 0.36321155
 0.48961424, 0.44095636
 0.43620178, 0.40046733
 0.21364985, 0.36220265
 0.14540059, 0.20107415
 0.05637982, 0.16646884
 0.06824926, 0.09026706
 0.18694362, 0.0979822
 0.1810089, 0.18824926
 0.09198813, 0.19051893
 0.06824926, 0.11519099
 0.10979228, 0.10500354
 0.21958457, 0.11062315
 0.12166172, 0.23548961
 0.08308605, 0.14332344
 0.07418398, 0.11169139
 0.05934718, 0.10951392
 0.10385757, 0.09424332
 0.14836795, 0.1231454
 0.32937685, 0.15916914
 0.45400593, 0.2925816
 0.23145401, 0.39436202
 0.51928783, 0.21917504
 0.36795252, 0.3672997
 0.46290801, 0.30029674
 0.55192878, 0.37994065
 0.43620178, 0.4535973
 0.16023739, 0.34473353
 0.17507418, 0.17466466
 0.23145401, 0.19131994
 0.22255193, 0.24005935
 0.04747774, 0.19667656
 0.14243323, 0.10581602
 0.24332344, 0.12890208
 0.10089021, 0.25062315
 0.07418398, 0.13703264
 0.13649852, 0.10619048
 0.07121662, 0.13531157
 0.07715134, 0.09827893
 0.08605341, 0.11228487
 0.13649852, 0.11139466
 0.27002967, 0.14777448
 0.38872404, 0.28545994
 0.37091988, 0.36069476
 0.43026706, 0.28326409
 0.43916914, 0.36065282
 0.40652819, 0.36665368
 0.34124629, 0.3274184
 0.33827893, 0.2810089
 0.4421365, 0.27744807
 0.33531157, 0.38344214
 0.10979228, 0.29715134
 0.18397626, 0.1368546
 0.18397626, 0.2104451
 0.08902077, 0.19669104
 0.12759644, 0.11471621
 0.23145401, 0.14789318
 0.21068249, 0.25774481
 0.20474777, 0.1978635
 0.10979228, 0.19811537
 0.04747774, 0.11626113
 0.09495549, 0.08771513
 0.16023739, 0.12522255
 0.03264095, 0.16997033
 0.09495549, 0.08379822
 0.06824926, 0.13204748
 0.06824926, 0.10215487
 0.05934718, 0.10243323
 0.14540059, 0.09792285
 0.28189911, 0.13448071
 0.13946588, 0.2937092
 0.14243323, 0.16451039
 0.20771513, 0.15351371
 0.32937685, 0.20391691
 0.12759644, 0.31552697
 0.12759644, 0.14737667
 0.09792285, 0.15271756
 0.08605341, 0.14135228
 0.03857567, 0.10130564
 0.05934718, 0.09234421
 0.16913947, 0.07412463
 0.11869436, 0.16029674
 0.29673591, 0.1389911
 0.13649852, 0.30023739
 0.09198813, 0.1593648
 0.20178042, 0.1451632
 0.09792285, 0.20866469
 0.21364985, 0.12356083
 0.0504451, 0.23762611
 0.115727, 0.10047217
 0.08011869, 0.13400593
 0.19287834, 0.10385757
 0.13946588, 0.19275964
 0.1810089, 0.1747181
 0.19881306, 0.19927246
 0.34421365, 0.20624593
 0.43916914, 0.33001226
 0.5074184, 0.38504451
