Target,Output
 0.36129032, 0.31397849
 0.44193548, 0.36344086
 0.55483871, 0.36344086
 0.45483871, 0.46738351
 0.47419355, 0.35197133
 0.22258065, 0.40716846
 0.20322581, 0.24408602
 0.22580645, 0.13548387
 0.07419355, 0.1655914
 0.05806452, 0.12293907
 0.05483871, 0.09892473
 0.05806452, 0.10107527
 0.1516129, 0.13620072
 0.09032258, 0.10824373
 0.11612903, 0.12616487
 0.09677419, 0.15770609
 0.02903226, 0.08817204
 0.11290323, 0.07741935
 0.18064516, 0.11182796
 0.50322581, 0.16630824
 0.6, 0.47240143
 0.53225806, 0.44946237
 0.50967742, 0.48458781
 0.55806452, 0.48243728
 0.63225806, 0.45698925
 0.60322581, 0.48243728
 0.49677419, 0.43870968
 0.42903226, 0.37132616
 0.1, 0.28458781
 0.14193548, 0.190681
 0.11612903, 0.18781362
 0.10645161, 0.13584229
 0.11612903, 0.10035842
 0.18709677, 0.14193548
 0.1516129, 0.11111111
 0.10645161, 0.17921147
 0.05483871, 0.08315412
 0.14516129, 0.09605735
 0.16451613, 0.1311828
 0.11612903, 0.14229391
 0.0483871, 0.13082437
 0.06774194, 0.06021505
 0.12258065, 0.09462366
 0.18709677, 0.1344086
 0.19032258, 0.14982079
 0.23548387, 0.19103943
 0.22903226, 0.28637993
 0.32258065, 0.23154122
 0.19354839, 0.34336918
 0.15483871, 0.22724014
 0.27096774, 0.18351254
 0.21290323, 0.18351254
 0.13548387, 0.1874552
 0.09354839, 0.1344086
 0.16774194, 0.09354839
 0.09354839, 0.17311828
 0.14516129, 0.11218638
 0.14516129, 0.12580645
 0.06451613, 0.10824373
 0.12258065, 0.08602151
 0.11612903, 0.1172043
 0.03225806, 0.12043011
 0.08387097, 0.0953405
 0.12258065, 0.10752688
 0.04193548, 0.11612903
 0.08064516, 0.09175627
 0.14516129, 0.08566308
 0.33225806, 0.14444444
 0.26129032, 0.39175627
 0.26129032, 0.28172043
 0.58709677, 0.31362007
 0.82580645, 0.34014337
 0.9, 0.60645161
 0.7, 0.7218638
 0.57419355, 0.62078853
 0.59032258, 0.57992832
 0.55806452, 0.53655914
 0.62258065, 0.37992832
 0.51612903, 0.34336918
 0.12258065, 0.2688172
 0.21935484, 0.18996416
 0.12903226, 0.23261649
 0.12903226, 0.16200717
 0.10967742, 0.1218638
 0.12580645, 0.12437276
 0.13870968, 0.12114695
 0.05806452, 0.14229391
 0.01290323, 0.1
 0.04516129, 0.06953405
 0.1516129, 0.08924731
 0.29354839, 0.14695341
 0.21612903, 0.27132616
 0.29032258, 0.27060932
 0.53548387, 0.25663082
 0.48387097, 0.36451613
 0.36451613, 0.36308244
 0.35483871, 0.34265233
 0.54516129, 0.36702509
 0.50967742, 0.42795699
 0.28709677, 0.31612903
 0.10967742, 0.22222222
 0.05806452, 0.16630824
 0.09032258, 0.12688172
 0.09354839, 0.1265233
 0.18064516, 0.11003584
 0.17419355, 0.10716846
 0.09354839, 0.11792115
 0.06774194, 0.10107527
 0.11612903, 0.09498208
 0.17419355, 0.090681
 0.1483871, 0.15483871
 0.11935484, 0.14157706
 0.0483871, 0.11684588
 0.12258065, 0.10752688
 0.12258065, 0.11756272
 0.17419355, 0.13297491
 0.21612903, 0.16164875
 0.20322581, 0.23225806
 0.20645161, 0.23512545
 0.17741935, 0.21541219
 0.10645161, 0.19247312
 0.02580645, 0.15842294
 0.19354839, 0.10394265
 0.17741935, 0.16738351
 0.20645161, 0.18566308
 0.07096774, 0.22831541
 0.06451613, 0.06415771
 0.0516129, 0.08637993
 0.15806452, 0.09928315
 0.08709677, 0.13763441
 0.06129032, 0.10645161
 0.11935484, 0.0781362
 0.05806452, 0.11433692
 0.06129032, 0.07992832
 0.08387097, 0.08960573
 0.03548387, 0.09569892
 0.03548387, 0.08566308
 0.08064516, 0.08458781
 0.12258065, 0.10430108
 0.18064516, 0.12688172
 0.27419355, 0.21362007
 0.29354839, 0.29103943
 0.29354839, 0.29426523
 0.3483871, 0.30035842
 0.30645161, 0.40071685
 0.18387097, 0.31935484
 0.28387097, 0.20071685
 0.21612903, 0.22150538
 0.10645161, 0.17634409
 0.06129032, 0.16953405
 0.15806452, 0.09892473
 0.1516129, 0.11218638
 0.06774194, 0.13010753
 0.10967742, 0.09964158
 0.12258065, 0.10035842
 0.17741935, 0.13082437
 0.06774194, 0.14516129
 0.05483871, 0.08637993
 0.0516129, 0.09390681
 0.0483871, 0.08853047
 0.04193548, 0.08172043
 0.06451613, 0.0655914
 0.12903226, 0.0734767
 0.24193548, 0.11792115
 0.15806452, 0.17598566
 0.10967742, 0.18781362
 0.1, 0.12724014
 0.13870968, 0.10896057
 0.15806452, 0.12150538
 0.06129032, 0.14157706
 0.10322581, 0.07992832
 0.14516129, 0.11111111
 0.23225806, 0.1437276
 0.16129032, 0.25376344
 0.06774194, 0.16953405
 0.04516129, 0.09856631
 0.04193548, 0.12759857
 0.03870968, 0.07562724
 0.11290323, 0.07670251
 0.20322581, 0.08100358
 0.29354839, 0.21684588
 0.23870968, 0.30071685
 0.20645161, 0.23369176
 0.31290323, 0.22508961
 0.26774194, 0.27741935
 0.18709677, 0.23512545
 0.15483871, 0.16236559
 0.28064516, 0.19103943
 0.17096774, 0.19283154
 0.10967742, 0.15949821
 0.18064516, 0.14229391
 0.16129032, 0.11003584
 0.0483871, 0.16666667
 0.07741935, 0.09964158
 0.18064516, 0.08458781
 0.14193548, 0.14157706
 0.16451613, 0.1390681
 0.06451613, 0.12616487
 0.08064516, 0.07132616
 0.10645161, 0.11505376
 0.08064516, 0.11433692
 0.0483871, 0.08064516
 0.17419355, 0.09032258
 0.27741935, 0.13046595
 0.21935484, 0.25017921
 0.28387097, 0.26451613
 0.22903226, 0.29390681
 0.25483871, 0.24229391
 0.33225806, 0.31827957
 0.25806452, 0.3046595
 0.13225806, 0.19856631
 0.17096774, 0.17168459
 0.19677419, 0.17598566
 0.05483871, 0.15304659
 0.12903226, 0.08136201
 0.1, 0.08530466
 0.05483871, 0.08637993
 0.15483871, 0.08387097
 0.12903226, 0.12401434
 0.11612903, 0.15125448
 0.03870968, 0.17885305
 0.10645161, 0.08207885
 0.08387097, 0.1
 0.06774194, 0.08602151
 0.08064516, 0.09820789
 0.07741935, 0.09749104
 0.15806452, 0.10681004
 0.23548387, 0.21469534
 0.22580645, 0.21863799
 0.13225806, 0.30250896
 0.21612903, 0.21541219
 0.3, 0.20107527
 0.22580645, 0.290681
 0.18387097, 0.190681
 0.21612903, 0.16738351
 0.26129032, 0.16164875
 0.26129032, 0.18315412
 0.07419355, 0.15949821
 0.10967742, 0.16379928
 0.20645161, 0.10179211
 0.06451613, 0.15985663
 0.07096774, 0.10896057
 0.08709677, 0.08028674
 0.1483871, 0.07598566
 0.10645161, 0.13799283
 0.08709677, 0.12508961
 0.04516129, 0.09462366
 0.03870968, 0.08709677
 0.03225806, 0.0562724
 0.05806452, 0.090681
 0.10645161, 0.07634409
 0.14516129, 0.12580645
 0.17419355, 0.13655914
 0.27096774, 0.18566308
 0.20322581, 0.23691756
 0.21935484, 0.23655914
 0.14516129, 0.09426523
 0.16451613, 0.11505376
 0.2, 0.1265233
 0.17419355, 0.17598566
 0.10967742, 0.17777778
 0.08387097, 0.12473118
 0.06774194, 0.14408602
 0.12580645, 0.08387097
 0.13225806, 0.1172043
 0.17741935, 0.12437276
 0.09354839, 0.15985663
 0.09677419, 0.10179211
 0.17096774, 0.08315412
 0.15806452, 0.14336918
 0.13225806, 0.12365591
 0.32258065, 0.109319
 0.30322581, 0.34050179
 0.30645161, 0.28494624
 0.48387097, 0.32473118
 0.57096774, 0.37706093
 0.29354839, 0.48422939
 0.22580645, 0.26630824
 0.29677419, 0.24014337
 0.22903226, 0.20394265
 0.18709677, 0.14731183
 0.16129032, 0.15232975
 0.09032258, 0.15304659
 0.07419355, 0.11362007
 0.05806452, 0.09175627
 0.02903226, 0.07634409
 0.05483871, 0.08315412
 0.08709677, 0.06630824
 0.10322581, 0.07419355
 0.08709677, 0.11935484
 0.0516129, 0.10322581
 0.0516129, 0.0921147
 0.1483871, 0.0781362
 0.2, 0.17455197
 0.20645161, 0.2172043
 0.20645161, 0.28566308
 0.23870968, 0.25913978
 0.30322581, 0.2078853
 0.20967742, 0.33405018
 0.11290323, 0.2078853
 0.14193548, 0.14336918
 0.12580645, 0.11433692
 0.10322581, 0.11648746
 0.11612903, 0.09784946
 0.07741935, 0.10071685
 0.17096774, 0.09964158
 0.13225806, 0.16989247
 0.07419355, 0.15268817
 0.11935484, 0.09283154
 0.08709677, 0.11899642
 0.02903226, 0.10071685
 0.0483871, 0.07383513
 0.08387097, 0.09928315
 0.03870968, 0.09139785
 0.07741935, 0.06415771
 0.04193548, 0.09462366
 0.08709677, 0.06702509
 0.19354839, 0.0702509
 0.21290323, 0.19928315
 0.32258065, 0.22401434
 0.6, 0.29103943
 0.60322581, 0.51541219
 0.55806452, 0.47992832
 0.32903226, 0.49462366
 0.21935484, 0.41899642
 0.1, 0.33333333
 0.1, 0.14695341
 0.17741935, 0.12544803
 0.1516129, 0.10716846
 0.09677419, 0.12616487
 0.06774194, 0.09641577
 0.07741935, 0.08064516
 0.07096774, 0.08709677
 0.03870968, 0.06738351
 0.04516129, 0.06451613
 0.04193548, 0.07562724
 0.2, 0.07168459
 0.13225806, 0.23369176
 0.03225806, 0.17526882
 0.08064516, 0.07383513
 0.19032258, 0.08530466
 0.67419355, 0.19247312
 0.66451613, 0.62473118
 0.76129032, 0.62258065
 0.76129032, 0.65913978
 0.72903226, 0.61397849
 0.58709677, 0.62258065
 0.6, 0.56236559
 0.57096774, 0.39605735
 0.25806452, 0.35197133
 0.23870968, 0.18709677
 0.24516129, 0.18924731
 0.10645161, 0.1921147
 0.18709677, 0.13297491
 0.09677419, 0.11505376
 0.2, 0.12759857
 0.18387097, 0.18637993
 0.11935484, 0.09641577
 0.14193548, 0.1
 0.16129032, 0.10752688
 0.16774194, 0.14086022
 0.07096774, 0.12078853
 0.07419355, 0.09426523
 0.16451613, 0.09390681
 0.54193548, 0.16845878
 0.68387097, 0.4688172
 0.76129032, 0.50824373
 0.71612903, 0.60645161
 0.62903226, 0.6702509
 0.53548387, 0.57311828
 0.46774194, 0.5297491
 0.37419355, 0.34480287
 0.35483871, 0.27311828
 0.33225806, 0.19892473
 0.25483871, 0.19498208
 0.29677419, 0.15770609
 0.08709677, 0.15125448
 0.07741935, 0.1516129
 0.09354839, 0.09569892
 0.10967742, 0.11003584
 0.10967742, 0.07777778
 0.07419355, 0.11541219
 0.17741935, 0.09605735
 0.06451613, 0.17383513
 0.12258065, 0.0921147
 0.07419355, 0.09784946
 0.03225806, 0.09569892
 0.07096774, 0.08136201
 0.1, 0.10573477
 0.16774194, 0.08387097
 0.17741935, 0.18960573
 0.24193548, 0.21863799
 0.30322581, 0.26164875
 0.33548387, 0.29318996
 0.29354839, 0.33584229
 0.1483871, 0.26523297
 0.37419355, 0.16451613
 0.18709677, 0.26594982
 0.30967742, 0.16630824
 0.10322581, 0.16810036
 0.11290323, 0.14623656
 0.17419355, 0.13225806
 0.17096774, 0.09283154
 0.07096774, 0.11756272
 0.09032258, 0.07526882
 0.09354839, 0.08351254
 0.1483871, 0.09032258
 0.16129032, 0.11397849
 0.05806452, 0.14516129
 0.04516129, 0.08673835
 0.01935484, 0.07562724
 0.06774194, 0.07921147
 0.13225806, 0.08028674
 0.19354839, 0.10752688
 0.21612903, 0.22473118
 0.22903226, 0.24982079
 0.21612903, 0.2516129
 0.25806452, 0.20752688
 0.21612903, 0.29103943
 0.20322581, 0.26415771
 0.23548387, 0.18315412
 0.21612903, 0.17956989
 0.18709677, 0.1562724
 0.07741935, 0.14910394
 0.11935484, 0.13082437
 0.07096774, 0.12580645
 0.09032258, 0.12365591
 0.06774194, 0.12150538
 0.08709677, 0.08351254
 0.05483871, 0.1046595
 0.07741935, 0.06487455
 0.08709677, 0.09175627
 0.10322581, 0.10143369
 0.11935484, 0.11075269
