Target,Output
 0.50967742, 0.57551246
 0.55806452, 0.52892561
 0.63225806, 0.60726689
 0.60322581, 0.54608496
 0.49677419, 0.52044429
 0.42903226, 0.42759006
 0.1, 0.27832464
 0.14193548, 0.18326215
 0.11612903, 0.23032956
 0.10645161, 0.10331664
 0.11612903, 0.12068729
 0.18709677, 0.09798802
 0.1516129, 0.17177457
 0.10645161, 0.12849953
 0.05483871, 0.1007711
 0.14516129, 0.06117813
 0.16451613, 0.14880336
 0.11612903, 0.11623437
 0.0483871, 0.10714817
 0.06774194, 0.06607566
 0.12258065, 0.13360689
 0.18709677, 0.23337753
 0.19032258, 0.29375668
 0.23548387, 0.20820568
 0.22903226, 0.26060474
 0.32258065, 0.30975638
 0.19354839, 0.32831581
 0.15483871, 0.26034103
 0.27096774, 0.24571283
 0.21290323, 0.18814255
 0.13548387, 0.17067327
 0.09354839, 0.13200081
 0.16774194, 0.12037813
 0.09354839, 0.11636622
 0.14516129, 0.10182908
 0.14516129, 0.13573402
 0.06451613, 0.12730318
 0.12258065, 0.08261756
 0.11612903, 0.10648524
 0.03225806, 0.11317349
 0.08387097, 0.0730881
 0.12258065, 0.10108802
 0.04193548, 0.11582978
 0.08064516, 0.03183607
 0.14516129, 0.10323364
 0.33225806, 0.17947127
 0.26129032, 0.3604288
 0.26129032, 0.26239619
 0.58709677, 0.29284904
 0.82580645, 0.50488833
 0.9, 0.6089624
 0.7, 0.75933312
 0.57419355, 0.69346596
 0.59032258, 0.54601463
 0.55806452, 0.42462832
 0.62258065, 0.43846096
 0.51612903, 0.48396188
 0.12258065, 0.28699264
 0.21935484, 0.20667598
 0.12903226, 0.29617906
 0.12903226, 0.26811624
 0.10967742, 0.21293547
 0.12580645, 0.13031191
 0.13870968, 0.12954728
 0.05806452, 0.10810712
 0.01290323, 0.07728812
 0.04516129, 0.04661199
 0.1516129, 0.07618628
 0.29354839, 0.17452612
 0.21612903, 0.30824806
 0.29032258, 0.28356076
 0.53548387, 0.34060481
 0.48387097, 0.79198405
 0.36451613, 0.6265025
 0.35483871, 0.32557163
 0.54516129, 0.38089783
 0.50967742, 0.49515524
 0.28709677, 0.3852478
 0.10967742, 0.35652014
 0.05806452, 0.12459367
 0.09032258, 0.06280202
 0.09354839, 0.09382667
 0.18064516, 0.13875868
 0.17419355, 0.13725396
 0.09354839, 0.09190787
 0.06774194, 0.10074771
 0.11612903, 0.05311357
 0.17419355, 0.0946496
 0.1483871, 0.12221474
 0.11935484, 0.12039478
 0.0483871, 0.12239247
 0.12258065, 0.08691199
 0.12258065, 0.19219808
 0.17419355, 0.2058473
 0.21612903, 0.28220289
 0.20322581, 0.2528766
 0.20645161, 0.23665688
 0.17741935, 0.26095524
 0.10645161, 0.26686667
 0.02580645, 0.19104526
 0.19354839, 0.1483566
 0.17741935, 0.16323696
 0.20645161, 0.13786556
 0.07096774, 0.17000563
 0.06451613, 0.092656
 0.0516129, 0.10919258
 0.15806452, 0.08611995
 0.08709677, 0.15992422
 0.06129032, 0.09603685
 0.11935484, 0.07546184
 0.05806452, 0.10981091
 0.06129032, 0.09465721
 0.08387097, 0.09918112
 0.03548387, 0.09484292
 0.03548387, 0.0637018
 0.08064516, 0.05362807
 0.12258065, 0.12402224
 0.18064516, 0.16991662
 0.27419355, 0.21551248
 0.29354839, 0.27425519
 0.29354839, 0.29028615
 0.3483871, 0.25868238
 0.30645161, 0.27195118
 0.18387097, 0.26667606
 0.28387097, 0.19060789
 0.21612903, 0.21376927
 0.10645161, 0.13828863
 0.06129032, 0.10568082
 0.15806452, 0.07043358
 0.1516129, 0.14968707
 0.06774194, 0.11421297
 0.10967742, 0.07742162
 0.12258065, 0.09756871
 0.17741935, 0.10573116
 0.06774194, 0.12412076
 0.05483871, 0.06650926
 0.0516129, 0.05395753
 0.0483871, 0.0726729
 0.04193548, 0.07576427
 0.06451613, 0.05064912
 0.12903226, 0.09220946
 0.24193548, 0.17225998
 0.15483871, 0.19648349
 0.28064516, 0.16710256
 0.17096774, 0.17290217
 0.10967742, 0.11693051
 0.18064516, 0.11871693
 0.16129032, 0.13980093
 0.0483871, 0.12278064
 0.07741935, 0.08544165
 0.18064516, 0.08620096
 0.14193548, 0.1614505
 0.16451613, 0.12228801
 0.06451613, 0.12666311
 0.08064516, 0.04937894
 0.10645161, 0.07198056
 0.08064516, 0.10283492
 0.0483871, 0.117034
 0.17419355, 0.07500412
 0.27741935, 0.20856758
 0.21935484, 0.26570556
 0.28387097, 0.25900685
 0.22903226, 0.30309286
 0.25483871, 0.24262409
 0.33225806, 0.24471005
 0.25806452, 0.26823916
 0.13225806, 0.23375869
 0.17096774, 0.14728044
 0.19677419, 0.12764424
 0.05483871, 0.14318944
 0.12903226, 0.09809575
 0.1, 0.10054087
 0.05483871, 0.09640353
 0.15483871, 0.07633276
 0.12903226, 0.12686451
 0.11612903, 0.126918
 0.03870968, 0.10987376
 0.10645161, 0.04487581
 0.08387097, 0.09072454
 0.06774194, 0.10460799
 0.08064516, 0.09639753
 0.07741935, 0.11525225
 0.15806452, 0.12058462
 0.23548387, 0.17956094
 0.22580645, 0.26342834
 0.13225806, 0.25820763
 0.21612903, 0.17166066
 0.3, 0.23742381
 0.22580645, 0.28818945
 0.18387097, 0.19591359
 0.21612903, 0.1809163
 0.26129032, 0.18804739
 0.26129032, 0.16982485
 0.07419355, 0.18318924
 0.10967742, 0.08778896
 0.20645161, 0.1181015
 0.06451613, 0.13437017
 0.07096774, 0.08820019
 0.08709677, 0.09191153
 0.1483871, 0.08718145
 0.10645161, 0.12102088
 0.08709677, 0.08753518
 0.04516129, 0.08084933
 0.03870968, 0.06974677
 0.03225806, 0.07691453
 0.05806452, 0.0504172
 0.10645161, 0.08680805
 0.14516129, 0.15481523
 0.17419355, 0.16697473
 0.27096774, 0.20682045
 0.20322581, 0.31319123
 0.21935484, 0.21423829
 0.29677419, 0.24120123
 0.22903226, 0.21430319
 0.18709677, 0.18117051
 0.16129032, 0.12598391
 0.09032258, 0.13651836
 0.07419355, 0.10438014
 0.05806452, 0.08893613
 0.02903226, 0.10063434
 0.05483871, 0.05670998
 0.08709677, 0.0685587
 0.10322581, 0.09216496
 0.08709677, 0.0939909
 0.0516129, 0.07935647
 0.0516129, 0.06189494
 0.1483871, 0.08678454
 0.2, 0.18334813
 0.20645161, 0.23946876
 0.20645161, 0.26979545
 0.23870968, 0.24406148
 0.30322581, 0.29531134
 0.20967742, 0.37108427
 0.11290323, 0.2413647
 0.14193548, 0.196451
 0.12580645, 0.18690663
 0.10322581, 0.14165171
 0.11612903, 0.12297057
 0.07741935, 0.12258188
 0.17096774, 0.08536799
 0.13225806, 0.12827574
 0.07419355, 0.10956672
 0.11935484, 0.08241427
 0.08709677, 0.11087473
 0.02903226, 0.0943105
 0.0483871, 0.05250388
 0.08387097, 0.07022495
 0.03870968, 0.09777107
 0.07741935, 0.05726712
 0.04193548, 0.07876241
 0.08709677, 0.05276862
 0.19354839, 0.14431607
 0.21290323, 0.21437727
 0.32258065, 0.24146108
 0.6, 0.35460949
 0.60322581, 0.46740377
 0.55806452, 0.40329567
 0.32903226, 0.47343928
 0.21935484, 0.28857901
 0.1, 0.23426439
 0.1, 0.1250876
 0.17741935, 0.11004379
 0.1516129, 0.11859008
 0.09677419, 0.11542344
 0.06774194, 0.07358723
 0.07741935, 0.11205824
 0.07096774, 0.10577996
 0.03870968, 0.08525692
 0.04516129, 0.06042943
 0.04193548, 0.04400558
 0.2, 0.05946979
 0.13225806, 0.16384844
 0.03225806, 0.14018727
 0.08064516, 0.0118575
 0.19032258, 0.08026346
 0.67419355, 0.23034555
 0.66451613, 0.66794776
 0.76129032, 0.68833935
 0.76129032, 0.8854405
 0.72903226, 0.71387393
 0.58709677, 0.64361891
 0.6, 0.54381356
 0.57096774, 0.53699051
 0.25806452, 0.32709848
 0.23870968, 0.21626955
 0.24516129, 0.18011069
 0.10645161, 0.20797628
 0.18709677, 0.15610348
 0.09677419, 0.24728928
 0.2, 0.15711993
 0.18387097, 0.19010501
 0.11935484, 0.12002153
 0.14193548, 0.09639459
 0.16129032, 0.14885667
 0.16774194, 0.18873268
 0.07096774, 0.12977615
 0.07419355, 0.06107886
 0.16451613, 0.0383071
 0.54193548, 0.28223195
 0.68387097, 0.71406007
 0.76129032, 0.67698436
 0.71612903, 0.80542525
 0.62903226, 0.71538043
 0.53548387, 0.66309983
 0.46774194, 0.58196409
 0.37419355, 0.50728987
 0.35483871, 0.19484503
 0.33225806, 0.16812538
 0.25483871, 0.12572534
 0.29677419, 0.2257439
 0.08709677, 0.21968568
 0.07741935, 0.14019763
 0.09354839, 0.16292831
 0.10967742, 0.14251415
 0.10967742, 0.10953522
 0.07419355, 0.09322194
 0.17741935, 0.0732029
 0.06451613, 0.1762589
 0.12258065, 0.0667855
 0.07419355, 0.11620205
 0.03225806, 0.04854339
 0.07096774, 0.04162868
 0.1, 0.10458611
 0.16774194, 0.21136615
 0.17741935, 0.22840007
 0.24193548, 0.23419207
 0.30322581, 0.27918477
 0.33548387, 0.31646432
 0.29354839, 0.29923598
 0.1483871, 0.31891976
 0.37419355, 0.22452921
 0.18709677, 0.2935577
 0.30967742, 0.15179736
 0.10322581, 0.22064453
 0.11290323, 0.09288041
 0.17419355, 0.11225266
 0.17096774, 0.12496627
 0.07096774, 0.14840987
 0.09032258, 0.08201041
 0.09354839, 0.10763948
 0.1483871, 0.08639776
 0.16129032, 0.1397557
 0.05806452, 0.11784478
 0.04516129, 0.06040423
 0.01935484, 0.06155673
 0.06774194, 0.03544189
 0.13225806, 0.09270282
 0.19354839, 0.17668465
 0.21612903, 0.22885989
 0.22903226, 0.2788009
 0.21612903, 0.29683483
 0.25806452, 0.23427586
 0.21612903, 0.27181294
 0.20322581, 0.24998159
 0.23548387, 0.20490563
 0.21612903, 0.22815104
 0.18709677, 0.16353549
 0.07741935, 0.15202873
 0.11935484, 0.09438884
 0.07096774, 0.12110945
 0.09032258, 0.08656039
 0.06774194, 0.11005532
 0.08709677, 0.07359528
 0.05483871, 0.09513656
 0.07741935, 0.07606922
 0.08709677, 0.08734463
 0.10322581, 0.08338087
 0.11935484, 0.08811267
