0.283737024221,
0.311418685121,
0.290657439446,
0.152249134948,
0.107266435986,
0.0622837370242,
0.038062283737,
0.0934256055363,
0.076124567474,
0.117647058824,
0.0726643598616,
0.121107266436,
0.083044982699,
0.103806228374,
0.138408304498,
0.190311418685,
0.193771626298,
0.290657439446,
0.363321799308,
0.36678200692,
0.38062283737,
0.363321799308,
0.193771626298,
0.283737024221,
0.290657439446,
0.231833910035,
0.114186851211,
0.128027681661,
0.128027681661,
0.0657439446367,
0.124567474048,
0.0484429065744,
0.0207612456747,
0.0311418685121,
0.0692041522491,
0.100346020761,
0.173010380623,
0.131487889273,
0.18339100346,
0.217993079585,
0.214532871972,
0.214532871972,
0.352941176471,
0.16955017301,
0.190311418685,
0.217993079585,
0.242214532872,
0.19723183391,
0.145328719723,
0.131487889273,
0.0865051903114,
0.0553633217993,
0.038062283737,
0.0657439446367,
0.0588235294118,
0.0726643598616,
0.100346020761,
0.0899653979239,
0.107266435986,
0.155709342561,
0.100346020761,
0.128027681661,
0.0968858131488,
0.110726643599,
0.0968858131488,
0.134948096886,
0.200692041522,
0.297577854671,
0.0968858131488,
0.0519031141869,
0.0553633217993,
0.0449826989619,
0.0449826989619,
0.0899653979239,
0.0173010380623,
0.0346020761246,
0.0588235294118,
0.0311418685121,
0.0415224913495,
0.0657439446367,
0.0622837370242,
0.0726643598616,
0.0622837370242,
0.117647058824,
0.152249134948,
0.23875432526,
0.231833910035,
0.242214532872,
0.287197231834,
0.276816608997,
0.176470588235,
0.117647058824,
0.0415224913495,
0.100346020761,
0.152249134948,
0.19723183391,
0.155709342561,
0.117647058824,
0.0484429065744,
0.0519031141869,
0.0865051903114,
0.0692041522491,
0.0415224913495,
0.0242214532872,
0.0449826989619,
0.0484429065744,
0.0657439446367,
0.16955017301,
0.242214532872,
0.23875432526,
0.256055363322,
0.245674740484,
0.23875432526,
0.311418685121,
0.228373702422,
0.23875432526,
0.269896193772,
0.235294117647,
0.207612456747,
0.19723183391,
0.121107266436,
0.159169550173,
0.131487889273,
0.0795847750865,
0.107266435986,
0.131487889273,
0.128027681661,
0.0934256055363,
0.0726643598616,
0.0865051903114,
0.0795847750865,
0.131487889273,
0.18339100346,
0.217993079585,
0.0865051903114,
0.134948096886,
0.228373702422,
0.231833910035,
0.16955017301,
0.19723183391,
0.179930795848,
0.19723183391,
0.107266435986,
0.0588235294118,
0.0553633217993,
0.0346020761246,
0.0657439446367,
0.076124567474,
0.0449826989619,
0.0692041522491,
0.121107266436,
0.0795847750865,
0.0899653979239,
0.100346020761,
0.100346020761,
0.124567474048,
0.0865051903114,
0.0934256055363,
0.124567474048,
0.103806228374,
0.114186851211,
0.363321799308,
0.259515570934,
0.18339100346,
0.121107266436,
0.162629757785,
0.162629757785,
0.186851211073,
0.0346020761246,
0.0519031141869,
0.0484429065744,
0.0346020761246,
0.0415224913495,
0.0276816608997,
0.0242214532872,
0.076124567474,
0.103806228374,
0.0692041522491,
0.0276816608997,
0.0519031141869,
0.280276816609,
0.529411764706,
0.505190311419,
0.56401384083,
0.63321799308,
0.595155709343,
0.550173010381,
0.61937716263,
0.401384083045,
0.290657439446,
0.249134948097,
0.269896193772,
0.290657439446,
0.0726643598616,
0.193771626298,
0.124567474048,
0.138408304498,
0.0519031141869,
0.0795847750865,
0.038062283737,
0.0138408304498,
0.0553633217993,
0.0519031141869,
0.0934256055363,
0.159169550173,
0.21107266436,
0.200692041522,
0.148788927336,
0.0622837370242,
0.114186851211,
0.0899653979239,
0.121107266436,
0.207612456747,
0.204152249135,
0.221453287197,
0.249134948097,
0.557093425606,
0.432525951557,
0.18339100346,
0.124567474048,
0.0899653979239,
0.121107266436,
0.0588235294118,
0.0173010380623,
0.0415224913495,
0.0934256055363,
0.0692041522491,
0.0657439446367,
0.16955017301,
0.152249134948,
0.141868512111,
0.148788927336,
0.103806228374,
0.145328719723,
0.16955017301,
0.21107266436,
0.287197231834,
0.342560553633,
0.453287197232,
0.16955017301,
0.128027681661,
0.0519031141869,
0.083044982699,
0.117647058824,
0.0553633217993,
0.0968858131488,
0.141868512111,
0.110726643599,
0.155709342561,
0.204152249135,
0.148788927336,
0.0968858131488,
0.128027681661,
0.124567474048,
0.121107266436,
0.155709342561,
0.145328719723,
0.193771626298,
0.176470588235,
0.148788927336,
0.173010380623,
0.290657439446,
0.356401384083,
0.190311418685,
0.148788927336,
0.235294117647,
0.186851211073,
0.134948096886,
0.110726643599,
0.117647058824,
0.107266435986,
0.131487889273,
0.145328719723,
0.155709342561,
0.134948096886,
0.131487889273,
0.124567474048,
0.155709342561,
0.204152249135,
0.162629757785,
0.145328719723,
0.190311418685,
0.321799307958,
0.532871972318,
0.442906574394,
0.446366782007,
0.432525951557,
0.269896193772,
0.290657439446,
0.363321799308,
0.221453287197,
0.21107266436,
0.100346020761,
0.107266435986,
0.117647058824,
0.145328719723,
0.100346020761,
0.110726643599,
0.0519031141869,
0.0622837370242,
0.162629757785,
0.16955017301,
0.145328719723,
0.18339100346,
0.141868512111,
0.193771626298,
0.266435986159,
0.228373702422,
0.117647058824,
0.0865051903114,
0.0484429065744,
0.0795847750865,
0.204152249135,
0.155709342561,
0.19723183391,
0.148788927336,
0.179930795848,
0.16955017301,
0.207612456747,
0.273356401384,
0.273356401384,
0.193771626298,
0.134948096886,
0.173010380623,
0.138408304498,
0.131487889273,
0.166089965398,
0.179930795848,
0.193771626298,
0.176470588235,
0.162629757785,
0.0968858131488,
0.280276816609,
0.173010380623,
0.19723183391,
0.18339100346,
0.107266435986,
0.0899653979239,
0.0622837370242,
0.107266435986,
0.114186851211,
0.0726643598616,
0.131487889273,
0.134948096886,
0.138408304498,
0.0519031141869,
0.0934256055363,
0.103806228374,
0.145328719723,
0.176470588235,
0.204152249135,
0.283737024221,
0.193771626298,
0.179930795848,
0.134948096886,
0.179930795848,
0.121107266436,
0.179930795848,
0.235294117647,
0.252595155709,
0.176470588235,
0.266435986159,
0.204152249135,
0.166089965398,
0.148788927336,
0.19723183391,
0.176470588235,
0.173010380623,
0.166089965398,
0.228373702422,
0.159169550173,
0.166089965398,
0.16955017301,
0.114186851211,
0.16955017301,
0.159169550173,
0.134948096886,
0.145328719723,
0.134948096886,
0.318339100346,
0.470588235294,
0.314878892734,
0.36678200692,
0.266435986159,
0.307958477509,
0.22491349481,
0.128027681661,
0.131487889273,
0.18339100346,
0.141868512111,
0.16955017301,
0.179930795848,
0.200692041522,
0.0795847750865,
0.0657439446367,
0.0657439446367,
0.0899653979239,
0.166089965398,
0.145328719723,
0.145328719723,
0.193771626298,
0.411764705882,
0.529411764706,
0.584775086505,
0.80276816609,
0.875432525952,
0.570934256055,
0.40830449827,
0.273356401384,
0.262975778547,
0.207612456747,
0.083044982699,
0.110726643599,
0.166089965398,
0.124567474048,
0.141868512111,
0.0553633217993,
0.0865051903114,
0.162629757785,
0.214532871972,
0.0519031141869,
0.076124567474,
0.228373702422,
0.615916955017,
0.726643598616,
0.747404844291,
0.768166089965,
0.674740484429,
0.429065743945,
0.494809688581,
0.608996539792,
0.221453287197,
0.114186851211,
0.363321799308,
0.449826989619,
0.121107266436,
0.0899653979239,
0.0899653979239,
0.0622837370242,
0.0415224913495,
0.0484429065744,
0.038062283737,
0.0519031141869,
0.103806228374,
0.121107266436,
0.121107266436,
0.131487889273,
0.301038062284,
0.453287197232,
0.567474048443,
0.712802768166,
0.449826989619,
0.359861591696,
0.276816608997,
0.221453287197,
0.162629757785,
0.221453287197,
0.176470588235,
0.138408304498,
0.103806228374,
0.152249134948,
0.159169550173,
0.0692041522491,
0.110726643599,
0.128027681661,
0.162629757785,
0.134948096886,
0.162629757785,
0.083044982699,
0.373702422145,
0.63321799308,
0.709342560554,
0.705882352941,
0.833910034602,
0.598615916955,
0.629757785467,
0.612456747405,
0.356401384083,
0.114186851211,
0.166089965398,
0.131487889273,
0.0553633217993,
0.100346020761,
0.134948096886,
0.110726643599,
0.114186851211,
0.100346020761,
0.131487889273,
0.131487889273,
0.107266435986,
0.103806228374,
0.18339100346,
0.40830449827,
0.529411764706,
0.63321799308,
0.615916955017,
0.529411764706,
0.615916955017,
0.574394463668,
0.785467128028,
0.937716262976,
0.43598615917,
0.439446366782,
0.228373702422,
0.124567474048,
0.148788927336,
0.207612456747,
0.173010380623,
0.23875432526,
0.269896193772,
0.266435986159,
0.141868512111,
0.200692041522,
0.131487889273,
0.124567474048,
0.152249134948,
0.266435986159,
0.339100346021,
0.553633217993,
0.63321799308,
0.515570934256,
0.629757785467,
0.667820069204,
0.43598615917,
0.442906574394,
0.429065743945,
0.294117647059,
0.311418685121,
0.280276816609,
0.176470588235,
0.152249134948,
0.173010380623,
0.159169550173,
0.148788927336,
0.114186851211,
0.186851211073,
0.152249134948,
0.128027681661,
0.117647058824,
0.110726643599,
0.145328719723,
0.214532871972,
0.242214532872,
0.159169550173,
0.269896193772,
0.356401384083,
0.134948096886,
0.235294117647,
0.19723183391,
0.307958477509,
0.155709342561,
0.159169550173,
0.145328719723,
0.166089965398,
0.186851211073,
0.152249134948,
0.19723183391,
0.190311418685,
0.214532871972,
0.159169550173,
0.166089965398,
0.16955017301,
0.145328719723,
0.217993079585,
0.110726643599,
0.190311418685,
0.186851211073,
0.173010380623,
0.256055363322,
0.269896193772,
0.21107266436,
0.297577854671,
0.297577854671,
0.173010380623,
0.22491349481,
0.176470588235,
0.21107266436,
0.131487889273,
0.131487889273,
0.124567474048,
0.134948096886,
0.152249134948,
0.162629757785,
0.159169550173,
0.141868512111,
0.200692041522,
0.152249134948,
0.193771626298,
0.159169550173,
0.110726643599,
0.145328719723,
0.193771626298,
0.290657439446,
0.162629757785,
0.152249134948,
0.141868512111,
0.148788927336,
0.173010380623,
0.228373702422,
0.401384083045,
