original,forecast,
0.13942308,0.18711538,0.002274555
0.26442308,0.18692308,0.00600625
0.30769231,0.28,0.000766864
0.19711538,0.31730769,0.014446191
0.23557692,0.17634615,0.003508284
0.38942308,0.22961538,0.025538501
0.3125,0.32596154,0.000181213
0.53846154,0.22846154,0.0961
0.58653846,0.4375,0.022212463
0.26442308,0.42076923,0.024444119
0.34615385,0.23884615,0.011514942
0.22115385,0.32038462,0.009846746
0.14423077,0.18769231,0.001888905
0.13942308,0.17134615,0.001019082
0.13461538,0.17788462,0.001872227
0.13942308,0.17019231,0.000946746
0.60576923,0.18615385,0.176077067
0.625,0.48788462,0.018800627
0.52403846,0.50096154,0.000532544
0.47596154,0.39576923,0.006430807
0.42307692,0.33076923,0.00852071
0.36538462,0.28865385,0.005887611
0.25,0.25384615,1.47929E-05
0.16826923,0.23826923,0.0049
0.25,0.19673077,0.002837611
0.29807692,0.23961538,0.003417752
0.34615385,0.3225,0.000559505
0.39903846,0.31846154,0.00649264
0.34134615,0.35115385,9.6191E-05
0.30769231,0.25192308,0.003110207
0.37980769,0.22115385,0.025171041
0.29326923,0.32403846,0.000946746
0.17307692,0.23096154,0.003350629
0.13942308,0.19057692,0.002616715
0.15384615,0.19423077,0.001630918
0.15384615,0.16846154,0.00021361
0.14423077,0.19961538,0.003067455
0.17307692,0.19538462,0.000497633
0.12019231,0.22326923,0.010624851
0.0625,0.18057692,0.013942159
0.12980769,0.16596154,0.001307101
0.25,0.20730769,0.001822633
0.20673077,0.21076923,1.63092E-05
0.19230769,0.205,0.000161095
0.47596154,0.20557692,0.073107843
0.17788462,0.44038462,0.06890625
0.30288462,0.18923077,0.012917198
0.35096154,0.28961538,0.003763351
0.28365385,0.33,0.002147966
0.22115385,0.25326923,0.001031398
0.26442308,0.20846154,0.003131694
0.3125,0.25557692,0.003240237
0.37980769,0.32057692,0.003508284
0.25,0.33576923,0.007356361
0.25480769,0.22173077,0.001094083
0.40865385,0.23653846,0.029623707
0.64423077,0.33615385,0.094911389
0.52884615,0.50134615,0.00075625
0.1875,0.37903846,0.036686982
0.18269231,0.21826923,0.001265717
0.49038462,0.18846154,0.091157546
0.20192308,0.43538462,0.054504291
0.11057692,0.20346154,0.008627553
0.04807692,0.21788462,0.028834655
0.5625,0.15557692,0.165586393
0.5625,0.50038462,0.00385832
0.69711538,0.44903846,0.061542158
0.89423077,0.52653846,0.135197635
0.75480769,0.52115385,0.054594117
0.22115385,0.47173077,0.062788793
0.34134615,0.22923077,0.012569858
0.51923077,0.31288462,0.042578734
0.50480769,0.43884615,0.004350925
0.4375,0.38230769,0.003046191
0.18269231,0.33134615,0.022097964
0.09134615,0.19211538,0.010154438
0.19230769,0.14576923,0.002165828
0.12019231,0.20769231,0.00765625
0.23076923,0.15596154,0.00559619
0.30769231,0.22211538,0.007323411
0.14423077,0.29057692,0.021417196
0.12980769,0.18423077,0.002961872
0.16826923,0.17807692,9.61908E-05
0.17307692,0.19076923,0.000313018
0.1875,0.16307692,0.000596487
0.13461538,0.18596154,0.002636428
0.35576923,0.17903846,0.031233765
0.89423077,0.36403846,0.281103886
0.73076923,0.55365385,0.031369858
0.75480769,0.47038462,0.080896483
0.80288462,0.54211538,0.068000597
0.83173077,0.52903846,0.091622635
0.25,0.50846154,0.066802368
0.37980769,0.24557692,0.0180179
0.10576923,0.34538462,0.057415535
0.11538462,0.17692308,0.003786982
0.03846154,0.16115385,0.015053403
0.1875,0.13211538,0.003067456
0.20192308,0.19442308,5.625E-05
0.22115385,0.18346154,0.00142071
0.17307692,0.21442308,0.001709505
0.14903846,0.17576923,0.000714534
0.16826923,0.17365385,2.89941E-05
0.39423077,0.17769231,0.046888905
0.26923077,0.37519231,0.011227848
0.28846154,0.24442308,0.001939386
0.21153846,0.275,0.004027367
0.21634615,0.19769231,0.000347966
0.1875,0.23557692,0.00231139
0.12019231,0.19769231,0.00600625
0.3125,0.15326923,0.025354438
0.5625,0.29596154,0.071042751
0.58653846,0.43692308,0.022384762
0.63461538,0.45173077,0.033446781
0.53846154,0.54173077,1.06879E-05
0.33173077,0.37461538,0.00183909
0.22115385,0.28269231,0.003786982
0.25,0.20307692,0.002201775
0.07211538,0.25557692,0.033658137
0.0625,0.14115385,0.006186428
0.08173077,0.12942308,0.002274556
0.15865385,0.17961538,0.000439386
0.18269231,0.2,0.000299556
0.20192308,0.20788462,3.554E-05
0.16346154,0.17788462,0.000208025
0.10576923,0.18423077,0.006156213
0.14903846,0.17346154,0.000596487
0.22596154,0.25846154,0.00105625
0.23557692,0.26519231,0.000877071
0.27884615,0.22480769,0.002920155
0.23076923,0.285,0.002940976
0.15384615,0.20384615,0.0025
0.14903846,0.18403846,0.001225
0.11538462,0.19576923,0.006461686
0.25,0.14538462,0.010944378
0.89423077,0.25538462,0.408124403
0.75,0.55846154,0.036686982
0.73557692,0.47173077,0.069614791
0.19230769,0.51557692,0.104502995
0.29807692,0.21961538,0.006156213
0.1875,0.28807692,0.010115717
0.24519231,0.18769231,0.00330625
0.27403846,0.25480769,0.000369823
0.23076923,0.26423077,0.001119675
0.22596154,0.22615385,3.69831E-08
0.22115385,0.23096154,9.61908E-05
0.25,0.21903846,0.000958617
0.23557692,0.25557692,0.0004
0.20192308,0.23596154,0.001158617
0.23076923,0.225,3.3284E-05
0.20673077,0.21173077,0.000025
0.27403846,0.22230769,0.002676073
0.34615385,0.245,0.010232101
0.31730769,0.32365385,4.02737E-05
0.17307692,0.22942308,0.00317489
0.16826923,0.16711538,1.33137E-06
0.16346154,0.16153846,3.69824E-06
0.125,0.17884615,0.002899408
0.51442308,0.18596154,0.107886983
0.25961538,0.48711538,0.05175625
0.17788462,0.24269231,0.004200037
0.23557692,0.18192308,0.002878735
0.16826923,0.26192308,0.008771044
0.48557692,0.19057692,0.087025
0.87019231,0.42903846,0.194616719
0.44711538,0.55711538,0.0121
0.19711538,0.34326923,0.021360948
0.19711538,0.20384615,4.53033E-05
0.3125,0.18211538,0.017000149
0.23076923,0.30326923,0.00525625
0.28846154,0.21846154,0.0049
0.24038462,0.30192308,0.003786982
0.22596154,0.21730769,7.48891E-05
0.25480769,0.22269231,0.001031398
0.42788462,0.21019231,0.047389942
0.44230769,0.37403846,0.004660688
0.14903846,0.33403846,0.034225
0.14423077,0.16346154,0.000369823
0.10576923,0.19288462,0.007589091
0.24519231,0.16384615,0.006617198
0.59134615,0.26057692,0.109408284
0.55769231,0.46692308,0.008239053
0.56730769,0.44615385,0.014678253
0.4375,0.46346154,0.000674002
0.50961538,0.34153846,0.028249851
0.21153846,0.39307692,0.032956212
0.12019231,0.22038462,0.010038499
0.84615385,0.21923077,0.393032548
0.53846154,0.53615385,5.32543E-06
0.38942308,0.40576923,0.000267197
0.42307692,0.30615385,0.013671004
0.30288462,0.32634615,0.000550443
0.27884615,0.22346154,0.003067455
0.18269231,0.21961538,0.001363313
0.11057692,0.17711538,0.004427367
0.25,0.16076923,0.00796213
0.27884615,0.25326923,0.000654179
0.18269231,0.28423077,0.010310059
0.20192308,0.17711538,0.000615422
0.23076923,0.17788462,0.002796782
0.24038462,0.21173077,0.000821043
0.19230769,0.23038462,0.001449853
0.16826923,0.22365385,0.003067456
0.15865385,0.1925,0.001145562
0.08653846,0.18384615,0.009468787
0.15384615,0.16134615,5.625E-05
0.25,0.20307692,0.002201775
0.375,0.25269231,0.014959171
0.08173077,0.33153846,0.062403882
0.19230769,0.18557692,4.53033E-05
0.21153846,0.20192308,9.24555E-05
0.16346154,0.21557692,0.002716013
0.08653846,0.18134615,0.008988498
0.13942308,0.15942308,0.0004
0.13942308,0.18519231,0.002094822
0.125,0.17538462,0.00253861
0.19230769,0.16326923,0.000843232
0.15865385,0.22923077,0.004981102
0.71153846,0.15865385,0.305681392
0.19230769,0.20211538,9.61908E-05
0.19230769,0.20557692,0.000176072
0.24519231,0.17769231,0.00455625
0.17788462,0.23884615,0.003716308
0.16346154,0.19173077,0.000799149
0.17788462,0.16461538,0.000176073
0.34615385,0.18634615,0.025538501
0.16826923,0.31826923,0.0225
0.16346154,0.20173077,0.001464534
0.08653846,0.17884615,0.00852071
0.08653846,0.15942308,0.005312168
0.11057692,0.18769231,0.005946783
0.07692308,0.18692308,0.0121
0.08173077,0.18173077,0.01
0.15865385,0.17980769,0.000447485
0.12980769,0.2,0.00492696
0.125,0.18019231,0.003046191
0.10096154,0.17288462,0.005172929
0.125,0.14634615,0.000455658
0.16346154,0.17192308,7.15977E-05
0.24519231,0.2375,5.91716E-05
0.30288462,0.33269231,0.000888498
0.11057692,0.22403846,0.012873521
0.15865385,0.19653846,0.001435244
0.15384615,0.25211538,0.009656842
0.40865385,0.19519231,0.045565829
0.52884615,0.37788462,0.022789384
0.49519231,0.44634615,0.002385947
0.48076923,0.36307692,0.01385148
0.09615385,0.35788462,0.068502996
0.32211538,0.16096154,0.02597056
0.09134615,0.29096154,0.039846304
0.16346154,0.17692308,0.000181213
0.15865385,0.22634615,0.004582247
0.24038462,0.18826923,0.002716014
0.21634615,0.25076923,0.001184948
0.23076923,0.20846154,0.000497633
0.24519231,0.23653846,7.48891E-05
0.21634615,0.22826923,0.00014216
0.24519231,0.21057692,0.001198225
0.22115385,0.23807692,0.00028639
0.18269231,0.20461538,0.000480621
0.40384615,0.17596154,0.051931395
0.19230769,0.31865385,0.015963352
0.15865385,0.16538462,4.53033E-05
0.12980769,0.15865385,0.000832101
0.15865385,0.18019231,0.000463905
0.125,0.19980769,0.00559619
0.11538462,0.16923077,0.002899408
0.10576923,0.16038462,0.002982841
0.27884615,0.15134615,0.01625625
0.375,0.26346154,0.012440828
0.23076923,0.16807692,0.003930326
0.13942308,0.25115385,0.012483765
0.15384615,0.1925,0.00149412
0.07211538,0.16846154,0.009282583
0.21153846,0.16038462,0.002616715
0.22596154,0.26596154,0.0016
0.20673077,0.22711538,0.000415532
0.30769231,0.20884615,0.009770563
0.32692308,0.29115385,0.001279438
0.27403846,0.29346154,0.000377256
0.45673077,0.23192308,0.050538497
0.24519231,0.35384615,0.011805657
0.14423077,0.20692308,0.003930326
0.15384615,0.17538462,0.000463906
0.1875,0.17326923,0.000202515
0.14423077,0.23807692,0.0088071
0.13461538,0.18903846,0.002961872
0.08653846,0.1775,0.008274002
0.25480769,0.19461538,0.003623114
0.48076923,0.29076923,0.0361
0.57211538,0.42538462,0.021529916
0.46153846,0.42903846,0.00105625
0.05769231,0.34,0.079697632
0.0625,0.14634615,0.007030177
0.26923077,0.14346154,0.015817899
0.29326923,0.27423077,0.000362463
0.32211538,0.285,0.001377551
0.14903846,0.30769231,0.025171044
0.07211538,0.18884615,0.013626073
0.14903846,0.16192308,0.000166013
0.19711538,0.19288462,1.78993E-05
0.125,0.23038462,0.011105918
0.08653846,0.17,0.006965829
0.22115385,0.16634615,0.003003884
0.26923077,0.27903846,9.61908E-05
0.32692308,0.25807692,0.004739794
0.22115385,0.3325,0.012397965
0.12980769,0.20923077,0.006308026
0.34615385,0.19134615,0.023965424
0.53365385,0.33692308,0.038702996
0.69230769,0.4525,0.057507728
0.5,0.54230769,0.001789941
0.54807692,0.39038462,0.024866861
0.90384615,0.41288462,0.241043224
0.92307692,0.58038462,0.117438012
0.83173077,0.49961538,0.110300632
0.66346154,0.4825,0.032747079
0.51923077,0.43461538,0.007159764
0.34134615,0.37519231,0.001145563
0.26923077,0.29019231,0.000439386
0.19230769,0.23461538,0.001789941
0.30769231,0.18596154,0.01481838
0.37980769,0.29423077,0.007323409
0.0625,0.32403846,0.068402366
0.09134615,0.18423077,0.008627553
0.09615385,0.17692308,0.006523669
0.17788462,0.17211538,3.32841E-05
0.05288462,0.21307692,0.025661573
0.09134615,0.15269231,0.003763351
0.29326923,0.18173077,0.012440828
0.46153846,0.25,0.04474852
0.53365385,0.31442308,0.048062131
0.39903846,0.39423077,2.31139E-05
0.41346154,0.28576923,0.016305326
0.34134615,0.31634615,0.000625
0.41826923,0.24769231,0.029096486
0.40384615,0.35942308,0.001973409
0.36538462,0.27826923,0.007589091
0.5,0.27634615,0.050021045
0.48076923,0.45192308,0.0008321
0.41346154,0.34615385,0.004530325
0.32692308,0.28,0.002201775
0.26442308,0.25923077,2.69601E-05
0.05288462,0.22326923,0.029030915
0.16826923,0.1575,0.000115976
0.10576923,0.18115385,0.005682841
0.10576923,0.17307692,0.004530325
0.10096154,0.15980769,0.003462869
0.16826923,0.15134615,0.000286391
0.1875,0.25096154,0.004027367
0.20192308,0.18269231,0.000369823
0.09134615,0.18346154,0.008485245
0.18269231,0.19711538,0.000208025
0.24519231,0.21403846,0.000970562
0.44711538,0.23942308,0.043136091
0.32211538,0.38288462,0.003692901
0.50961538,0.23673077,0.07446601
0.50480769,0.43096154,0.005453254
0.44230769,0.38096154,0.00376335
0.50961538,0.32942308,0.032469265
0.49519231,0.40826923,0.007555622
0.39903846,0.37692308,0.00048909
0.41346154,0.29384615,0.014307842
0.38942308,0.31634615,0.005340238
0.38942308,0.2675,0.014865237
0.26923077,0.30711538,0.001435244
0.22596154,0.24019231,0.000202515
0.04807692,0.19865385,0.022673412
0.13461538,0.14076923,3.78699E-05
0.05769231,0.19769231,0.0196
0.09615385,0.17711538,0.006554769
0.125,0.18596154,0.003716309
0.16826923,0.185,0.000279919
0.20192308,0.22461538,0.00051494
0.1875,0.21711538,0.000877071
0.13942308,0.20538462,0.004350925
0.26442308,0.18903846,0.005682841
0.18269231,0.28,0.009468787
0.15865385,0.18326923,0.000605917
0.14423077,0.17115385,0.000724852
0.15865385,0.19923077,0.001646486
0.19711538,0.17961538,0.00030625
0.14903846,0.2375,0.007825444
0.14423077,0.17423077,0.0009
0.28365385,0.19288462,0.008239053
0.42788462,0.34980769,0.006096007
0.41826923,0.32923077,0.007927847
0.41826923,0.31076923,0.01155625
0.35576923,0.29653846,0.003508284
0.21634615,0.25634615,0.0016
0.15865385,0.1975,0.001509023
0.13461538,0.18230769,0.002274556
0.16346154,0.17173077,6.83802E-05
0.14423077,0.17807692,0.001145562
0.24038462,0.17807692,0.003882249
0.13942308,0.2575,0.013942159
0.125,0.18865385,0.004051813
0.13461538,0.16326923,0.000821043
0.19230769,0.18826923,1.63092E-05
0.14423077,0.24634615,0.010427551
0.27884615,0.17326923,0.011146486
0.31730769,0.33019231,0.000166013
0.20673077,0.33134615,0.015528993
0.14423077,0.17903846,0.001211575
0.13942308,0.16076923,0.000455658
0.14423077,0.17788462,0.001132582
0.22596154,0.22403846,3.69824E-06
0.21634615,0.19211538,0.00058713
0.61057692,0.22653846,0.147485539
0.46153846,0.47942308,0.00031986
0.45192308,0.35384615,0.009619084
0.42788462,0.35903846,0.004739794
0.44230769,0.29653846,0.021248668
0.21153846,0.33403846,0.01500625
0.09615385,0.20019231,0.010824001
0.1875,0.20653846,0.000362463
0.22115385,0.21692308,1.78994E-05
0.10096154,0.23134615,0.017000147
0.17307692,0.19557692,0.00050625
0.08653846,0.23326923,0.021529919
0.17307692,0.12115385,0.002696005
0.17307692,0.20307692,0.0009
0.15865385,0.14442308,0.000202515
0.16346154,0.17634615,0.000166013
0.17307692,0.17634615,1.06879E-05
0.37019231,0.17269231,0.03900625
1,0.36576923,0.40224867
0.22596154,0.56307692,0.113646779
0.30288462,0.25326923,0.002461687
0.4375,0.28634615,0.022847486
0.18269231,0.31076923,0.016403697
0.51442308,0.30057692,0.04573018
0.51442308,0.4225,0.008449853
0.16826923,0.40211538,0.054684022
0.23076923,0.18826923,0.00180625
0.24519231,0.25307692,6.21671E-05
0.50480769,0.22826923,0.07647352
0.28365385,0.47153846,0.035300627
0.24519231,0.23615385,8.16938E-05
0.23076923,0.23173077,9.24559E-07
0.25961538,0.23826923,0.000455658
0.28365385,0.25538462,0.000799149
0.22115385,0.27134615,0.002519267
0.21634615,0.20846154,6.21671E-05
0.22596154,0.22211538,1.47929E-05
0.125,0.23134615,0.011309504
0.19711538,0.20346154,4.02737E-05
0.28365385,0.23423077,0.002442641
0.17307692,0.26615385,0.008663315
0.125,0.17538462,0.00253861
0.14423077,0.16807692,0.000568639
0.21153846,0.2275,0.000254771
0.27403846,0.25807692,0.000254771
0.50961538,0.26692308,0.058899552
0.60576923,0.41980769,0.034581694
0.34615385,0.45134615,0.01106542
0.28846154,0.29134615,8.32097E-06
0.25480769,0.23557692,0.000369823
0.12019231,0.22423077,0.010824001
0.125,0.17557692,0.002558025
0.12019231,0.17711538,0.003240236
0.375,0.16730769,0.043136096
0.31730769,0.36019231,0.001839091
0.32692308,0.22288462,0.010824001
0.60096154,0.29230769,0.095267199
0.625,0.45211538,0.029889092
0.48557692,0.5225,0.001363314
0.27403846,0.36653846,0.00855625
0.24519231,0.22615385,0.000362463
0.07692308,0.24903846,0.029623704
0.11538462,0.15057692,0.001238498
0.17788462,0.19615385,0.000333765
0.07692308,0.23884615,0.026219081
0.12019231,0.12846154,6.83802E-05
0.19230769,0.19288462,3.32848E-07
0.45192308,0.22384615,0.052019086
0.24519231,0.30076923,0.003088794
0.08653846,0.22019231,0.017863352
0.08653846,0.14615385,0.003553995
0.13461538,0.18769231,0.00281716
0.32692308,0.17846154,0.022040829
0.30769231,0.29538462,0.000151479
0.22115385,0.23,7.82544E-05
0.17307692,0.19653846,0.000550444
0.125,0.17576923,0.002577515
0.29326923,0.16807692,0.015673114
0.41346154,0.28019231,0.017760688
0.34134615,0.33173077,9.24555E-05
0.22596154,0.24769231,0.000472226
0.24519231,0.18384615,0.003763351
0.27403846,0.23269231,0.001709504
0.35576923,0.26423077,0.00837929
0.29326923,0.33019231,0.001363314
0.16826923,0.24230769,0.005481694
0.11057692,0.19096154,0.006461687
0.0625,0.19230769,0.016850036
0.04326923,0.15269231,0.01197341
0.20673077,0.12923077,0.00600625
0.27403846,0.23903846,0.001225
0.51923077,0.245,0.075202515
0.54807692,0.42192308,0.015914791
0.52884615,0.42326923,0.011146486
0.43269231,0.42596154,4.53033E-05
0.16346154,0.2975,0.017966309
0.09615385,0.18,0.007030177
0.12980769,0.17634615,0.002165828
0.15384615,0.17423077,0.000415533
0.40865385,0.19269231,0.046639387
0.25,0.37788462,0.016354476
0.36538462,0.195,0.029030919
0.41346154,0.32173077,0.008414534
0.27884615,0.34576923,0.004478699
0.21153846,0.21923077,5.91716E-05
0.23557692,0.21596154,0.000384763
0.13461538,0.22211538,0.00765625
0.15865385,0.19346154,0.001211575
0.08653846,0.18384615,0.009468787
0.08173077,0.16134615,0.006338609
0.12980769,0.17673077,0.002201775
0.17307692,0.175,3.69824E-06
0.07692308,0.21288462,0.01848554
0.05288462,0.11980769,0.004478697
0.03846154,0.12096154,0.00680625
0.11538462,0.12865385,0.000176072
0.125,0.20634615,0.006617196
0.05288462,0.19576923,0.020416012
0.0625,0.16865385,0.01126864
0.16346154,0.15134615,0.000146783
0.27403846,0.18192308,0.008485243
0.15384615,0.33038462,0.031165831
0.34134615,0.16038462,0.032747075
0.32692308,0.33288462,3.554E-05
0.24038462,0.24961538,8.52069E-05
0.17788462,0.21673077,0.001509023
0.66346154,0.18788462,0.226173407
0.41826923,0.51788462,0.009923226
0.38461538,0.32326923,0.00376335
0.17788462,0.26365385,0.007356361
0.19230769,0.19461538,5.32543E-06
0.12019231,0.17673077,0.003196597
0.0625,0.15596154,0.008735059
0.09134615,0.16596154,0.005567456
0.14903846,0.17692308,0.000777552
0.0625,0.20346154,0.019870156
0.03365385,0.16115385,0.01625625
0.02403846,0.11942308,0.009098226
0,0.13403846,0.017966309
0.10096154,0.12711538,0.000684023
0.09615385,0.20423077,0.011680621
0.11538462,0.17288462,0.00330625
0.16826923,0.18288462,0.00021361
0.18269231,0.25192308,0.0047929
0.07692308,0.17769231,0.010154438
0.16826923,0.13519231,0.001094083
0.08653846,0.20019231,0.012917198
0.24038462,0.11961538,0.014585209
0.40865385,0.31653846,0.008485245
0.24519231,0.35442308,0.011931361
0.17788462,0.18923077,0.000128735
0.24038462,0.19173077,0.002367197
0.30288462,0.25596154,0.002201775
0.26923077,0.29980769,0.000934948
0.23557692,0.21442308,0.000447485
0.10096154,0.22384615,0.015100627
0.13942308,0.19269231,0.002837611
0.11057692,0.19807692,0.00765625
0.14423077,0.14461538,1.47925E-07
0.10576923,0.24980769,0.020747078
0.11057692,0.16384615,0.002837611
0.20673077,0.16788462,0.001509023
0.25480769,0.245,9.61908E-05
0.24038462,0.24403846,1.33505E-05
0.23076923,0.23442308,1.33506E-05
0.29326923,0.23692308,0.003174889
0.41826923,0.30692308,0.012397965
0.38461538,0.33346154,0.002616715
0.1875,0.26365385,0.005799409
0.13461538,0.20269231,0.004634468
0.45192308,0.17903846,0.074466016
0.19230769,0.41096154,0.047809506
0.11538462,0.20557692,0.008134651
0.03846154,0.15769231,0.014215977
0.125,0.13211538,5.06286E-05
0.25,0.20480769,0.002042345
0.27884615,0.21980769,0.00348554
0.19230769,0.28423077,0.008449853
0.125,0.20269231,0.006036095
0.24038462,0.15865385,0.006679919
0.24519231,0.23057692,0.00021361
0.10096154,0.24519231,0.020802515
0.12019231,0.18307692,0.003954474
0.10576923,0.18173077,0.005770156
0.10576923,0.16057692,0.003003883
0.14903846,0.15980769,0.000115976
0.13461538,0.25846154,0.015337871
0.30288462,0.17730769,0.015769565
0.26923077,0.30153846,0.001043787
0.30769231,0.21442308,0.008699149
0.24519231,0.32115385,0.005770156
0.25961538,0.22115385,0.001479289
0.17307692,0.24461538,0.005117751
0.10576923,0.18538462,0.00633861
0.30288462,0.15634615,0.021473523
0.375,0.25923077,0.013402515
0.12980769,0.33269231,0.041162169
0.13942308,0.17153846,0.001031398
0.18269231,0.19576923,0.000171006
0.12019231,0.22153846,0.010271042
0.24519231,0.16365385,0.00664852
0.24519231,0.23173077,0.000181213
0.15384615,0.25115385,0.009468788
0.14903846,0.18788462,0.001509024
0.10576923,0.19576923,0.0081
0.17788462,0.17423077,1.33506E-05
0.05769231,0.23884615,0.032816714
0.11538462,0.15288462,0.00140625
0.20192308,0.21019231,6.83802E-05
0.20673077,0.24634615,0.001569378
0.20673077,0.21057692,1.47929E-05
0.29807692,0.23269231,0.004275147
0.36538462,0.27730769,0.007757546
0.35576923,0.32711538,0.000821043
0.25480769,0.28384615,0.000843232
0.16826923,0.24730769,0.006247078
0.22596154,0.18076923,0.002042345
0.16826923,0.22096154,0.00277648
0.13942308,0.18711538,0.002274555
0.30769231,0.17326923,0.018069564
0.40384615,0.27230769,0.017302366
0.49519231,0.32076923,0.030423411
0.66346154,0.37884615,0.08100592
0.44230769,0.495,0.00277648
0.71153846,0.32403846,0.15015625
0.30288462,0.49403846,0.036539791
0.11538462,0.23269231,0.013761094
0.09134615,0.19673077,0.011105918
0.12019231,0.14538462,0.000634652
0.18269231,0.18173077,9.24559E-07
0.27403846,0.22480769,0.002423669
0.19230769,0.28903846,0.009356842
0.25,0.19288462,0.003262167
0.24038462,0.24,1.47933E-07
0.27884615,0.24288462,0.001293232
0.22596154,0.28596154,0.0036
0.25961538,0.20519231,0.002961871
0.37980769,0.255,0.015576959
0.35096154,0.33769231,0.000176072
0.49519231,0.27596154,0.048062131
0.20673077,0.41923077,0.04515625
0.12980769,0.22384615,0.008843232
0.33653846,0.19788462,0.019224887
0.3125,0.31596154,1.19823E-05
0.35576923,0.23307692,0.015053403
0.71153846,0.30403846,0.16605625
0.08653846,0.49980769,0.170791456
0.19711538,0.19596154,1.33135E-06
0.11057692,0.22576923,0.013269268
0.125,0.20692308,0.006711391
0.34134615,0.18673077,0.023905916
0.18269231,0.33365385,0.022789387
0.19711538,0.18846154,7.48889E-05
0.18269231,0.17923077,1.19823E-05
0.20192308,0.20173077,3.69831E-08
0.11057692,0.17788462,0.004530326
0.07692308,0.21788462,0.019870156
0.10576923,0.18173077,0.005770156
0.15865385,0.21173077,0.002817159
0.16346154,0.25961538,0.009245561
0.10096154,0.17634615,0.005682839
0.23076923,0.19,0.00166213
0.12980769,0.28692308,0.024685246
0.12019231,0.21673077,0.009319674
0.15865385,0.1525,3.78699E-05
0.13461538,0.26673077,0.017454476
0.27884615,0.17173077,0.011473705
0.68269231,0.29769231,0.148225
0.46153846,0.49634615,0.001211575
0.43269231,0.36634615,0.004401813
0.14903846,0.28980769,0.019815976
0.16346154,0.16980769,4.02736E-05
0.20192308,0.18307692,0.000355178
0.09615385,0.2325,0.018590273
0.10096154,0.19557692,0.00895207
0.03365385,0.17615385,0.02030625
0.15865385,0.11288462,0.002094822
0.20673077,0.19115385,0.00024264
0.24038462,0.23673077,1.33506E-05
0.16826923,0.24096154,0.005284172
0.09615385,0.18461538,0.007825442
0.09615385,0.14980769,0.002878735
0.16826923,0.18019231,0.00014216
0.18269231,0.24326923,0.003669563
0.25480769,0.17769231,0.005946782
0.22596154,0.25903846,0.001094083
0.27403846,0.19384615,0.006430807
0.19230769,0.26769231,0.005682841
0.19230769,0.19288462,3.32848E-07
0.09615385,0.17769231,0.00664852
0.15384615,0.15826923,1.95636E-05
0.3125,0.2225,0.0081
0.37980769,0.29403846,0.007356361
0.28365385,0.33576923,0.002716013
0.375,0.23115385,0.020691715
0.21634615,0.33019231,0.012960948
0.29326923,0.19192308,0.010271042
0.17788462,0.28269231,0.010984652
0.11538462,0.19480769,0.006308024
0.22596154,0.17211538,0.002899409
0.19230769,0.23942308,0.00221986
0.17307692,0.20365385,0.000934949
0.07692308,0.19846154,0.014771597
0.10576923,0.11980769,0.000197078
0.11057692,0.21173077,0.010232101
0.13942308,0.16788462,0.000810059
0.17307692,0.21096154,0.001435244
0.21153846,0.21288462,1.81215E-06
0.14903846,0.20596154,0.003240237
0.13942308,0.15961538,0.000407729
0.23557692,0.18615385,0.00244264
0.17307692,0.26192308,0.00789364
0.32211538,0.19423077,0.016354473
0.32692308,0.285,0.001757545
0.17307692,0.27480769,0.01034915
0.11057692,0.17961538,0.004766309
0.09615385,0.16403846,0.00460832
0.19711538,0.13826923,0.003462869
0.33653846,0.20230769,0.0180179
0.28846154,0.30769231,0.000369823
0.81730769,0.23057692,0.344252996
0.47115385,0.51942308,0.002329919
0.12019231,0.34307692,0.049677549
0.36057692,0.17326923,0.035084171
0.15865385,0.35653846,0.039158319
0.09134615,0.19557692,0.010864053
0.17788462,0.18615385,6.83802E-05
0.28846154,0.21038462,0.006096005
0.20192308,0.29615385,0.008879438
0.14423077,0.19461538,0.002538609
0.26923077,0.17980769,0.007996487
0.23557692,0.26865385,0.001094083
0.17307692,0.22384615,0.002577515
0.23557692,0.19423077,0.001709504
0.33173077,0.26,0.005145303
0.25,0.30038462,0.00253861
0.19711538,0.23269231,0.001265718
0.15865385,0.20173077,0.001855621
0.34615385,0.1725,0.03015566
0.19230769,0.34961538,0.024745709
0.48076923,0.20076923,0.0784
0.60096154,0.44288462,0.024988313
0.60576923,0.46942308,0.018590273
0.45673077,0.49173077,0.001225
0.4375,0.35942308,0.006096005
0.53365385,0.33,0.041474891
0.38461538,0.45673077,0.005200629
0.13942308,0.29923077,0.025538498
0.27403846,0.2325,0.001725444
0.25,0.21673077,0.001106842
0.29326923,0.24519231,0.00231139
0.18269231,0.30019231,0.01380625
0.14903846,0.19538462,0.002147967
0.09615385,0.18192308,0.007356361
0.17788462,0.19673077,0.000355177
0.33173077,0.21307692,0.014078736
0.72115385,0.30423077,0.173824855
0.94711538,0.49307692,0.206150923
0.87019231,0.51788462,0.124120708
0.79807692,0.49961538,0.089079291
0.64423077,0.50596154,0.01911838
0.50961538,0.41903846,0.008204178
0.47115385,0.35942308,0.012483765
0.25480769,0.32519231,0.004953995
0.30288462,0.22826923,0.005567456
0.32692308,0.33923077,0.000151479
0.19230769,0.30038462,0.011680623
0.33173077,0.19173077,0.0196
0.22596154,0.29115385,0.004250037
0.26923077,0.20711538,0.003858322
0.21153846,0.26903846,0.00330625
0.27884615,0.22461538,0.002940976
0.26923077,0.26461538,2.13018E-05
0.33653846,0.22038462,0.013491715
0.25961538,0.34134615,0.006679919
0.23076923,0.24442308,0.000186428
0.16826923,0.23519231,0.004478699
0.28365385,0.19288462,0.008239053
0.39423077,0.31538462,0.006216715
0.42788462,0.34923077,0.006186428
0.15865385,0.30846154,0.022442344
0.34134615,0.18692308,0.023846485
0.43269231,0.33173077,0.010193233
0.17307692,0.36884615,0.038325591
0.36538462,0.18788462,0.03150625
0.36538462,0.36980769,1.95635E-05
0.53846154,0.28346154,0.065025
0.34615385,0.48153846,0.018328993
0.20673077,0.28538462,0.006186428
0.20673077,0.20653846,3.69831E-08
0.30769231,0.24365385,0.004100924
0.17307692,0.29115385,0.013942161
0.14903846,0.18576923,0.001349149
0.24519231,0.17365385,0.005117751
0.26923077,0.25634615,0.000166013
0.1875,0.25634615,0.004739792
0.09615385,0.1875,0.008344119
0.09615385,0.14846154,0.002736094
0.17307692,0.18019231,5.06288E-05
0.13942308,0.23307692,0.008771042
0.15865385,0.19423077,0.001265717
0.1875,0.17461538,0.000166013
0.12980769,0.21211538,0.006774556
0.07211538,0.15230769,0.006430807
0.16346154,0.17769231,0.000202515
0.25961538,0.18865385,0.005035539
0.16346154,0.29038462,0.016109468
0.11057692,0.17730769,0.004452996
0.09615385,0.19423077,0.009619082
0.07211538,0.13826923,0.004376332
0.14423077,0.17807692,0.001145562
0.15865385,0.19480769,0.0013071
0.04807692,0.17961538,0.017302366
0.25961538,0.15192308,0.011597631
0.21634615,0.26711538,0.002577515
0.14423077,0.20557692,0.00376335
0.40384615,0.15634615,0.06125625
0.40865385,0.37711538,0.000994675
0.41826923,0.29923077,0.014170155
0.13461538,0.28788462,0.02349146
0.26442308,0.17403846,0.00816938
0.30769231,0.28576923,0.000480621
0.16346154,0.31730769,0.023668638
0.10576923,0.17903846,0.00536838
0.15384615,0.17346154,0.000384764
0.12019231,0.25942308,0.019385207
0.12980769,0.16846154,0.00149412
0.12019231,0.17923077,0.00348554
0.14903846,0.1525,1.19823E-05
0.22115385,0.24961538,0.000810059
0.35096154,0.26884615,0.006742937
0.41346154,0.31,0.01070429
0.22596154,0.34923077,0.015195303
0.09615385,0.18153846,0.007290532
0.68269231,0.18846154,0.244264054
0.69230769,0.52326923,0.028574001
0.74519231,0.55615385,0.035735539
0.57692308,0.55384615,0.000532545
0.42788462,0.41653846,0.000128735
0.26923077,0.34673077,0.00600625
0.28365385,0.21480769,0.004739794
0.28846154,0.27211538,0.000267197
0.29326923,0.24711538,0.002130178
0.29326923,0.25884615,0.001184948
0.25480769,0.23442308,0.000415532
0.25480769,0.22788462,0.000724852
0.19230769,0.25211538,0.00357696
0.17788462,0.19576923,0.000319859
0.21153846,0.18365385,0.000777551
0.18269231,0.19769231,0.000225
0.17788462,0.17211538,3.32841E-05
0.16826923,0.16903846,5.91715E-07
0.19230769,0.15576923,0.001335059
0.35576923,0.20942308,0.021417196
0.3125,0.35057692,0.001449852
0.36538462,0.22442308,0.019870156
0.30288462,0.315,0.000146782
0.20192308,0.24173077,0.001584652
0.12019231,0.19480769,0.005567455
0.12019231,0.19423077,0.005481694
0.4375,0.18,0.06630625
0.51442308,0.42634615,0.007757546
0.42307692,0.42153846,2.36686E-06
0.4375,0.30230769,0.018276961
0.39903846,0.34326923,0.003110207
0.60576923,0.29269231,0.098017158
0.43269231,0.505,0.005228402
0.37019231,0.32942308,0.00166213
0.24038462,0.25384615,0.000181213
0.16346154,0.21692308,0.002858136
0.11538462,0.19615385,0.006523669
0.07692308,0.20038462,0.015242752
0.13942308,0.16961538,0.000911575
0.14903846,0.19365385,0.001990533
0.05769231,0.16961538,0.012526774
0.02884615,0.15038462,0.0147716
0.14903846,0.11942308,0.000877071
0.15384615,0.19019231,0.001321043
0.28365385,0.17730769,0.011309506
0.1875,0.32653846,0.019331693
0.16346154,0.18865385,0.000634652
0.40865385,0.15807692,0.062788798
0.28365385,0.395,0.012397965
0.90384615,0.22019231,0.467382573
0.3125,0.51307692,0.040231101
0.11057692,0.2675,0.024624853
0.1875,0.18788462,1.47933E-07
0.14903846,0.21365385,0.004175149
0.08653846,0.19096154,0.01090418
0.30769231,0.16692308,0.019815976
0.24519231,0.28423077,0.001524001
0.23557692,0.22115385,0.000208025
0.31730769,0.23711538,0.006430807
0.35576923,0.28980769,0.004350925
0.12980769,0.30019231,0.029030919
0.1875,0.17403846,0.000181213
0.27403846,0.245,0.000843232
0.50480769,0.27538462,0.052634945
0.39903846,0.42384615,0.000615421
0.08653846,0.30884615,0.049420709
0.20192308,0.17038462,0.000994674
0.17307692,0.22576923,0.00277648
0.22115385,0.20365385,0.00030625
0.27403846,0.22846154,0.002077256
0.24519231,0.26788462,0.000514941
0.13461538,0.24903846,0.013092641
0.13461538,0.17307692,0.00147929
0.09134615,0.16596154,0.005567456
0.13461538,0.16846154,0.001145563
0.58653846,0.16846154,0.174788311
0.38461538,0.48865385,0.010824003
0.17307692,0.335,0.026219084
0.51923077,0.19538462,0.104876329
0.38461538,0.47115385,0.007488907
0.4375,0.29365385,0.020691715
0.21153846,0.35,0.019171598
,,
,,0.017214046