original,forecast,
0.27142857,0.24161491,0.000888854
0.07142857,0.25279503,0.032893793
0.15238095,0.19772257,0.002055863
0.14761905,0.21925466,0.005131661
0.23809524,0.17971014,0.00340882
0.34285714,0.20269151,0.019646404
0.27619048,0.28799172,0.000139269
0.1047619,0.23146998,0.016054938
0.18571429,0.17888199,4.66803E-05
0.23333333,0.18509317,0.002327113
0.14285714,0.226294,0.00696171
0.1047619,0.20124224,0.009308456
0.03809524,0.16645963,0.016477417
0.21904762,0.16811594,0.002594036
0.32857143,0.22360248,0.01101848
0.19047619,0.23333333,0.001836734
0.15238095,0.23498965,0.006824197
0.02857143,0.19565217,0.027915974
0.09047619,0.17722567,0.007525472
0.18095238,0.12732919,0.002875447
0.17142857,0.1826087,0.000124995
0.17619048,0.17826087,4.28651E-06
0.24285714,0.20869565,0.001167007
0.24285714,0.23271222,0.000102919
0.22380952,0.20372671,0.000403319
0.17619048,0.22670807,0.002552027
0.04285714,0.23167702,0.035652947
0.12857143,0.15942029,0.000951652
0.18571429,0.18488613,6.85849E-07
0.27142857,0.18571429,0.007346938
0.39047619,0.23871636,0.023031046
0.24285714,0.35921325,0.013538744
0.22857143,0.20041408,0.000792836
0.1952381,0.20910973,0.000192422
0.18095238,0.1815735,3.8579E-07
0.1952381,0.16915114,0.000680529
0.3952381,0.19399586,0.040498439
0.48571429,0.32546584,0.025679566
0.42380952,0.35196687,0.005161366
0.0952381,0.32960663,0.054928608
0.14285714,0.21118012,0.00466803
0.07142857,0.14865424,0.005963804
0.10952381,0.14513458,0.001268127
0.15238095,0.14575569,4.38941E-05
0.23809524,0.1989648,0.001531191
0.16666667,0.22587992,0.003506209
0.2952381,0.19627329,0.009794034
0.2952381,0.29213251,9.64469E-06
0.23333333,0.27681159,0.001890359
0.17619048,0.226294,0.002510363
0.23809524,0.21387164,0.000586783
0.23809524,0.25610766,0.000324447
0.21428571,0.23271222,0.000339536
0.31904762,0.23043478,0.007852235
0.31428571,0.29792961,0.000267522
0.14285714,0.26915114,0.015950174
0.13809524,0.1884058,0.002531152
0.15238095,0.16687371,0.00021004
0.13333333,0.14824017,0.000222214
0.18095238,0.14513458,0.001282915
0.22380952,0.19710145,0.000713321
0.37142857,0.2173913,0.023727481
0.20952381,0.35817805,0.022098083
0.06666667,0.19917184,0.01755762
0.08095238,0.17763975,0.009348448
0.1952381,0.1826087,0.000159502
0.18571429,0.18385093,3.47211E-06
0.18095238,0.1826087,2.7434E-06
0.22380952,0.21759834,3.85788E-05
0.22380952,0.22587992,4.28656E-06
0.33809524,0.20496894,0.017722612
0.2952381,0.31759834,0.00049998
0.23333333,0.25859213,0.000638007
0.23809524,0.20496894,0.001097352
0.27142857,0.21573499,0.003101775
0.2047619,0.25879917,0.002920027
0.18571429,0.21200828,0.000691374
0.33333333,0.19482402,0.019184829
0.33333333,0.27763975,0.003101775
0.18095238,0.26873706,0.00770615
0.17142857,0.17908903,5.86826E-05
0.16666667,0.16190476,2.26758E-05
0.13809524,0.14451346,4.11935E-05
0.1,0.14824017,0.002327114
0.08095238,0.14803313,0.004499827
0.05714286,0.1884058,0.017229959
0.12380952,0.15258799,0.0008282
0.15714286,0.18695652,0.000888854
0.15238095,0.17763975,0.000638007
0.14761905,0.19834369,0.002572989
0.3,0.19668737,0.0106735
0.25714286,0.27743271,0.000411678
0.20952381,0.23271222,0.000537702
0.07619048,0.22857143,0.023219954
0.14285714,0.1952381,0.002743765
0.15238095,0.1863354,0.001152905
0.22380952,0.17225673,0.00265769
0.22857143,0.23809524,9.0703E-05
0.2047619,0.2320911,0.000746885
0.1952381,0.24679089,0.00265769
0.35238095,0.24037267,0.012545855
0.33809524,0.32070393,0.000302458
0.33333333,0.25445135,0.006222367
0.22857143,0.32380952,0.009070294
0.17142857,0.22712215,0.003101775
0.13333333,0.19565217,0.003883638
0.11904762,0.15341615,0.001181196
0.10952381,0.13726708,0.000769689
0.08095238,0.16066253,0.006353708
0.05714286,0.17412008,0.01368367
0.12857143,0.136853,6.85844E-05
0.11904762,0.19337474,0.005524521
0.06666667,0.16542443,0.009753095
0.08095238,0.14451346,0.004040011
0.21904762,0.15962733,0.003530771
0.27619048,0.24720497,0.00084016
0.24285714,0.21490683,0.00078122
0.08571429,0.26128364,0.030824597
0.25714286,0.18426501,0.005311181
0.26666667,0.25714286,9.0703E-05
0.23333333,0.22898551,1.89035E-05
0.24285714,0.25652174,0.000186721
0.25238095,0.23706004,0.00023473
0.15238095,0.21097308,0.003433038
0.11428571,0.19482402,0.006486419
0.2952381,0.17412008,0.014669575
0.30952381,0.25672878,0.002787315
0.15238095,0.23229814,0.006386757
0.12857143,0.19068323,0.003857876
0.12380952,0.18654244,0.003935419
0.07619048,0.16583851,0.008036769
0.16190476,0.1310559,0.000951652
0.29047619,0.2173913,0.005341401
0.36190476,0.2184265,0.020586011
0.18571429,0.31925466,0.01783303
0.12857143,0.19026915,0.003806609
0.18571429,0.17267081,0.000170132
0.19047619,0.17101449,0.000378758
0.18095238,0.16335404,0.000309702
0.3047619,0.23291925,0.005161366
0.18095238,0.31221532,0.017229959
0.31428571,0.18674948,0.01626549
0.3,0.27971014,0.000411678
0.16666667,0.30952381,0.020408162
0.15714286,0.20538302,0.002327113
0.25714286,0.17929607,0.006060123
0.13809524,0.25714286,0.014172336
0.1952381,0.20331263,6.5198E-05
0.12380952,0.19875776,0.005617239
0.26666667,0.18612836,0.006486419
0.31428571,0.21966874,0.008952371
0.19047619,0.24306418,0.002765497
0.13333333,0.21200828,0.006189748
0.14285714,0.19668737,0.002897694
0.10952381,0.18322981,0.005432574
0.0952381,0.13188406,0.001342926
0.08095238,0.1689441,0.007742543
0.05714286,0.16563147,0.011769778
0.15238095,0.13768116,0.000216084
0.18571429,0.19006211,1.89035E-05
0.31428571,0.20144928,0.01273206
0.13333333,0.28819876,0.023983301
0.23333333,0.17888199,0.002964948
0.14761905,0.20828157,0.003679941
0.27142857,0.21055901,0.003705103
0.29047619,0.23188406,0.003433038
0.21904762,0.24575569,0.000713321
0.23333333,0.22857143,2.26757E-05
0.14285714,0.23809524,0.009070296
0.27142857,0.19751553,0.005463137
0.24285714,0.27701863,0.001167007
0.20952381,0.23312629,0.000557077
0.19047619,0.24078675,0.002531152
0.22380952,0.21987578,1.54743E-05
0.34285714,0.22546584,0.013780717
0.25714286,0.29026915,0.001097351
0.17142857,0.23540373,0.004092821
0.13809524,0.19627329,0.003384686
0.13333333,0.16853002,0.001238807
0.1,0.13602484,0.001297789
0.05714286,0.14451346,0.007633622
0.04761905,0.13726708,0.008036769
0.16666667,0.13726708,0.000864336
0.13809524,0.19358178,0.003078756
0.18571429,0.17349896,0.000149214
0.34761905,0.22091097,0.016054938
0.21904762,0.29792961,0.006222368
0.27619048,0.18281573,0.008718844
0.27142857,0.26086957,0.000111492
0.18571429,0.27246377,0.007525472
0.12380952,0.22484472,0.010208112
0.31904762,0.20559006,0.012872618
0.22857143,0.28136646,0.002787315
0.25714286,0.22567288,0.00099036
0.21904762,0.26563147,0.002170055
0.23809524,0.24865424,0.000111492
0.18571429,0.2310559,0.002055862
0.27619048,0.20600414,0.004926122
0.15714286,0.2563147,0.009835054
0.11904762,0.23084886,0.012499517
0.12857143,0.16977226,0.001697508
0.12380952,0.19296066,0.00478188
0.15714286,0.14120083,0.000254148
0.11904762,0.15010352,0.000964469
0.14285714,0.1621118,0.000370742
0.06666667,0.14037267,0.005432574
0.16666667,0.15755694,8.29872E-05
0.0952381,0.21428571,0.014172333
0.17619048,0.16086957,0.00023473
0.2952381,0.21035197,0.007205655
0.33809524,0.23374741,0.01088847
0.28571429,0.29544513,9.46892E-05
0.20952381,0.26604555,0.003194707
0.23809524,0.21677019,0.000454758
0.21428571,0.20890269,2.89769E-05
0.15714286,0.21987578,0.003935419
0.25238095,0.20517598,0.002228309
0.18571429,0.23664596,0.002594035
0.07619048,0.20807453,0.017393403
0.14285714,0.1515528,7.56145E-05
0.34761905,0.21697723,0.017067285
0.48571429,0.2699793,0.046541586
0.42857143,0.33602484,0.008564871
0.3952381,0.36915114,0.000680529
0.35714286,0.30641822,0.002572989
0.46666667,0.33043478,0.018559128
0.46666667,0.42111801,0.00207468
0.35714286,0.41221532,0.003032976
0.15714286,0.3136646,0.024499055
0.15238095,0.20207039,0.00246904
0.05238095,0.15465839,0.010460675
0.06666667,0.13581781,0.00478188
0.3047619,0.13457557,0.028963387
0.28095238,0.23312629,0.002287335
0.30952381,0.22505176,0.007135527
0.2952381,0.29068323,2.07468E-05
0.09047619,0.30310559,0.045211262
0.16190476,0.20248447,0.001646713
0.11428571,0.20517598,0.008261041
0.11428571,0.15921325,0.002018484
0.10952381,0.13850932,0.00084016
0.14285714,0.19627329,0.002853285
0.19047619,0.18095238,9.0703E-05
0.15238095,0.2068323,0.00296495
0.13809524,0.18902692,0.002594036
0.31428571,0.14596273,0.028332626
0.28095238,0.28343685,6.17259E-06
0.26666667,0.21469979,0.002700557
0.16666667,0.27950311,0.012732062
0.14761905,0.21801242,0.004955227
0.18095238,0.18219462,1.54316E-06
0.12380952,0.19855072,0.005586247
0.08095238,0.15465839,0.005432576
0.05714286,0.14679089,0.008036769
0.04761905,0.15424431,0.011368946
0.12380952,0.15010352,0.000691374
0.06666667,0.1610766,0.008913235
0.18095238,0.13043478,0.002552028
0.17619048,0.21966874,0.001890359
0.09047619,0.18343685,0.008641684
0.2,0.17660455,0.000547347
0.18571429,0.22712215,0.001714611
0.18095238,0.20703934,0.000680529
0.24285714,0.23913043,1.38884E-05
0.3047619,0.22981366,0.005617239
0.25238095,0.24906832,1.09735E-05
0.21428571,0.23809524,0.000566894
0.25238095,0.21780538,0.00119547
0.14285714,0.24037267,0.009509279
0.2952381,0.19461698,0.01012461
0.30952381,0.28405797,0.000648509
0.15238095,0.26604555,0.012919641
0.13809524,0.1757764,0.00141987
0.14285714,0.1826087,0.001580187
0.12857143,0.16149068,0.001083677
0.11428571,0.13954451,0.000638007
0.08095238,0.17018634,0.0079627
0.11904762,0.17060041,0.00265769
0.1047619,0.19772257,0.008641686
0.16190476,0.18219462,0.000411678
0.41904762,0.21325052,0.042352446
0.45238095,0.32256729,0.016851586
0.31904762,0.32401656,2.46904E-05
0.25714286,0.28778468,0.000938921
0.27619048,0.21428571,0.003832201
0.36666667,0.22008282,0.021486825
0.23809524,0.31035197,0.005221035
0.23333333,0.22028986,0.000170132
0.08571429,0.20434783,0.014073917
0.18571429,0.17536232,0.000107163
0.15714286,0.1610766,1.54743E-05
0.17619048,0.19855072,0.00049998
0.1952381,0.2194617,0.000586783
0.30952381,0.22401656,0.00731149
0.37142857,0.30207039,0.004810557
0.21428571,0.31118012,0.009388527
0.16190476,0.19337474,0.00099036
0.14285714,0.1805383,0.00141987
0.12380952,0.16501035,0.001697508
0.07142857,0.1389234,0.004555552
0.07142857,0.12691511,0.003078756
0.08095238,0.15610766,0.005648316
0.16666667,0.14761905,0.000362812
0.2047619,0.2047619,0
0.16190476,0.23146998,0.00483932
0.26666667,0.20807453,0.003433039
0.1952381,0.26666667,0.005102041
0.26666667,0.22484472,0.001749076
0.23809524,0.26169772,0.000557077
0.13809524,0.24616977,0.011680104
0.25714286,0.22070393,0.001327796
0.25238095,0.24803313,1.89035E-05
0.29047619,0.21552795,0.005617239
0.15238095,0.27039337,0.013926931
0.25714286,0.21200828,0.00203713
0.22380952,0.26335404,0.001563769
0.18571429,0.21780538,0.001029838
0.28095238,0.22111801,0.003580152
0.28095238,0.26625259,0.000216084
0.15714286,0.24803313,0.008261041
0.11904762,0.20062112,0.006654236
0.10952381,0.18964803,0.006419891
0.11428571,0.18716356,0.005311181
0.09047619,0.13768116,0.002228309
0.04761905,0.16915114,0.014770049
0.07619048,0.12008282,0.001926538
0.05714286,0.14223602,0.007240846
0.08095238,0.12360248,0.001819031
0.16666667,0.13126294,0.001253424
0.16190476,0.19047619,0.000816327
0.22380952,0.19358178,0.000913716
0.31428571,0.23726708,0.005931869
0.12380952,0.28322981,0.025414829
0.2,0.18115942,0.000354967
0.26666667,0.2,0.004444445
0.17142857,0.23395445,0.003909486
0.3,0.20227743,0.009549701
0.2047619,0.27908903,0.005524522
0.28095238,0.23291925,0.002307182
0.26190476,0.26749482,3.12488E-05
0.28571429,0.28240166,1.09735E-05
0.25238095,0.2436853,7.56143E-05
0.32857143,0.24244306,0.007418096
0.32857143,0.28923395,0.001547437
0.13333333,0.30351967,0.02896339
0.14285714,0.17308489,0.000913717
0.07619048,0.17080745,0.008952371
0.08571429,0.14679089,0.003730351
0.06666667,0.14202899,0.005679479
0.23809524,0.13850932,0.009917355
0.12380952,0.24575569,0.014870868
0.03333333,0.18612836,0.023346321
0.22380952,0.1515528,0.005221034
0.24761905,0.23084886,0.000281239
0.16666667,0.21759834,0.002594035
0.13809524,0.18405797,0.002112573
0.2,0.16915114,0.000951652
0.25714286,0.22608696,0.000964469
0.23333333,0.24306418,9.46894E-05
0.26666667,0.2310559,0.001268127
0.26190476,0.27391304,0.000144199
0.19047619,0.24430642,0.002897694
0.17619048,0.20082816,0.000607015
0.29047619,0.18757764,0.010588112
0.3047619,0.27287785,0.001016593
0.27142857,0.24327122,0.000792836
0.21904762,0.26066253,0.001731801
0.2047619,0.22587992,0.000445971
0.25714286,0.21035197,0.002189387
0.14761905,0.27619048,0.016530613
0.08095238,0.19792961,0.013683672
0.1,0.15797101,0.003360638
0.11428571,0.17639752,0.003857877
0.14285714,0.15755694,0.000216084
0.14761905,0.19026915,0.001819031
0.06666667,0.16542443,0.009753095
0.17619048,0.13519669,0.001680491
0.26666667,0.22608696,0.001646713
0.27142857,0.19855072,0.005311181
0.27142857,0.25776398,0.000186721
0.11428571,0.27888199,0.027091935
0.23333333,0.2115942,0.00047259
0.24285714,0.24347826,3.8579E-07
0.05714286,0.22215321,0.027228416
0.0047619,0.18426501,0.032221366
0.08095238,0.14285714,0.003832199
0.21428571,0.15776398,0.003194706
0.1,0.19648033,0.009308454
0.2047619,0.1863354,0.000339536
0.23809524,0.21925466,0.000354967
0.33333333,0.21532091,0.013926931
0.20952381,0.30248447,0.008641684
0.12857143,0.2115942,0.00689278
0.1047619,0.2115942,0.01141314
0.07619048,0.1952381,0.014172336
0.09047619,0.13540373,0.002018484
0.06190476,0.16666667,0.010975058
0.06190476,0.12670807,0.004199469
0.32380952,0.20227743,0.014770049
0.29047619,0.30248447,0.000144199
0.21428571,0.24761905,0.001111112
0.24761905,0.20869565,0.001515031
0.2,0.23519669,0.001238807
0.17142857,0.2047619,0.001111111
0.09047619,0.21325052,0.015073536
0.13809524,0.18198758,0.001926538
0.1952381,0.17971014,0.000241118
0.36190476,0.1757764,0.034643766
0.30952381,0.3184265,7.92579E-05
0.15714286,0.24637681,0.007962698
0.13333333,0.1699793,0.001342927
0.0952381,0.15569358,0.003654865
0.06666667,0.1378882,0.005072506
0.02857143,0.13354037,0.011018478
0.03333333,0.12857143,0.009070296
0.11904762,0.13043478,0.000129667
0.11428571,0.15569358,0.001714612
0.1,0.16459627,0.004172678
0.28571429,0.15175983,0.017943797
0.29047619,0.25300207,0.00140431
0.24761905,0.24451346,9.64469E-06
0.22857143,0.24182195,0.000175576
0.2952381,0.24016563,0.003032977
0.33333333,0.24575569,0.007669843
0.23809524,0.26645963,0.000804539
0.29047619,0.19606625,0.008913237
0.20952381,0.27060041,0.003730351
0.25714286,0.23188406,0.000638007
0.2047619,0.23747412,0.001070089
0.15238095,0.21614907,0.004066373
0.3,0.20724638,0.008603234
0.31904762,0.26231884,0.003218154
0.28095238,0.25175983,0.000852205
0.13809524,0.2747412,0.018672118
0.1047619,0.18964803,0.007205655
0.13333333,0.18281573,0.002448508
0.0952381,0.1484472,0.002831208
0.03809524,0.13436853,0.009268546
0.3,0.11904762,0.032743764
0.65714286,0.25548654,0.161327799
0.39047619,0.41904762,0.000816327
0.18571429,0.3426501,0.024628848
0.21428571,0.22380952,9.0703E-05
0.1,0.24037267,0.019704486
0.21428571,0.1515528,0.003935418
0.26666667,0.1757764,0.008261041
0.16666667,0.21449275,0.002287334
0.23809524,0.20910973,0.00084016
0.2952381,0.23830228,0.003241688
0.15714286,0.22650104,0.004810557
0.15714286,0.19275362,0.001268126
0.23333333,0.19585921,0.00140431
0.24761905,0.23064182,0.000288226
0.17142857,0.23643892,0.004226346
0.33333333,0.23250518,0.010166316
0.23809524,0.32194617,0.007030978
0.15714286,0.21221532,0.003032976
0.21904762,0.21242236,4.38941E-05
0.23333333,0.21221532,0.00044597
0.35238095,0.25424431,0.0096308
0.37619048,0.33374741,0.001801414
0.22380952,0.30227743,0.006157213
0.2047619,0.21697723,0.000149214
0.33809524,0.18033126,0.024889473
0.27142857,0.27101449,1.71462E-07
0.16190476,0.26335404,0.010291956
0.2047619,0.19772257,4.95522E-05
0.15238095,0.18302277,0.000938921
0.1047619,0.15175983,0.002208805
0.22380952,0.14430642,0.006320743
0.32857143,0.21904762,0.011995465
0.3047619,0.27701863,0.000769689
0.11904762,0.25072464,0.017338838
0.15238095,0.17991718,0.000758244
0.33809524,0.17536232,0.026482003
0.24761905,0.25714286,9.0703E-05
0.1952381,0.23416149,0.00151503
0.22380952,0.19834369,0.000648508
0.23333333,0.23519669,3.47211E-06
0.45238095,0.22028986,0.053866274
0.20952381,0.36356108,0.023727481
0.38571429,0.17639752,0.04381351
0.27619048,0.35755694,0.006620501
0.19047619,0.30766046,0.013732153
0.1,0.22132505,0.014719768
0.14285714,0.16356108,0.000428653
0.08571429,0.13954451,0.002897693
0.04761905,0.13581781,0.007779021
0.22380952,0.15113872,0.005281045
0.19047619,0.25921325,0.004724783
0.24285714,0.20496894,0.001435516
0.24285714,0.236853,3.60497E-05
0.28571429,0.22587992,0.003580152
0.29047619,0.2552795,0.001238807
0.13809524,0.28902692,0.022780372
0.31428571,0.20910973,0.011061987
0.34761905,0.28964803,0.003360639
0.20952381,0.27432712,0.004199469
0.32380952,0.20289855,0.014619463
0.31428571,0.32298137,7.56145E-05
0.25714286,0.2942029,0.001373447
0.26666667,0.25921325,5.55535E-05
0.29047619,0.26935818,0.00044597
0.2952381,0.29089027,1.89036E-05
0.24761905,0.26728778,0.000386859
0.14285714,0.21904762,0.005804989
0.14285714,0.19482402,0.002700557
0.14761905,0.16708075,0.000378758
0.11428571,0.15838509,0.001944755
0.06190476,0.16149068,0.009917355
0.04761905,0.14140787,0.008796343
0.11428571,0.14244306,0.000792836
0.14761905,0.18302277,0.001253423
0.07142857,0.17204969,0.01012461
0.13333333,0.14824017,0.000222214
0.17142857,0.20041408,0.00084016
0.28095238,0.20144928,0.006320743
0.17619048,0.26273292,0.007489594
0.13809524,0.19378882,0.003101775
0.2952381,0.17722567,0.013926934
0.27142857,0.24492754,0.000702305
0.18095238,0.22836439,0.002247899
0.26190476,0.23022774,0.001003434
0.24285714,0.23188406,0.000120408
0.18095238,0.2310559,0.002510363
0.21904762,0.21656315,6.17259E-06
0.25238095,0.23850932,0.000192422
0.30952381,0.22691511,0.006824197
0.14285714,0.27556936,0.017612533
0.1047619,0.18944099,0.007170548
0.1047619,0.1942029,0.007999692
0.11428571,0.18240166,0.004639783
0.08095238,0.14534161,0.004145973
0.05238095,0.1563147,0.010802224
0.03809524,0.12877847,0.008223448
0.11428571,0.12981366,0.000241117
0.34761905,0.15093168,0.038685922
0.23333333,0.23229814,1.07162E-06
0.15238095,0.24679089,0.008913237
0.12380952,0.18364389,0.003580152
0.18095238,0.17267081,6.85844E-05
0.19047619,0.14658385,0.001926538
0.2,0.19751553,6.17259E-06
0.22857143,0.2320911,1.23881E-05
0.23333333,0.25362319,0.000411678
0.25238095,0.2126294,0.001580186
0.25238095,0.23871636,0.000186721
0.28571429,0.23333333,0.002743765
0.28095238,0.26977226,0.000124995
0.19047619,0.25341615,0.003961439
0.26190476,0.19875776,0.003987544
0.33809524,0.236853,0.010249991
0.32380952,0.29275362,0.000964469
0.14285714,0.25817805,0.013298912
0.1047619,0.17805383,0.005371707
0.0952381,0.17184265,0.005868257
0.08571429,0.14906832,0.004013733
0.06666667,0.14616977,0.006320743
0.01904762,0.13768116,0.014073917
0.04285714,0.11345756,0.004984419
0.13333333,0.12877847,2.07467E-05
0.15238095,0.16024845,6.18976E-05
0.26666667,0.19192547,0.005586247
0.28095238,0.27763975,1.09735E-05
0.08095238,0.26397516,0.033497338
0.18571429,0.18364389,4.28656E-06
0.1047619,0.20207039,0.009468942
0.15714286,0.17246377,0.00023473
0.21904762,0.17515528,0.001926538
0.25238095,0.20993789,0.001801413
0.18095238,0.27971014,0.009753095
0.28095238,0.21055901,0.004955227
0.21428571,0.28530021,0.005043059
0.22380952,0.22546584,2.7434E-06
0.25238095,0.23623188,0.000260792
0.2952381,0.24120083,0.002920027
0.12857143,0.25714286,0.016530613
0.15238095,0.20559006,0.002831209
0.17619048,0.20745342,0.000977371
0.13809524,0.19006211,0.002700556
0.15238095,0.13768116,0.000216084
0.1047619,0.14099379,0.00131275
0.12857143,0.16293996,0.001181196
0.11428571,0.1610766,0.002189387
0.10952381,0.17743271,0.004611619
0.1952381,0.15838509,0.001358144
0.09047619,0.2494824,0.025282975
0.17619048,0.16853002,5.86826E-05
0.13809524,0.17763975,0.001563768
0.30952381,0.19068323,0.014123083
0.26666667,0.28716356,0.000420122
0.0952381,0.24865424,0.023536512
0.28095238,0.163147,0.013878108
0.16190476,0.24430642,0.006790034
0.10952381,0.2320911,0.015022741
0.11428571,0.20041408,0.007418096
0.18095238,0.18178054,6.85849E-07
0.16666667,0.17701863,0.000107163
0.1952381,0.18592133,8.68022E-05
0.23333333,0.22732919,3.60497E-05
0.2047619,0.23871636,0.001152905
0.12380952,0.23871636,0.013203582
0.13809524,0.2047619,0.004444444
0.14285714,0.20393375,0.003730352
0.11428571,0.18012422,0.004334709
0.09047619,0.14244306,0.002700556
0.11428571,0.16873706,0.00296495
0.10952381,0.22691511,0.013780717
0.18095238,0.19026915,8.68022E-05
0.27619048,0.23167702,0.001981448
0.17619048,0.24782609,0.005131661
0.12857143,0.21304348,0.007135527
0.17619048,0.16873706,5.55535E-05
0.3047619,0.19026915,0.01310859
0.10952381,0.29026915,0.032668878
0.02380952,0.17391304,0.022531067
0.16666667,0.1426501,0.000576796
0.21904762,0.1757764,0.001872398
0.27142857,0.21469979,0.003218154
0.2047619,0.25610766,0.002636387
0.1047619,0.20993789,0.011061989
0.12857143,0.19813665,0.00483932
0.27142857,0.20351967,0.004611619
0.3952381,0.24327122,0.023093933
0.35714286,0.29171843,0.004280356
0.26190476,0.29917184,0.001388835
0.1,0.24140787,0.019996186
0.10952381,0.17867495,0.00478188
0.09047619,0.16004141,0.00483932
0.07142857,0.13519669,0.004066373
0.28571429,0.14699793,0.019242229
0.16666667,0.25507246,0.007815584
0.25714286,0.21532091,0.001749076
0.26190476,0.21594203,0.002112573
0.1,0.26149068,0.02607924
0.18571429,0.17556936,0.00010292
0.23333333,0.23457557,1.54316E-06
0.20952381,0.23913043,0.000876552
0.2047619,0.21635611,0.000134426
0.26190476,0.21966874,0.001783881
0.2,0.24451346,0.001981448
0.22857143,0.20248447,0.000680529
0.26666667,0.24327122,0.000547347
0.26190476,0.23581781,0.000680529
0.19047619,0.24161491,0.002615169
0.22857143,0.1989648,0.000876553
0.26666667,0.21138716,0.003055824
0.3,0.22236025,0.006027931
0.23333333,0.25320911,0.000395047
0.2047619,0.22132505,0.000274338
0.12380952,0.19875776,0.005617239
0.14285714,0.18571429,0.001836735
0.16190476,0.15942029,6.17259E-06
0.06190476,0.18322981,0.014719768
0.02857143,0.12587992,0.009468942
0.16666667,0.1300207,0.001342927
0.21904762,0.21863354,1.71462E-07
0.3047619,0.19047619,0.013061224
0.10952381,0.273706,0.026955792
0.16666667,0.18281573,0.000260792
0.2,0.18819876,0.000139269
0.16666667,0.19606625,0.000864335
0.16666667,0.17722567,0.000111492
0.20952381,0.18799172,0.000463631
0.17142857,0.22981366,0.003408819
0.3,0.21884058,0.006586851
0.26190476,0.27267081,0.000115908
0.21904762,0.22815735,8.29872E-05
0.17142857,0.23333333,0.003832199
0.07142857,0.21304348,0.020054783
0.3047619,0.15507246,0.022406928
0.22380952,0.25320911,0.000864336
0.28571429,0.20724638,0.006157213
0.11428571,0.2552795,0.019879249
0.10952381,0.19813665,0.007852235
0.13809524,0.18757764,0.002448508
0.06666667,0.19089027,0.015431503
0.05714286,0.13395445,0.00590002
0.03333333,0.12898551,0.00914934
0.1047619,0.14306418,0.001467065
0.05238095,0.14637681,0.008835222
0.11904762,0.12670807,5.86825E-05
0.12380952,0.15797101,0.001167007
0.06190476,0.17060041,0.011814744
0.08571429,0.14327122,0.0033128
0.22857143,0.16045549,0.004639781
0.14285714,0.23395445,0.00829872
0.25714286,0.20062112,0.003194707
0.17142857,0.25714286,0.00734694
0.08095238,0.20207039,0.014669572
0.09047619,0.18923395,0.009753095
0.03333333,0.17204969,0.019242229
0.13333333,0.13602484,7.24423E-06
0.28095238,0.19668737,0.007100592
0.32857143,0.22256729,0.011236878
0.36666667,0.28115942,0.00731149
0.45714286,0.33830228,0.014123083
0.22380952,0.38799172,0.026955795
0.10952381,0.23995859,0.017013232
0.10952381,0.17639752,0.004472093
0.07142857,0.15010352,0.006189748
0.07142857,0.13354037,0.003857876
0.35238095,0.16190476,0.036281179
0.15714286,0.24554865,0.007815584
0.05238095,0.20621118,0.02366374
0.1047619,0.18405797,0.006287867
0.19047619,0.16666667,0.000566893
0.18095238,0.20434783,0.000547347
0.11428571,0.18074534,0.004416882
0.0952381,0.17639752,0.006586851
0.18095238,0.1426501,0.001467065
0.06666667,0.17991718,0.012825678
0.17619048,0.16542443,0.000115908
0.28571429,0.2047619,0.006553289
0.24285714,0.19979296,0.001854524
0.36190476,0.23022774,0.017338838
0.25714286,0.36459627,0.011546235
0.22857143,0.23933747,0.000115908
0.2047619,0.19440994,0.000107163
0.42380952,0.20351967,0.048527618
0.41904762,0.33478261,0.007100592
0.23809524,0.33064182,0.008564869
0.13809524,0.24285714,0.010975056
0.11428571,0.17639752,0.003857877
0.10952381,0.14078675,0.000977371
0.16190476,0.14016563,0.00047259
0.27619048,0.16666667,0.011995465
0.11904762,0.2310559,0.012545855
0.10952381,0.19171843,0.006755956
0.16666667,0.16935818,7.24423E-06
0.1952381,0.18488613,0.000107163
0.09047619,0.20890269,0.014024836
0.05238095,0.14182195,0.007999692
0.18095238,0.11759834,0.004013734
0.14285714,0.2068323,0.004092821
0.06190476,0.18447205,0.015022741
0.24285714,0.15196687,0.008261041
0.28571429,0.23726708,0.002347132
0.28571429,0.21677019,0.004753289
0.23333333,0.25921325,0.00066977
0.2,0.22919255,0.000852205
0.17142857,0.20144928,0.000901243
0.26190476,0.18964803,0.005221035
0.35714286,0.26418219,0.008641686
0.25714286,0.31904762,0.003832199
0.26666667,0.23726708,0.000864336
0.16666667,0.26977226,0.010630763
0.13809524,0.19751553,0.003530771
0.48095238,0.17204969,0.095420872
0.51904762,0.36024845,0.025217176
0.43333333,0.37619048,0.003265305
0.27619048,0.36583851,0.008036769
0.27619048,0.23830228,0.001435516
0.4952381,0.23188406,0.06935535
0.45714286,0.35072464,0.011324838
0.2952381,0.35424431,0.003481733
0.17142857,0.26770186,0.009268546
0.20952381,0.20062112,7.92579E-05
0.15238095,0.18716356,0.00120983
0.10952381,0.15341615,0.001926538
0.12380952,0.14658385,0.00051867
0.04285714,0.15693582,0.013013945
0.14761905,0.14327122,1.89036E-05
0.2047619,0.19710145,5.86825E-05
0.17142857,0.18923395,0.000317032
0.2,0.20517598,2.67908E-05
0.3,0.21780538,0.006755956
0.21428571,0.29503106,0.006519812
0.32380952,0.20082816,0.015124415
0.31428571,0.30393375,0.000107163
0.31904762,0.32587992,4.66803E-05
0.24761905,0.27329193,0.000659097
0.11904762,0.25320911,0.017999305
0.13333333,0.18592133,0.002765498
0.27142857,0.17763975,0.008796343
0.57142857,0.26045549,0.096704256
0.60952381,0.39378882,0.046541586
0.16666667,0.4747412,0.094909916
0.20952381,0.2552795,0.002093583
0.2047619,0.22919255,0.000596857
0.21428571,0.19689441,0.000302457
0.2,0.21118012,0.000124995
0.13333333,0.23333333,0.01
0.17142857,0.19378882,0.000499981
0.10952381,0.23933747,0.016851586
0.25714286,0.16935818,0.00770615
0.24761905,0.21904762,0.000816327
0.23333333,0.22981366,1.23881E-05
0.17619048,0.24078675,0.004172678
0.16666667,0.21138716,0.001999922
0.26190476,0.17991718,0.006721963
0.15714286,0.24161491,0.007135527
0.19047619,0.20393375,0.000181106
0.30952381,0.19834369,0.012361019
0.5047619,0.28178054,0.049720687
0.72857143,0.33478261,0.155069635
0.68571429,0.53271222,0.023409633
0.55714286,0.5300207,0.000735612
0.36190476,0.46004141,0.009630802
0.26666667,0.36190476,0.009070294
0.48571429,0.30538302,0.032519367
0.22857143,0.38509317,0.024499055
0.3,0.22380952,0.005804989
0.23333333,0.21966874,0.000186721
0.37142857,0.2621118,0.011950156
0.24285714,0.27660455,0.001138888
0.08095238,0.22401656,0.02046736
0.08571429,0.17846791,0.008603234
0.16190476,0.18281573,0.000437269
0.32380952,0.14865424,0.030679372
0.3047619,0.24554865,0.003506209
0.42380952,0.26977226,0.023727477
0.35238095,0.40289855,0.002552028
0.3047619,0.30890269,1.71461E-05
0.22857143,0.25403727,0.000648509
0.27142857,0.21345756,0.003360638
0.23809524,0.23664596,2.10041E-06
0.16190476,0.23850932,0.005868259
0.37142857,0.2194617,0.02309393
0.41428571,0.32173913,0.008564869
0.67142857,0.3115942,0.129480774
0.6047619,0.50020704,0.010931719
0.42380952,0.45962733,0.001282916
0.48571429,0.3931677,0.008564871
0.62857143,0.42091097,0.043122867
0.27619048,0.43126294,0.024047468
0.2,0.29503106,0.009030902
0.19047619,0.22815735,0.00141987
0.37142857,0.19606625,0.030751943
0.26190476,0.27018634,6.85846E-05
0.16666667,0.20124224,0.00119547
0.08571429,0.18716356,0.010291954
0.1,0.16853002,0.004696364
0.13809524,0.13064182,5.55535E-05
0.17619048,0.1552795,0.000437269
0.15238095,0.20269151,0.002531152
0.15238095,0.18385093,0.00099036
0.16666667,0.15610766,0.000111493
0.28571429,0.15879917,0.016107448
0.26666667,0.26252588,1.71461E-05
0.12380952,0.23043478,0.011368946
0.14761905,0.19668737,0.0024077
0.12380952,0.19482402,0.005043059
0.08095238,0.16521739,0.007100592
0.08095238,0.12712215,0.002131648
0.04285714,0.13995859,0.009428692
0.12857143,0.13913043,0.000111492
0.28571429,0.17722567,0.011769781
0.2047619,0.23374741,0.00084016
0.1,0.23354037,0.01783303
0.07142857,0.17950311,0.011680106
0.08571429,0.16853002,0.006858445
0.12380952,0.13188406,6.51982E-05
0.13809524,0.14658385,7.20565E-05
0.11428571,0.16128364,0.002208805
0.26190476,0.17101449,0.008261041
0.30952381,0.26376812,0.002093583
0.15714286,0.25383023,0.009348448
0.13809524,0.18654244,0.002347131
0.12380952,0.19565217,0.005161366
0.19047619,0.18447205,3.60497E-05
0.13809524,0.173706,0.001268126
0.12380952,0.15755694,0.001138888
0.35238095,0.17453416,0.031629481
0.4,0.30082816,0.009835054
0.11904762,0.27908903,0.025613253
0.06666667,0.14327122,0.005868257
0.04285714,0.16687371,0.01538011
0.11904762,0.1426501,0.000557077
0.1952381,0.16708075,0.000792836
0.25714286,0.20621118,0.002594036
0.11904762,0.24451346,0.015741677
0.1047619,0.19192547,0.007597488
0.0952381,0.16293996,0.004583542
0.0952381,0.16521739,0.004897101
0.15238095,0.1494824,8.40159E-06
0.31428571,0.20455487,0.012040857
0.16666667,0.25113872,0.007135527
0.2,0.21697723,0.000288226
0.34285714,0.18674948,0.024369602
0.22380952,0.29130435,0.004555552
0.15714286,0.22443064,0.004527645
0.14285714,0.1826087,0.001580187
,,
,,0.007330732