out,tar,
0.11061397,0.10979228,6.75E-07
0.11813678,0.0504451,0.004582164
0.04974393,0,0.002474459
0.05691941,0.115727,0.003458333
0.14516581,0.09792285,0.002231897
0.15188923,0.07418398,0.006038106
0.14173292,0.08902077,0.002778571
0.1429822,0.20771513,0.004190352
0.24302358,0.30267062,0.003557769
0.30201272,0.35608309,0.002923605
0.33673823,0.28189911,0.003007329
0.26131273,0.47477745,0.045567187
0.4400672,0.38575668,0.002949633
0.40995048,0.05637982,0.125012212
0.0902287,0.12462908,0.001183386
0.18270637,0.17804154,2.18E-05
0.14848389,0.15430267,3.39E-05
0.16300252,0.21068249,0.00227338
0.21211177,0.05934718,0.02333702
0.10241508,0.05637982,0.002119245
0.08810912,0.02670623,0.003770315
0.08185925,0.02967359,0.002723343
0.07321914,0.07418398,9.31E-07
0.07415495,0.04747774,0.000711674
0.06614949,0.06824926,4.41E-06
0.06839804,0.02373887,0.001994441
0.04350287,0.0652819,0.000474326
0.10493202,0.0652819,0.001572132
0.11245985,0.04747774,0.004222675
0.14658792,0.06231454,0.007102003
0.17666948,0.17804154,1.88E-06
0.20563871,0.25519288,0.002455616
0.3097549,0.21958457,0.008130688
0.28783855,0.18694362,0.010179787
0.26092196,0.25519288,3.28E-05
0.2606324,0.11275964,0.021866353
0.16762987,0.23145401,0.004073521
0.26198276,0.26706231,2.58E-05
0.24444935,0.10682493,0.018940481
0.15725077,0.27893175,0.014806261
0.25213831,0.08605341,0.027584194
0.10738633,0.07418398,0.001102396
0.1020135,0.06231454,0.001576007
0.10313065,0.09198813,0.000124156
0.11053743,0.06231454,0.002325447
0.08855875,0.09792285,8.77E-05
0.10833285,0.08902077,0.000372956
0.10986392,0.0504451,0.003530596
0.07324621,0.07121662,4.12E-06
0.10249978,0.10682493,1.87E-05
0.11800127,0.24332344,0.015705646
0.21729831,0.10682493,0.012204368
0.17557933,0.32047478,0.020994691
0.29959114,0.2462908,0.002840926
0.28007128,0.21958457,0.003658642
0.25044472,0.24035608,0.000101781
0.27548813,0.3620178,0.007487384
0.3288639,0.35311573,0.000588151
0.28910107,0.20771513,0.006623671
0.21050947,0.24332344,0.001076757
0.23244328,0.25222552,0.000391337
0.22719138,0.31750742,0.008156987
0.23549394,0.34718101,0.012474002
0.24820679,0.32047478,0.005222662
0.22203761,0.26706231,0.002027224
0.22318858,0.35905045,0.018458448
0.28005059,0.21364985,0.004409058
0.1609705,0.26706231,0.011255472
0.21615967,0.17210682,0.001940654
0.12383422,0.24332344,0.014277674
0.21400221,0.08605341,0.016370895
0.08161318,0.12166172,0.001603886
0.13299948,0.10682493,0.000685107
0.11403873,0.05637982,0.00332455
0.08756162,0.04747774,0.001606717
0.09053229,0.03264095,0.003351407
0.07527761,0.08011869,2.34E-05
0.11505179,0.12166172,4.37E-05
0.14787523,0.13649852,0.00012943
0.14278579,0.16320475,0.000416934
0.17950987,0.44510386,0.070540168
0.38992965,0.43916914,0.002424527
0.40497844,0.42136499,0.000268519
0.43910744,0.48367953,0.001986671
0.48083773,0.43620178,0.001992368
0.40472885,0.13649852,0.07194751
0.18010197,0.10089021,0.006274503
0.16285733,0.1958457,0.001088233
0.1806012,0.20178042,0.000448559
0.19154572,0.03264095,0.025250726
0.11014982,0.13946588,0.000859431
0.15980312,0.29970326,0.019572049
0.23376922,0.18991098,0.001923545
0.14486455,0.19287834,0.002305324
0.15753533,0.0504451,0.011468317
0.05022033,0.07418398,0.000574257
0.07291196,0.09495549,0.000485917
0.10315682,0.13946588,0.001318348
0.11497678,0.06231454,0.002773312
0.09660461,0.14243323,0.002100262
0.16573823,0.12166172,0.001942739
0.18229584,0.10979228,0.005256766
0.18084805,0.09198813,0.007896085
0.19589605,0.13649852,0.003528067
0.22406898,0.19881306,0.000637861
0.2819432,0.16617211,0.013402945
0.2158847,0.24332344,0.000752884
0.22856729,0.3264095,0.009573098
0.31635362,0.35905045,0.001823019
0.32362684,0.37091988,0.002236632
0.29490293,0.21661721,0.006128654
0.19966394,0.21068249,0.000121408
0.23263106,0.28486647,0.002728538
0.26242665,0.33827893,0.005753568
0.25968452,0.28486647,0.000634131
0.21885622,0.28486647,0.004357353
0.21671809,0.35014837,0.01780364
0.27600114,0.22848665,0.002257627
0.18757406,0.21661721,0.000843505
0.18500694,0.15727003,0.000769336
0.12938851,0.05934718,0.004905788
0.07671221,0.00890208,0.004598214
0.05809503,0.07121662,0.000172176
0.07987682,0.10385757,0.000575076
0.09773621,0.02373887,0.005475606
0.06256443,0.14243323,0.006379025
0.15499535,0.16320475,6.74E-05
0.15262779,0.15430267,2.81E-06
0.1593362,0.115727,0.001901762
0.17427819,0.16913947,2.64E-05
0.20945306,0.59050445,0.145200162
0.51850425,0.17804154,0.115914857
0.22900465,0.36498516,0.018490699
0.41326634,0.25222552,0.025934146
0.28293063,0.09792285,0.034227879
0.08657375,0.0504451,0.001305279
0.18599657,0.0148368,0.029295667
0.08519292,0.04154303,0.001905313
0.13452241,0.06231454,0.005213976
0.1410142,0.0504451,0.008202762
0.1122188,0.02077151,0.008362607
0.05648594,0.09198813,0.001260405
0.11544002,0.24332344,0.016354169
0.19054938,0.15727003,0.001107515
0.135402,0.08011869,0.003056244
0.14103402,0.16320475,0.000491541
0.18330614,0.10385757,0.006312075
0.15137911,0.08011869,0.005078047
0.14007995,0.12759644,0.000155838
0.18433869,0.09495549,0.007989356
0.16181693,0.16617211,1.90E-05
0.24405539,0.27893175,0.00121636
0.31243714,0.43620178,0.015317686
0.38803778,0.3620178,0.000677039
0.34061555,0.32937685,0.000126308
0.30344032,0.05934718,0.059581461
0.12512543,0.05637982,0.004725959
0.10938496,0.15430267,0.002017601
0.14060942,0.05934718,0.006603552
0.0776539,0.02967359,0.00230211
0.08508089,0.02373887,0.003762843
0.08198786,0.01780415,0.004119549
0.07068288,0.04451039,0.000684999
0.09892424,0.05637982,0.001810028
0.11175443,0.04451039,0.004521761
0.09367449,0.04747774,0.00213414
0.0760791,0.02967359,0.002153471
0.08055816,0.11275964,0.001036935
0.11343706,0.10385757,9.18E-05
0.14489383,0.08011869,0.004195819
0.13569049,0.08308605,0.002767227
0.18901373,0.14540059,0.001902106
0.2210315,0.07418398,0.021564194
0.18908907,0.13649852,0.002765766
0.24636603,0.16320475,0.006915798
0.26014521,0.12759644,0.017569176
0.20196747,0.30563798,0.010747575
0.28442391,0.43026706,0.021270224
0.33949567,0.32937685,0.000102391
0.28885128,0.29376855,2.42E-05
0.25455832,0.34421365,0.008038078
0.26333514,0.30563798,0.00178953
0.23032748,0.1958457,0.001188993
0.16488904,0.15727003,5.80E-05
0.15626129,0.52225519,0.133951535
0.35685527,0.52225519,0.027357134
0.31622107,0.20771513,0.011773539
0.18790266,0.21958457,0.001003743
0.19927602,0.27002967,0.005006079
0.25154907,0.13353116,0.013928227
0.12261231,0.04747774,0.005645204
0.07239589,0.1305638,0.003383506
0.11390055,0.06231454,0.002661116
0.06228524,0.07418398,0.00014158
0.09942119,0.0504451,0.002398657
0.07987679,0.15430267,0.005539212
0.14913951,0.2462908,0.009438373
0.21397192,0.25519288,0.001699168
0.23738188,0.33234421,0.009017844
0.32357676,0.45697329,0.017794634
0.5042333,0.5578635,0.002876198
0.56579655,0.79228487,0.051296959
0.69528035,0.89614243,0.040345575
0.75793426,0.72106825,0.001359103
0.62032733,0.64094955,0.000425276
0.57499286,0.54896142,0.000677636
0.504787,0.35905045,0.021239142
0.33607632,0.29613144,0.001595593
0.3131573,0.2487636,0.004146549
0.31472443,0.25519288,0.003544005
0.26568361,0.22727772,0.001475012
0.21420029,0.20189032,0.000151535
0.16879425,0.1911199,0.000498435
0.1752851,0.18694362,0.000135921
0.17404894,0.18578965,0.000137844
0.15910083,0.18859215,0.000869738
0.13734191,0.19216397,0.003005458
0.18063778,0.1884273,6.07E-05
0.16920069,0.0652819,0.010799115
0.04272894,0.11275964,0.004904299
0.1288771,0.0504451,0.006151579
0.08598469,0.11275964,0.000716898
0.11633972,0.21958457,0.010659499
0.26980183,0.4272997,0.024805579
0.4310507,0.22255193,0.043471737
0.26804478,0.30563798,0.001413249
0.3690904,0.4421365,0.005335733
0.44543766,0.43323442,0.000148919
0.38818017,0.40949555,0.000454345
0.35579097,0.23442136,0.014730582
0.23421908,0.115727,0.014040373
0.14406072,0.13649852,5.72E-05
0.16692643,0.21661721,0.002469174
0.17992743,0.14836795,0.000996001
0.13445464,0.03560831,0.009770597
0.08548788,0.02967359,0.003115235
0.09379359,0.18991098,0.009238553
0.17740536,0.1958457,0.000340046
0.13694405,0.30267062,0.027465296
0.24213359,0.14836795,0.008791995
0.11961805,0.13946588,0.000393936
0.13358591,0.12166172,0.000142186
0.1246913,0.04154303,0.006913635
0.09080976,0.115727,0.000620869
0.18583303,0.05637982,0.016758134
0.15551306,0.13946588,0.000257512
0.18598977,0.12462908,0.003765134
0.19080908,0.20474777,0.000194287
0.2518345,0.32937685,0.006012816
0.35984653,0.32344214,0.00132528
0.32288217,0.31454006,6.96E-05
0.28989907,0.14836795,0.020031058
0.17777324,0.08605341,0.008412527
0.17469347,0.17507418,1.45E-07
0.20421095,0.18397626,0.000409443
0.15363476,0.12759644,0.000677994
0.14626624,0.05934718,0.007554923
0.10581851,0.10089021,2.43E-05
0.15069522,0.12506869,0.000656719
0.1504565,0.04154303,0.011862144
0.09670556,0.08308605,0.000185491
0.12354327,0.10979228,0.00018909
0.11953603,0.15727003,0.001423855
0.14409578,0.06231454,0.006688171
0.08394852,0.04154303,0.001798226
0.08741429,0.08902077,2.58E-06
0.12861172,0.10682493,0.000474664
0.15549684,0.10979228,0.002088907
0.16673724,0.05637982,0.01217876
0.14214485,0.0652819,0.005907913
0.16098048,0.15430267,4.46E-05
0.22225335,0.10979228,0.012647492
0.16515003,0.16617211,1.04E-06
0.20076685,0.29673591,0.00921006
0.27205897,0.4272997,0.024099684
0.37129998,0.39762611,0.000693065
0.33079913,0.29376855,0.001371264
0.27440989,0.14836795,0.015886571
0.18783708,0.35014837,0.026344955
0.28442289,0.33234421,0.002296453
0.23599845,0.43026706,0.037740293
0.27850901,0.26706231,0.000131027
0.2043906,0.18397626,0.000416745
0.18668992,0.1305638,0.003150141
0.15135875,0.20178042,0.002542345
0.17185633,0.11869436,0.002826195
0.0826408,0.22255193,0.019575124
0.16826104,0.13946588,0.000829161
0.11301804,0.07121662,0.001747359
0.06362611,0.05341246,0.000104319
0.06870452,0.07418398,3.00E-05
0.08997567,0.09198813,4.05E-06
0.10549053,0.06824926,0.001386912
0.10710594,0.0652819,0.00174925
0.08942014,0.16617211,0.005890865
0.17368392,0.13649852,0.001382754
0.15578686,0.16617211,0.000107853
0.22435652,0.19881306,0.000652468
0.23064788,0.23145401,6.50E-07
0.26532213,0.3264095,0.003731667
0.32927392,0.32344214,3.40E-05
0.34607209,0.30563798,0.001634917
0.33919234,0.27002967,0.004783475
0.26649004,0.17210682,0.008908192
0.17890249,0.30267062,0.01531855
0.24264337,0.29673591,0.002926003
0.22540096,0.19881306,0.000706916
0.19010976,0.31750742,0.016230164
0.26691731,0.30563798,0.00149929
0.23855959,0.08308605,0.024172022
0.09122652,0.04747774,0.001913956
0.0885415,0.17804154,0.008010257
0.15808231,0.09198813,0.004368441
0.0686578,0.03560831,0.001092269
0.07015456,0.05934718,0.000116799
0.08361603,0.01186944,0.005147573
0.04010094,0.02373887,0.000267717
0.06759326,0.09198813,0.00059511
0.12475334,0.13353116,7.71E-05
0.14776217,0.18694362,0.001535186
0.19599997,0.32047478,0.015493978
0.28392748,0.43026706,0.021415273
0.42022011,0.37388724,0.002146735
0.43208514,0.23145401,0.04025285
0.30163147,0.22551929,0.005793064
0.26358269,0.33234421,0.004728147
0.3127345,0.26409496,0.002365805
0.22926844,0.22551929,1.41E-05
0.22736568,0.11275964,0.013134544
0.16401671,0.09792285,0.004368398
0.14456344,0.21364985,0.004772932
0.18569481,0.1305638,0.003039428
0.11387766,0.05934718,0.002973573
0.08191208,0.16023739,0.006134854
0.1393583,0.12166172,0.000313169
0.09152585,0.10682493,0.000234062
0.08244211,0.11275964,0.000919153
0.09987099,0.04747774,0.002745053
0.06477849,0.09792285,0.001098549
0.1291521,0.05934718,0.004872727
0.10551169,0.08011869,0.000644804
0.12155815,0.11275964,7.74E-05
0.17931373,0.08011869,0.009839656
0.15440981,0.06824926,0.00742364
0.15628145,0.12759644,0.00082283
0.1821255,0.1305638,0.002658609
0.19033772,0.1958457,3.03E-05
0.2425921,0.27002967,0.00075282
0.2923039,0.34124629,0.002395358
0.31150413,0.32344214,0.000142516
0.29888023,0.30860534,9.46E-05
0.2972733,0.28486647,0.000153929
0.25553624,0.05637982,0.03966328
0.11570024,0.08308605,0.001063685
0.14080833,0.18694362,0.002128465
0.17121294,0.31454006,0.020542663
0.24815868,0.41246291,0.02699588
0.29401615,0.42433234,0.016982309
0.31636835,0.52818991,0.044868373
0.37365134,0.38278932,8.35E-05
0.27793999,0.35311573,0.005651392
0.29018799,0.41543027,0.015685629
0.30080309,0.35311573,0.002736612
0.27552407,0.29673591,0.000449942
0.25833062,0.10089021,0.024787483
0.09069756,0.20474777,0.01300745
0.18900852,0.38575668,0.038709838
0.29903382,0.3620178,0.003966982
0.29508015,0.14540059,0.022403971
0.15001948,0.22255193,0.005260956
0.20636634,0.21958457,0.000174722
0.19989647,0.45994065,0.067622976
0.35454118,0.26706231,0.007652553
0.17662006,0.38872404,0.044988098
0.3323746,0.08308605,0.062144781
0.1245859,0.14540059,0.000433251
0.17283732,0.07418398,0.009732481
0.09665531,0.15430267,0.003323218
0.18870926,0.05341246,0.018305224
0.14772348,0.10979228,0.001438776
0.16477535,0.09495549,0.004874813
0.12763215,0.0652819,0.003887554
0.11033136,0.08308605,0.000742307
0.15664991,0.11275964,0.001926356
0.17290798,0.18397626,0.000122507
0.1751645,0.13649852,0.001495058
0.16154457,0.15133531,0.000104229
0.17665827,0.13946588,0.001383274
0.23961296,0.0652819,0.030391318
0.09218232,0.08308605,8.27E-05
0.19537783,0.35608309,0.025826181
0.34265639,0.51928783,0.031198666
0.40743966,0.53115727,0.015306047
0.46705402,0.43620178,0.000951861
0.37362749,0.43620178,0.003915542
0.37617349,0.74777448,0.138087296
0.49733486,0.75667656,0.067258117
0.4933434,0.74777448,0.064735174
0.51849104,0.60534125,0.007542959
0.40259442,0.50148368,0.009779086
0.40728677,0.43620178,0.000836078
0.37900914,0.40949555,0.000929421
0.38247493,0.36795252,0.0002109
0.33051461,0.62908012,0.089141364
0.43026824,0.26409496,0.027613559
0.23403618,0.24332344,8.63E-05
0.18595427,0.14540059,0.001644601
0.16427188,0.10089021,0.004017236
0.12793852,0.23145401,0.010715457
0.20639716,0.12462908,0.006686019
0.128304,0.06824926,0.003606572
0.07375121,0.08605341,0.000151344
0.09000437,0.04154303,0.002348501
0.01256707,0.12462908,0.012557894
0.10466544,0.29376855,0.035759986
0.34545026,0.54896142,0.041416792
0.42800578,0.54005935,0.012556003
0.52652724,0.55192878,0.000645238
0.63665104,0.61424332,0.000502106
0.66226374,0.6231454,0.001530245
0.63293682,0.69436202,0.003773055
0.66807965,0.81602374,0.021887454
0.64095229,0.70919881,0.004657587
0.56408476,0.62908012,0.004224397
0.45726989,0.42136499,0.001289162
0.2903086,0.29376855,1.20E-05
0.36826716,0.44510386,0.005903878
0.40071189,0.27002967,0.017077843
0.2787674,0.3264095,0.00226977
0.22677072,0.30860534,0.006696905
0.19811886,0.47477745,0.076539975
0.29019607,0.46884273,0.031914629
0.30587827,0.39465875,0.007881974
0.29469046,0.26409496,0.000936085
0.21397307,0.1958457,0.000328602
0.22941993,0.06231454,0.027924211
0.12188648,0.29673591,0.030572323
0.26947246,0.33827893,0.00473433
0.28797254,0.16023739,0.016316269
0.06786235,0.08605341,0.000330915
0.13003335,0.21068249,0.006504284
0.19408742,0.25816024,0.004105326
0.28694562,0.17804154,0.011860099
0.26009513,0.34421365,0.007075925
0.39534783,0.58160237,0.034690754
0.47333292,0.63204748,0.025190312
0.59677049,0.45400593,0.02038172
0.51776685,0.25816024,0.067395592
0.30789182,0.13946588,0.028367297
0.23962655,0.02077151,0.047897529
0.11713647,0.05341246,0.004060749
0.10698956,0.06231454,0.001995857
0.13273093,0.06824926,0.004157886
0.1407193,0.09792285,0.001831536
0.13690406,0.0504451,0.007475152
0.08087939,0.04747774,0.00111567
0.08711988,0.30563798,0.04775016
0.23784304,0.29970326,0.003826687
0.23843655,0.22255193,0.000252321
0.20060096,0.29376855,0.0086802
0.3374397,0.38278932,0.002056588
0.48333739,0.26706231,0.04677491
0.33149532,0.03264095,0.089313934
0.1183976,0.28486647,0.027711885
0.2916358,0.14836795,0.020525677
0.20310688,0.19287834,0.000104623
0.23371585,0.24925816,0.000241563
0.30360267,0.29080119,0.000163878
0.30189615,0.39465875,0.0086049
0.31297987,0.12462908,0.03547602
0.13473021,0.0504451,0.00710398
0.08212841,0.13353116,0.002642243
0.11615481,0.10979228,4.05E-05
0.10089595,0.04451039,0.003179331
0.08202831,0.17210682,0.008114138
0.13822052,0.1958457,0.003320661
0.16091003,0.06231454,0.009721071
0.10649289,0.15133531,0.002010843
0.18910562,0.11869436,0.004957746
0.140473,0.05341246,0.007579538
0.12912676,0.07121662,0.003353584
0.16522746,0.04747774,0.013864997
0.1076967,0.22551929,0.013882163
0.22602481,0.1958457,0.000910779
0.21162651,0.27299703,0.003766341
0.27447415,0.49554896,0.048874072
0.41588875,0.47477745,0.003467879
0.380874,0.30563798,0.005660459
0.3287615,0.42136499,0.008575406
0.38952201,0.47477745,0.00726849
0.40372092,0.39465875,8.21E-05
0.27697207,0.5074184,0.053105511
0.33870518,0.47774481,0.019332019
0.31595382,0.34718101,0.000975137
0.24593701,0.23145401,0.000209757
0.25036298,0.28783383,0.001404065
0.27236763,0.2462908,0.000680001
0.18366886,0.15430267,0.000862373
0.15278192,0.12462908,0.000792582
0.12123047,0.05341246,0.004599282
0.06952853,0.01780415,0.002675411
0.05548827,0.09198813,0.00133224
0.13196969,0.08011869,0.002688526
0.09628755,0.13353116,0.001387086
0.11175502,0.08011869,0.001000857
0.09736582,0.08605341,0.000127971
0.07851589,0.07715134,1.86E-06
0.11482853,0.06231454,0.002757719
0.11849637,0.06824926,0.002524772
0.11216342,0.12759644,0.000238178
0.20782424,0.17804154,0.000887009
0.2206897,0.18397626,0.001347877
0.23373989,0.20771513,0.000677288
0.28512053,0.14540059,0.019521662
0.2409116,0.18991098,0.002601063
0.24729352,0.18397626,0.004009075
0.23644133,0.14836795,0.00775692
0.20221601,0.24332344,0.001689821
0.26337444,0.19287834,0.0049697
0.20477168,0.22551929,0.000430463
0.21584909,0.16023739,0.003092661
0.15946274,0.22551929,0.004363468
0.19522492,0.27596439,0.006518862
0.22686222,0.21661721,0.00010496
0.18800476,0.27002967,0.006728086
0.23180504,0.16617211,0.004307682
0.15109601,0.09495549,0.003151758
0.11630816,0.10089021,0.000237713
0.11723235,0.0504451,0.004460537
0.06191522,0.03560831,0.000692054
0.07964168,0.06231454,0.00030023
0.10105157,0.04747774,0.002870155
0.09265137,0.04747774,0.002040657
0.08690545,0.11275964,0.000668439
0.14316229,0.18397626,0.00166578
0.17353299,0.16023739,0.000176773
0.17073165,0.11869436,0.00270788
0.16179017,0.17210682,0.000106433
0.19728222,0.22551929,0.000797332
0.25403786,0.36795252,0.01297655
0.35364451,0.45697329,0.010676837
0.38525828,0.38872404,1.20E-05
0.34747689,0.27299703,0.00554725
0.24893937,0.4925816,0.059361536
0.37671428,0.23145401,0.021100546
0.18345829,0.08902077,0.008918445
0.15257738,0.10682493,0.002093287
0.15041818,0.08605341,0.004142824
0.10494863,0.07715134,0.000772689
0.0884885,0.0504451,0.0014473
0.08754884,0.03264095,0.003014876
0.07442355,0.03264095,0.001745786
0.06064554,0.10089021,0.001619633
0.10930155,0.08902077,0.00041131
0.07606502,0.07418398,3.54E-06
0.09250073,0.02670623,0.004328916
0.08639518,0.11869436,0.001043237
0.0908713,0.07121662,0.000386306
0.12182004,0.115727,3.71E-05
0.17245915,0.1305638,0.00175522
0.19075776,0.20178042,0.000121499
0.26875199,0.2462908,0.000504505
0.30039929,0.37091988,0.004973154
0.37038765,0.21661721,0.023645348
0.28459071,0.27596439,7.44E-05
0.31954727,0.27002967,0.002451993
0.25151662,0.28783383,0.00131894
0.2407152,0.06824926,0.0297445
0.11005245,0.11869436,7.47E-05
0.16080286,0.03560831,0.015673675
0.07784651,0.04451039,0.001111297
0.08923697,0.02670623,0.003910093
0.07159239,0.02967359,0.001757186
0.0722589,0.04747774,0.000614106
0.08946517,0.08902077,1.97E-07
0.10357345,0.05341246,0.002516125
0.08019991,0.11275964,0.001060136
0.11073326,0.07418398,0.00133585
0.09417539,0.10682493,0.000160011
0.14202645,0.0504451,0.008387144
0.09382279,0.05934718,0.001188568
0.1532694,0.07418398,0.006254504
0.13222199,0.08902077,0.001866345
0.19570483,0.10089021,0.008989812
0.18623032,0.10979228,0.005842774
0.20016292,0.09792285,0.010453032
0.19215027,0.16913947,0.000529497
0.24318249,0.27893175,0.00127801
0.28692135,0.5578635,0.073409649
0.41486352,0.32344214,0.008357869
0.2825775,0.28486647,5.24E-06
0.27784371,0.13946588,0.019148424
0.16314837,0.11869436,0.001976159
0.14148213,0.16617211,0.000609595
0.1556354,0.20474777,0.002412025
0.15647831,0.24332344,0.007542077
0.20617392,0.10979228,0.009289421
0.14485764,0.07121662,0.005423
0.10066531,0.01186944,0.007884707
0.06715859,0.10682493,0.001573419
0.10999266,0.06231454,0.002273203
0.07898875,0.04154303,0.001402182
0.06170084,0.10979228,0.002312787
0.10397263,0.12462908,0.000426689
0.11532551,0.08605341,0.000856856
0.0970524,0.04451039,0.002760663
0.09486421,0.09495549,8.33E-09
0.15442125,0.09198813,0.003897894
0.16412096,0.10682493,0.003282835
0.18515198,0.12759644,0.00331264
0.22163327,0.19287834,0.000826846
0.24282476,0.14836795,0.008922089
0.21633194,0.26706231,0.00257357
0.26532193,0.36795252,0.010533038
0.30699278,0.35905045,0.002710001
0.32782819,0.21068249,0.013723115
0.24119828,0.0652819,0.030946573
0.1431102,0.1305638,0.000157412
0.15529179,0.05341246,0.010379398
0.08827867,0.0504451,0.001431379
0.09061842,0.10682493,0.000262651
0.1281057,0.11869436,8.86E-05
0.1271096,0.08011869,0.002208146
0.11601478,0.02670623,0.007976017
0.0749121,0.0148368,0.003609042
0.0780114,0.05341246,0.000605108
0.08826151,0.10979228,0.000463574
0.11484646,0.08902077,0.000666966
0.10521123,0.05637982,0.002384507
0.09825902,0.09198813,3.93E-05
0.13188917,0.12759644,1.84E-05
0.1647064,0.12462908,0.001606192
0.19197308,0.115727,0.005813465
0.1889804,0.15727003,0.001005548
0.23811053,0.08011869,0.024961422
0.18967178,0.17804154,0.000135262
0.24410755,0.29376855,0.002466215
0.28193602,0.22255193,0.00352647
0.22893702,0.15727003,0.005136157
0.1991781,0.30563798,0.011333706
0.26053705,0.11869436,0.020119349
0.14204965,0.05934718,0.006839699
0.13085548,0.08011869,0.002574222
0.13044685,0.0652819,0.004246471
0.09893427,0.0652819,0.001132482
0.09913418,0.06824926,0.000953878
0.10750129,0.02967359,0.006057151
0.07697617,0.04451039,0.001054027
0.09766555,0.08902077,7.47E-05
0.12073416,0.08308605,0.00141738
0.10757503,0.15727003,0.002469593
0.15784701,0.10089021,0.003244077
0.14269302,0.08902077,0.00288071
0.11631461,0.10682493,9.01E-05
0.16943537,0.10089021,0.004698439
0.14869636,0.2462908,0.009524675
0.25506269,0.28783383,0.001073948
0.30033333,0.27893175,0.000458028
0.28562829,0.21958457,0.004361773
0.25483117,0.25519288,1.31E-07
0.26872566,0.12759644,0.019917457
0.17776617,0.18694362,8.42E-05
0.18575691,0.19881306,0.000170463
0.18043708,0.1810089,3.27E-07
0.16923592,0.03857567,0.017072101
0.09533425,0.02670623,0.004709805
0.08295264,0.11869436,0.001277471
0.11850358,0.14243323,0.000572628
0.13020254,0.12166172,7.29E-05
0.11418542,0.15133531,0.001380114
0.13947743,0.1305638,7.95E-05
0.12653988,0.08308605,0.001888235
0.11657829,0.08605341,0.000931768
0.10227769,0.1305638,0.000800104
0.1495938,0.0504451,0.009830465
0.10115162,0.03857567,0.00391575
0.13131606,0.02077151,0.012220098
0.09886719,0.05637982,0.001805177
0.13577829,0.10979228,0.000675273
0.17684688,0.18397626,5.08E-05
0.2258338,0.15727003,0.004700991
0.20192293,0.18991098,0.000144287
0.21783092,0.20771513,0.000102329
0.23858626,0.30563798,0.004495933
0.30614817,0.28783383,0.000335415
0.26841521,0.23145401,0.00136613
0.23237823,0.2462908,0.00019356
0.23585924,0.27299703,0.001379215
0.24059803,0.27596439,0.001250779
0.23113957,0.32344214,0.008519764
0.25164036,0.19287834,0.003452975
0.17923142,0.07418398,0.011034965
0.12760117,0.09198813,0.001268289
0.11947279,0.11275964,4.51E-05
0.10902391,0.02967359,0.006296473
0.05832703,0.08308605,0.000613009
0.10091533,0.02967359,0.005075386
0.055634,0.03560831,0.000401028
0.05690002,0.08902077,0.001031743
0.10382586,0.01780415,0.007399735
0.05924454,0.09198813,0.001072143
0.12615057,0.10089021,0.000638086
0.12735734,0.115727,0.000135265
0.12801006,0.14243323,0.000208028
0.18731357,0.17804154,8.60E-05
0.23387904,0.17210682,0.003815807
0.23192923,0.19287834,0.001524972
0.24675194,0.2611276,0.00020666
0.28726759,0.23442136,0.002792724
0.26620866,0.23442136,0.001010432
0.2760714,0.41839763,0.020256756
0.36211708,0.1810089,0.032800173
0.17234321,0.14540059,0.000725905
0.18154121,0.20474777,0.000538544
0.18563999,0.32344214,0.018989433
0.24718761,0.115727,0.017281892
0.12022137,0.02373887,0.009308873
0.08127228,0.10385757,0.000510095
0.11964671,0.11275964,4.74E-05
0.1067704,0.07418398,0.001061875
0.09770353,0.05637982,0.001707649
0.07306246,0.1305638,0.003306404
0.13253279,0.07121662,0.003759673
0.09115804,0.1305638,0.001552814
0.13209484,0.02077151,0.012392884
0.07363063,0.07715134,1.24E-05
0.12671737,0.21958457,0.008624317
0.22916336,0.39169139,0.026415361
0.3571632,0.11869436,0.056867388
0.19460864,0.37091988,0.031085653
0.40550485,0.46290801,0.003295123
0.41442193,0.64094955,0.051314763
0.50945867,0.65578635,0.02141179
0.41677,0.53412463,0.013772109
0.41449763,0.33531157,0.006270432
0.26922144,0.08308605,0.034646383
0.15377613,0.16320475,8.89E-05
0.18873891,0.11869436,0.004906239
0.09496863,0.10682493,0.000140572
0.14506707,0.09495549,0.00251117
0.11674021,0.09792285,0.000354093
0.11377638,0.03264095,0.006582958
0.06416068,0.12166172,0.00330637
0.1695374,0.27893175,0.011967124
0.18876944,0.21958457,0.000949572
0.10890545,0.02967359,0.006277688
0.06895962,0.02670623,0.001785349
0.12946123,0.03560831,0.008808371
0.07295288,0.17804154,0.011043626
0.19016464,0.08605341,0.010839148
0.16439823,0.05934718,0.011035723
0.17462516,0.18694362,0.000151744
0.2657864,0.38278932,0.013689683
0.38919264,0.21958457,0.028766897
0.29677524,0.24035608,0.003183122
0.33358063,0.16023739,0.030047879
0.23173769,0.03264095,0.039639512
0.12405662,0.14243323,0.0003377
0.16577903,0.25519288,0.007994837
0.22274742,0.17507418,0.002272738
0.18871598,0.16320475,0.000650823
0.20386491,0.15133531,0.002759359
0.15733921,0.04747774,0.012069543
0.08512453,0.0504451,0.001202663
0.11744523,0.07715134,0.001623598
0.15783854,0.17507418,0.000297067
0.17281981,0.12166172,0.00261715
0.11315991,0.07715134,0.001296617
0.11304154,0.09792285,0.000228575
0.11891842,0.18991098,0.005039944
0.19610014,0.14836795,0.002278362
0.15894895,0.08308605,0.00575518
0.1513821,0.09495549,0.003183962
0.17645993,0.16913947,5.36E-05
0.21406912,0.32047478,0.011322164
0.30194854,0.20474777,0.00944799
0.22040155,0.25519288,0.001210437
0.24741627,0.45994065,0.045166612
0.35460384,0.4272997,0.005284688
0.332128,0.54302671,0.044478266
0.40561586,0.48961424,0.007055728
0.36721575,0.43620178,0.004759072
0.33487358,0.21364985,0.014695193
0.19050146,0.14540059,0.002034088
0.16803094,0.05637982,0.012465973
0.07807231,0.06824926,9.65E-05
0.09452806,0.18694362,0.008540636
0.18065643,0.1810089,1.24E-07
0.13571961,0.09198813,0.001912442
0.08756552,0.06824926,0.000373118
0.10216465,0.10979228,5.82E-05
0.1198396,0.21958457,0.009949059
0.14914748,0.12166172,0.000755467
0.08491121,0.08308605,3.33E-06
0.1134213,0.07418398,0.001539567
0.09434666,0.05934718,0.001224964
0.09124606,0.10385757,0.00015905
0.12872186,0.14836795,0.000385969
0.22201089,0.32937685,0.011527449
0.35496294,0.45400593,0.009809514
0.40359207,0.23145401,0.029631512
0.28422309,0.51928783,0.055255432
0.53181603,0.36795252,0.02685125
0.35453655,0.46290801,0.011744373
0.38106129,0.55192878,0.029195699
0.32754888,0.43620178,0.011805453
0.33395948,0.16023739,0.030179365
0.16161358,0.17507418,0.000181188
0.18673177,0.23145401,0.002000079
0.227209,0.22255193,2.17E-05
0.17672068,0.04747774,0.016703738
0.09163001,0.14243323,0.002580967
0.14414128,0.24332344,0.009837101
0.20044035,0.10089021,0.00991023
0.09537569,0.07418398,0.000449089
0.10975856,0.13649852,0.000715025
0.11394474,0.07121662,0.001825692
0.04369577,0.07715134,0.001119275
0.1137691,0.08605341,0.000768159
0.11663973,0.13649852,0.000394372
0.1876566,0.27002967,0.006785323
0.25476021,0.38872404,0.017946308
0.37657011,0.37091988,3.19E-05
0.38630456,0.43026706,0.001932701
0.45251423,0.43916914,0.000178091
0.44603854,0.40652819,0.001561068
0.37882884,0.34124629,0.001412448
0.30640484,0.33827893,0.001015958
0.26973181,0.4421365,0.029723377
0.32128148,0.33531157,0.000196843
0.25238745,0.10979228,0.020333383
0.15139525,0.18397626,0.001061522
0.18583483,0.18397626,3.45E-06
0.19225628,0.08902077,0.010657571
0.0976145,0.12759644,0.000898917
0.11495832,0.23145401,0.013571246
0.16120186,0.21068249,0.002448333
0.13599162,0.20474777,0.004727408
0.15643006,0.10979228,0.002175083
0.08899629,0.04747774,0.00172379
0.06483251,0.09495549,0.000907394
0.12899194,0.16023739,0.000976278
0.16306639,0.03264095,0.017010795
0.08363848,0.09495549,0.000128075
0.16508016,0.06824926,0.009376223
0.10844079,0.06824926,0.001615359
0.12736817,0.05934718,0.004626855
0.15193354,0.14540059,4.27E-05
0.20057726,0.28189911,0.006613243
0.31337263,0.13946588,0.030243558
0.21001298,0.14243323,0.004567023
0.19874084,0.20771513,8.05E-05
0.23257605,0.32937685,0.009370395
0.31848259,0.12759644,0.036437522
0.18096184,0.12759644,0.002847866
0.16908598,0.09792285,0.005064191
0.16745233,0.08605341,0.006625784
0.13457326,0.03857567,0.009215537
0.12276632,0.05934718,0.004021987
0.10899598,0.16913947,0.003617239
0.16744712,0.11869436,0.002376832
0.15181841,0.29673591,0.021001082
0.24967073,0.13649852,0.012807949
0.13697687,0.09198813,0.002023987
0.12110911,0.20178042,0.00650786
0.22057209,0.09792285,0.015042836
0.10397595,0.21364985,0.012028364
0.21037836,0.0504451,0.025578648
0.11748224,0.115727,3.08E-06
0.17019827,0.08011869,0.008114331
0.14918978,0.19287834,0.00190869
0.18390882,0.13946588,0.001975175
0.18607905,0.1810089,2.57E-05
0.22164956,0.19881306,0.000521506
0.23663797,0.34421365,0.011572527
0.28430848,0.43916914,0.023981824
0.35900474,0.5074184,0.022026614
,,
,,0.008371587