output,target,
0.45651455,0.44642857,0.000101727
0.35912698,0.21875,0.019705697
0.22073413,0.25446429,0.001137724
0.21164021,0.41071429,0.039630489
0.32407407,0.29017857,0.001148905
0.2337963,0.14732143,0.007477903
0.1645172,0.26785714,0.010679143
0.23065476,0.34375,0.012790533
0.26785714,0.47321429,0.042171559
0.35532407,0.5625,0.042921866
0.41435185,0.45089286,0.001335245
0.34027778,0.16071429,0.032243047
0.19990079,0.16517857,0.001205633
0.21064815,0.14285714,0.004595621
0.17609127,0.24107143,0.004222421
0.19973545,0.33035714,0.017062026
0.29348545,0.30803571,0.00021171
0.22453704,0.23660714,0.000145687
0.19522268,0.33928571,0.020754157
0.28141534,0.14732143,0.017981177
0.17906746,0.16964286,8.88231E-05
0.20535714,0.12946429,0.005759725
0.14684261,0.21875,0.005170673
0.19031085,0.38839286,0.039236483
0.32919974,0.36160714,0.00105024
0.27744709,0.34821429,0.005007997
0.25975529,0.30357143,0.001919854
0.23594577,0.24553571,9.19669E-05
0.21676587,0.13839286,0.006142329
0.17741402,0.15625,0.000447916
0.1516426,0.03571429,0.013439373
0.12483466,0.05803571,0.0044621
0.14666005,0.16964286,0.00052821
0.18782184,0.1875,1.03581E-07
0.17162698,0.04910714,0.015011111
0.15459656,0.18303571,0.000808785
0.20337302,0.22321429,0.000393676
0.22189153,0.26339286,0.00172236
0.22230939,0.12946429,0.008620213
0.1712963,0.16964286,2.73386E-06
0.20353836,0.30803571,0.010919696
0.27314815,0.13392857,0.019382091
0.17493386,0.12946429,0.002067482
0.18270503,0.15625,0.000699869
0.19378307,0.13839286,0.003068075
0.12714947,0.20982143,0.006834653
0.24487434,0.33482143,0.008090479
0.2962963,0.41071429,0.013091476
0.25297619,0.36160714,0.011800683
0.26752645,0.17857143,0.007912996
0.17757937,0.15178571,0.000665313
0.17080026,0.15178571,0.000361553
0.12750239,0.15625,0.000826425
0.1264881,0.08482143,0.001736111
0.11078042,0.07142857,0.001548568
0.10102513,0.08035714,0.000427166
0.15906085,0.08035714,0.006194274
0.12888932,0.14732143,0.000339743
0.15509259,0.08928571,0.004330545
0.1400463,0.21875,0.006194272
0.26289683,0.16071429,0.010441271
0.19080688,0.1875,1.09355E-05
0.23693783,0.24553571,7.39235E-05
0.22585979,0.22321429,6.99867E-06
0.21312831,0.19196429,0.000447916
0.21213624,0.1875,0.000606944
0.21759259,0.24107143,0.000551256
0.23412698,0.08035714,0.023645164
0.16369048,0.10714286,0.003197633
0.18650794,0.16517857,0.000454942
0.17791005,0.21875,0.001667902
0.21751441,0.33482143,0.013760937
0.25066138,0.30803571,0.003291814
0.22701719,0.24553571,0.000342936
0.18927029,0.14732143,0.001759707
0.19708995,0.15625,0.001667902
0.16288599,0.12946429,0.00111701
0.11507936,0.12946429,0.000206926
0.11474868,0.10714286,5.78485E-05
0.13277116,0.16071429,0.000780819
0.17741402,0.11160714,0.004330545
0.14302249,0.17857143,0.001263727
0.20453042,0.04910714,0.024156396
0.11855159,0.17410714,0.003086419
0.21395503,0.09821429,0.013395919
0.22619048,0.20089286,0.00063997
0.21709656,0.16071429,0.00317896
0.20238095,0.11160714,0.008239885
0.16782407,0.29017857,0.014970624
0.28769841,0.37946429,0.008420977
0.24751984,0.27678571,0.000856491
0.20122355,0.1875,0.000188336
0.17030423,0.19196429,0.000469158
0.17642196,0.17410714,5.35839E-06
0.1448635,0.11160714,0.001105985
0.13392857,0.07589286,0.003368144
0.12929894,0.12946429,2.73406E-08
0.14169974,0.19642857,0.002995245
0.22205688,0.07589286,0.021363921
0.15806878,0.21875,0.00368221
0.21808862,0.16964286,0.002346992
0.20535714,0.18303571,0.000498246
0.22503307,0.06696429,0.024985739
0.15426587,0.08928571,0.004222421
0.15162037,0.19196429,0.001627632
0.2161045,0.25892857,0.001833901
0.21916785,0.29464286,0.005696477
0.24404762,0.25892857,0.000221443
0.21974206,0.1875,0.00103955
0.20183643,0.17857143,0.00054126
0.2010582,0.16964286,0.000986924
0.17278439,0.15625,0.000273386
0.16964286,0.25446429,0.007194675
0.26719577,0.20089286,0.004396076
0.22337963,0.19196429,0.000986924
0.21230159,0.23214286,0.000393676
0.23115079,0.25446429,0.000543519
0.21478175,0.25892857,0.001948942
0.2255291,0.18303571,0.001805688
0.18827823,0.14285714,0.002063075
0.2104828,0.17857143,0.001018336
0.19548209,0.41517857,0.048266543
0.36888228,0.33482143,0.001160142
0.2582672,0.23660714,0.000469158
0.17592593,0.10714286,0.004731111
0.14996693,0.08035714,0.004845523
0.1136135,0.05357143,0.00360505
0.10433201,0.04910714,0.003049786
0.13566843,0.32142857,0.03450683
0.23065476,0.37946429,0.022144276
0.25281085,0.27678571,0.000574794
0.23561508,0.24553571,9.84189E-05
0.2270172,0.22321429,1.44621E-05
0.23710317,0.19196429,0.002037518
0.19328704,0.25446429,0.003742656
0.2514881,0.24107143,0.000108507
0.20816799,0.3125,0.010885168
0.2635582,0.33928571,0.005734656
0.26736111,0.48214286,0.0461312
0.3776455,0.36160714,0.000257229
0.27628968,0.16964286,0.011373544
0.18105159,0.17857143,6.15119E-06
0.16666667,0.13392857,0.001071783
0.14651694,0.10714286,0.001550318
0.12202381,0.17410714,0.002712673
0.25198413,0.50446429,0.063746231
0.37318122,0.33928571,0.001148906
0.25958995,0.38839286,0.01659019
0.28621032,0.17410714,0.012567123
0.20651455,0.20089286,3.16034E-05
0.18998016,0.125,0.004222421
0.1542881,0.10267857,0.002663544
0.12483466,0.16964286,0.002007775
0.21329365,0.29910714,0.007363955
0.28240741,0.24107143,0.001708663
0.22982804,0.08035714,0.02234155
0.15162037,0.19642857,0.002007775
0.21577381,0.0625,0.023492861
0.12218915,0.21428571,0.008481776
0.24487434,0.21875,0.000682481
0.20998677,0.28125,0.005078448
0.20833333,0.45089286,0.058835126
0.26438492,0.63392857,0.136562509
0.51025132,0.64732143,0.018788215
0.53339947,0.29017857,0.059156406
0.30472884,0.1875,0.013742601
0.22172619,0.125,0.009355956
0.19742064,0.08035714,0.013703863
0.15856481,0.49553571,0.113549387
0.37615741,0.57589286,0.03989425
0.4375,0.50446429,0.004484216
0.38111772,0.63839286,0.066190498
0.47585979,0.15178571,0.105024009
0.25892857,0.15178571,0.011479592
0.1984127,0.22767857,0.000856491
0.19345238,0.17410714,0.000374238
0.15343915,0.07589286,0.006013427
0.15724206,0.13392857,0.000543519
0.18419312,0.11160714,0.005268724
0.13227513,0.12946429,7.90082E-06
0.14765212,0.19642857,0.002379142
0.20949074,0.24553571,0.00129924
0.21759259,0.1875,0.000905564
0.1942791,0.17857143,0.000246731
0.22056878,0.36160714,0.019891819
0.32589286,0.42857143,0.010542889
0.32655423,0.26339286,0.003989359
0.19890873,0.25892857,0.003602381
0.20949074,0.21875,8.57339E-05
0.23462302,0.1875,0.002220579
0.17757937,0.16964286,6.29882E-05
0.22304894,0.12946429,0.008758087
0.16170635,0.40625,0.059801597
0.36078042,0.33928571,0.000462023
0.27744709,0.12946429,0.021898909
0.15294312,0.125,0.000780818
0.1441799,0.22767857,0.006972028
0.15610689,0.08482143,0.005081617
0.13905423,0.19642857,0.003291815
0.22404101,0.27678571,0.002782003
0.23131614,0.12946429,0.010373799
0.16236772,0.24553571,0.006916915
0.22056878,0.29464286,0.005486969
0.23809524,0.26339286,0.00063997
0.21279762,0.20535714,5.53607E-05
0.19654543,0.22321429,0.000711228
0.22089947,0.18303571,0.001433664
0.21395503,0.23214286,0.000330797
0.21296296,0.35714286,0.020787844
0.29943783,0.37946429,0.006404234
0.27843915,0.32589286,0.002251855
0.25214947,0.30357143,0.002644218
0.24537037,0.15178571,0.008758089
0.18617725,0.23214286,0.002112837
0.20585317,0.21875,0.000166328
0.18005952,0.12946429,0.002559877
0.17972884,0.30803571,0.016462653
0.28439153,0.22767857,0.00321636
0.20469577,0.26339286,0.003445348
0.21279762,0.29017857,0.005987811
0.2594246,0.17410714,0.007279069
0.20221561,0.09821429,0.010816275
0.17509921,0.13839286,0.001347356
0.16357072,0.0625,0.01021529
0.11937831,0.11160714,6.03911E-05
0.18369709,0.23214286,0.002346993
0.22404101,0.25,0.000673869
0.21916785,0.24553571,0.000695264
0.21560847,0.25446429,0.001509775
0.24151897,0.22321429,0.000335061
0.20403439,0.125,0.006246435
0.21478175,0.13839286,0.005835263
0.19002575,0.30357143,0.012892621
0.28571428,0.41071429,0.015625003
0.27017196,0.29017857,0.000400264
0.20701058,0.22321429,0.00026256
0.18882275,0.19196429,9.86927E-06
0.20188492,0.22321429,0.000454942
0.19446668,0.17857143,0.000252659
0.19973545,0.09375,0.011232916
0.15641534,0.05803571,0.009678552
0.15095899,0.17410714,0.000535837
0.18766534,0.13392857,0.00288764
0.17146164,0.19196429,0.000420359
0.21841931,0.12053571,0.009581199
0.17410714,0.18303571,7.97194E-05
0.25066138,0.1875,0.00398936
0.20916005,0.16071429,0.002346992
0.21213624,0.27678571,0.004179554
0.25396825,0.30803571,0.00292329
0.23710317,0.33928571,0.010441271
0.25859788,0.50446429,0.060450292
0.42096561,0.43303571,0.000145687
0.34920635,0.37946429,0.000915543
0.29497354,0.52678571,0.053736882
0.39980159,0.61607143,0.046772644
0.48809524,0.51785714,0.000885771
0.40062831,0.35714286,0.001890984
0.34540344,0.46428571,0.014132994
0.38822751,0.51339286,0.015666365
0.41005291,0.52678571,0.013626547
0.43799603,0.44196429,1.57471E-05
0.38905423,0.28125,0.011621752
0.27529762,0.10267857,0.029797336
0.20072751,0.04017857,0.025775962
0.1468254,0.13839286,7.11077E-05
0.12698413,0.25,0.015132904
0.21345899,0.16964286,0.001919853
0.20701058,0.23660714,0.000875956
0.2213955,0.42410714,0.041092009
0.30175265,0.43303571,0.017235242
0.32787698,0.11160714,0.046772644
0.150959,0.12946429,0.000462023
0.12698413,0.17857143,0.00266125
0.13742303,0.12053571,0.000285182
0.12863757,0.19196429,0.004010273
0.21147487,0.17857143,0.001082636
0.20436508,0.17857143,0.000665312
0.22800926,0.18303571,0.00202262
0.21015212,0.20982143,1.09356E-07
0.22007275,0.33482143,0.01316726
0.30555556,0.48660714,0.032779675
0.33614418,0.38392857,0.002283348
0.30142196,0.16964286,0.017365731
0.1792328,0.16071429,0.000342935
0.16005291,0.16517857,2.62724E-05
0.17032647,0.09821429,0.005200167
0.12698413,0.17857143,0.00266125
0.23131614,0.12053571,0.012272304
0.17542989,0.08928571,0.00742082
0.15823413,0.28571429,0.016251191
0.26901455,0.08928571,0.032302456
0.19708995,0.43303571,0.055670402
0.30654762,0.63839286,0.110121263
0.4713955,0.33928571,0.017452997
0.26521164,0.21875,0.002158684
0.21858466,0.12946429,0.00794244
0.18799603,0.15625,0.00100781
0.19246032,0.22767857,0.001240325
0.22123016,0.20982143,0.000130159
0.21941138,0.23660714,0.000295694
0.23015873,0.24553571,0.000236452
0.22867063,0.11160714,0.013703861
0.17030423,0.21428571,0.001934371
0.2349537,0.33035714,0.009101816
0.27496693,0.33035714,0.003068075
0.23181217,0.16071429,0.005054909
0.15790344,0.14732143,0.000111979
0.15525794,0.14732143,6.29882E-05
0.13163599,0.16517857,0.001125105
0.13376323,0.16517857,0.000986924
0.20469577,0.08928571,0.013319482
0.1400463,0.08035714,0.003562796
0.10780423,0.23214286,0.015460095
0.25396825,0.12946429,0.015501236
0.192791,0.37053571,0.031593182
0.27281746,0.57142857,0.089168595
0.39070767,0.13839286,0.063662763
0.20353836,0.12053571,0.00688944
0.16517857,0.19642857,0.000976563
0.15558862,0.14285714,0.000162091
0.12318122,0.07589286,0.002236189
0.14847884,0.20089286,0.002747229
0.23115079,0.30357143,0.005244749
0.28257275,0.26785714,0.000216549
0.24074074,0.13839286,0.010475089
0.16699735,0.13392857,0.001093544
0.1521164,0.16517857,0.00017062
0.12566138,0.33035714,0.041900354
0.29976852,0.26339286,0.001323189
0.22933201,0.19196429,0.001396346
0.16661818,0.19642857,0.000888659
0.21643519,0.24553571,0.00084684
0.21825397,0.21875,2.46046E-07
0.20982143,0.17857143,0.000976563
0.21164021,0.14732143,0.004136905
0.21527778,0.16517857,0.002509931
0.18998016,0.45535714,0.070424942
0.37218915,0.22321429,0.022193509
0.19246032,0.24553571,0.002816997
0.18683862,0.27232143,0.007307311
0.25463132,0.47767857,0.049750076
0.38938492,0.54464286,0.024105028
0.42642196,0.45982143,0.001115525
0.32490079,0.21875,0.01126799
0.20965608,0.20089286,7.6794E-05
0.22238757,0.24107143,0.000349087
0.22453704,0.14285714,0.006671606
0.1630291,0.19196429,0.000837245
0.23462302,0.20982143,0.000615119
0.21593915,0.22321429,5.29277E-05
0.20419974,0.1875,0.000278881
0.20287698,0.38839286,0.034416142
0.31812169,0.37946429,0.003762915
0.27695106,0.30803571,0.000966255
0.24487434,0.20089286,0.001934371
0.20899471,0.16517857,0.001919854
0.18799603,0.12053571,0.004550895
0.13709234,0.125,0.000146225
0.11739418,0.20535714,0.007737482
0.22833995,0.41517857,0.03490867
0.30505952,0.33035714,0.00063997
0.27166005,0.19196429,0.006351414
0.16236773,0.41517857,0.063913321
0.33101852,0.37053571,0.001561608
0.31365741,0.27678571,0.001359522
0.24107143,0.11607143,0.015625
0.16832011,0.16964286,1.74967E-06
0.15065054,0.24107143,0.008175937
0.2093254,0.25446429,0.002037519
0.21775794,0.30357143,0.007363955
0.29646164,0.46875,0.029683279
0.36739418,0.14732143,0.048432015
0.16997355,0.09375,0.00581003
0.13045635,0.16071429,0.000915543
0.14814815,0.17857143,0.000925576
0.13773148,0.39285714,0.065089102
0.32109788,0.43303571,0.012530078
0.25843254,0.36160714,0.010644998
0.26058201,0.20982143,0.002576636
0.19510582,0.45089286,0.06542701
0.35515873,0.54910714,0.037615986
0.43832672,0.42410714,0.000202196
0.30505952,0.30357143,2.21441E-06
0.25578704,0.14285714,0.012753162
0.20453042,0.14732143,0.003272869
0.18419312,0.10714286,0.005936743
0.11229075,0.05803571,0.002943609
0.1182209,0.11160714,4.37418E-05
0.1765873,0.16517857,0.000130159
0.21312831,0.22767857,0.00021171
0.19758598,0.14285714,0.002995246
0.17046958,0.24107143,0.004984621
0.21560846,0.20089286,0.000216549
0.22172619,0.13839286,0.006944444
0.19146825,0.19196429,2.46056E-07
0.22056878,0.22767857,5.05491E-05
0.22867063,0.13392857,0.008976058
0.19742063,0.14285714,0.002977174
0.19113757,0.12053571,0.004984623
0.14434524,0.35714286,0.045282827
0.33730159,0.41964286,0.006780085
0.26835318,0.33928571,0.005031424
0.27066799,0.20982143,0.003702304
0.17989418,0.18303571,9.86921E-06
0.18832672,0.125,0.004010273
0.12634498,0.16071429,0.001181249
0.11904762,0.18303571,0.004094476
0.22123016,0.32589286,0.010954281
0.31531085,0.21428571,0.010206079
0.18766534,0.0625,0.015666362
0.15195106,0.09821429,0.00288764
0.16765873,0.16964286,3.93677E-06
0.16286376,0.26339286,0.0101061
0.22363214,0.1875,0.001305532
0.18849206,0.16964286,0.000355292
0.20833333,0.0625,0.02126736
0.12698413,0.23660714,0.012017204
0.275959,0.28571429,9.51657E-05
0.21130952,0.25,0.001496953
0.18716931,0.26339286,0.00581003
0.23225971,0.20535714,0.000723748
0.20205026,0.24107143,0.001522652
0.21974206,0.24553571,0.000665312
0.21246693,0.38392857,0.029399094
0.3260582,0.48214286,0.024362421
0.38310185,0.35714286,0.000673869
0.26124339,0.28571429,0.000598825
0.23660714,0.17410714,0.00390625
0.1916336,0.125,0.004440037
0.16534392,0.13839286,0.00072636
0.11758176,0.10714286,0.000108971
0.10978836,0.10267857,5.05491E-05
0.14252645,0.09821429,0.001963568
0.12962963,0.11607143,0.000183825
0.15658069,0.11160714,0.00202262
0.1264881,0.02232143,0.010850695
0.1087963,0.07142857,0.001396347
0.13149146,0.20089286,0.004816554
0.19807316,0.08035714,0.013857061
0.15029762,0.05803571,0.00851226
0.15658069,0.05803571,0.009711113
0.11789021,0.24553571,0.016293374
0.20948189,0.20982143,1.15287E-07
0.19857804,0.16071429,0.001433664
0.1645172,0.20535714,0.001667901
0.2228836,0.15178571,0.00505491
0.20601852,0.07142857,0.018114455
0.1479828,0.21428571,0.004396076
0.25562169,0.37946429,0.01533699
0.32556217,0.26339286,0.003865023
0.22238757,0.11607143,0.011303122
0.15823413,0.11607143,0.001777693
0.13888889,0.12946429,8.88231E-05
0.11392196,0.12053571,4.37417E-05
0.11524471,0.11607143,6.83466E-07
0.11871693,0.10714286,0.000133959
0.12103175,0.12946429,7.11077E-05
0.15162037,0.125,0.000708644
0.12268519,0.12053571,4.62026E-06
0.12251984,0.27678571,0.023797959
0.23693783,0.15625,0.006510526
0.18865741,0.12053571,0.004640566
0.15757275,0.13392857,0.000559047
0.18733466,0.0625,0.015583692
0.11656746,0.08035714,0.001311187
0.15707672,0.18303571,0.000673869
0.21974206,0.21428571,2.97718E-05
0.18882275,0.23660714,0.002283348
0.21246693,0.15625,0.003160343
0.19460979,0.14732143,0.002236189
0.18287037,0.25446429,0.005125689
0.24966931,0.33928571,0.008031099
0.28654101,0.43303571,0.021460697
0.27992725,0.37053571,0.008209893
0.27066799,0.37053571,0.009973561
0.25958995,0.25,9.19671E-05
0.23214286,0.25892857,0.000717474
0.23363095,0.16964286,0.004094476
0.19130291,0.09821429,0.008665491
0.15891773,0.11160714,0.002238292
0.16042918,0.23660714,0.005803082
0.25281085,0.23660714,0.00026256
0.19883055,0.18303571,0.000249477
0.18518519,0.09375,0.008360394
0.15955688,0.1875,0.000780818
0.19796225,0.10714286,0.008248162
0.14087301,0.24553571,0.010954281
0.25595238,0.16964286,0.007449333
0.20353836,0.13839286,0.004243936
0.2051918,0.22767857,0.000505655
0.23445767,0.27678571,0.001791663
0.21097884,0.25446429,0.001890984
0.20056217,0.09375,0.01140884
0.16865079,0.16517857,1.20563E-05
0.18237434,0.22767857,0.002052473
0.23478836,0.36160714,0.016083003
0.29613095,0.36160714,0.004287131
0.26058201,0.20089286,0.003562795
0.15988757,0.15625,1.32319E-05
0.15674603,0.17857143,0.000476348
0.15098123,0.16071429,9.47325E-05
0.12334656,0.10714286,0.00026256
0.14500661,0.10714286,0.001433664
0.14699074,0.18303571,0.00129924
0.24685847,0.10267857,0.020787844
0.13128307,0.20089286,0.004845523
0.21742725,0.17410714,0.001876632
0.21412037,0.15178571,0.00388561
0.22073413,0.25446429,0.001137724
0.22668651,0.09375,0.017672116
0.18882275,0.0625,0.015957437
0.14451058,0.12946429,0.000226391
0.14765212,0.22767857,0.006404233
0.20568783,0.18303571,0.000513119
0.19262566,0.24553571,0.002799473
0.21676587,0.21875,3.93677E-06
0.21362434,0.19642857,0.000295695
0.20949074,0.12946429,0.006404233
0.1712963,0.14732143,0.000574794
0.20110379,0.36607143,0.027214322
0.33333333,0.33035714,8.85771E-06
0.24487434,0.23214286,0.000162091
0.17592593,0.17857143,6.99867E-06
0.18518519,0.17857143,4.37418E-05
0.1599098,0.125,0.001218694
0.12533069,0.09821429,0.000735299
0.14831349,0.07142857,0.005911291
0.11259921,0.12946429,0.000284431
0.19254673,0.19196429,3.39236E-07
0.20701058,0.21428571,5.29275E-05
0.19444445,0.16964286,0.000615119
0.19345238,0.16964286,0.000566893
0.20138889,0.20535714,1.5747E-05
0.22734788,0.21875,7.39235E-05
0.2202381,0.13839286,0.006698643
0.19080688,0.20089286,0.000101727
0.23578042,0.22321429,0.000157908
0.21097884,0.17410714,0.001359522
0.19857804,0.12946429,0.00477671
0.19642857,0.12946429,0.004484215
0.14616402,0.20535714,0.003503825
0.23561508,0.17857143,0.003253978
0.22536376,0.16964286,0.003104819
0.22387566,0.41071429,0.034908674
0.33630952,0.33928571,8.85771E-06
0.27199074,0.20089286,0.005054909
0.16335979,0.18303571,0.000387142
0.17046958,0.19196429,0.000462023
0.15511482,0.14285714,0.000150251
0.12566138,0.16071429,0.001228706
0.2093254,0.13392857,0.005684682
0.14285714,0.25892857,0.013472577
0.28505291,0.23660714,0.002346993
0.20287698,0.37053571,0.02810945
0.2974537,0.20535714,0.008481776
0.19146825,0.125,0.004418028
0.15112434,0.06696429,0.007082914
0.1344246,0.14732143,0.000166328
0.14153439,0.09821429,0.001876631
0.14129012,0.16071429,0.000377298
0.20056217,0.16071429,0.001587854
0.19179894,0.12053571,0.005078448
0.16203704,0.23214286,0.004914826
0.23363095,0.17410714,0.003543084
0.19593254,0.19642857,2.46046E-07
0.21626984,0.14732143,0.004753883
0.19444444,0.20982143,0.000236452
0.23280423,0.26339286,0.000935664
0.25644841,0.31696429,0.003662172
0.24470899,0.26339286,0.000349087
0.21775794,0.29910714,0.006617692
0.26388889,0.26339286,2.46046E-07
0.24074074,0.16071429,0.006404233
0.19212963,0.09821429,0.008820091
0.16633598,0.11607143,0.002526525
0.13380881,0.04017857,0.008766622
0.12698413,0.15625,0.000856491
0.18038136,0.11607143,0.004135767
0.14666005,0.10714286,0.001561608
0.16187169,0.10714286,0.002995245
0.14384921,0.07142857,0.005244749
0.1073082,0.22321429,0.013434222
0.22766972,0.30803571,0.006458692
0.24801587,0.16071429,0.007621566
0.16997354,0.05357143,0.013549451
0.15145503,0.23660714,0.007250882
0.25198413,0.25,3.93677E-06
0.20568783,0.26785714,0.003865023
0.20552249,0.1875,0.00032481
0.19808201,0.15178571,0.002143347
0.21031746,0.19642857,0.000192901
0.21246693,0.41964286,0.042921866
0.34887566,0.33035714,0.000342936
0.2609127,0.26339286,6.15119E-06
0.19642857,0.17857143,0.000318877
0.20023148,0.17410714,0.000682481
0.18537276,0.16964286,0.00024743
0.15492725,0.13392857,0.000440945
0.15459656,0.11160714,0.00184809
0.12929894,0.23214286,0.010576872
0.26074736,0.37946429,0.014093709
0.29298942,0.25892857,0.001160142
0.21560847,0.08482143,0.01710525
0.14169974,0.06696429,0.005585387
0.13723545,0.04464286,0.008573388
0.10962302,0.04910714,0.003662172
0.13269223,0.09821429,0.001188728
0.12586977,0.14732143,0.000460174
0.16170635,0.28125,0.014290684
0.23511905,0.29464286,0.003543084
0.21709656,0.28125,0.004115664
0.25330688,0.28125,0.000780818
0.2567791,0.21875,0.001446212
0.22089947,0.20089286,0.000400264
0.2037037,0.20089286,7.90082E-06
0.23677249,0.14285714,0.008820093
0.18105159,0.08482143,0.009260244
0.14781746,0.08035714,0.004550895
0.13938492,0.33928571,0.039960326
0.27546296,0.11607143,0.02540566
0.1739418,0.09821429,0.005734656
0.16369048,0.27678571,0.012790531
0.24603344,0.10267857,0.020550619
0.15426587,0.19642857,0.001777693
0.19857804,0.06696429,0.017322179
0.1656746,0.11607143,0.002460474
0.12996032,0.12053571,8.88233E-05
0.16005291,0.11160714,0.002346993
0.15517901,0.20089286,0.002089756
0.23412698,0.25892857,0.000615119
0.22404101,0.27232143,0.002330999
0.25214947,0.25,4.62022E-06
0.22531527,0.18303571,0.001787561
0.19791667,0.38392857,0.034600427
0.34986773,0.29017857,0.003562796
0.22007275,0.26339286,0.001876632
0.2172619,0.25892857,0.001736111
0.25975529,0.24553571,0.000202196
0.21544312,0.14732143,0.004640565
0.20982143,0.20089286,7.97194E-05
0.22189153,0.17857143,0.001876631
0.20056217,0.21875,0.000330797
0.22784392,0.30357143,0.005734656
0.28025794,0.16517857,0.013243261
0.17890212,0.17857143,1.09356E-07
0.19907407,0.25892857,0.003582561
0.24388228,0.36160714,0.013859143
0.29431217,0.61607143,0.103529021
0.48594577,0.26339286,0.049529798
0.20056217,0.09375,0.01140884
0.16402116,0.20535714,0.001708663
0.15029762,0.22767857,0.005987811
0.18386243,0.17857143,2.79947E-05
0.19758598,0.22767857,0.000905564
0.21378968,0.20535714,7.11077E-05
0.22123016,0.24107143,0.000393676
0.22569444,0.23214286,4.15821E-05
0.21643519,0.45982143,0.059236862
0.36210318,0.41964286,0.003310815
0.33829365,0.21428571,0.015377969
0.20221561,0.19196429,0.00010509
0.19890873,0.24107143,0.001777693
0.22999339,0.23214286,4.62022E-06
0.14864418,0.0625,0.00742082
0.13905423,0.07142857,0.00457323
0.12251984,0.16964286,0.002220579
0.17964991,0.11607143,0.004042223
0.15691138,0.12053571,0.001323189
0.17972884,0.14285714,0.001359522
0.16865079,0.24107143,0.005244749
0.2281746,0.25892857,0.000945807
0.21329365,0.27678571,0.004031242
0.25529101,0.23214286,0.000535837
0.23622797,0.17410714,0.003858998
0.20403439,0.26785714,0.004073343
0.26058201,0.41071429,0.022539701
0.35251323,0.28571429,0.004462098
0.20849868,0.16964286,0.001509775
0.17476852,0.24107143,0.004396076
0.21858466,0.19196429,0.000708644
0.16420874,0.16071429,1.22112E-05
0.18320106,0.12946429,0.00288764
0.16484788,0.12946429,0.001251998
0.14434524,0.19642857,0.002712673
0.23263889,0.63839286,0.164636284
0.44708995,0.30803571,0.019336082
0.29150132,0.44196429,0.022639105
0.29050926,0.14732143,0.020502755
0.21114418,0.07142857,0.019520452
0.18022487,0.09821429,0.006725735
0.14103836,0.1875,0.002158684
0.14583333,0.14732143,2.21444E-06
0.1698082,0.16964286,2.73373E-08
0.21164021,0.21875,5.05491E-05
0.22800926,0.30803571,0.006404233
0.27777778,0.19642857,0.006617694
0.18568122,0.16517857,0.000420359
0.17885363,0.22767857,0.002383875
0.21693122,0.25446429,0.001408731
0.24537037,0.46428571,0.047923926
0.32787698,0.35267857,0.000615119
0.28240741,0.20535714,0.005936744
0.18088624,0.1875,4.37418E-05
0.19890873,0.13839286,0.003662171
0.15180795,0.14285714,8.0117E-05
0.12251984,0.14732143,0.000615119
0.16848545,0.14732143,0.000447916
0.17030423,0.25446429,0.007082916
0.27380952,0.67857143,0.163832204
0.49801587,0.32589286,0.029626331
0.29861111,0.25446429,0.001948942
0.21263228,0.33928571,0.016041091
0.28091931,0.21875,0.003865023
0.22652116,0.12053571,0.011232916
0.18634259,0.16517857,0.000447916
0.16550926,0.125,0.001641
0.11044974,0.19642857,0.007392359
0.21858466,0.32142857,0.01057687
0.27496693,0.19196429,0.006889438
0.1792328,0.17410714,2.62724E-05
0.17620812,0.27678571,0.010115852
0.26537698,0.20982143,0.003086419
0.2270172,0.21428571,0.000162091
0.21792328,0.41071429,0.037168374
0.29546958,0.28125,0.000202196
0.22271826,0.14732143,0.005684682
0.16335979,0.15625,5.05491E-05
0.15079365,0.20089286,0.002509931
0.14469816,0.13839286,3.97568E-05
0.13921958,0.18303571,0.001919853
0.21941138,0.15178571,0.004573231
0.19080688,0.15178571,0.001522652
0.18435847,0.35267857,0.028331656
0.3110119,0.61160714,0.090357498
0.4619709,0.57142857,0.011980982
0.4469246,0.41964286,0.000744293
0.34953704,0.36160714,0.000145687
0.32208995,0.09821429,0.050120311
0.23330026,0.11160714,0.014809215
0.17294974,0.13392857,0.001522652
0.11973123,0.16517857,0.002065461
0.14401455,0.16071429,0.000278881
0.17840609,0.29464286,0.013510987
0.27000661,0.24553571,0.000598825
0.20684524,0.11160714,0.009070296
0.17427249,0.10267857,0.005125689
0.15922619,0.28125,0.01488981
0.28091931,0.25892857,0.000483593
0.19734245,0.16071429,0.001341622
0.16501323,0.15625,7.67942E-05
0.16071429,0.1875,0.000717474
0.17840608,0.16517857,0.000174967
0.17261905,0.22767857,0.003031551
0.24669312,0.16517857,0.006644622
0.21593915,0.10267857,0.012827959
0.16418651,0.11160714,0.00276459
0.15955688,0.16071429,1.3396E-06
0.16319444,0.4375,0.07524354
0.35135582,0.45089286,0.009907622
0.29298942,0.125,0.028220445
0.1765873,0.16517857,0.000130159
0.15955688,0.16071429,1.3396E-06
0.1489971,0.20982143,0.003699599
0.18088624,0.0625,0.014015302
0.14368386,0.11160714,0.001028916
0.17212302,0.1875,0.000236452
0.19212963,0.20535714,0.000174967
0.21023928,0.1875,0.000517075
0.20634921,0.11160714,0.00897606
0.17873677,0.05357143,0.015666362
0.13409391,0.20089286,0.0044621
0.23131614,0.34821429,0.013665177
0.30175264,0.23214286,0.004845521
0.21643518,0.125,0.008360392
0.15724206,0.25892857,0.010340146
0.23561508,0.16517857,0.004961302
0.19179894,0.09375,0.009613595
0.14666005,0.09375,0.002799473
0.14699074,0.14285714,1.70866E-05
0.13955026,0.19642857,0.003235142
0.18948413,0.11607143,0.005389425
0.16087963,0.16964286,7.67942E-05
0.17691799,0.20089286,0.000574794
0.22767857,0.11160714,0.013472577
0.18501984,0.69196429,0.256992675
0.46841931,0.22321429,0.060125502
0.23164683,0.12946429,0.010441271
0.18039021,0.19196429,0.000133959
0.17427249,0.22321429,0.0023953
0.18402778,0.20535714,0.000454942
0.19494048,0.27678571,0.006698642
0.26223545,0.24553571,0.000278881
0.22106481,0.20089286,0.000406908
0.19394841,0.24107143,0.002220579
0.22222222,0.25446429,0.001039551
0.22056878,0.36160714,0.019891819
0.27695106,0.36160714,0.007166652
0.25,0.46875,0.047851563
0.37896825,0.26339286,0.013357671
0.21792328,0.21428571,1.32319E-05
0.19097222,0.17410714,0.000284431
0.1807209,0.14732143,0.001115525
0.17429472,0.14285714,0.000988321
0.16522416,0.22321429,0.003362855
0.25330688,0.45982143,0.042648259
0.32159392,0.52678571,0.042103671
0.38458995,0.28125,0.010679145
0.23726852,0.19196429,0.002052473
0.18700397,0.14732143,0.001574704
0.19708995,0.09375,0.010679145
0.15310847,0.07142857,0.006671606
0.12599206,0.11607143,9.84189E-05
0.15947795,0.18303571,0.000554968
0.21246693,0.28571429,0.005365176
0.24272487,0.25,5.29275E-05
0.21593915,0.25,0.001160142
0.21555998,0.22321429,5.85885E-05
0.22767857,0.14732143,0.00645727
0.20601852,0.22321429,0.000295695
0.2364418,0.40625,0.028834825
0.3207672,0.41517857,0.008913507
0.31150794,0.19196429,0.014290684
0.17162698,0.26339286,0.008420977
0.24041005,0.37053571,0.016932687
0.3234127,0.35714286,0.001137724
0.29150132,0.39732143,0.011197896
0.28554894,0.20982143,0.005734656
0.18468915,0.08928571,0.009101816
0.1426918,0.27678571,0.017981177
0.19378307,0.31696429,0.015173613
0.25248016,0.50892857,0.065765787
0.37202381,0.51785714,0.02126736
0.37996032,0.24107143,0.019290124
0.21759259,0.16517857,0.002747229
0.17212302,0.19642857,0.00059076
0.2104828,0.22321429,0.000162091
0.19957011,0.23660714,0.001371742
0.21147487,0.17410714,0.001396347
0.20138889,0.125,0.005835263
0.17576058,0.19642857,0.000427166
0.21709656,0.15625,0.003702304
0.17476852,0.16071429,0.000197521
0.21875,0.20089286,0.000318877
0.22982804,0.34375,0.012978213
0.3287037,0.32142857,5.29275E-05
0.25578704,0.20982143,0.002112837
0.16898148,0.16964286,4.37424E-07
0.19345238,0.17410714,0.000374238
0.15742964,0.15625,1.39155E-06
0.12218915,0.13392857,0.000137814
0.14963624,0.09375,0.003123272
0.13376323,0.03571429,0.009613595
0.09341931,0.13392857,0.001641
0.18468915,0.21428571,0.000875956
0.21081349,0.08035714,0.017018859
0.15939154,0.04464286,0.01316726
0.14467593,0.08035714,0.004136907
0.13260582,0.12053571,0.000145688
0.17650837,0.13392857,0.001813039
0.15277778,0.18303571,0.000915542
0.21792328,0.21428571,1.32319E-05
0.22304894,0.16964286,0.002852209
0.19725529,0.26339286,0.004374178
0.26025132,0.23660714,0.000559047
0.23594577,0.13839286,0.00951657
0.18865741,0.13839286,0.002526525
0.16947751,0.17857143,8.26994E-05
0.19957011,0.30357143,0.010816275
0.29199735,0.43303571,0.019891819
0.25281085,0.40625,0.023543573
0.28323413,0.49553571,0.045071961
0.37152778,0.37053571,9.84203E-07
0.30009921,0.16517857,0.018203579
0.18452381,0.13392857,0.002559878
0.17757937,0.15625,0.000454942
0.14734366,0.28125,0.017930908
0.2594246,0.41071429,0.02288857
0.27083333,0.19642857,0.005536068
0.18171296,0.13839286,0.001876631
0.16253307,0.23660714,0.005486968
0.16617063,0.27678571,0.012235696
0.2202381,0.49553571,0.075788774
0.37946429,0.36160714,0.000318878
0.29315476,0.11160714,0.032959538
0.16534392,0.09821429,0.004506387
0.13293651,0.14732143,0.000206926
0.13128307,0.14732143,0.000257229
0.13062169,0.23214286,0.010306548
0.23743386,0.23660714,6.83466E-07
0.20667989,0.14285714,0.004073343
0.18535053,0.18303571,5.35839E-06
0.21792328,0.28571429,0.004595621
0.2662037,0.25,0.00026256
0.20502645,0.19642857,7.39235E-05
0.18579807,0.15625,0.000873088
0.17724868,0.13839286,0.001509775
0.16654691,0.14732143,0.000369619
0.15707672,0.11160714,0.002067483
0.11309524,0.08035714,0.001071783
0.10548942,0.21428571,0.011836633
0.23677249,0.33482143,0.009613595
0.28158069,0.37946429,0.009581199
0.27116402,0.66071429,0.151749413
0.51405423,0.49107143,0.000528209
0.38872354,0.45089286,0.003865024
0.36838624,0.25446429,0.012978211
0.27414021,0.13392857,0.019659304
0.21031746,0.14732143,0.0039685
0.18568122,0.125,0.00368221
0.11921296,0.11607143,9.86921E-06
0.10267857,0.20535714,0.010542889
0.24024471,0.14285714,0.009484339
0.19940476,0.20535714,3.54308E-05
0.2296627,0.15625,0.005389425
0.20486111,0.19642857,7.11077E-05
0.14783969,0.07142857,0.005838659
0.16671225,0.07142857,0.00907898
0.12665344,0.1875,0.003702304
0.21188312,0.32589286,0.012998221
0.2417328,0.46875,0.051536809
0.29199736,0.54017857,0.061593913
0.40608466,0.17857143,0.05176227
0.20601852,0.21428571,6.83464E-05
0.19064153,0.15178571,0.001509775
0.16369048,0.11160714,0.002712674
0.1385582,0.14732143,7.67942E-05
0.17989418,0.21428571,0.001182777
0.22619048,0.16517857,0.003722453
0.20535714,0.19642857,7.97194E-05
0.20899471,0.24107143,0.001028916
0.22949735,0.29464286,0.004243937
0.24239418,0.17410714,0.00466312
0.19907407,0.26785714,0.004731111
0.23528439,0.32142857,0.00742082
0.25958995,0.28571429,0.000682481
0.25694444,0.15625,0.01013937
0.1862941,0.15178571,0.001190829
0.15492725,0.12053571,0.001182778
0.11921296,0.26785714,0.022095092
0.2744709,0.1875,0.007563937
0.19874339,0.10267857,0.00922845
0.15046296,0.24107143,0.008209895
0.24917328,0.30357143,0.002959159
0.21378968,0.51339286,0.089762065
0.37185847,0.27678571,0.00903883
0.23131614,0.20089286,0.000925576
0.18303572,0.19196429,7.97194E-05
0.21147487,0.32589286,0.013091476
0.26157407,0.38392857,0.014970624
0.28786376,0.30357143,0.000246731
0.2228836,0.08928571,0.017848396
0.14831349,0.25892857,0.012235696
0.20271164,0.17410714,0.000818217
0.15643758,0.10267857,0.002890031
0.16170635,0.00892857,0.02334105
0.11888227,0.09821429,0.000427165
0.1400463,0.19642857,0.00317896
0.19527116,0.33928571,0.020740191
0.23693783,0.20089286,0.00129924
0.17873677,0.17410714,2.14335E-05
0.17306659,0.16517857,6.22209E-05
0.1716442,0.20982143,0.001457501
0.20188492,0.17857143,0.000543519
0.20800265,0.125,0.00688944
0.17972884,0.07589286,0.010781911
0.12880291,0.125,1.44621E-05
0.13839286,0.26785714,0.016761
0.23280423,0.46875,0.055670406
0.29381614,0.32589286,0.001028916
0.26686508,0.16964286,0.00945216
0.15757275,0.17857143,0.000440945
0.18237434,0.125,0.003291815
0.12799842,0.19196429,0.004091633
0.17212302,0.11160714,0.003662172
0.15492725,0.30357143,0.022095092
0.31001984,0.22767857,0.006780085
0.21345899,0.18303571,0.000925576
0.20238095,0.15178571,0.002559878
0.17526455,0.11607143,0.003503825
0.12438421,0.13392857,9.10948E-05
0.14401455,0.26339286,0.014251181
0.24355159,0.22767857,0.000251953
0.21097884,0.30803571,0.009420036
0.26835317,0.32589286,0.003310816
0.25165344,0.21875,0.001082636
0.22569444,0.18303571,0.001819767
0.19345238,0.25,0.003197633
0.21560847,0.16517857,0.002543175
0.18964947,0.15178571,0.001433664
0.19907407,0.08928571,0.012053484
0.14649471,0.25446429,0.01165743
0.28505291,0.35267857,0.00457323
0.24950397,0.21428571,0.001240326
0.16914683,0.26339286,0.008882314
0.21572532,0.27232143,0.00320312
0.25396825,0.15625,0.009548856
0.18452381,0.17857143,3.54308E-05
0.20882937,0.09821429,0.012235696
0.16155822,0.09375,0.004597955
0.12665344,0.19196429,0.004265507
0.23859127,0.10267857,0.018472262
0.15542328,0.22767857,0.005220827
0.25380291,0.22321429,0.000935664
0.20965608,0.11607143,0.008758087
0.18419312,0.30357143,0.014251181
0.26570767,0.35267857,0.007563937
0.26157407,0.22767857,0.001148905
0.2051918,0.20535714,2.73373E-08
0.19742064,0.17410714,0.000543519
0.17956349,0.15625,0.000543519
0.13144841,0.16071429,0.000856492
0.19758598,0.14732143,0.002526525
0.15525794,0.125,0.000915543
0.15509259,0.20535714,0.002526525
0.25744048,0.17410714,0.006944446
0.22900132,0.05357143,0.030775646
0.13525132,0.125,0.00010509
0.18253968,0.60267857,0.176516687
0.40856482,0.44642857,0.001433664
0.33994709,0.36607143,0.000682481
0.28505291,0.19196429,0.008665491
0.19642857,0.30803571,0.012456154
0.26835318,0.12946429,0.019290124
0.18669551,0.12946429,0.003275413
0.17708333,0.19196429,0.000221443
0.19742064,0.21428571,0.000284431
0.18948413,0.16964286,0.000393676
0.20304233,0.18303571,0.000400265
0.20949074,0.29017857,0.006510526
0.27000661,0.37053571,0.0101061
0.28373016,0.625,0.116465104
0.50231481,0.6875,0.034293555
0.52463624,0.28125,0.059236862
0.27926587,0.1875,0.008420975
0.23263889,0.16964286,0.0039685
0.18865741,0.12946429,0.003503825
0.1780754,0.07589286,0.010441271
0.14236111,0.23660714,0.008882314
0.25909392,0.49107143,0.053813565
0.34887566,0.45982143,0.012308964
0.32407407,0.48214286,0.024985742
0.32490079,0.29910714,0.000665312
0.25876323,0.19196429,0.004462098
0.21164021,0.04910714,0.026416999
0.15327381,0.05357143,0.009940565
0.11111111,0.08035714,0.000945807
0.1235119,0.11160714,0.000141723
0.13963668,0.08482143,0.003004712
0.1400463,0.07589286,0.004115664
0.14240416,0.15625,0.000191707
0.21130952,0.15625,0.003031551
0.16435185,0.15625,6.564E-05
0.19097222,0.19642857,2.97718E-05
0.20155423,0.22767857,0.000682481
0.21908069,0.18303571,0.001299241
0.21296296,0.20982143,9.86921E-06
0.22486773,0.21875,3.74266E-05
0.22718254,0.16071429,0.004418028
0.19494048,0.21428571,0.000374238
0.23263889,0.25,0.000301408
0.21908069,0.09375,0.015707782
0.15806878,0.45982143,0.091054662
0.32109788,0.34375,0.000513119
0.29728836,0.58928571,0.085262452
0.41666667,0.53571429,0.014172336
0.40707672,0.41964286,0.000157908
0.34937169,0.33035714,0.000361553
0.28373016,0.19642857,0.007621568
0.23015873,0.18303571,0.002220579
0.23280423,0.11160714,0.014688735
0.12237673,0.13839286,0.000256516
0.12037037,0.20535714,0.007222751
0.23859127,0.0625,0.031008135
0.14914021,0.13392857,0.000231394
0.17294974,0.18303571,0.000101727
0.20486111,0.17857143,0.000691147
0.15757275,0.07589286,0.006671604
0.11342593,0.20535714,0.008451347
0.23313492,0.22321429,9.84189E-05
0.21990741,0.14285714,0.005936744
0.19494048,0.20982143,0.000221443
0.21957672,0.20535714,0.000202196
0.22404101,0.26785714,0.001919853
0.23875661,0.16071429,0.006090604
0.20221561,0.15625,0.002112837
0.20982143,0.20089286,7.97194E-05
0.22172619,0.31696429,0.009070296
0.29133598,0.19196429,0.009874733
0.18667328,0.25446429,0.004595621
0.23176368,0.23214286,1.43777E-07
0.22635582,0.25446429,0.000790086
0.21015212,0.15178571,0.003406638
0.19609788,0.25892857,0.003947696
0.26008598,0.22321429,0.001359522
0.20171958,0.16071429,0.001681434
0.19758598,0.23660714,0.001522651
0.22883598,0.27232143,0.001890984
0.2255291,0.13392857,0.008390657
0.15939153,0.27232143,0.012753162
0.25892857,0.35714286,0.009646047
0.29282407,0.26785714,0.000623348
0.20998677,0.14732143,0.003926945
0.15641534,0.20089286,0.00197825
0.17592593,0.41517857,0.057241826
0.33382936,0.14285714,0.036470389
0.17708333,0.09821429,0.006220325
0.15691138,0.24553571,0.007854272
0.20601852,0.29464286,0.007854274
0.2228836,0.30803571,0.007250882
0.23148148,0.28125,0.002476906
0.22883598,0.18303571,0.002097665
0.19312169,0.39285714,0.03989425
0.35069444,0.13392857,0.046987442
0.17724868,0.20535714,0.000790086
0.2025463,0.38839286,0.034538944
0.29431217,0.33482143,0.001641
0.24305556,0.39732143,0.023797959
0.29001323,0.62053571,0.10924511
0.50462963,0.27678571,0.051912852
0.26603836,0.20982143,0.003160343
0.18518518,0.17857143,4.37417E-05
0.18981482,0.13839286,0.002644218
0.18650794,0.52232143,0.1127707
0.42294974,0.53571429,0.012715844
0.38938492,0.67410714,0.081066743
0.49007937,0.76339286,0.074700264
0.5515873,0.84375,0.085359043
0.53536675,0.61160714,0.005812597
0.46559162,0.33928571,0.015953183
0.36292989,0.09821429,0.070074349
0.21527778,0.22767857,0.00015378
0.19923942,0.39285714,0.037487821
0.30274471,0.31696429,0.000202196
0.24305556,0.37946429,0.018607342
0.28306878,0.24553571,0.001408731
0.20982143,0.21875,7.97194E-05
0.21031746,0.21875,7.11077E-05
0.19990079,0.20089286,9.84203E-07
0.1957672,0.23660714,0.001667901
0.20750661,0.26339286,0.003123273
0.22635582,0.50446429,0.077344321
0.42096561,0.52232143,0.010273002
0.39599868,0.35267857,0.001876632
0.27017196,0.33482143,0.004179554
0.25644841,0.25446429,3.93673E-06
0.23809524,0.21428571,0.000566894
0.22189153,0.38839286,0.027722693
0.32523148,0.24107143,0.007082914
0.20965608,0.34821429,0.019198378
0.25132275,0.28571429,0.001182778
0.23115079,0.07589286,0.024105025
0.16435185,0.09821429,0.004374177
0.13343254,0.07589286,0.003310815
0.11772487,0.17410714,0.00317896
0.19047619,0.08928571,0.010239513
0.13640873,0.0625,0.0054625
0.11590608,0.13392857,0.00032481
0.17526455,0.26339286,0.007766599
0.2228836,0.24107143,0.000330797
0.2037037,0.24107143,0.001396347
0.21081349,0.24107143,0.000915543
,,
,,0.009819994
,,
,,
,,
,,
,,
,,
,,
,,
,,
,,
,,
,,
,,
,,
,,