Target,Output
'0.429065743945','0.429065743945'
'NA','NA'
'NA','NA'
'NA','NA'
'NA','NA'
'NA','NA'
'0.145328719723','0.145328719723'
'0.145328719723','0.145328719723'
'0.249134948097','0.249134948097'
'0.311418685121','0.311418685121'
'0.256055363322','0.256055363322'
'0.22491349481','0.22491349481'
'0.283737024221','0.283737024221'
'0.242214532872','0.242214532872'
'0.217993079585','0.217993079585'
'0.245674740484','0.245674740484'
'0.266435986159','0.266435986159'
'0.242214532872','0.242214532872'
'0.480968858131','0.480968858131'
'0.39446366782','0.39446366782'
'0.581314878893','0.581314878893'
'0.477508650519','0.477508650519'
'0.512110726644','0.512110726644'
'0.532871972318','0.532871972318'
'0.442906574394','0.442906574394'
'0.249134948097','0.249134948097'
'0.384083044983','0.384083044983'
'0.363321799308','0.363321799308'
'0.384083044983','0.384083044983'
'0.460207612457','0.460207612457'
'0.449826989619','0.449826989619'
'0.384083044983','0.384083044983'
'0.266435986159','0.266435986159'
'0.249134948097','0.249134948097'
'0.159169550173','0.159169550173'
'0.22491349481','0.22491349481'
'0.162629757785','0.162629757785'
'0.207612456747','0.207612456747'
'0.204152249135','0.204152249135'
'0.36678200692','0.36678200692'
'0.411764705882','0.411764705882'
'0.60553633218','0.60553633218'
'0.678200692042','0.678200692042'
'0.588235294118','0.588235294118'
'0.356401384083','0.356401384083'
'0.356401384083','0.356401384083'
'0.446366782007','0.446366782007'
'0.463667820069','0.463667820069'
'0.56401384083','0.56401384083'
'0.235294117647','0.235294117647'
'0.217993079585','0.217993079585'
'0.321799307958','0.321799307958'
'0.307958477509','0.307958477509'
'0.259515570934','0.259515570934'
'0.176470588235','0.176470588235'
'0.252595155709','0.252595155709'
'0.266435986159','0.266435986159'
'0.307958477509','0.307958477509'
'0.307958477509','0.307958477509'
'0.42214532872','0.42214532872'
'0.36678200692','0.36678200692'
'0.602076124567','0.602076124567'
'0.771626297578','0.771626297578'
'0.598615916955','0.598615916955'
'0.415224913495','0.415224913495'
'0.685121107266','0.685121107266'
'0.795847750865','0.795847750865'
'0.681660899654','0.681660899654'
'0.681660899654','0.681660899654'
'0.602076124567','0.602076124567'
'0.695501730104','0.695501730104'
'0.401384083045','0.401384083045'
'0.301038062284','0.301038062284'
'0.193771626298','0.193771626298'
'0.259515570934','0.259515570934'
'0.273356401384','0.273356401384'
'0.307958477509','0.307958477509'
'0.332179930796','0.332179930796'
'0.193771626298','0.193771626298'
'0.19723183391','0.19723183391'
'0.321799307958','0.321799307958'
'0.266435986159','0.266435986159'
'0.207612456747','0.207612456747'
'0.190311418685','0.190311418685'
'0.138408304498','0.138408304498'
'0.18339100346','0.18339100346'
'0.235294117647','0.235294117647'
'0.449826989619','0.449826989619'
'0.622837370242','0.622837370242'
'0.581314878893','0.581314878893'
'0.889273356401','0.889273356401'
'0.723183391003','0.723183391003'
'0.948096885813','0.948096885813'
'0.397923875433','0.397923875433'
'0.529411764706','0.529411764706'
'0.733564013841','0.733564013841'
'0.245674740484','0.245674740484'
'0.0934256055363','0.0934256055363'
'0.179930795848','0.179930795848'
'0.256055363322','0.256055363322'
'0.39446366782','0.39446366782'
'0.179930795848','0.179930795848'
'0.221453287197','0.221453287197'
'0.145328719723','0.145328719723'
'0.176470588235','0.176470588235'
'0.173010380623','0.173010380623'
'0.204152249135','0.204152249135'
'0.134948096886','0.134948096886'
'0.207612456747','0.207612456747'
'0.318339100346','0.318339100346'
'0.370242214533','0.370242214533'
'0.487889273356','0.487889273356'
'0.574394463668','0.574394463668'
'0.681660899654','0.681660899654'
'0.778546712803','0.778546712803'
'0.837370242215','0.837370242215'
'0.768166089965','0.768166089965'
'0.59169550173','0.59169550173'
'0.439446366782','0.439446366782'
'0.138408304498','0.138408304498'
'0.176470588235','0.176470588235'
'0.200692041522','0.200692041522'
'0.0795847750865','0.0795847750865'
'0.0449826989619','0.0449826989619'
'0.0346020761246','0.0346020761246'
'0.076124567474','0.076124567474'
'0.0519031141869','0.0519031141869'
'0.0692041522491','0.0692041522491'
'0.0865051903114','0.0865051903114'
'0.0968858131488','0.0968858131488'
'0.0484429065744','0.0484429065744'
'0.166089965398','0.166089965398'
'0.21107266436','0.21107266436'
'0.262975778547','0.262975778547'
'0.259515570934','0.259515570934'
'0.190311418685','0.190311418685'
'0.36678200692','0.36678200692'
'0.491349480969','0.491349480969'
'0.256055363322','0.256055363322'
'0.110726643599','0.110726643599'
'0.134948096886','0.134948096886'
'0.287197231834','0.287197231834'
'0.166089965398','0.166089965398'
'0.103806228374','0.103806228374'
'0.16955017301','0.16955017301'
'0.083044982699','0.083044982699'
'0.0484429065744','0.0484429065744'
'0.155709342561','0.155709342561'
'0.228373702422','0.228373702422'
'0.259515570934','0.259515570934'
'0.100346020761','0.100346020761'
'0.0553633217993','0.0553633217993'
'0.0449826989619','0.0449826989619'
'0.00346020761246','0.00346020761246'
'0.0415224913495','0.0415224913495'
'0.0692041522491','0.0692041522491'
'0.0795847750865','0.0795847750865'
'0.117647058824','0.117647058824'
'0.16955017301','0.16955017301'
'0.214532871972','0.214532871972'
'0.252595155709','0.252595155709'
'0.228373702422','0.228373702422'
'0.460207612457','0.460207612457'
'0.217993079585','0.217993079585'
'0.214532871972','0.214532871972'
'0.207612456747','0.207612456747'
'0.352941176471','0.352941176471'
'0.228373702422','0.228373702422'
'0.214532871972','0.214532871972'
'0.076124567474','0.076124567474'
'0.110726643599','0.110726643599'
'0.114186851211','0.114186851211'
'0.038062283737','0.038062283737'
'0.0173010380623','0.0173010380623'
'0.0103806228374','0.0103806228374'
'0.0415224913495','0.0415224913495'
'0.0449826989619','0.0449826989619'
'0.0449826989619','0.0449826989619'
'0.0657439446367','0.0657439446367'
'0.16955017301','0.16955017301'
'0.176470588235','0.176470588235'
'0.19723183391','0.19723183391'
'0.22491349481','0.22491349481'
'0.0726643598616','0.0726643598616'
'0.491349480969','0.491349480969'
'0.467128027682','0.467128027682'
'0.487889273356','0.487889273356'
'0.688581314879','0.688581314879'
'0.536332179931','0.536332179931'
'0.314878892734','0.314878892734'
'0.339100346021','0.339100346021'
'0.290657439446','0.290657439446'
'0.114186851211','0.114186851211'
'0.076124567474','0.076124567474'
'0.0449826989619','0.0449826989619'
'0.0968858131488','0.0968858131488'
'0.0934256055363','0.0934256055363'
'0.121107266436','0.121107266436'
'0.076124567474','0.076124567474'
'0.076124567474','0.076124567474'
'0.0657439446367','0.0657439446367'
'0.0138408304498','0.0138408304498'
'0.083044982699','0.083044982699'
'0.176470588235','0.176470588235'
'0.173010380623','0.173010380623'
'0.193771626298','0.193771626298'
'0.190311418685','0.190311418685'
'0.138408304498','0.138408304498'
'0.152249134948','0.152249134948'
'0.190311418685','0.190311418685'
'0.297577854671','0.297577854671'
'0.463667820069','0.463667820069'
'NA','0.418577094592'
'NA','0.376020327305'
'NA','0.363327689423'
'0.221453287197','0.221453287197'
'0.103806228374','0.103806228374'
'0.0449826989619','0.0449826989619'
'0.0','0.0'
'0.0207612456747','0.0207612456747'
'0.0207612456747','0.0207612456747'
'0.00692041522491','0.00692041522491'
'0.0173010380623','0.0173010380623'
'0.0519031141869','0.0519031141869'
'0.038062283737','0.038062283737'
'0.0692041522491','0.0692041522491'
'NA','0.107839593825'
'0.186851211073','0.186851211073'
'0.145328719723','0.145328719723'
'0.307958477509','0.307958477509'
'0.221453287197','0.221453287197'
'0.262975778547','0.262975778547'
'0.22491349481','0.22491349481'
'0.121107266436','0.121107266436'
'0.134948096886','0.134948096886'
'NA','0.181663167958'
'NA','0.1730322917'
'NA','0.155216090294'
'NA','0.165181068617'
'NA','0.13084689691'
'NA','0.106472368086'
'NA','0.135450576076'
'NA','0.1831849495'
'NA','0.176720120329'
'NA','0.173811799241'
'NA','0.180033691914'
'NA','0.186272344644'
'NA','0.221850277877'
'NA','0.244672959651'
'NA','0.257824413037'
'NA','0.237480550347'
'NA','0.225721962853'
'NA','0.216921451279'
'NA','0.205768294207'
'NA','0.192754606173'
'NA','0.18185803615'
'NA','0.176696032893'
'NA','0.175048984166'
'NA','0.175462314765'
'NA','0.175514807274'
'NA','0.176197378341'
'NA','0.177557286444'
'NA','0.178781469282'
'NA','0.179254374785'
'NA','0.179083747948'
'NA','0.17873532138'
'NA','0.178358578967'
'NA','0.177981653122'
'NA','0.177557082457'
'NA','0.177192229801'
'NA','0.176984609842'
'NA','0.176921242998'
'NA','0.176926917122'
'NA','0.17695348022'
'NA','0.176997236053'
'NA','0.177051865888'
'NA','0.177101005449'
'NA','0.177127377831'
'NA','0.177130619606'
'NA','0.177121544757'
'NA','0.177108739077'
'NA','0.177094459929'
'NA','0.17707954018'
'NA','0.177066892136'
'NA','0.17705903404'
'NA','0.177056055971'
'NA','0.177056120697'
'NA','0.177057540517'
'NA','0.177059573334'
'NA','0.177061844385'
'NA','0.177063823711'
'NA','0.177065029699'
'NA','0.177065403853'
'0.128027681661','0.128027681661'
'0.083044982699','0.083044982699'
'0.117647058824','0.117647058824'
'0.141868512111','0.141868512111'
'0.141868512111','0.141868512111'
'0.100346020761','0.100346020761'
'0.0968858131488','0.0968858131488'
'0.0899653979239','0.0899653979239'
'0.0968858131488','0.0968858131488'
'0.128027681661','0.128027681661'
'0.141868512111','0.141868512111'
'0.155709342561','0.155709342561'
'0.0899653979239','0.0899653979239'
'0.685121107266','0.685121107266'
'0.927335640138','0.927335640138'
'0.647058823529','0.647058823529'
'0.16955017301','0.16955017301'
'0.304498269896','0.304498269896'
'0.259515570934','0.259515570934'
'0.266435986159','0.266435986159'
'0.273356401384','0.273356401384'
'0.152249134948','0.152249134948'
'0.0622837370242','0.0622837370242'
'0.159169550173','0.159169550173'
'0.0726643598616','0.0726643598616'
'0.0311418685121','0.0311418685121'
'0.0795847750865','0.0795847750865'
'0.0899653979239','0.0899653979239'
'0.0415224913495','0.0415224913495'
'0.0692041522491','0.0692041522491'
'0.0726643598616','0.0726643598616'
'0.134948096886','0.134948096886'
'0.176470588235','0.176470588235'
'0.173010380623','0.173010380623'
'0.23875432526','0.23875432526'
'0.217993079585','0.217993079585'
'0.214532871972','0.214532871972'
'0.480968858131','0.480968858131'
'0.747404844291','0.747404844291'
'0.332179930796','0.332179930796'
'0.356401384083','0.356401384083'
'0.121107266436','0.121107266436'
'0.249134948097','0.249134948097'
'0.335640138408','0.335640138408'
'0.100346020761','0.100346020761'
'0.0484429065744','0.0484429065744'
'0.128027681661','0.128027681661'
'0.117647058824','0.117647058824'
'0.0726643598616','0.0726643598616'
'0.159169550173','0.159169550173'
'0.103806228374','0.103806228374'
'0.0934256055363','0.0934256055363'
'0.0588235294118','0.0588235294118'
'0.0311418685121','0.0311418685121'
'0.0449826989619','0.0449826989619'
'NA','0.135188473516'
'0.22491349481','0.22491349481'
'0.217993079585','0.217993079585'
'0.235294117647','0.235294117647'
'NA','0.272654279999'
'0.43598615917','0.43598615917'
'0.397923875433','0.397923875433'
'NA','0.37598494846'
'NA','0.37197486761'
'NA','0.347524909131'
'0.294117647059','0.294117647059'
'0.505190311419','0.505190311419'
'0.152249134948','0.152249134948'
'0.23875432526','0.23875432526'
'0.128027681661','0.128027681661'
'0.103806228374','0.103806228374'
'0.117647058824','0.117647058824'
'0.0968858131488','0.0968858131488'
'0.110726643599','0.110726643599'
'0.148788927336','0.148788927336'
'0.076124567474','0.076124567474'
'0.083044982699','0.083044982699'
'0.0657439446367','0.0657439446367'
'0.141868512111','0.141868512111'
'0.114186851211','0.114186851211'
'0.110726643599','0.110726643599'
'0.453287197232','0.453287197232'
'0.546712802768','0.546712802768'
'0.560553633218','0.560553633218'
'0.550173010381','0.550173010381'
'0.484429065744','0.484429065744'
'0.768166089965','0.768166089965'
'0.332179930796','0.332179930796'
'0.22491349481','0.22491349481'
'0.276816608997','0.276816608997'
'0.480968858131','0.480968858131'
'0.221453287197','0.221453287197'
'0.131487889273','0.131487889273'
'0.0726643598616','0.0726643598616'
'0.0726643598616','0.0726643598616'
'0.0692041522491','0.0692041522491'
'0.0173010380623','0.0173010380623'
'0.0138408304498','0.0138408304498'
'0.0865051903114','0.0865051903114'
'0.100346020761','0.100346020761'
'0.114186851211','0.114186851211'
'0.0934256055363','0.0934256055363'
'0.0934256055363','0.0934256055363'
'0.262975778547','0.262975778547'
'0.432525951557','0.432525951557'
'0.657439446367','0.657439446367'
'0.671280276817','0.671280276817'
'0.681660899654','0.681660899654'
'0.588235294118','0.588235294118'
'0.595155709343','0.595155709343'
'0.716262975779','0.716262975779'
'0.602076124567','0.602076124567'
'0.602076124567','0.602076124567'
'0.664359861592','0.664359861592'
'0.415224913495','0.415224913495'
'0.235294117647','0.235294117647'
'0.276816608997','0.276816608997'
'0.204152249135','0.204152249135'
'0.121107266436','0.121107266436'
'0.18339100346','0.18339100346'
'0.249134948097','0.249134948097'
'0.287197231834','0.287197231834'
'0.19723183391','0.19723183391'
'0.287197231834','0.287197231834'
'0.311418685121','0.311418685121'
'0.287197231834','0.287197231834'
'0.190311418685','0.190311418685'
'0.242214532872','0.242214532872'
'0.228373702422','0.228373702422'
'0.173010380623','0.173010380623'
'0.242214532872','0.242214532872'
'0.19723183391','0.19723183391'
'0.297577854671','0.297577854671'
'0.425605536332','0.425605536332'
'0.363321799308','0.363321799308'
'0.40830449827','0.40830449827'
'0.262975778547','0.262975778547'
'0.214532871972','0.214532871972'
'0.155709342561','0.155709342561'
'0.166089965398','0.166089965398'
'0.217993079585','0.217993079585'
'0.166089965398','0.166089965398'
'0.235294117647','0.235294117647'
'0.0934256055363','0.0934256055363'
'0.0657439446367','0.0657439446367'
'0.0484429065744','0.0484429065744'
'0.083044982699','0.083044982699'
'0.0692041522491','0.0692041522491'
'0.0795847750865','0.0795847750865'
'0.103806228374','0.103806228374'
'0.0968858131488','0.0968858131488'
'0.076124567474','0.076124567474'
'0.0588235294118','0.0588235294118'
'0.162629757785','0.162629757785'
'0.166089965398','0.166089965398'
'0.190311418685','0.190311418685'
'0.231833910035','0.231833910035'
'0.404844290657','0.404844290657'
'0.252595155709','0.252595155709'
'0.148788927336','0.148788927336'
'0.301038062284','0.301038062284'
'0.23875432526','0.23875432526'
'0.228373702422','0.228373702422'
'0.193771626298','0.193771626298'
'0.141868512111','0.141868512111'
'0.0865051903114','0.0865051903114'
'0.00692041522491','0.00692041522491'
'0.110726643599','0.110726643599'
'0.141868512111','0.141868512111'
'0.0968858131488','0.0968858131488'
'0.0899653979239','0.0899653979239'
'0.124567474048','0.124567474048'
'0.107266435986','0.107266435986'
'0.148788927336','0.148788927336'
'0.193771626298','0.193771626298'
'0.235294117647','0.235294117647'
'0.280276816609','0.280276816609'
'0.297577854671','0.297577854671'
'0.318339100346','0.318339100346'
'0.494809688581','0.494809688581'
'0.42214532872','0.42214532872'
'0.505190311419','0.505190311419'
'0.228373702422','0.228373702422'
'0.283737024221','0.283737024221'
'0.0519031141869','0.0519031141869'
'0.124567474048','0.124567474048'
'0.124567474048','0.124567474048'
'0.262975778547','0.262975778547'
'0.301038062284','0.301038062284'
'0.110726643599','0.110726643599'
'0.121107266436','0.121107266436'
'0.0865051903114','0.0865051903114'
'0.0692041522491','0.0692041522491'
'0.0103806228374','0.0103806228374'
'0.0484429065744','0.0484429065744'
'0.107266435986','0.107266435986'
'0.0484429065744','0.0484429065744'
'0.0311418685121','0.0311418685121'
'0.100346020761','0.100346020761'
'0.110726643599','0.110726643599'
'0.0692041522491','0.0692041522491'
'0.173010380623','0.173010380623'
'NA','0.174423693136'
'0.103806228374','0.103806228374'
'0.173010380623','0.173010380623'
'0.0588235294118','0.0588235294118'
'0.110726643599','0.110726643599'
'0.0899653979239','0.0899653979239'
'0.0484429065744','0.0484429065744'
'0.152249134948','0.152249134948'
'0.162629757785','0.162629757785'
'0.346020761246','0.346020761246'
'0.290657439446','0.290657439446'
'0.294117647059','0.294117647059'
'0.16955017301','0.16955017301'
'0.0242214532872','0.0242214532872'
'0.0','0.0'
'0.0519031141869','0.0519031141869'
'0.131487889273','0.131487889273'
'NA','0.125311744931'
'0.0795847750865','0.0795847750865'
'0.134948096886','0.134948096886'
'0.117647058824','0.117647058824'
'0.155709342561','0.155709342561'
'0.159169550173','0.159169550173'
'0.128027681661','0.128027681661'
'0.193771626298','0.193771626298'
'0.546712802768','0.546712802768'
'0.750865051903','0.750865051903'
'0.778546712803','0.778546712803'
'0.747404844291','0.747404844291'
'0.615916955017','0.615916955017'
'0.307958477509','0.307958477509'
'0.252595155709','0.252595155709'
'0.252595155709','0.252595155709'
'0.0934256055363','0.0934256055363'
'0.083044982699','0.083044982699'
'0.595155709343','0.595155709343'
'0.404844290657','0.404844290657'
'0.328719723183','0.328719723183'
'0.214532871972','0.214532871972'
'0.038062283737','0.038062283737'
'0.0692041522491','0.0692041522491'
'0.0622837370242','0.0622837370242'
'0.0588235294118','0.0588235294118'
'0.0588235294118','0.0588235294118'
'0.0449826989619','0.0449826989619'
'0.083044982699','0.083044982699'
'0.498269896194','0.498269896194'
'0.508650519031','0.508650519031'
'0.501730103806','0.501730103806'
'0.543252595156','0.543252595156'
'0.560553633218','0.560553633218'
'0.484429065744','0.484429065744'
'0.56401384083','0.56401384083'
'0.615916955017','0.615916955017'
'0.581314878893','0.581314878893'
'0.321799307958','0.321799307958'
'0.207612456747','0.207612456747'
'0.166089965398','0.166089965398'
'0.22491349481','0.22491349481'
'0.155709342561','0.155709342561'
'0.16955017301','0.16955017301'
'0.18339100346','0.18339100346'
'0.159169550173','0.159169550173'
'0.162629757785','0.162629757785'
'0.141868512111','0.141868512111'
'0.186851211073','0.186851211073'
'0.107266435986','0.107266435986'
'0.138408304498','0.138408304498'
'0.110726643599','0.110726643599'
'0.152249134948','0.152249134948'
'0.200692041522','0.200692041522'
'0.190311418685','0.190311418685'
'0.19723183391','0.19723183391'
'0.200692041522','0.200692041522'
'0.204152249135','0.204152249135'
'0.384083044983','0.384083044983'
'0.494809688581','0.494809688581'
'0.432525951557','0.432525951557'
'0.318339100346','0.318339100346'
'0.307958477509','0.307958477509'
'NA','0.300683755073'
'0.301038062284','0.301038062284'
'0.124567474048','0.124567474048'
'0.190311418685','0.190311418685'
'0.186851211073','0.186851211073'
'0.173010380623','0.173010380623'
'0.159169550173','0.159169550173'
'0.103806228374','0.103806228374'
'0.134948096886','0.134948096886'
'0.110726643599','0.110726643599'
'0.100346020761','0.100346020761'
'0.110726643599','0.110726643599'
'0.0968858131488','0.0968858131488'
'0.155709342561','0.155709342561'
'0.179930795848','0.179930795848'
'0.22491349481','0.22491349481'
'0.311418685121','0.311418685121'
'0.311418685121','0.311418685121'
'0.290657439446','0.290657439446'
'0.256055363322','0.256055363322'
'0.314878892734','0.314878892734'
'0.262975778547','0.262975778547'
'0.179930795848','0.179930795848'
'0.107266435986','0.107266435986'
'0.231833910035','0.231833910035'
'0.249134948097','0.249134948097'
'0.297577854671','0.297577854671'
'0.235294117647','0.235294117647'
'0.217993079585','0.217993079585'
'0.221453287197','0.221453287197'
'0.159169550173','0.159169550173'
'0.22491349481','0.22491349481'
'0.217993079585','0.217993079585'
'0.214532871972','0.214532871972'
'0.207612456747','0.207612456747'
'0.231833910035','0.231833910035'
'0.173010380623','0.173010380623'
'0.21107266436','0.21107266436'
'0.217993079585','0.217993079585'
'0.179930795848','0.179930795848'
'0.107266435986','0.107266435986'
'0.193771626298','0.193771626298'
'0.242214532872','0.242214532872'
'0.249134948097','0.249134948097'
'0.204152249135','0.204152249135'
'0.498269896194','0.498269896194'
'0.792387543253','0.792387543253'
'0.474048442907','0.474048442907'
'0.415224913495','0.415224913495'
'0.314878892734','0.314878892734'
'0.484429065744','0.484429065744'
'0.311418685121','0.311418685121'
'0.245674740484','0.245674740484'
'0.221453287197','0.221453287197'
'0.231833910035','0.231833910035'
'0.124567474048','0.124567474048'
'0.145328719723','0.145328719723'
'0.076124567474','0.076124567474'
'0.0622837370242','0.0622837370242'
'0.0415224913495','0.0415224913495'
'0.103806228374','0.103806228374'
'0.155709342561','0.155709342561'
'0.193771626298','0.193771626298'
'0.200692041522','0.200692041522'
'0.269896193772','0.269896193772'
'0.280276816609','0.280276816609'
'0.283737024221','0.283737024221'
'0.352941176471','0.352941176471'
'0.173010380623','0.173010380623'
'0.193771626298','0.193771626298'
'0.342560553633','0.342560553633'
'0.266435986159','0.266435986159'
'0.311418685121','0.311418685121'
'0.18339100346','0.18339100346'
'0.0692041522491','0.0692041522491'
'0.0968858131488','0.0968858131488'
'0.134948096886','0.134948096886'
'0.100346020761','0.100346020761'
'0.121107266436','0.121107266436'
'0.083044982699','0.083044982699'
'0.0484429065744','0.0484429065744'
'0.0173010380623','0.0173010380623'
'0.0622837370242','0.0622837370242'
'0.0311418685121','0.0311418685121'
'0.0311418685121','0.0311418685121'
'0.124567474048','0.124567474048'
'0.152249134948','0.152249134948'
'0.16955017301','0.16955017301'
'0.204152249135','0.204152249135'
'0.245674740484','0.245674740484'
'0.235294117647','0.235294117647'
'0.176470588235','0.176470588235'
'0.176470588235','0.176470588235'
'0.121107266436','0.121107266436'
'0.36678200692','0.36678200692'
'0.148788927336','0.148788927336'
'0.100346020761','0.100346020761'
'0.0865051903114','0.0865051903114'
'0.0657439446367','0.0657439446367'
'0.0657439446367','0.0657439446367'
'0.0519031141869','0.0519031141869'
'0.0692041522491','0.0692041522491'
'0.0449826989619','0.0449826989619'
'0.0415224913495','0.0415224913495'
'0.0657439446367','0.0657439446367'
'0.0588235294118','0.0588235294118'
'0.0657439446367','0.0657439446367'
'0.0657439446367','0.0657439446367'
'0.0968858131488','0.0968858131488'
'0.138408304498','0.138408304498'
'0.141868512111','0.141868512111'
'0.134948096886','0.134948096886'
'0.138408304498','0.138408304498'
'0.159169550173','0.159169550173'
'0.121107266436','0.121107266436'
'0.214532871972','0.214532871972'
'0.217993079585','0.217993079585'
'0.207612456747','0.207612456747'
'0.349480968858','0.349480968858'
'0.550173010381','0.550173010381'
'0.425605536332','0.425605536332'
'0.259515570934','0.259515570934'
'0.110726643599','0.110726643599'
'0.124567474048','0.124567474048'
'0.0553633217993','0.0553633217993'
'0.0449826989619','0.0449826989619'
'0.0692041522491','0.0692041522491'
'0.134948096886','0.134948096886'
'0.110726643599','0.110726643599'
'0.0692041522491','0.0692041522491'
'0.038062283737','0.038062283737'
'0.0726643598616','0.0726643598616'
'0.131487889273','0.131487889273'
'0.256055363322','0.256055363322'
'0.217993079585','0.217993079585'
'0.193771626298','0.193771626298'
'0.176470588235','0.176470588235'
'0.200692041522','0.200692041522'
'0.152249134948','0.152249134948'
'0.21107266436','0.21107266436'
'0.200692041522','0.200692041522'
'0.23875432526','0.23875432526'
'0.214532871972','0.214532871972'
'0.256055363322','0.256055363322'
'0.418685121107','0.418685121107'
'0.190311418685','0.190311418685'
'0.162629757785','0.162629757785'
'0.107266435986','0.107266435986'
'0.114186851211','0.114186851211'
'0.138408304498','0.138408304498'
'0.207612456747','0.207612456747'
'0.262975778547','0.262975778547'
'0.114186851211','0.114186851211'
'0.0242214532872','0.0242214532872'
'0.038062283737','0.038062283737'
'0.0692041522491','0.0692041522491'
'0.148788927336','0.148788927336'
'0.159169550173','0.159169550173'
'0.138408304498','0.138408304498'
'0.138408304498','0.138408304498'
'0.110726643599','0.110726643599'
'0.266435986159','0.266435986159'
'0.453287197232','0.453287197232'
'0.346020761246','0.346020761246'
'0.401384083045','0.401384083045'
'0.560553633218','0.560553633218'
'0.705882352941','0.705882352941'
'0.792387543253','0.792387543253'
'0.352941176471','0.352941176471'
'0.159169550173','0.159169550173'
'0.0865051903114','0.0865051903114'
'0.141868512111','0.141868512111'
'0.103806228374','0.103806228374'
'0.0657439446367','0.0657439446367'
'0.0657439446367','0.0657439446367'
'0.0346020761246','0.0346020761246'
'0.0103806228374','0.0103806228374'
'0.00346020761246','0.00346020761246'
'0.138408304498','0.138408304498'
'0.0622837370242','0.0622837370242'
'0.0865051903114','0.0865051903114'
'0.145328719723','0.145328719723'
'0.186851211073','0.186851211073'
'0.159169550173','0.159169550173'
'0.173010380623','0.173010380623'
'0.176470588235','0.176470588235'
'0.346020761246','0.346020761246'
'0.373702422145','0.373702422145'
'0.290657439446','0.290657439446'
'0.418685121107','0.418685121107'
'0.439446366782','0.439446366782'
'0.387543252595','0.387543252595'
'0.256055363322','0.256055363322'
'0.207612456747','0.207612456747'
'0.0622837370242','0.0622837370242'
'0.0484429065744','0.0484429065744'
'0.0519031141869','0.0519031141869'
'0.0519031141869','0.0519031141869'
'0.0726643598616','0.0726643598616'
'0.0622837370242','0.0622837370242'
'0.0519031141869','0.0519031141869'
'0.0415224913495','0.0415224913495'
'0.352941176471','0.352941176471'
'0.107266435986','0.107266435986'
'0.124567474048','0.124567474048'
'0.145328719723','0.145328719723'
'0.0968858131488','0.0968858131488'
'0.18339100346','0.18339100346'
'0.214532871972','0.214532871972'
'0.141868512111','0.141868512111'
'0.190311418685','0.190311418685'
'0.162629757785','0.162629757785'
'0.100346020761','0.100346020761'
'0.325259515571','0.325259515571'
'0.363321799308','0.363321799308'
'0.22491349481','0.22491349481'
'0.335640138408','0.335640138408'
'0.36678200692','0.36678200692'
'0.304498269896','0.304498269896'
'0.283737024221','0.283737024221'
'0.404844290657','0.404844290657'
'0.204152249135','0.204152249135'
'0.259515570934','0.259515570934'
'0.193771626298','0.193771626298'
'0.259515570934','0.259515570934'
'0.0934256055363','0.0934256055363'
'0.145328719723','0.145328719723'
'0.0553633217993','0.0553633217993'
'0.121107266436','0.121107266436'
'0.114186851211','0.114186851211'
'0.193771626298','0.193771626298'
'0.179930795848','0.179930795848'
'0.162629757785','0.162629757785'
'0.179930795848','0.179930795848'
'0.200692041522','0.200692041522'
'0.19723183391','0.19723183391'
'0.186851211073','0.186851211073'
'0.19723183391','0.19723183391'
'0.304498269896','0.304498269896'
'0.467128027682','0.467128027682'
'0.546712802768','0.546712802768'
'0.259515570934','0.259515570934'
'0.259515570934','0.259515570934'
'0.287197231834','0.287197231834'
'0.200692041522','0.200692041522'
'0.249134948097','0.249134948097'
'0.273356401384','0.273356401384'
'0.214532871972','0.214532871972'
'0.155709342561','0.155709342561'
'0.207612456747','0.207612456747'
'0.128027681661','0.128027681661'
'0.103806228374','0.103806228374'
'0.0934256055363','0.0934256055363'
'0.131487889273','0.131487889273'
'0.138408304498','0.138408304498'
'0.159169550173','0.159169550173'
'0.162629757785','0.162629757785'
'0.155709342561','0.155709342561'
'0.280276816609','0.280276816609'
'0.245674740484','0.245674740484'
'0.301038062284','0.301038062284'
'0.356401384083','0.356401384083'
'0.439446366782','0.439446366782'
'0.36678200692','0.36678200692'
'0.262975778547','0.262975778547'
'0.231833910035','0.231833910035'
'0.231833910035','0.231833910035'
'0.076124567474','0.076124567474'
'0.19723183391','0.19723183391'
'0.186851211073','0.186851211073'
'0.148788927336','0.148788927336'
'0.145328719723','0.145328719723'
'0.474048442907','0.474048442907'
'0.411764705882','0.411764705882'
'0.166089965398','0.166089965398'
'0.204152249135','0.204152249135'
'0.145328719723','0.145328719723'
'0.138408304498','0.138408304498'
'0.186851211073','0.186851211073'
'0.131487889273','0.131487889273'
'0.145328719723','0.145328719723'
'0.231833910035','0.231833910035'
'0.363321799308','0.363321799308'
'0.332179930796','0.332179930796'
'0.186851211073','0.186851211073'
'0.173010380623','0.173010380623'
'0.0449826989619','0.0449826989619'
'0.245674740484','0.245674740484'
'0.21107266436','0.21107266436'
'0.266435986159','0.266435986159'
'0.193771626298','0.193771626298'
'0.103806228374','0.103806228374'
'0.0795847750865','0.0795847750865'
'0.0795847750865','0.0795847750865'
'0.121107266436','0.121107266436'
'0.103806228374','0.103806228374'
'0.0795847750865','0.0795847750865'
'0.0415224913495','0.0415224913495'
'0.0934256055363','0.0934256055363'
'0.0865051903114','0.0865051903114'
'0.18339100346','0.18339100346'
'0.159169550173','0.159169550173'
'0.19723183391','0.19723183391'
'0.162629757785','0.162629757785'
'0.186851211073','0.186851211073'
'0.190311418685','0.190311418685'
'0.193771626298','0.193771626298'
'0.269896193772','0.269896193772'
'0.159169550173','0.159169550173'
'0.252595155709','0.252595155709'
'0.0795847750865','0.0795847750865'
'0.173010380623','0.173010380623'
'0.100346020761','0.100346020761'
'0.22491349481','0.22491349481'
'0.221453287197','0.221453287197'
'0.121107266436','0.121107266436'
'0.138408304498','0.138408304498'
'0.200692041522','0.200692041522'
'0.179930795848','0.179930795848'
'0.0934256055363','0.0934256055363'
'0.131487889273','0.131487889273'
'0.221453287197','0.221453287197'
'0.173010380623','0.173010380623'
'0.0899653979239','0.0899653979239'
'0.131487889273','0.131487889273'
'0.145328719723','0.145328719723'
'0.16955017301','0.16955017301'
'0.162629757785','0.162629757785'
'0.204152249135','0.204152249135'
'0.18339100346','0.18339100346'
'0.290657439446','0.290657439446'
'0.287197231834','0.287197231834'
'0.245674740484','0.245674740484'
'0.259515570934','0.259515570934'
'0.110726643599','0.110726643599'
'0.21107266436','0.21107266436'
'0.228373702422','0.228373702422'
'0.242214532872','0.242214532872'
'0.207612456747','0.207612456747'
'0.121107266436','0.121107266436'
'0.176470588235','0.176470588235'
'0.207612456747','0.207612456747'
'0.16955017301','0.16955017301'
'0.23875432526','0.23875432526'
'0.204152249135','0.204152249135'
'0.124567474048','0.124567474048'
'0.148788927336','0.148788927336'
'0.221453287197','0.221453287197'
'0.179930795848','0.179930795848'
'0.16955017301','0.16955017301'
'0.21107266436','0.21107266436'
'0.228373702422','0.228373702422'
'0.221453287197','0.221453287197'
'0.349480968858','0.349480968858'
'0.456747404844','0.456747404844'
'0.283737024221','0.283737024221'
'0.442906574394','0.442906574394'
'0.370242214533','0.370242214533'
'0.131487889273','0.131487889273'
'0.103806228374','0.103806228374'
'0.114186851211','0.114186851211'
'0.155709342561','0.155709342561'
'0.076124567474','0.076124567474'
'0.148788927336','0.148788927336'
'0.166089965398','0.166089965398'
'0.179930795848','0.179930795848'
'0.107266435986','0.107266435986'
'0.114186851211','0.114186851211'
'0.155709342561','0.155709342561'
'0.124567474048','0.124567474048'
'0.110726643599','0.110726643599'
'0.0726643598616','0.0726643598616'
'0.134948096886','0.134948096886'
'0.0899653979239','0.0899653979239'
'0.152249134948','0.152249134948'
'0.16955017301','0.16955017301'
'0.155709342561','0.155709342561'
'0.269896193772','0.269896193772'
'0.346020761246','0.346020761246'
'0.463667820069','0.463667820069'
'0.508650519031','0.508650519031'
'0.515570934256','0.515570934256'
'0.356401384083','0.356401384083'
'0.806228373702','0.806228373702'
'0.22491349481','0.22491349481'
'0.207612456747','0.207612456747'
'0.207612456747','0.207612456747'
'0.141868512111','0.141868512111'
'0.0692041522491','0.0692041522491'
'0.083044982699','0.083044982699'
'0.0692041522491','0.0692041522491'
'0.0865051903114','0.0865051903114'
'0.076124567474','0.076124567474'
'0.0346020761246','0.0346020761246'
'0.0449826989619','0.0449826989619'
'0.0346020761246','0.0346020761246'
'NA','0.0878103615558'
'0.0899653979239','0.0899653979239'
'0.124567474048','0.124567474048'
'0.228373702422','0.228373702422'
'0.186851211073','0.186851211073'
'0.145328719723','0.145328719723'
'0.359861591696','0.359861591696'
'0.256055363322','0.256055363322'
'0.256055363322','0.256055363322'
'0.204152249135','0.204152249135'
'0.21107266436','0.21107266436'
'0.124567474048','0.124567474048'
'0.16955017301','0.16955017301'
'0.124567474048','0.124567474048'
'0.100346020761','0.100346020761'
'0.0276816608997','0.0276816608997'
'0.0207612456747','0.0207612456747'
'0.0449826989619','0.0449826989619'
'0.00692041522491','0.00692041522491'
'0.0207612456747','0.0207612456747'
'0.0138408304498','0.0138408304498'
'0.0242214532872','0.0242214532872'
'0.0138408304498','0.0138408304498'
'0.0103806228374','0.0103806228374'
'0.0692041522491','0.0692041522491'
'0.131487889273','0.131487889273'
'0.134948096886','0.134948096886'
'0.117647058824','0.117647058824'
'0.141868512111','0.141868512111'
'0.269896193772','0.269896193772'
'0.505190311419','0.505190311419'
'0.335640138408','0.335640138408'
'0.190311418685','0.190311418685'
'0.0899653979239','0.0899653979239'
'0.19723183391','0.19723183391'
'0.588235294118','0.588235294118'
'0.36678200692','0.36678200692'
'0.249134948097','0.249134948097'
'0.269896193772','0.269896193772'
'0.23875432526','0.23875432526'
'0.0795847750865','0.0795847750865'
'0.0519031141869','0.0519031141869'
'0.117647058824','0.117647058824'
'0.155709342561','0.155709342561'
'0.0519031141869','0.0519031141869'
'0.0588235294118','0.0588235294118'
'0.0415224913495','0.0415224913495'
'0.0138408304498','0.0138408304498'
'0.124567474048','0.124567474048'
'0.294117647059','0.294117647059'
'0.204152249135','0.204152249135'
'0.176470588235','0.176470588235'
'NA','0.193112287584'
'NA','0.199598455101'
'0.235294117647','0.235294117647'
'0.242214532872','0.242214532872'
'NA','0.245262876199'
'NA','0.223450744834'
'NA','0.221129313221'
'NA','0.213057942926'
'NA','0.200108786764'
'NA','0.188653199788'
'NA','0.18083202247'
'NA','0.177905718892'
'NA','0.176383733645'
'NA','0.17623062825'
'NA','0.175868955927'
'NA','0.176779977281'
'NA','0.178061776941'
'NA','0.178793024821'
'NA','0.178896934335'
'NA','0.178694686512'
'NA','0.178476075972'
'NA','0.178169287935'
'NA','0.177812250531'
'NA','0.17742365684'
'NA','0.177146606764'
'NA','0.177016081279'
'NA','0.176973266243'
'NA','0.176965353097'
'NA','0.17698058003'
'NA','0.177021715815'
'NA','0.177069282349'
'NA','0.177104685079'
'NA','0.177118656409'
'NA','0.177117850422'
'NA','0.177110931866'
'NA','0.177100867032'
'NA','0.1770881328'
'NA','0.177075062446'
'NA','0.177065223358'
'NA','0.177059829423'
'NA','0.177057904944'
'NA','0.17705786721'
'NA','0.177058888808'
'NA','0.177060614733'
'NA','0.177062535625'
'NA','0.177064035747'
'NA','0.177064811107'
'NA','0.177064986961'
'NA','0.177064813642'
'NA','0.177064455463'
'NA','0.177063997736'
'NA','0.177063534838'
'NA','0.177063169031'
'NA','0.177062951536'
'NA','0.177062865058'
'NA','0.177062862811'
'NA','0.177062908673'
'NA','0.177062980053'
'NA','0.177063056371'
'NA','0.177063117977'
'NA','0.177063154415'
'NA','0.177063167214'
'NA','0.177063163918'
'NA','0.177063151489'
'NA','0.177063134714'
'NA','0.177063117628'
'NA','0.177063103753'
'NA','0.177063094981'
'NA','0.177063091117'
'NA','0.177063090792'
'NA','0.177063092588'
'NA','0.177063095428'
'NA','0.177063098445'
'NA','0.177063100942'
'NA','0.177063102534'
'NA','0.177063103215'
'NA','0.177063103211'
'NA','0.17706310279'
'NA','0.177063102171'
'NA','0.177063101527'
'NA','0.177063100992'
'NA','0.177063100637'
'NA','0.177063100467'
'NA','0.177063100441'
'NA','0.177063100505'
'NA','0.177063100615'
'NA','0.177063100734'
'NA','0.177063100834'
'NA','0.177063100901'
'NA','0.177063100934'
'NA','0.177063100938'
'NA','0.177063100924'
'NA','0.177063100901'
'NA','0.177063100877'
'NA','0.177063100856'
'NA','0.177063100842'
'NA','0.177063100834'
'NA','0.177063100833'
'NA','0.177063100835'
'NA','0.177063100839'
'NA','0.177063100844'
'NA','0.177063100848'
'NA','0.17706310085'
'NA','0.177063100852'
'NA','0.177063100852'
'NA','0.177063100852'
'NA','0.177063100851'
'NA','0.17706310085'
'NA','0.177063100849'
'NA','0.177063100848'
'NA','0.177063100848'
'NA','0.177063100848'
'NA','0.177063100848'
'NA','0.177063100848'
'NA','0.177063100848'
'NA','0.177063100849'
'NA','0.177063100849'
'NA','0.177063100849'
'NA','0.177063100849'
'NA','0.177063100849'
'NA','0.177063100849'
'NA','0.177063100849'
'NA','0.177063100849'
'NA','0.177063100849'
'NA','0.177063100849'
'NA','0.177063100849'
'NA','0.177063100849'
'NA','0.177063100849'
'NA','0.177063100849'
'NA','0.177063100849'
'NA','0.177063100849'
'NA','0.177063100849'
'NA','0.177063100849'
'NA','0.177063100849'
'NA','0.177063100849'
'NA','0.177063100849'
'NA','0.177063100849'
'NA','0.177063100849'
'NA','0.177063100849'
'NA','0.177063100849'
'NA','0.177063100849'
'NA','0.177063100849'
'NA','0.177063100849'
'NA','0.177063100849'
'NA','0.177063100849'
'NA','0.177063100849'
'NA','0.177063100849'
'NA','0.177063100849'
'NA','0.177063100849'
'NA','0.177063100849'
'NA','0.177063100849'
'NA','0.177063100849'
'NA','0.177063100849'
'NA','0.177063100849'
'NA','0.177063100849'
'NA','0.177063100849'
'NA','0.177063100849'
'NA','0.177063100849'
'NA','0.177063100849'
'NA','0.177063100849'
'NA','0.177063100849'
'NA','0.177063100849'
'NA','0.177063100849'
'NA','0.177063100849'
'NA','0.177063100849'
'NA','0.177063100849'
'NA','0.177063100849'
'NA','0.177063100849'
'NA','0.177063100849'
'NA','0.177063100849'
'NA','0.177063100849'
'NA','0.177063100849'
'NA','0.177063100849'
'NA','0.177063100849'
'NA','0.177063100849'
'NA','0.177063100849'
'NA','0.177063100849'
'NA','0.177063100849'
'NA','0.177063100849'
'NA','0.177063100849'
'NA','0.177063100849'
'NA','0.177063100849'
'NA','0.177063100849'
'NA','0.177063100849'
'NA','0.177063100849'
'NA','0.177063100849'
'NA','0.177063100849'
'NA','0.177063100849'
'NA','0.177063100849'
'NA','0.177063100849'
'NA','0.177063100849'
'NA','0.177063100849'
'NA','0.177063100849'
'NA','0.177063100849'
'NA','0.177063100849'
'NA','0.177063100849'
'NA','0.177063100849'
'NA','0.177063100849'
'NA','0.177063100849'
'NA','0.177063100849'
'NA','0.177063100849'
'0.339100346021','0.339100346021'
'0.16955017301','0.16955017301'
'0.121107266436','0.121107266436'
'0.0657439446367','0.0657439446367'
'0.0692041522491','0.0692041522491'
'0.0346020761246','0.0346020761246'
'0.0519031141869','0.0519031141869'
'0.038062283737','0.038062283737'
'0.0553633217993','0.0553633217993'
'0.0622837370242','0.0622837370242'
'0.083044982699','0.083044982699'
'0.131487889273','0.131487889273'
'0.162629757785','0.162629757785'
'0.107266435986','0.107266435986'
'0.138408304498','0.138408304498'
'NA','0.151752922012'
'NA','0.1953427361'
'NA','0.221308072229'
'NA','0.240690170825'
'0.522491349481','0.522491349481'
'0.352941176471','0.352941176471'
'0.349480968858','0.349480968858'
'0.494809688581','0.494809688581'
'0.328719723183','0.328719723183'
'NA','0.269069241021'
'NA','0.240204018064'
'NA','0.219802836706'
'NA','0.182694410085'
'NA','0.174612582906'
'NA','0.166966375959'
'0.0968858131488','0.0968858131488'
'0.131487889273','0.131487889273'
'0.114186851211','0.114186851211'
'0.179930795848','0.179930795848'
'0.0795847750865','0.0795847750865'
'0.0968858131488','0.0968858131488'
'0.138408304498','0.138408304498'
'0.159169550173','0.159169550173'
'0.128027681661','0.128027681661'
'0.162629757785','0.162629757785'
'0.159169550173','0.159169550173'
'0.159169550173','0.159169550173'
'0.134948096886','0.134948096886'
'0.245674740484','0.245674740484'
'0.159169550173','0.159169550173'
'0.214532871972','0.214532871972'
'0.487889273356','0.487889273356'
'0.446366782007','0.446366782007'
'0.235294117647','0.235294117647'
'0.193771626298','0.193771626298'
'0.16955017301','0.16955017301'
'0.190311418685','0.190311418685'
'0.107266435986','0.107266435986'
'0.124567474048','0.124567474048'
'0.162629757785','0.162629757785'
'0.110726643599','0.110726643599'
'0.0865051903114','0.0865051903114'
'0.0795847750865','0.0795847750865'
'0.0899653979239','0.0899653979239'
'0.159169550173','0.159169550173'
'0.117647058824','0.117647058824'
'0.162629757785','0.162629757785'
'0.207612456747','0.207612456747'
'0.262975778547','0.262975778547'
'0.262975778547','0.262975778547'
'0.252595155709','0.252595155709'
'0.21107266436','0.21107266436'
'0.179930795848','0.179930795848'
'0.460207612457','0.460207612457'
'0.847750865052','0.847750865052'
'0.42214532872','0.42214532872'
'0.411764705882','0.411764705882'
'0.612456747405','0.612456747405'
'0.359861591696','0.359861591696'
'0.242214532872','0.242214532872'
'0.190311418685','0.190311418685'
'0.0968858131488','0.0968858131488'
'0.0519031141869','0.0519031141869'
'0.114186851211','0.114186851211'
'0.148788927336','0.148788927336'
'0.124567474048','0.124567474048'
'0.128027681661','0.128027681661'
'0.0865051903114','0.0865051903114'
'0.128027681661','0.128027681661'
'0.131487889273','0.131487889273'
'0.204152249135','0.204152249135'
'0.166089965398','0.166089965398'
'0.214532871972','0.214532871972'
'0.193771626298','0.193771626298'
'0.276816608997','0.276816608997'
'0.22491349481','0.22491349481'
'NA','0.238423406855'
'0.539792387543','0.539792387543'
'0.78892733564','0.78892733564'
'0.948096885813','0.948096885813'
'0.636678200692','0.636678200692'
'0.463667820069','0.463667820069'
'0.304498269896','0.304498269896'
'0.23875432526','0.23875432526'
'0.186851211073','0.186851211073'
'0.200692041522','0.200692041522'
'0.242214532872','0.242214532872'
'0.228373702422','0.228373702422'
'0.245674740484','0.245674740484'
'0.131487889273','0.131487889273'
'0.114186851211','0.114186851211'
'0.114186851211','0.114186851211'
'0.100346020761','0.100346020761'
'0.124567474048','0.124567474048'
'NA','0.137490120614'
'0.207612456747','0.207612456747'
'0.242214532872','0.242214532872'
'0.36678200692','0.36678200692'
'0.335640138408','0.335640138408'
'0.685121107266','0.685121107266'
'0.359861591696','0.359861591696'
'0.259515570934','0.259515570934'
'0.429065743945','0.429065743945'
'0.612456747405','0.612456747405'
'0.629757785467','0.629757785467'
'0.377162629758','0.377162629758'
'0.228373702422','0.228373702422'
'0.117647058824','0.117647058824'
'0.280276816609','0.280276816609'
'0.162629757785','0.162629757785'
'0.176470588235','0.176470588235'
'0.18339100346','0.18339100346'
'0.0795847750865','0.0795847750865'
'0.0346020761246','0.0346020761246'
'0.200692041522','0.200692041522'
'0.107266435986','0.107266435986'
'0.0795847750865','0.0795847750865'
'0.162629757785','0.162629757785'
'0.117647058824','0.117647058824'
'0.121107266436','0.121107266436'
'0.23875432526','0.23875432526'
'0.588235294118','0.588235294118'
'0.743944636678','0.743944636678'
'0.411764705882','0.411764705882'
'0.377162629758','0.377162629758'
'0.325259515571','0.325259515571'
'0.287197231834','0.287197231834'
'0.134948096886','0.134948096886'
'0.21107266436','0.21107266436'
'0.21107266436','0.21107266436'
'0.0968858131488','0.0968858131488'
'0.117647058824','0.117647058824'
'0.103806228374','0.103806228374'
'0.134948096886','0.134948096886'
'0.152249134948','0.152249134948'
'0.152249134948','0.152249134948'
'0.173010380623','0.173010380623'
'0.141868512111','0.141868512111'
'0.114186851211','0.114186851211'
'0.134948096886','0.134948096886'
'0.176470588235','0.176470588235'
'0.114186851211','0.114186851211'
'0.0899653979239','0.0899653979239'
'0.0726643598616','0.0726643598616'
'0.314878892734','0.314878892734'
'0.321799307958','0.321799307958'
'0.446366782007','0.446366782007'
'0.546712802768','0.546712802768'
'0.418685121107','0.418685121107'
'0.415224913495','0.415224913495'
'0.532871972318','0.532871972318'
'0.508650519031','0.508650519031'
'0.19723183391','0.19723183391'
'0.159169550173','0.159169550173'
'0.0726643598616','0.0726643598616'
'0.103806228374','0.103806228374'
'0.128027681661','0.128027681661'
'0.134948096886','0.134948096886'
'0.100346020761','0.100346020761'
'0.16955017301','0.16955017301'
'0.134948096886','0.134948096886'
'0.0692041522491','0.0692041522491'
'0.0588235294118','0.0588235294118'
'0.242214532872','0.242214532872'
'0.0795847750865','0.0795847750865'
'0.0795847750865','0.0795847750865'
'0.0934256055363','0.0934256055363'
'0.186851211073','0.186851211073'
'0.190311418685','0.190311418685'
'0.193771626298','0.193771626298'
'0.356401384083','0.356401384083'
'0.342560553633','0.342560553633'
'0.207612456747','0.207612456747'
'0.256055363322','0.256055363322'
'0.356401384083','0.356401384083'
'0.321799307958','0.321799307958'
'0.16955017301','0.16955017301'
'0.297577854671','0.297577854671'
'0.245674740484','0.245674740484'
'0.0692041522491','0.0692041522491'
'NA','0.103409291484'
'0.0346020761246','0.0346020761246'
'0.0242214532872','0.0242214532872'
'0.0138408304498','0.0138408304498'
'0.0484429065744','0.0484429065744'
'0.0173010380623','0.0173010380623'
'0.0692041522491','0.0692041522491'
'0.0311418685121','0.0311418685121'
'0.0415224913495','0.0415224913495'
'0.103806228374','0.103806228374'
'0.0899653979239','0.0899653979239'
'0.103806228374','0.103806228374'
'0.155709342561','0.155709342561'
'0.207612456747','0.207612456747'
'0.21107266436','0.21107266436'
'0.214532871972','0.214532871972'
'0.190311418685','0.190311418685'
'0.200692041522','0.200692041522'
'0.262975778547','0.262975778547'
'0.301038062284','0.301038062284'
'0.262975778547','0.262975778547'
'0.173010380623','0.173010380623'
'0.19723183391','0.19723183391'
'0.103806228374','0.103806228374'
'0.100346020761','0.100346020761'
'0.134948096886','0.134948096886'
'0.0726643598616','0.0726643598616'
'0.110726643599','0.110726643599'
'0.0346020761246','0.0346020761246'
'0.103806228374','0.103806228374'
'0.0311418685121','0.0311418685121'
'0.0553633217993','0.0553633217993'
'0.100346020761','0.100346020761'
'0.179930795848','0.179930795848'
'0.16955017301','0.16955017301'
'0.176470588235','0.176470588235'
'0.16955017301','0.16955017301'
'0.283737024221','0.283737024221'
'0.266435986159','0.266435986159'
'0.245674740484','0.245674740484'
'0.190311418685','0.190311418685'
'0.19723183391','0.19723183391'
'0.377162629758','0.377162629758'
'0.42214532872','0.42214532872'
'0.384083044983','0.384083044983'
'0.276816608997','0.276816608997'
'0.145328719723','0.145328719723'
'0.114186851211','0.114186851211'
'0.114186851211','0.114186851211'
'0.190311418685','0.190311418685'
'0.131487889273','0.131487889273'
'0.083044982699','0.083044982699'
'0.117647058824','0.117647058824'
'0.110726643599','0.110726643599'
'0.0588235294118','0.0588235294118'
'0.0242214532872','0.0242214532872'
'0.0899653979239','0.0899653979239'
'0.121107266436','0.121107266436'
'0.134948096886','0.134948096886'
'0.159169550173','0.159169550173'
'0.179930795848','0.179930795848'
'0.200692041522','0.200692041522'
'0.204152249135','0.204152249135'
'0.23875432526','0.23875432526'
'0.235294117647','0.235294117647'
'0.397923875433','0.397923875433'
'0.397923875433','0.397923875433'
'0.162629757785','0.162629757785'
'0.16955017301','0.16955017301'
'0.283737024221','0.283737024221'
'0.477508650519','0.477508650519'
'0.304498269896','0.304498269896'
'0.190311418685','0.190311418685'
'0.19723183391','0.19723183391'
'0.159169550173','0.159169550173'
'0.176470588235','0.176470588235'
'0.159169550173','0.159169550173'
'0.176470588235','0.176470588235'
'0.103806228374','0.103806228374'
'0.145328719723','0.145328719723'
'0.121107266436','0.121107266436'
'0.131487889273','0.131487889273'
'0.179930795848','0.179930795848'
'0.16955017301','0.16955017301'
'0.204152249135','0.204152249135'
'0.173010380623','0.173010380623'
'0.21107266436','0.21107266436'
'0.19723183391','0.19723183391'
'0.145328719723','0.145328719723'
'0.148788927336','0.148788927336'
'0.242214532872','0.242214532872'
'0.522491349481','0.522491349481'
'0.484429065744','0.484429065744'
'0.494809688581','0.494809688581'
'0.332179930796','0.332179930796'
'0.307958477509','0.307958477509'
'0.162629757785','0.162629757785'
'0.304498269896','0.304498269896'
'0.325259515571','0.325259515571'
'0.16955017301','0.16955017301'
'0.128027681661','0.128027681661'
'0.0692041522491','0.0692041522491'
'0.0899653979239','0.0899653979239'
'0.128027681661','0.128027681661'
'0.100346020761','0.100346020761'
'0.148788927336','0.148788927336'
'0.134948096886','0.134948096886'
'0.176470588235','0.176470588235'
'0.242214532872','0.242214532872'
'0.221453287197','0.221453287197'
'0.148788927336','0.148788927336'
'0.231833910035','0.231833910035'
'0.42214532872','0.42214532872'
'0.539792387543','0.539792387543'
'0.76124567474','0.76124567474'
'0.588235294118','0.588235294118'
'0.643598615917','0.643598615917'
'0.474048442907','0.474048442907'
'0.228373702422','0.228373702422'
'0.148788927336','0.148788927336'
'0.228373702422','0.228373702422'
'0.16955017301','0.16955017301'
'0.16955017301','0.16955017301'
'0.148788927336','0.148788927336'
'0.0622837370242','0.0622837370242'
'0.124567474048','0.124567474048'
'0.114186851211','0.114186851211'
'0.0519031141869','0.0519031141869'
'0.0692041522491','0.0692041522491'
'0.141868512111','0.141868512111'
'0.159169550173','0.159169550173'
'0.159169550173','0.159169550173'
'0.176470588235','0.176470588235'
'0.245674740484','0.245674740484'
'0.602076124567','0.602076124567'
'0.806228373702','0.806228373702'
'0.60553633218','0.60553633218'
'0.643598615917','0.643598615917'
'0.519031141869','0.519031141869'
'0.439446366782','0.439446366782'
'0.321799307958','0.321799307958'
'0.121107266436','0.121107266436'
'0.273356401384','0.273356401384'
'0.166089965398','0.166089965398'
'0.0484429065744','0.0484429065744'
'0.0415224913495','0.0415224913495'
'0.134948096886','0.134948096886'
'0.0865051903114','0.0865051903114'
'0.141868512111','0.141868512111'
'0.103806228374','0.103806228374'
'0.076124567474','0.076124567474'
'0.124567474048','0.124567474048'
'0.342560553633','0.342560553633'
'0.266435986159','0.266435986159'
'0.252595155709','0.252595155709'
'0.242214532872','0.242214532872'
'0.134948096886','0.134948096886'
'0.186851211073','0.186851211073'
'0.148788927336','0.148788927336'
'0.131487889273','0.131487889273'
'0.477508650519','0.477508650519'
'1.0','1.0'
'0.539792387543','0.539792387543'
'0.373702422145','0.373702422145'
'0.076124567474','0.076124567474'
'0.103806228374','0.103806228374'
'0.100346020761','0.100346020761'
'0.18339100346','0.18339100346'
'0.134948096886','0.134948096886'
'0.0276816608997','0.0276816608997'
'0.100346020761','0.100346020761'
'0.186851211073','0.186851211073'
'0.121107266436','0.121107266436'
'0.16955017301','0.16955017301'
'0.131487889273','0.131487889273'
'0.103806228374','0.103806228374'
'0.103806228374','0.103806228374'
'0.155709342561','0.155709342561'
'0.186851211073','0.186851211073'
'0.138408304498','0.138408304498'
'0.16955017301','0.16955017301'
'0.121107266436','0.121107266436'
'0.166089965398','0.166089965398'
'0.349480968858','0.349480968858'
'0.152249134948','0.152249134948'
'0.387543252595','0.387543252595'
'0.318339100346','0.318339100346'
'0.370242214533','0.370242214533'
'0.21107266436','0.21107266436'
'0.335640138408','0.335640138408'
'0.231833910035','0.231833910035'
'0.159169550173','0.159169550173'
'0.269896193772','0.269896193772'
'0.0657439446367','0.0657439446367'
'0.0','0.0'
'0.00692041522491','0.00692041522491'
'0.0103806228374','0.0103806228374'
'0.0138408304498','0.0138408304498'
'0.00692041522491','0.00692041522491'
'0.038062283737','0.038062283737'
'0.0553633217993','0.0553633217993'
'0.0795847750865','0.0795847750865'
'0.0692041522491','0.0692041522491'
'0.110726643599','0.110726643599'
'0.103806228374','0.103806228374'
'0.404844290657','0.404844290657'
'0.453287197232','0.453287197232'
'0.43598615917','0.43598615917'
'0.474048442907','0.474048442907'
'0.539792387543','0.539792387543'
'0.467128027682','0.467128027682'
'0.581314878893','0.581314878893'
'0.477508650519','0.477508650519'
'0.193771626298','0.193771626298'
'0.114186851211','0.114186851211'
'0.16955017301','0.16955017301'
'0.266435986159','0.266435986159'
'0.200692041522','0.200692041522'
'0.0276816608997','0.0276816608997'
'0.173010380623','0.173010380623'
'0.0795847750865','0.0795847750865'
'0.110726643599','0.110726643599'
'0.0934256055363','0.0934256055363'
'0.349480968858','0.349480968858'
'0.083044982699','0.083044982699'
'0.0934256055363','0.0934256055363'
'0.103806228374','0.103806228374'
'0.231833910035','0.231833910035'
'0.42214532872','0.42214532872'
'0.363321799308','0.363321799308'
'0.145328719723','0.145328719723'
'0.339100346021','0.339100346021'
'0.200692041522','0.200692041522'
'0.166089965398','0.166089965398'
'0.0553633217993','0.0553633217993'
'0.480968858131','0.480968858131'
'0.214532871972','0.214532871972'
'0.186851211073','0.186851211073'
'0.166089965398','0.166089965398'
'0.0899653979239','0.0899653979239'
'0.166089965398','0.166089965398'
'0.124567474048','0.124567474048'
'0.0484429065744','0.0484429065744'
'0.0449826989619','0.0449826989619'
'0.0553633217993','0.0553633217993'
'0.0726643598616','0.0726643598616'
'0.0242214532872','0.0242214532872'
'0.0622837370242','0.0622837370242'
'0.038062283737','0.038062283737'
'0.0726643598616','0.0726643598616'
'NA','0.108870572196'
'0.200692041522','0.200692041522'
'0.16955017301','0.16955017301'
'0.321799307958','0.321799307958'
'0.276816608997','0.276816608997'
'0.228373702422','0.228373702422'
'0.553633217993','0.553633217993'
'0.328719723183','0.328719723183'
'0.470588235294','0.470588235294'
'0.21107266436','0.21107266436'
'0.311418685121','0.311418685121'
'0.387543252595','0.387543252595'
'0.401384083045','0.401384083045'
'0.290657439446','0.290657439446'
'0.0934256055363','0.0934256055363'
'0.166089965398','0.166089965398'
'0.0865051903114','0.0865051903114'
'0.076124567474','0.076124567474'
'0.103806228374','0.103806228374'
'0.0692041522491','0.0692041522491'
'0.110726643599','0.110726643599'
'0.0449826989619','0.0449826989619'
'0.0588235294118','0.0588235294118'
'0.138408304498','0.138408304498'
'0.179930795848','0.179930795848'
'0.384083044983','0.384083044983'
'0.411764705882','0.411764705882'
'0.477508650519','0.477508650519'
'0.36678200692','0.36678200692'
'0.391003460208','0.391003460208'
'0.650519031142','0.650519031142'
'0.363321799308','0.363321799308'
'0.290657439446','0.290657439446'
'0.332179930796','0.332179930796'
'0.415224913495','0.415224913495'
'0.16955017301','0.16955017301'
'0.307958477509','0.307958477509'
'0.186851211073','0.186851211073'
'0.0934256055363','0.0934256055363'
'0.0553633217993','0.0553633217993'
'0.0692041522491','0.0692041522491'
'0.0795847750865','0.0795847750865'
'0.0553633217993','0.0553633217993'
'0.0242214532872','0.0242214532872'
'0.0311418685121','0.0311418685121'
'0.0726643598616','0.0726643598616'
'0.148788927336','0.148788927336'
'0.148788927336','0.148788927336'
'0.159169550173','0.159169550173'
'0.179930795848','0.179930795848'
'0.159169550173','0.159169550173'
'0.18339100346','0.18339100346'
'0.117647058824','0.117647058824'
'0.124567474048','0.124567474048'
'0.186851211073','0.186851211073'
'0.269896193772','0.269896193772'
'0.16955017301','0.16955017301'
'0.439446366782','0.439446366782'
'0.501730103806','0.501730103806'
'0.38062283737','0.38062283737'
'0.134948096886','0.134948096886'
'0.117647058824','0.117647058824'
'0.0588235294118','0.0588235294118'
'0.0519031141869','0.0519031141869'
'0.0622837370242','0.0622837370242'
'0.0242214532872','0.0242214532872'
'0.0346020761246','0.0346020761246'
'0.0276816608997','0.0276816608997'
'0.0588235294118','0.0588235294118'
'0.0622837370242','0.0622837370242'
'0.0865051903114','0.0865051903114'
'0.166089965398','0.166089965398'
'0.148788927336','0.148788927336'
'0.134948096886','0.134948096886'
'0.193771626298','0.193771626298'
'0.259515570934','0.259515570934'
'0.297577854671','0.297577854671'
'0.276816608997','0.276816608997'
'0.280276816609','0.280276816609'
'0.231833910035','0.231833910035'
'0.304498269896','0.304498269896'
'0.332179930796','0.332179930796'
'0.228373702422','0.228373702422'
'0.193771626298','0.193771626298'
'0.190311418685','0.190311418685'
'0.141868512111','0.141868512111'
'0.114186851211','0.114186851211'
'0.110726643599','0.110726643599'
'0.145328719723','0.145328719723'
'0.0795847750865','0.0795847750865'
'0.0657439446367','0.0657439446367'
'0.128027681661','0.128027681661'
'0.110726643599','0.110726643599'
'0.0622837370242','0.0622837370242'
'0.124567474048','0.124567474048'
'0.103806228374','0.103806228374'
'0.179930795848','0.179930795848'
'0.186851211073','0.186851211073'
'0.166089965398','0.166089965398'
'0.190311418685','0.190311418685'
'0.19723183391','0.19723183391'
'0.128027681661','0.128027681661'
'0.328719723183','0.328719723183'
'0.61937716263','0.61937716263'
'0.377162629758','0.377162629758'
'0.249134948097','0.249134948097'
'0.294117647059','0.294117647059'
'0.23875432526','0.23875432526'
'0.148788927336','0.148788927336'
'0.0622837370242','0.0622837370242'
'0.0276816608997','0.0276816608997'
'0.0726643598616','0.0726643598616'
'0.114186851211','0.114186851211'
'0.134948096886','0.134948096886'
'0.0968858131488','0.0968858131488'
'0.0657439446367','0.0657439446367'
'0.0865051903114','0.0865051903114'
'0.0968858131488','0.0968858131488'
'0.0726643598616','0.0726643598616'
'0.128027681661','0.128027681661'
'0.207612456747','0.207612456747'
'0.193771626298','0.193771626298'
'0.159169550173','0.159169550173'
'0.19723183391','0.19723183391'
'0.148788927336','0.148788927336'
'0.0934256055363','0.0934256055363'
'0.0346020761246','0.0346020761246'
'0.307958477509','0.307958477509'
'0.301038062284','0.301038062284'
'0.221453287197','0.221453287197'
'0.217993079585','0.217993079585'
'0.124567474048','0.124567474048'
'0.18339100346','0.18339100346'
'0.217993079585','0.217993079585'
'0.0865051903114','0.0865051903114'
'0.076124567474','0.076124567474'
'0.0692041522491','0.0692041522491'
'0.134948096886','0.134948096886'
'0.117647058824','0.117647058824'
'0.131487889273','0.131487889273'
'0.0795847750865','0.0795847750865'
'0.166089965398','0.166089965398'
'0.141868512111','0.141868512111'
'0.179930795848','0.179930795848'
'0.0934256055363','0.0934256055363'
'0.159169550173','0.159169550173'
'0.148788927336','0.148788927336'
'0.214532871972','0.214532871972'
'0.231833910035','0.231833910035'
'0.18339100346','0.18339100346'
'0.103806228374','0.103806228374'
'0.124567474048','0.124567474048'
'0.19723183391','0.19723183391'
'0.266435986159','0.266435986159'
'0.297577854671','0.297577854671'
'0.18339100346','0.18339100346'
'0.141868512111','0.141868512111'
'0.128027681661','0.128027681661'
'0.124567474048','0.124567474048'
'0.0692041522491','0.0692041522491'
'0.0138408304498','0.0138408304498'
'0.0311418685121','0.0311418685121'
'0.0207612456747','0.0207612456747'
'0.0588235294118','0.0588235294118'
'0.0553633217993','0.0553633217993'
'0.0276816608997','0.0276816608997'
'0.0899653979239','0.0899653979239'
'0.138408304498','0.138408304498'
'0.186851211073','0.186851211073'
'0.179930795848','0.179930795848'
'0.16955017301','0.16955017301'
'0.173010380623','0.173010380623'
'0.155709342561','0.155709342561'
'0.297577854671','0.297577854671'
'0.262975778547','0.262975778547'
'0.439446366782','0.439446366782'
'0.432525951557','0.432525951557'
'0.342560553633','0.342560553633'
'0.508650519031','0.508650519031'
'0.311418685121','0.311418685121'
'0.190311418685','0.190311418685'
'0.100346020761','0.100346020761'
'0.0795847750865','0.0795847750865'
'0.0622837370242','0.0622837370242'
'0.0242214532872','0.0242214532872'
'0.0588235294118','0.0588235294118'
'0.0622837370242','0.0622837370242'
'0.0657439446367','0.0657439446367'
'0.0934256055363','0.0934256055363'
'0.0415224913495','0.0415224913495'
'0.0622837370242','0.0622837370242'
'0.0726643598616','0.0726643598616'
'0.0657439446367','0.0657439446367'
'0.207612456747','0.207612456747'
'NA','0.240982499757'
'0.515570934256','0.515570934256'
'0.595155709343','0.595155709343'
'0.615916955017','0.615916955017'
'0.487889273356','0.487889273356'
'0.36678200692','0.36678200692'
'0.304498269896','0.304498269896'
'0.190311418685','0.190311418685'
'0.0934256055363','0.0934256055363'
'0.0899653979239','0.0899653979239'
'0.0865051903114','0.0865051903114'
'0.0588235294118','0.0588235294118'
'0.0692041522491','0.0692041522491'
'0.038062283737','0.038062283737'
'0.0415224913495','0.0415224913495'
'0.0553633217993','0.0553633217993'
'0.0138408304498','0.0138408304498'
'0.00692041522491','0.00692041522491'
'0.0484429065744','0.0484429065744'
'0.0311418685121','0.0311418685121'
'0.0692041522491','0.0692041522491'
'0.131487889273','0.131487889273'
'0.121107266436','0.121107266436'
'0.100346020761','0.100346020761'
'0.217993079585','0.217993079585'
'0.650519031142','0.650519031142'
'0.60553633218','0.60553633218'
'0.674740484429','0.674740484429'
'0.574394463668','0.574394463668'
'0.702422145329','0.702422145329'
'0.269896193772','0.269896193772'
'0.0865051903114','0.0865051903114'
'0.0415224913495','0.0415224913495'
'0.190311418685','0.190311418685'
'0.114186851211','0.114186851211'
'0.103806228374','0.103806228374'
'0.0173010380623','0.0173010380623'
'NA','0.0549731738946'
'0.0588235294118','0.0588235294118'
'0.0968858131488','0.0968858131488'
'NA','0.156754528729'
'NA','0.194716399641'
'NA','0.156556668701'
'NA','0.204437151377'
'NA','0.248326770125'
'0.117647058824','0.117647058824'
'NA','0.164912575285'
'0.570934256055','0.570934256055'
'0.643598615917','0.643598615917'
'0.57785467128','0.57785467128'
'0.626297577855','0.626297577855'
'0.653979238754','0.653979238754'
'0.529411764706','0.529411764706'
'0.453287197232','0.453287197232'
'0.404844290657','0.404844290657'
'0.19723183391','0.19723183391'
'0.155709342561','0.155709342561'
'0.0865051903114','0.0865051903114'
'0.0519031141869','0.0519031141869'
'0.121107266436','0.121107266436'
'0.0726643598616','0.0726643598616'
'0.0415224913495','0.0415224913495'
'0.0415224913495','0.0415224913495'
'0.0692041522491','0.0692041522491'
'0.0346020761246','0.0346020761246'
'0.0242214532872','0.0242214532872'
'0.0622837370242','0.0622837370242'
'0.0899653979239','0.0899653979239'
'0.0692041522491','0.0692041522491'
'0.107266435986','0.107266435986'
'0.124567474048','0.124567474048'
'0.134948096886','0.134948096886'
'0.152249134948','0.152249134948'
'0.22491349481','0.22491349481'
'0.287197231834','0.287197231834'
'0.387543252595','0.387543252595'
'0.321799307958','0.321799307958'
'0.674740484429','0.674740484429'
'0.377162629758','0.377162629758'
'0.221453287197','0.221453287197'
'0.16955017301','0.16955017301'
'0.0795847750865','0.0795847750865'
'0.0588235294118','0.0588235294118'
'0.124567474048','0.124567474048'
'0.16955017301','0.16955017301'
'0.124567474048','0.124567474048'
'0.148788927336','0.148788927336'
'0.134948096886','0.134948096886'
'0.110726643599','0.110726643599'
'0.107266435986','0.107266435986'
'0.121107266436','0.121107266436'
'0.0657439446367','0.0657439446367'
'0.0968858131488','0.0968858131488'
'0.0899653979239','0.0899653979239'
'0.235294117647','0.235294117647'
'0.152249134948','0.152249134948'
'0.162629757785','0.162629757785'
'0.121107266436','0.121107266436'
'0.138408304498','0.138408304498'
'0.141868512111','0.141868512111'
'0.204152249135','0.204152249135'
'0.429065743945','0.429065743945'
'0.401384083045','0.401384083045'
'0.235294117647','0.235294117647'
'0.325259515571','0.325259515571'
'0.162629757785','0.162629757785'
'0.249134948097','0.249134948097'
'0.266435986159','0.266435986159'
'0.121107266436','0.121107266436'
'0.148788927336','0.148788927336'
'0.0207612456747','0.0207612456747'
'0.0692041522491','0.0692041522491'
'0.134948096886','0.134948096886'
'0.0795847750865','0.0795847750865'
'0.0899653979239','0.0899653979239'
'0.0622837370242','0.0622837370242'
'0.0795847750865','0.0795847750865'
'0.124567474048','0.124567474048'
'0.159169550173','0.159169550173'
'0.159169550173','0.159169550173'
'0.214532871972','0.214532871972'
'0.266435986159','0.266435986159'
'0.363321799308','0.363321799308'
'0.557093425606','0.557093425606'
'0.536332179931','0.536332179931'
'0.262975778547','0.262975778547'
'0.0899653979239','0.0899653979239'
'0.117647058824','0.117647058824'
'0.204152249135','0.204152249135'
'0.159169550173','0.159169550173'
'0.179930795848','0.179930795848'
'0.0346020761246','0.0346020761246'
'0.0346020761246','0.0346020761246'
'0.128027681661','0.128027681661'
'0.0795847750865','0.0795847750865'
'0.0415224913495','0.0415224913495'
'0.0207612456747','0.0207612456747'
'0.0449826989619','0.0449826989619'
'0.0553633217993','0.0553633217993'
'0.128027681661','0.128027681661'
'0.083044982699','0.083044982699'
'0.103806228374','0.103806228374'
'0.107266435986','0.107266435986'
'0.103806228374','0.103806228374'
'0.114186851211','0.114186851211'
'0.159169550173','0.159169550173'
'0.200692041522','0.200692041522'
'0.415224913495','0.415224913495'
'0.16955017301','0.16955017301'
'0.0346020761246','0.0346020761246'
'0.456747404844','0.456747404844'
'0.325259515571','0.325259515571'
'0.242214532872','0.242214532872'
'0.166089965398','0.166089965398'
'0.0622837370242','0.0622837370242'
'0.0553633217993','0.0553633217993'
'0.0726643598616','0.0726643598616'
'0.0865051903114','0.0865051903114'
'0.0968858131488','0.0968858131488'
'0.0968858131488','0.0968858131488'
'0.0346020761246','0.0346020761246'
'0.0242214532872','0.0242214532872'
'0.00692041522491','0.00692041522491'
'0.00692041522491','0.00692041522491'
'0.0553633217993','0.0553633217993'
'0.0968858131488','0.0968858131488'
'0.179930795848','0.179930795848'
'0.204152249135','0.204152249135'
'0.193771626298','0.193771626298'
'0.259515570934','0.259515570934'
'0.401384083045','0.401384083045'
'0.401384083045','0.401384083045'
'0.36678200692','0.36678200692'
'0.266435986159','0.266435986159'
'0.325259515571','0.325259515571'
'0.245674740484','0.245674740484'
'0.384083044983','0.384083044983'
'0.173010380623','0.173010380623'
'0.22491349481','0.22491349481'
'0.269896193772','0.269896193772'
'0.179930795848','0.179930795848'
'0.318339100346','0.318339100346'
'0.121107266436','0.121107266436'
'0.145328719723','0.145328719723'
'0.159169550173','0.159169550173'
'0.103806228374','0.103806228374'
'0.0865051903114','0.0865051903114'
'0.0519031141869','0.0519031141869'
'0.083044982699','0.083044982699'
'0.0657439446367','0.0657439446367'
'0.159169550173','0.159169550173'
'0.21107266436','0.21107266436'
'0.166089965398','0.166089965398'
'0.207612456747','0.207612456747'
'0.273356401384','0.273356401384'
'0.141868512111','0.141868512111'
'0.145328719723','0.145328719723'
'0.179930795848','0.179930795848'
'0.249134948097','0.249134948097'
'0.155709342561','0.155709342561'
'0.166089965398','0.166089965398'
'0.19723183391','0.19723183391'
'0.173010380623','0.173010380623'
'0.179930795848','0.179930795848'
'0.134948096886','0.134948096886'
'0.214532871972','0.214532871972'
'0.235294117647','0.235294117647'
'0.21107266436','0.21107266436'
'0.155709342561','0.155709342561'
'0.16955017301','0.16955017301'
'0.121107266436','0.121107266436'
'0.110726643599','0.110726643599'
'0.173010380623','0.173010380623'
'0.117647058824','0.117647058824'
'0.128027681661','0.128027681661'
'0.124567474048','0.124567474048'
'0.155709342561','0.155709342561'
'0.301038062284','0.301038062284'
'0.179930795848','0.179930795848'
'0.297577854671','0.297577854671'
'0.287197231834','0.287197231834'
'0.256055363322','0.256055363322'
'0.335640138408','0.335640138408'
'0.162629757785','0.162629757785'
'0.148788927336','0.148788927336'
'0.038062283737','0.038062283737'
'0.100346020761','0.100346020761'
'0.121107266436','0.121107266436'
'0.0657439446367','0.0657439446367'
'0.038062283737','0.038062283737'
'0.0415224913495','0.0415224913495'
'0.0207612456747','0.0207612456747'
'0.0519031141869','0.0519031141869'
'0.0795847750865','0.0795847750865'
'0.0899653979239','0.0899653979239'
'0.0519031141869','0.0519031141869'
'0.038062283737','0.038062283737'
'0.0899653979239','0.0899653979239'
'0.0692041522491','0.0692041522491'
'0.0968858131488','0.0968858131488'
'0.141868512111','0.141868512111'
'0.42214532872','0.42214532872'
'0.186851211073','0.186851211073'
'0.200692041522','0.200692041522'
'0.110726643599','0.110726643599'
'0.152249134948','0.152249134948'
'0.16955017301','0.16955017301'
'0.117647058824','0.117647058824'
'0.128027681661','0.128027681661'
'0.128027681661','0.128027681661'
'0.162629757785','0.162629757785'
'0.100346020761','0.100346020761'
'0.0311418685121','0.0311418685121'
'0.0865051903114','0.0865051903114'
'0.110726643599','0.110726643599'
'0.134948096886','0.134948096886'
'0.179930795848','0.179930795848'
'0.145328719723','0.145328719723'
'0.162629757785','0.162629757785'
'0.128027681661','0.128027681661'
'0.117647058824','0.117647058824'
'0.131487889273','0.131487889273'
'0.128027681661','0.128027681661'
'0.148788927336','0.148788927336'
'0.335640138408','0.335640138408'
'0.162629757785','0.162629757785'
'0.301038062284','0.301038062284'
'0.339100346021','0.339100346021'
'0.418685121107','0.418685121107'
'0.325259515571','0.325259515571'
'0.363321799308','0.363321799308'
'0.262975778547','0.262975778547'
'0.245674740484','0.245674740484'
'0.0865051903114','0.0865051903114'
'0.0657439446367','0.0657439446367'
'0.124567474048','0.124567474048'
'0.176470588235','0.176470588235'
'0.179930795848','0.179930795848'
'0.145328719723','0.145328719723'
'0.0519031141869','0.0519031141869'
'0.0657439446367','0.0657439446367'
'0.0553633217993','0.0553633217993'
'0.152249134948','0.152249134948'
'0.287197231834','0.287197231834'
'0.0795847750865','0.0795847750865'
'0.117647058824','0.117647058824'
'0.131487889273','0.131487889273'
'0.166089965398','0.166089965398'
'0.207612456747','0.207612456747'
'0.179930795848','0.179930795848'
'0.231833910035','0.231833910035'
'0.176470588235','0.176470588235'
'0.442906574394','0.442906574394'
'0.36678200692','0.36678200692'
'0.404844290657','0.404844290657'
'0.204152249135','0.204152249135'
'0.110726643599','0.110726643599'
'0.0899653979239','0.0899653979239'
'0.0865051903114','0.0865051903114'
'0.207612456747','0.207612456747'
'0.256055363322','0.256055363322'
'0.166089965398','0.166089965398'
'0.231833910035','0.231833910035'
'0.204152249135','0.204152249135'
'0.18339100346','0.18339100346'
'0.0968858131488','0.0968858131488'
'0.19723183391','0.19723183391'
'0.138408304498','0.138408304498'
'0.152249134948','0.152249134948'
'0.141868512111','0.141868512111'
'0.124567474048','0.124567474048'
'0.0934256055363','0.0934256055363'
'0.256055363322','0.256055363322'
'0.179930795848','0.179930795848'
'0.214532871972','0.214532871972'
'0.432525951557','0.432525951557'
'0.453287197232','0.453287197232'
'0.484429065744','0.484429065744'
'0.266435986159','0.266435986159'
'0.16955017301','0.16955017301'
'0.110726643599','0.110726643599'
'0.217993079585','0.217993079585'
'0.21107266436','0.21107266436'
'0.179930795848','0.179930795848'
'0.249134948097','0.249134948097'
'0.107266435986','0.107266435986'
'0.100346020761','0.100346020761'
'0.214532871972','0.214532871972'
'0.114186851211','0.114186851211'
'0.114186851211','0.114186851211'
'0.0865051903114','0.0865051903114'
'0.103806228374','0.103806228374'
'0.0968858131488','0.0968858131488'
'0.124567474048','0.124567474048'
'0.103806228374','0.103806228374'
'0.166089965398','0.166089965398'
'0.128027681661','0.128027681661'
'0.23875432526','0.23875432526'
'0.283737024221','0.283737024221'
'0.304498269896','0.304498269896'
'0.384083044983','0.384083044983'
'0.328719723183','0.328719723183'
'0.321799307958','0.321799307958'
'0.318339100346','0.318339100346'
'0.190311418685','0.190311418685'
'0.342560553633','0.342560553633'
'0.311418685121','0.311418685121'
'0.397923875433','0.397923875433'
'0.276816608997','0.276816608997'
'0.103806228374','0.103806228374'
'0.121107266436','0.121107266436'
'0.121107266436','0.121107266436'
'0.145328719723','0.145328719723'
'0.141868512111','0.141868512111'
'0.0795847750865','0.0795847750865'
'0.0692041522491','0.0692041522491'
'0.0622837370242','0.0622837370242'
'0.083044982699','0.083044982699'
'0.173010380623','0.173010380623'
'0.221453287197','0.221453287197'
'0.204152249135','0.204152249135'
'0.415224913495','0.415224913495'
'0.501730103806','0.501730103806'
'0.280276816609','0.280276816609'
'0.145328719723','0.145328719723'
'0.18339100346','0.18339100346'
'0.311418685121','0.311418685121'
'0.349480968858','0.349480968858'
'0.39446366782','0.39446366782'
'0.269896193772','0.269896193772'
'0.314878892734','0.314878892734'
'0.252595155709','0.252595155709'
'0.159169550173','0.159169550173'
'0.235294117647','0.235294117647'
'0.346020761246','0.346020761246'
'0.290657439446','0.290657439446'
'0.349480968858','0.349480968858'
'0.235294117647','0.235294117647'
'0.231833910035','0.231833910035'
'0.110726643599','0.110726643599'
'0.114186851211','0.114186851211'
'0.290657439446','0.290657439446'
'0.339100346021','0.339100346021'
'0.242214532872','0.242214532872'
'0.391003460208','0.391003460208'
'0.40830449827','0.40830449827'
'0.155709342561','0.155709342561'
'0.0276816608997','0.0276816608997'
'0.0588235294118','0.0588235294118'
'0.0242214532872','0.0242214532872'
'0.134948096886','0.134948096886'
'0.152249134948','0.152249134948'
'0.103806228374','0.103806228374'
'NA','0.0955466940298'
'0.231833910035','0.231833910035'
'0.186851211073','0.186851211073'
'0.134948096886','0.134948096886'
'0.141868512111','0.141868512111'
'0.0657439446367','0.0657439446367'
'0.0311418685121','0.0311418685121'
'0.0449826989619','0.0449826989619'
'0.0449826989619','0.0449826989619'
'0.121107266436','0.121107266436'
'0.0934256055363','0.0934256055363'
'0.083044982699','0.083044982699'
'0.121107266436','0.121107266436'
'0.179930795848','0.179930795848'
'NA','0.216960714198'
'0.276816608997','0.276816608997'
'0.221453287197','0.221453287197'
'0.138408304498','0.138408304498'
'0.0622837370242','0.0622837370242'
'0.294117647059','0.294117647059'
'0.276816608997','0.276816608997'
'0.190311418685','0.190311418685'
'0.134948096886','0.134948096886'
'0.176470588235','0.176470588235'
'0.0622837370242','0.0622837370242'
'0.0865051903114','0.0865051903114'
'0.0726643598616','0.0726643598616'
'0.0311418685121','0.0311418685121'
'0.0484429065744','0.0484429065744'
'0.0173010380623','0.0173010380623'
'0.0449826989619','0.0449826989619'
'0.0899653979239','0.0899653979239'
'0.0588235294118','0.0588235294118'
'0.083044982699','0.083044982699'
'0.117647058824','0.117647058824'
'0.200692041522','0.200692041522'
'NA','0.231195641501'
'0.242214532872','0.242214532872'
'0.269896193772','0.269896193772'
'0.294117647059','0.294117647059'
'0.307958477509','0.307958477509'
'0.36678200692','0.36678200692'
'0.356401384083','0.356401384083'
'0.328719723183','0.328719723183'
'0.359861591696','0.359861591696'
'0.103806228374','0.103806228374'
'0.0519031141869','0.0519031141869'
'0.0484429065744','0.0484429065744'
'0.0553633217993','0.0553633217993'
'0.076124567474','0.076124567474'
'0.0795847750865','0.0795847750865'
'0.103806228374','0.103806228374'
'0.076124567474','0.076124567474'
'0.103806228374','0.103806228374'
'0.114186851211','0.114186851211'
'0.103806228374','0.103806228374'
'0.141868512111','0.141868512111'
'0.124567474048','0.124567474048'
'0.0449826989619','0.0449826989619'
'0.076124567474','0.076124567474'
'0.107266435986','0.107266435986'
'0.117647058824','0.117647058824'
'0.117647058824','0.117647058824'
'0.40830449827','0.40830449827'
'0.359861591696','0.359861591696'
'0.588235294118','0.588235294118'
'0.301038062284','0.301038062284'
'0.39446366782','0.39446366782'
'0.373702422145','0.373702422145'
'0.411764705882','0.411764705882'
'0.297577854671','0.297577854671'
'0.276816608997','0.276816608997'
'0.193771626298','0.193771626298'
'0.176470588235','0.176470588235'
'0.0553633217993','0.0553633217993'
'0.0726643598616','0.0726643598616'
'0.0657439446367','0.0657439446367'
'0.0311418685121','0.0311418685121'
'0.0207612456747','0.0207612456747'
'0.0519031141869','0.0519031141869'
'0.114186851211','0.114186851211'
'0.0726643598616','0.0726643598616'
'0.103806228374','0.103806228374'
'0.166089965398','0.166089965398'
'0.155709342561','0.155709342561'
'0.18339100346','0.18339100346'
'0.311418685121','0.311418685121'
'0.59169550173','0.59169550173'
'0.501730103806','0.501730103806'
'0.640138408304','0.640138408304'
'0.418685121107','0.418685121107'
'0.214532871972','0.214532871972'
'0.16955017301','0.16955017301'
'0.0657439446367','0.0657439446367'
'0.0311418685121','0.0311418685121'
'0.0622837370242','0.0622837370242'
'0.0519031141869','0.0519031141869'
'0.0276816608997','0.0276816608997'
'0.038062283737','0.038062283737'
'0.0242214532872','0.0242214532872'
'0.0449826989619','0.0449826989619'
'0.0553633217993','0.0553633217993'
'0.0276816608997','0.0276816608997'
'0.00692041522491','0.00692041522491'
'0.0484429065744','0.0484429065744'
'0.0519031141869','0.0519031141869'
'0.0276816608997','0.0276816608997'
'0.0726643598616','0.0726643598616'
'NA','0.108975498653'
'0.141868512111','0.141868512111'
'0.145328719723','0.145328719723'
'0.152249134948','0.152249134948'
'NA','0.199406696745'
'NA','0.234590485946'
'NA','0.254868447076'
'NA','0.26673642105'
'NA','0.281478998998'
'NA','0.29526831696'
'NA','0.272284388275'
'NA','0.247202083736'
'NA','0.225920588808'
'NA','0.209619170403'
'0.117647058824','0.117647058824'
'0.152249134948','0.152249134948'
'0.0415224913495','0.0415224913495'
'0.0415224913495','0.0415224913495'
'0.117647058824','0.117647058824'
'0.083044982699','0.083044982699'
'0.083044982699','0.083044982699'
'0.152249134948','0.152249134948'
'0.0899653979239','0.0899653979239'
'0.0692041522491','0.0692041522491'
'0.176470588235','0.176470588235'
'0.200692041522','0.200692041522'
'0.162629757785','0.162629757785'
'0.155709342561','0.155709342561'
'0.166089965398','0.166089965398'
'0.190311418685','0.190311418685'
'0.22491349481','0.22491349481'
'0.242214532872','0.242214532872'
'0.228373702422','0.228373702422'
'0.162629757785','0.162629757785'
'0.287197231834','0.287197231834'
'0.38062283737','0.38062283737'
'0.283737024221','0.283737024221'
'0.311418685121','0.311418685121'
'0.290657439446','0.290657439446'
'0.152249134948','0.152249134948'
'0.107266435986','0.107266435986'
'0.0622837370242','0.0622837370242'
'0.038062283737','0.038062283737'
'0.0934256055363','0.0934256055363'
'0.076124567474','0.076124567474'
'0.117647058824','0.117647058824'
'0.0726643598616','0.0726643598616'
'0.121107266436','0.121107266436'
'0.083044982699','0.083044982699'
'0.103806228374','0.103806228374'
'0.138408304498','0.138408304498'
'0.190311418685','0.190311418685'
'0.193771626298','0.193771626298'
'0.290657439446','0.290657439446'
'0.363321799308','0.363321799308'
'0.36678200692','0.36678200692'
'0.38062283737','0.38062283737'
'0.363321799308','0.363321799308'
'0.193771626298','0.193771626298'
'0.283737024221','0.283737024221'
'0.290657439446','0.290657439446'
'0.231833910035','0.231833910035'
'0.114186851211','0.114186851211'
'0.128027681661','0.128027681661'
'0.128027681661','0.128027681661'
'0.0657439446367','0.0657439446367'
'0.124567474048','0.124567474048'
'0.0484429065744','0.0484429065744'
'0.0207612456747','0.0207612456747'
'0.0311418685121','0.0311418685121'
'0.0692041522491','0.0692041522491'
'0.100346020761','0.100346020761'
'0.173010380623','0.173010380623'
'0.131487889273','0.131487889273'
'0.18339100346','0.18339100346'
'0.217993079585','0.217993079585'
'0.214532871972','0.214532871972'
'0.214532871972','0.214532871972'
'0.352941176471','0.352941176471'
'0.16955017301','0.16955017301'
'0.190311418685','0.190311418685'
'0.217993079585','0.217993079585'
'0.242214532872','0.242214532872'
'0.19723183391','0.19723183391'
'0.145328719723','0.145328719723'
'0.131487889273','0.131487889273'
'0.0865051903114','0.0865051903114'
'0.0553633217993','0.0553633217993'
'0.038062283737','0.038062283737'
'0.0657439446367','0.0657439446367'
'0.0588235294118','0.0588235294118'
'0.0726643598616','0.0726643598616'
'0.100346020761','0.100346020761'
'0.0899653979239','0.0899653979239'
'0.107266435986','0.107266435986'
'0.155709342561','0.155709342561'
'0.100346020761','0.100346020761'
'0.128027681661','0.128027681661'
'0.0968858131488','0.0968858131488'
'0.110726643599','0.110726643599'
'0.0968858131488','0.0968858131488'
'0.134948096886','0.134948096886'
'0.200692041522','0.200692041522'
'0.297577854671','0.297577854671'
'0.0968858131488','0.0968858131488'
'0.0519031141869','0.0519031141869'
'0.0553633217993','0.0553633217993'
'0.0449826989619','0.0449826989619'
'0.0449826989619','0.0449826989619'
'0.0899653979239','0.0899653979239'
'0.0173010380623','0.0173010380623'
'0.0346020761246','0.0346020761246'
'0.0588235294118','0.0588235294118'
'0.0311418685121','0.0311418685121'
'0.0415224913495','0.0415224913495'
'0.0657439446367','0.0657439446367'
'0.0622837370242','0.0622837370242'
'0.0726643598616','0.0726643598616'
'0.0622837370242','0.0622837370242'
'0.117647058824','0.117647058824'
'0.152249134948','0.152249134948'
'0.23875432526','0.23875432526'
'0.231833910035','0.231833910035'
'0.242214532872','0.242214532872'
'0.287197231834','0.287197231834'
'0.276816608997','0.276816608997'
'0.176470588235','0.176470588235'
'0.117647058824','0.117647058824'
'0.0415224913495','0.0415224913495'
'0.100346020761','0.100346020761'
'0.152249134948','0.152249134948'
'0.19723183391','0.19723183391'
'0.155709342561','0.155709342561'
'0.117647058824','0.117647058824'
'0.0484429065744','0.0484429065744'
'0.0519031141869','0.0519031141869'
'0.0865051903114','0.0865051903114'
'0.0692041522491','0.0692041522491'
'0.0415224913495','0.0415224913495'
'0.0242214532872','0.0242214532872'
'0.0449826989619','0.0449826989619'
'0.0484429065744','0.0484429065744'
'0.0657439446367','0.0657439446367'
'0.16955017301','0.16955017301'
'0.242214532872','0.242214532872'
'0.23875432526','0.23875432526'
'0.256055363322','0.256055363322'
'0.245674740484','0.245674740484'
'0.23875432526','0.23875432526'
'0.311418685121','0.311418685121'
'0.228373702422','0.228373702422'
'0.23875432526','0.23875432526'
'0.269896193772','0.269896193772'
'0.235294117647','0.235294117647'
'0.207612456747','0.207612456747'
'0.19723183391','0.19723183391'
'0.121107266436','0.121107266436'
'0.159169550173','0.159169550173'
'0.131487889273','0.131487889273'
'0.0795847750865','0.0795847750865'
'0.107266435986','0.107266435986'
'0.131487889273','0.131487889273'
'0.128027681661','0.128027681661'
'0.0934256055363','0.0934256055363'
'0.0726643598616','0.0726643598616'
'0.0865051903114','0.0865051903114'
'0.0795847750865','0.0795847750865'
'0.131487889273','0.131487889273'
'0.18339100346','0.18339100346'
'0.217993079585','0.217993079585'
'0.0865051903114','0.0865051903114'
'0.134948096886','0.134948096886'
'0.228373702422','0.228373702422'
'0.231833910035','0.231833910035'
'0.16955017301','0.16955017301'
'0.19723183391','0.19723183391'
'0.179930795848','0.179930795848'
'0.19723183391','0.19723183391'
'0.107266435986','0.107266435986'
'0.0588235294118','0.0588235294118'
'0.0553633217993','0.0553633217993'
'0.0346020761246','0.0346020761246'
'0.0657439446367','0.0657439446367'
'0.076124567474','0.076124567474'
'0.0449826989619','0.0449826989619'
'0.0692041522491','0.0692041522491'
'0.121107266436','0.121107266436'
'0.0795847750865','0.0795847750865'
'0.0899653979239','0.0899653979239'
'0.100346020761','0.100346020761'
'0.100346020761','0.100346020761'
'0.124567474048','0.124567474048'
'0.0865051903114','0.0865051903114'
'0.0934256055363','0.0934256055363'
'0.124567474048','0.124567474048'
'0.103806228374','0.103806228374'
'0.114186851211','0.114186851211'
'0.363321799308','0.363321799308'
'0.259515570934','0.259515570934'
'0.18339100346','0.18339100346'
'0.121107266436','0.121107266436'
'0.162629757785','0.162629757785'
'0.162629757785','0.162629757785'
'0.186851211073','0.186851211073'
'0.0346020761246','0.0346020761246'
'0.0519031141869','0.0519031141869'
'0.0484429065744','0.0484429065744'
'0.0346020761246','0.0346020761246'
'0.0415224913495','0.0415224913495'
'0.0276816608997','0.0276816608997'
'0.0242214532872','0.0242214532872'
'0.076124567474','0.076124567474'
'0.103806228374','0.103806228374'
'0.0692041522491','0.0692041522491'
'0.0276816608997','0.0276816608997'
'0.0519031141869','0.0519031141869'
'0.280276816609','0.280276816609'
'0.529411764706','0.529411764706'
'0.505190311419','0.505190311419'
'0.56401384083','0.56401384083'
'0.63321799308','0.63321799308'
'0.595155709343','0.595155709343'
'0.550173010381','0.550173010381'
'0.61937716263','0.61937716263'
'0.401384083045','0.401384083045'
'0.290657439446','0.290657439446'
'0.249134948097','0.249134948097'
'0.269896193772','0.269896193772'
'0.290657439446','0.290657439446'
'0.0726643598616','0.0726643598616'
'0.193771626298','0.193771626298'
'0.124567474048','0.124567474048'
'0.138408304498','0.138408304498'
'0.0519031141869','0.0519031141869'
'0.0795847750865','0.0795847750865'
'0.038062283737','0.038062283737'
'0.0138408304498','0.0138408304498'
'0.0553633217993','0.0553633217993'
'0.0519031141869','0.0519031141869'
'0.0934256055363','0.0934256055363'
'0.159169550173','0.159169550173'
'0.21107266436','0.21107266436'
'0.200692041522','0.200692041522'
'0.148788927336','0.148788927336'
'0.0622837370242','0.0622837370242'
'0.114186851211','0.114186851211'
'0.0899653979239','0.0899653979239'
'0.121107266436','0.121107266436'
'0.207612456747','0.207612456747'
'0.204152249135','0.204152249135'
'0.221453287197','0.221453287197'
'0.249134948097','0.249134948097'
'0.557093425606','0.557093425606'
'0.432525951557','0.432525951557'
'0.18339100346','0.18339100346'
'0.124567474048','0.124567474048'
'0.0899653979239','0.0899653979239'
'0.121107266436','0.121107266436'
'0.0588235294118','0.0588235294118'
'0.0173010380623','0.0173010380623'
'0.0415224913495','0.0415224913495'
'0.0934256055363','0.0934256055363'
'0.0692041522491','0.0692041522491'
'0.0657439446367','0.0657439446367'
'0.16955017301','0.16955017301'
'0.152249134948','0.152249134948'
'0.141868512111','0.141868512111'
'0.148788927336','0.148788927336'
'0.103806228374','0.103806228374'
'0.145328719723','0.145328719723'
'0.16955017301','0.16955017301'
'0.21107266436','0.21107266436'
'0.287197231834','0.287197231834'
'0.342560553633','0.342560553633'
'0.453287197232','0.453287197232'
'0.16955017301','0.16955017301'
'0.128027681661','0.128027681661'
'0.0519031141869','0.0519031141869'
'0.083044982699','0.083044982699'
'0.117647058824','0.117647058824'
'0.0553633217993','0.0553633217993'
'0.0968858131488','0.0968858131488'
'0.141868512111','0.141868512111'
'0.110726643599','0.110726643599'
'0.155709342561','0.155709342561'
'0.204152249135','0.204152249135'
'0.148788927336','0.148788927336'
'0.0968858131488','0.0968858131488'
'0.128027681661','0.128027681661'
'0.124567474048','0.124567474048'
'0.121107266436','0.121107266436'
'0.155709342561','0.155709342561'
'0.145328719723','0.145328719723'
'0.193771626298','0.193771626298'
'0.176470588235','0.176470588235'
'0.148788927336','0.148788927336'
'0.173010380623','0.173010380623'
'0.290657439446','0.290657439446'
'0.356401384083','0.356401384083'
'0.190311418685','0.190311418685'
'0.148788927336','0.148788927336'
'0.235294117647','0.235294117647'
'0.186851211073','0.186851211073'
'0.134948096886','0.134948096886'
'0.110726643599','0.110726643599'
'0.117647058824','0.117647058824'
'0.107266435986','0.107266435986'
'0.131487889273','0.131487889273'
'0.145328719723','0.145328719723'
'0.155709342561','0.155709342561'
'0.134948096886','0.134948096886'
'0.131487889273','0.131487889273'
'0.124567474048','0.124567474048'
'0.155709342561','0.155709342561'
'0.204152249135','0.204152249135'
'0.162629757785','0.162629757785'
'0.145328719723','0.145328719723'
'0.190311418685','0.190311418685'
'0.321799307958','0.321799307958'
'0.532871972318','0.532871972318'
'0.442906574394','0.442906574394'
'0.446366782007','0.446366782007'
'0.432525951557','0.432525951557'
'0.269896193772','0.269896193772'
'0.290657439446','0.290657439446'
'0.363321799308','0.363321799308'
'0.221453287197','0.221453287197'
'0.21107266436','0.21107266436'
'0.100346020761','0.100346020761'
'0.107266435986','0.107266435986'
'0.117647058824','0.117647058824'
'0.145328719723','0.145328719723'
'0.100346020761','0.100346020761'
'0.110726643599','0.110726643599'
'0.0519031141869','0.0519031141869'
'0.0622837370242','0.0622837370242'
'0.162629757785','0.162629757785'
'0.16955017301','0.16955017301'
'0.145328719723','0.145328719723'
'0.18339100346','0.18339100346'
'0.141868512111','0.141868512111'
'0.193771626298','0.193771626298'
'0.266435986159','0.266435986159'
'0.228373702422','0.228373702422'
'0.117647058824','0.117647058824'
'0.0865051903114','0.0865051903114'
'0.0484429065744','0.0484429065744'
'0.0795847750865','0.0795847750865'
'0.204152249135','0.204152249135'
'0.155709342561','0.155709342561'
'0.19723183391','0.19723183391'
'0.148788927336','0.148788927336'
'0.179930795848','0.179930795848'
'0.16955017301','0.16955017301'
'0.207612456747','0.207612456747'
'0.273356401384','0.273356401384'
'0.273356401384','0.273356401384'
'0.193771626298','0.193771626298'
'0.134948096886','0.134948096886'
'0.173010380623','0.173010380623'
'0.138408304498','0.138408304498'
'0.131487889273','0.131487889273'
'0.166089965398','0.166089965398'
'0.179930795848','0.179930795848'
'0.193771626298','0.193771626298'
'0.176470588235','0.176470588235'
'0.162629757785','0.162629757785'
'0.0968858131488','0.0968858131488'
'0.280276816609','0.280276816609'
'0.173010380623','0.173010380623'
'0.19723183391','0.19723183391'
'0.18339100346','0.18339100346'
'0.107266435986','0.107266435986'
'0.0899653979239','0.0899653979239'
'0.0622837370242','0.0622837370242'
'0.107266435986','0.107266435986'
'0.114186851211','0.114186851211'
'0.0726643598616','0.0726643598616'
'0.131487889273','0.131487889273'
'0.134948096886','0.134948096886'
'0.138408304498','0.138408304498'
'0.0519031141869','0.0519031141869'
'0.0934256055363','0.0934256055363'
'0.103806228374','0.103806228374'
'0.145328719723','0.145328719723'
'0.176470588235','0.176470588235'
'0.204152249135','0.204152249135'
'0.283737024221','0.283737024221'
'0.193771626298','0.193771626298'
'0.179930795848','0.179930795848'
'0.134948096886','0.134948096886'
'0.179930795848','0.179930795848'
'0.121107266436','0.121107266436'
'0.179930795848','0.179930795848'
'0.235294117647','0.235294117647'
'0.252595155709','0.252595155709'
'0.176470588235','0.176470588235'
'0.266435986159','0.266435986159'
'0.204152249135','0.204152249135'
'0.166089965398','0.166089965398'
'0.148788927336','0.148788927336'
'0.19723183391','0.19723183391'
'0.176470588235','0.176470588235'
'0.173010380623','0.173010380623'
'0.166089965398','0.166089965398'
'0.228373702422','0.228373702422'
'0.159169550173','0.159169550173'
'0.166089965398','0.166089965398'
'0.16955017301','0.16955017301'
'0.114186851211','0.114186851211'
'0.16955017301','0.16955017301'
'0.159169550173','0.159169550173'
'0.134948096886','0.134948096886'
'0.145328719723','0.145328719723'
'0.134948096886','0.134948096886'
'0.318339100346','0.318339100346'
'0.470588235294','0.470588235294'
'0.314878892734','0.314878892734'
'0.36678200692','0.36678200692'
'0.266435986159','0.266435986159'
'0.307958477509','0.307958477509'
'0.22491349481','0.22491349481'
'0.128027681661','0.128027681661'
'0.131487889273','0.131487889273'
'0.18339100346','0.18339100346'
'0.141868512111','0.141868512111'
'0.16955017301','0.16955017301'
'0.179930795848','0.179930795848'
'0.200692041522','0.200692041522'
'0.0795847750865','0.0795847750865'
'0.0657439446367','0.0657439446367'
'0.0657439446367','0.0657439446367'
'0.0899653979239','0.0899653979239'
'0.166089965398','0.166089965398'
'0.145328719723','0.145328719723'
'0.145328719723','0.145328719723'
'0.193771626298','0.193771626298'
'0.411764705882','0.411764705882'
'0.529411764706','0.529411764706'
'0.584775086505','0.584775086505'
'0.80276816609','0.80276816609'
'0.875432525952','0.875432525952'
'0.570934256055','0.570934256055'
'0.40830449827','0.40830449827'
'0.273356401384','0.273356401384'
'0.262975778547','0.262975778547'
'0.207612456747','0.207612456747'
'0.083044982699','0.083044982699'
'0.110726643599','0.110726643599'
'0.166089965398','0.166089965398'
'0.124567474048','0.124567474048'
'0.141868512111','0.141868512111'
'0.0553633217993','0.0553633217993'
'0.0865051903114','0.0865051903114'
'0.162629757785','0.162629757785'
'0.214532871972','0.214532871972'
'0.0519031141869','0.0519031141869'
'0.076124567474','0.076124567474'
'0.228373702422','0.228373702422'
'0.615916955017','0.615916955017'
'0.726643598616','0.726643598616'
'0.747404844291','0.747404844291'
'0.768166089965','0.768166089965'
'0.674740484429','0.674740484429'
'0.429065743945','0.429065743945'
'0.494809688581','0.494809688581'
'0.608996539792','0.608996539792'
'0.221453287197','0.221453287197'
'0.114186851211','0.114186851211'
'0.363321799308','0.363321799308'
'0.449826989619','0.449826989619'
'0.121107266436','0.121107266436'
'0.0899653979239','0.0899653979239'
'0.0899653979239','0.0899653979239'
'0.0622837370242','0.0622837370242'
'0.0415224913495','0.0415224913495'
'0.0484429065744','0.0484429065744'
'0.038062283737','0.038062283737'
'0.0519031141869','0.0519031141869'
'0.103806228374','0.103806228374'
'0.121107266436','0.121107266436'
'0.121107266436','0.121107266436'
'0.131487889273','0.131487889273'
'0.301038062284','0.301038062284'
'0.453287197232','0.453287197232'
'0.567474048443','0.567474048443'
'0.712802768166','0.712802768166'
'0.449826989619','0.449826989619'
'0.359861591696','0.359861591696'
'0.276816608997','0.276816608997'
'0.221453287197','0.221453287197'
'0.162629757785','0.162629757785'
'0.221453287197','0.221453287197'
'0.176470588235','0.176470588235'
'0.138408304498','0.138408304498'
'0.103806228374','0.103806228374'
'0.152249134948','0.152249134948'
'0.159169550173','0.159169550173'
'0.0692041522491','0.0692041522491'
'0.110726643599','0.110726643599'
'0.128027681661','0.128027681661'
'0.162629757785','0.162629757785'
'0.134948096886','0.134948096886'
'0.162629757785','0.162629757785'
'0.083044982699','0.083044982699'
'0.373702422145','0.373702422145'
'0.63321799308','0.63321799308'
'0.709342560554','0.709342560554'
'0.705882352941','0.705882352941'
'0.833910034602','0.833910034602'
'0.598615916955','0.598615916955'
'0.629757785467','0.629757785467'
'0.612456747405','0.612456747405'
'0.356401384083','0.356401384083'
'0.114186851211','0.114186851211'
'0.166089965398','0.166089965398'
'0.131487889273','0.131487889273'
'0.0553633217993','0.0553633217993'
'0.100346020761','0.100346020761'
'0.134948096886','0.134948096886'
'0.110726643599','0.110726643599'
'0.114186851211','0.114186851211'
'0.100346020761','0.100346020761'
'0.131487889273','0.131487889273'
'0.131487889273','0.131487889273'
'0.107266435986','0.107266435986'
'0.103806228374','0.103806228374'
'0.18339100346','0.18339100346'
'0.40830449827','0.40830449827'
'0.529411764706','0.529411764706'
'0.63321799308','0.63321799308'
'0.615916955017','0.615916955017'
'0.529411764706','0.529411764706'
'0.615916955017','0.615916955017'
'0.574394463668','0.574394463668'
'0.785467128028','0.785467128028'
'0.937716262976','0.937716262976'
'0.43598615917','0.43598615917'
'0.439446366782','0.439446366782'
'0.228373702422','0.228373702422'
'0.124567474048','0.124567474048'
'0.148788927336','0.148788927336'
'0.207612456747','0.207612456747'
'0.173010380623','0.173010380623'
'0.23875432526','0.23875432526'
'0.269896193772','0.269896193772'
'0.266435986159','0.266435986159'
'0.141868512111','0.141868512111'
'0.200692041522','0.200692041522'
'0.131487889273','0.131487889273'
'0.124567474048','0.124567474048'
'0.152249134948','0.152249134948'
'0.266435986159','0.266435986159'
'0.339100346021','0.339100346021'
'0.553633217993','0.553633217993'
'0.63321799308','0.63321799308'
'0.515570934256','0.515570934256'
'0.629757785467','0.629757785467'
'0.667820069204','0.667820069204'
'0.43598615917','0.43598615917'
'0.442906574394','0.442906574394'
'0.429065743945','0.429065743945'
'0.294117647059','0.294117647059'
'0.311418685121','0.311418685121'
'0.280276816609','0.280276816609'
'0.176470588235','0.176470588235'
'0.152249134948','0.152249134948'
'0.173010380623','0.173010380623'
'0.159169550173','0.159169550173'
'0.148788927336','0.148788927336'
'0.114186851211','0.114186851211'
'0.186851211073','0.186851211073'
'0.152249134948','0.152249134948'
'0.128027681661','0.128027681661'
'0.117647058824','0.117647058824'
'0.110726643599','0.110726643599'
'0.145328719723','0.145328719723'
'0.214532871972','0.214532871972'
'0.242214532872','0.242214532872'
'0.159169550173','0.159169550173'
'0.269896193772','0.269896193772'
'0.356401384083','0.356401384083'
'0.134948096886','0.134948096886'
'0.235294117647','0.235294117647'
'0.19723183391','0.19723183391'
'0.307958477509','0.307958477509'
'0.155709342561','0.155709342561'
'0.159169550173','0.159169550173'
'0.145328719723','0.145328719723'
'0.166089965398','0.166089965398'
'0.186851211073','0.186851211073'
'0.152249134948','0.152249134948'
'0.19723183391','0.19723183391'
'0.190311418685','0.190311418685'
'0.214532871972','0.214532871972'
'0.159169550173','0.159169550173'
'0.166089965398','0.166089965398'
'0.16955017301','0.16955017301'
'0.145328719723','0.145328719723'
'0.217993079585','0.217993079585'
'0.110726643599','0.110726643599'
'0.190311418685','0.190311418685'
'0.186851211073','0.186851211073'
'0.173010380623','0.173010380623'
'0.256055363322','0.256055363322'
'0.269896193772','0.269896193772'
'0.21107266436','0.21107266436'
'0.297577854671','0.297577854671'
'0.297577854671','0.297577854671'
'0.173010380623','0.173010380623'
'0.22491349481','0.22491349481'
'0.176470588235','0.176470588235'
'0.21107266436','0.21107266436'
'0.131487889273','0.131487889273'
'0.131487889273','0.131487889273'
'0.124567474048','0.124567474048'
'0.134948096886','0.134948096886'
'0.152249134948','0.152249134948'
'0.162629757785','0.162629757785'
'0.159169550173','0.159169550173'
'0.141868512111','0.141868512111'
'0.200692041522','0.200692041522'
'0.152249134948','0.152249134948'
'0.193771626298','0.193771626298'
'0.159169550173','0.159169550173'
'0.110726643599','0.110726643599'
'0.145328719723','0.145328719723'
'0.193771626298','0.193771626298'
'0.290657439446','0.290657439446'
'0.162629757785','0.162629757785'
'0.152249134948','0.152249134948'
'0.141868512111','0.141868512111'
'0.148788927336','0.148788927336'
'0.173010380623','0.173010380623'
'0.228373702422','0.228373702422'
'0.401384083045','0.401384083045'
