ccopy_reg
_reconstructor
p0
(cneurolab.core
Net
p1
c__builtin__
object
p2
Ntp3
Rp4
(dp5
S'layers'
p6
(lp7
g0
(cneurolab.layer
Perceptron
p8
g2
Ntp9
Rp10
(dp11
S'initf'
p12
cneurolab.init
initnw
p13
sS'ci'
p14
I10
sS'co'
p15
I57
sS'cn'
p16
I57
sS'inp_minmax'
p17
cnumpy.core.multiarray
_reconstruct
p18
(cnumpy
ndarray
p19
(I0
tp20
S'b'
p21
tp22
Rp23
(I1
(I10
I2
tp24
cnumpy
dtype
p25
(S'f8'
p26
I0
I1
tp27
Rp28
(I3
S'<'
p29
NNNI-1
I-1
I0
tp30
bI00
S'\x00\x00\x00\x00\x00\x00\x00\x00\x00\x00\x00\x00\x00\x00\xf0?\x00\x00\x00\x00\x00\x00\x00\x00\x00\x00\x00\x00\x00\x00\xf0?\x00\x00\x00\x00\x00\x00\x00\x00\x00\x00\x00\x00\x00\x00\xf0?\x00\x00\x00\x00\x00\x00\x00\x00\x00\x00\x00\x00\x00\x00\xf0?\x00\x00\x00\x00\x00\x00\x00\x00\x00\x00\x00\x00\x00\x00\xf0?\x00\x00\x00\x00\x00\x00\x00\x00\x00\x00\x00\x00\x00\x00\xf0?\x00\x00\x00\x00\x00\x00\x00\x00\x00\x00\x00\x00\x00\x00\xf0?\x00\x00\x00\x00\x00\x00\x00\x00\x00\x00\x00\x00\x00\x00\xf0?\x00\x00\x00\x00\x00\x00\x00\x00\x00\x00\x00\x00\x00\x00\xf0?\x00\x00\x00\x00\x00\x00\x00\x00\x00\x00\x00\x00\x00\x00\xf0?'
p31
tp32
bsS'inp'
p33
g18
(g19
(I0
tp34
g21
tp35
Rp36
(I1
(I10
tp37
g28
I00
S'\xd5\x06\xc7\xda\xe0X\xcb?u\x86\x9f\xce\xf0\xd3\xa9?hG\x02\xedH\xa0\xbd?!E\x15\xa4\xa8\x82\xb4?+\xe6\x81\xc5<\xb0\xc8?v$\xd0\x8e\x04\xda\xc1?\xcaeZ\xb9L+\xc7?[\xa6\x95\xcb\xb4r\xc9?\x81\xc5<\xb0\x98\x07\xd6?\x07\xc7\xda\xe0X\x1b\xdc?'
p38
tp39
bsS's'
p40
g18
(g19
(I0
tp41
g21
tp42
Rp43
(I1
(I57
tp44
g28
I00
S'\xc3Un\xf0\x06\xc4\x12@\xad\x84^\x15\x9e\xe6\xf4?\x06\xf5R\x0b\xd6\xfa\x0e\xc0\xd0GH\xf6\x90\x1b\xcc?\x805=]\xa1\xe7\x9f\xbf\x87Q\xb5\xfej\x8a$@U\xed\xb6\xbcc\'\xec?\xc4\xbai&f\xa0\x1a\xc0@vP\x95l\x1c\xb3?\xa8\xfb\x9c\x10\xc4X\xef?\x1e\xa1\xe1_\x95>\x17\xc0o\xd8\x1c\xda\x8e\x90\x1d\xc0\xf7x\xac\xd7\x12\x87\xf7\xbfrP\x84\xddt\xc2\xfb?\n]\xb8#Us!\xc0\x98\x86\x19\xbb\\\xe8\x18\xc0\xc1\x97\x80\xf7F\xaa\x19\xc0:\xa9O\xd1\xf4X\x1c\xc0t=\xf9\xbb\xfd-\xf2\xbf\xa1s\x9f\'\x7f9\x1b\xc0@\x8b\xce\x96C\x98\x9b\xbf/\t\x04\xe3\x85\x8f\x04\xc0\xe9\xa5j\x99GJ\xe4\xbf)\x8ef\xed\x9b\x89\x06@\xed}3Z\x87\xd6\xfa?\xfa\x7fC\xbc5\x01\xd2\xbfqZ?\x83\xc2\x17\xf1?m\x1d\x82_jr\n\xc0\x0c\xae\xb3\xe2}p\xe9?\xfbu".\xe5\xbf\xf2?\x13E\xd2\x8bG!\xdd\xbf_\x12\x8b\x13\x1bS\x13@vt|u\xcav\t\xc0\xd8aV\x9a\xc82\xba\xbf\x8fO\xc7\xe4Z\xa5\xe0\xbf\xbcQ#\x07.U\xd6?|\x80\x9f+\xc0\xfe\xd7?\x9c\x81\x0e\x87\x955\xcf\xbf\x0bZ\xcb\x8e\xbb#\x1c\xc0\x98\xc3\xb5\xbe\x07\xb0\xfb\xbfdUC\xf1~\x07\xf3?\xe0\x06L\xd7#\xd8\xf0?\xea\x01I\x950O\x12@\xaf)\x90Z\xf8~\x01@8\xc96\x86\x01A\x11@\x95\x9e\xc4&\x18\x81\xf8?\xef\xe4\xf3{\x9b\x97\xe4?.\xe9\xc3\xb9\xd2\x1a\x00@\xd5\x14\x02\x9e\x98\xaf\x03\xc0\xb9\x14\xbc\xc0\x88o\x14\xc0\x932\xa7\xba\x0cR\xf5\xbf;\x9d\x88\xbb\xf8@\xef\xbfR\x01\xc0\xa0x\x13\x1c@\x1b\xc8N;F\x0c\x02\xc0\xfc\xc9Y\xcb\xe3q\xe7\xbf\xd8\x0fz\xa3\xbb\xf8\x0c\xc0\xb4\x9c\xef\xfc|\x9a\x10@'
p45
tp46
bsS'np'
p47
(dp48
g21
g18
(g19
(I0
tp49
g21
tp50
Rp51
(I1
(I57
tp52
g28
I00
S'E0F\xe1\xce*\x18@g\x93\xeb\xf59\x82\x00@A\xc3\x8e\xe6\xbe\xd4\x13\xc0\xd9P\x11\xa9\xcb&\xfa? \xe0\xef\xe2\xc70\xd5?\xe2\x9c\xfdDx\xe8\'@\xa1WjB\xa2x\xe7?Y\xd0H\xa2\x90W!\xc0\xb7\x005\x90u\xcf\x00@\n\x8f\xd0+!\xa6\xf5?(M\xf2\xfb\x04=\x1b\xc0\xeb\x16l>\x88\xb0!\xc0\xf3"oH~\xea\x00\xc0\xa2\xec\x13d&\xc1\xf9?\x02R\xda\xa71\x84%\xc0\x00B\x19\xe8\xca`\x1e\xc0\xc7\xaa\x81\xd1\x89\x86\x1e\xc0\xb1\xf5yb\xaan"\xc0<!75\x06\xce\xf5\xbfQ\x1f\xee\xb2C\xe8 \xc0a_\x0f\x9c\xaaf\xf0?T\xa0\xb9\xfa\x90\x13\x03\xc0\xdb\xbfF\xd0o\x8e\xe0\xbf\\$DZB7\x0b@\xcc\xaf\x91ymd\xfb?\xb8\x89et\xea-\xec\xbf8\xb0\xda\x13]\x92\xf6?\xf6\xda\xfcqr\x91\x0e\xc0\xdb\xb6\xdaf\x8a<\xf8?\xf1-\x94\x86\xc5\xd2\xf2?\xd4\x03\xff\xfd\x90\xc7\xb9?\xe4V\x12\xf5Q:\x18@=\xd2\xb1\xb4<\x92\x11\xc0\x93D\xed\x81\xd7\x14\xe9?$\xba\x82\xb8;k\xe2\xbf\xd4\xbc\xc9\x0e\x80\xb1\xf2?\xa2.\xd6\x12D<\xf3?\xa3w\xed\x0e\xbc\x98\xea?x\xees\x06\x89%"\xc0m\x04\xe4\x10C\xc4\x00\xc0A\xd5M\x92\xbd+\xf5?\xbfLx\xf4\xd8\x8f\x01@\xce\xd6fS\x1b\xf7\x13@{N\xfbX/\x16\n@F\xcd\x8f\xc9\x99!\x13@\x0fp\x98\xad\x7f-\x05@4\xa5\xa4|l\xa7\xe2?E\x0e\x00G\xfdJ\x08@\x86}\xb1\xb1h\x82\x04\xc0TX\x82?\xafS\x14\xc0\xffs\x87g\x12\x1a\xeb\xbf\xba\x1f\xb6\xaa\x19\x00\xff\xbf\xffzC0x\x96\x1d@\xc0OS>u\xab\xff\xbf\x00\x8f\x18k\x14\x0e\xed\xbfl)\xcdo\xad\x16\x12\xc0\xe4F6\xd40\xd9\r@'
p53
tp54
bsS'w'
p55
g18
(g19
(I0
tp56
g21
tp57
Rp58
(I1
(I57
I10
tp59
g28
I00
S'e\x00\xd3\xd1\xcc\x84\xfb\xbf\xf0K\x0c\xc9\x15\x97\xd4\xbf\xf6\x1be\xbf\xc6f\xdb?[7\xb4:\xc8\xd2\xfd\xbf\x9b\xd2$\xe6\xf3\x9c\xe6?\xc5"\xf1[@\x9f\xf8?\xeb.\xd99l\xf8\xf5?!\xd1\xca\x18\xb8-\xed\xbft\x08\x1eA\xd4\x96\xf4\xbf\x19\xa3\xa1\x99`\xae\xfe\xbf\x03Y\x9a\xa4\x03\x90\xf7?\xd8Z\xe5\x97\xcb\xa0\xcc?\xef\x1c\xbc\xc8\'-\xf6\xbf\x8a\x8c\x1f\xd2|\xe3\xf1\xbf.\x15\xb0\x7f\xa1\xe4\xff\xbf\x80\x03\xaac\x80a\xd7?05\xc0\xb1\xac\x9b\xfc\xbf3Y=J\xf2\xcb\xe5?\x8c\xe6e\x8f}\x82\xfe\xbf\x16\x0e\x82\xeeE!\xe9?#t\xed\x02\xe7Q\xe9\xbf1y\xd9\x14l\xe4\xee?w\x13\x1c\x9f\xad\xab\xf2?\x90\xb5\x0f!\x88\xf3\xf7?\x94\x14\x11\xc1%~\x01@\xb8\x97\xa8\x7f\x8a#\xd2\xbfO\'\xf1\x95\x12\xdb\xf0?\xacd4\xbeU\xa9\x00@\x01\xc1\xf80\xfat\xf7\xbf}\x8b%\x1e\xdc\x0f\xf1?\x9cW\xf7\xe3\xa2\x0e\xe7?`]R\x87\xc4\x84\xe0?\xb9j\xa9\xaf\xa3\xb3\xf3?\x1a\xbe\x93\xc4\x06]\xf9\xbf>\xcd\xd6\xc3Pl\xf3\xbfX=s2\x9cj\xce?f\x04\x8f`\xd7?\x01\xc0\xd0\xa1_\xf4F\xac\xf5?\xa9^\x15\xef\x0f\x07\xf4\xbf\x86v/\x07\xc7=\xff\xbf\xc9\x98\xe2V:\xfd\xfb?@\xb2\x92`\'\x9f\xc8\xbfG\xa6~w\x1eT\xe3\xbf\xac\xd7\xa6\xfa%\x03\xdb\xbf\xd5\xb8\x81\x93\xb0\xf0\xd2\xbf\xe5\xc4\xfe\x7f\x8bf\xd9?\'B&\xac\xc1\xfd\xf1\xbf\x1aU\x95v\xc9\xb9\xe7\xbf\xefZ\x07\x9e\x03\xf9\x02@\xfb\xa4Gm\x8a\xc9\x03\xc0PMT\xfe1A\xfb\xbfn\xe3\x04\xdet\x15\xf2\xbf\xd2\xfeX\x9c\x02q\x00\xc0\xbcD\xbd\xf1\xe3\x0b\x01\xc03~a\x07V\xf6\xa0?Ob\xbe2c\x03\xf3\xbf{\'k\x0b\x06\x9f\xf3\xbf\xe9\xab4(\x82\x11\xe7?M[j\x96\xef\xe1\xe5\xbf+\xf2[\x8ed\xbf\xeb\xbf|Dx\xc3kd\xc7\xbf\xa1\'\x1a\xde\xe9"\xd7\xbfh\x81\x9ch\nC\xff?\x1f\xf6\xd9\xf2\xcb\x7f\xb0?\r\x1a\xcf\xd9\\\xeb\xf9?u\x8f\xf6e\x83\x86\xf4\xbf\x8b\x05\x17\x91s`\xf2\xbf0Z\xd1[e\xb5\xf1? \x87\xd9\xb0\x88\xbe\x01\xc0jc\x89H\xe7\x7f\xf5?\xbe\xea\x05\x9a\xea\xce\xe9?\xfc\n}\xbc\x88\xc7\xf8\xbf\xf6A\x8b\xc7K\xbc\xf2?"\xcc<\x8cw^\xeb?\x91V\xe8=\x8f\xd6\xfe?\n\xbb\x83\xbf\x1bV\xb4\xbf\xcb\xa1\x03\xdf\xb0\xd6\xfd?[\x04\xa0\xc4p\xaf\xe5\xbfb\xc1\xef\xec\xcd\x9e\xe6?\x93\x01C\x98\x8c\x90\x00@{\xffS_R?\xd0?\xab]\\\x05^\n\x01@*\xa9]\xba8\t\xf9\xbf\xd1\xd3}V\x07\r\xe2?\xbaw\x8f\xfeq\xae\xdd\xbfB\xdd]a\r\xb7\xbe\xbf\x8b_\xf0\xe3\x16\xff\xc6\xbf-\xaa\xea^\xfaP\xe4\xbfp\xb8U\xf4\xe0\x1d\xf9\xbf\xf3wI\x00\x01\xb8\x06\xc0\xc6\xf2\xaek7\xf8\xf9\xbf\x94\tT\xa1U\xc7\xf0\xbf\x04\x0c\x8d\xc2r\x16\xec?\xbb*\xf1\x9f(\x95\xfa?\x91\xdb>+\xa1I\xe5?\x977\x8a\x03\xday\xe9?\x85\x8eH\x16%\xcc\xf6?\xcfz#\xdfi\x1c\xfa\xbf\xd8\xac<\x9e"S\xf3?\xa5Rn\xbb\xa3\t\xfd\xbfe\xa1\tNT\x1c\xe0?\x90z~\x87x2\xdf\xbf\xd1\xd5\x17a\xe1\xcb\xff?un\x18\x1b:Z\xfa?\x9e\x81\xd5*\x93\x0c\xe7\xbf5\xa9\xc5\xe3\xabK\xfa?"4\xe2Y\xe3:\xfd\xbf\xc9<#\x18\xa6o\xfb?:"H\x8a)\x8d\xa6?W\xb5\x9c\x83\xfc\xe7\xef?\x17\x87\xcf\xf9KL\xdd?p\xe4\x95\x84\xd0L\x03@)Oe<\xad\xbd\xf1\xbf\x1ci\x83d\xbf\xa3\xee?\xab\x04\xc8\x1cZ\xc9\x00@j\xca\xe4\xab\xbej\xec\xbf\x83>\xf6\xebJM\xe3?O\x1b[,\x04\xa3\xfa?\xac\x99]H\xc5C\xda?\x00\x1c\x8e\xe5S\xda\xee?\xdbF\xe4\xd3\xf17\xfe?\xac\xe3\xe7JV+\xf3\xbf\xaevV\x83\xd0<\xd8?\xc8A{\x1d\x97\x98\xec?\xd5\xd4N\xa2\xbcD\x00@\x96=Yy\x18F\x00\xc0\xa8_\xcc2\xce\x1a\xe7\xbf\xcd\xb7\x12.\x8d\xe7\xf5\xbf}\xd0N\t;X\xc5?ZIW\xc6\x90\xc8\xee?\xbb\x12\xde\x06\x02g\x01@\x8c\xd4h\x86ei\xfb\xbfC,\xbd\xb2\x18\x1b\xeb\xbf1\xd6]m\x15\x16\xec\xbf66\xe0\xdc\xf7^\xdf\xbfV\x92>\xf6B\xc1\xf6?\xdb\x96q 7\xfe\xff\xbf<k@ zj\xf3?\xc6\xc1u\xe5\xd2\x9e\xd0?\xf8\xab\xb0\x8c\xa8\xe7\xd6\xbf`\xc0\x8d0H\xd6\xd4?ytV\xc5e\x06\xf7?\xb7\xfb\xe7\xad\x04\xac\xf7?\xde\xa0\xa85\x08\xf9\xf4\xbf\x8f\xbf\x01\x89\xb5\xff\xf9?\xcea\x9fR\xeb\xb4\xe5?\xd5i\xe5xT\xfe\xf9?\xdb\xa0\x1e\xbf\x03\xd3\xfb?\xe9\xd4\x86}\xe3\x12\xf9?\xc2h\xf0\xb5!K\xe1?\xc4\x0c\x83,\xecP\xe9?\xf5\xb2-Q\xb7_\xf4\xbf\x02\xd3\x93\x8e\xb93\xfd?k\xb7f\x99\x02\x17\xff?\x19\xa1\x1c\xd4\xad\xb6\xff?\x844\x0bx\xf2\xa9\xd1\xbf\xf5Q\xeattU\xe4\xbf\xeff\xdf\xa6\x9d\xd0\xe2?\xd7\x9c6\x9e\xa3\x92\xfd?\xf6\xdeD&\x08\x0f\xc9\xbf\x87\nC\x9a\xe0\xff\x00@0\xb5\x94\xd9\x8c)\xf7?\x04k\xf5\x0e\x9f\x8b\x01@c\xcf/$\xe0\x1c\xd8?H \xe6\xf1\xb4\xa2N?\x82\x06\x96\xbd L\xda?\'\xa3\x08\xca\xf0S\x00\xc0\x15\xf7\xb4\xb1\xf1H\xec?\x05\xc2\xb9\x0c\x90\xf6\xea?s\x00\x95y]<\xe2?U/\x0b4l\xd1\xea?\x06D\x04\xda\x97/\xf5?\xf3\x0e\x06*\x84d\xe7\xbfw\xa42\x98(\x13\xdc?\xe3*IP\xb3<\xef\xbfh\x18\x1eH\xeeZ\xfb?\x05^\x16\xde\x97\xd6\xf6?G\xb9\x15\xd6\x95\x99\xd2?qj\xae@pm\x02@\x04vx\t\xf6/\xfc?\xae\xe6\xad\xea\xdb\xfe\x01\xc0-;\xd5\xec\xec\xab\xfe?+.\x85S\x02M\xfb\xbf\x02\xc0"-\xcb\xd9\xc5?O\x837b\xea&\xe0?!\xbfB\xdbb)\x01@\xde\x07\xe9\x96\x10F\xf1?\xc8K\xe4\xed\x84\xc7\xe3?\xe0&\x05\x17\x91\xe0\xdc?\xa4\xa0=\xef\x9d\x1f\xc6\xbfOk\x17\xb0\xde\x8a\xf8?^w\x81\xcd\xb5\x14\xfb?\x82\xb0%=\x1cz\xfc?\x86J\x14dJ\x88\xe5?\x1e\xbdc-V\x08\xf8\xbf\x97\t\xa5\xef1\x0e\xf0\xbf,\x15qc\x89X\xf1?JC\xa1\x1e\x01\xd9\xf0?\xa4sb\x02C\xc4\xee?\x0b\xdf\xca\xdd\xe4R\xf8?\x0c\x1b(\x14\x88\xb4\xef\xbfvG\xf5\xb8\xa7\xba\xf9?Q\xef\x1a\xc9\xbf\xd4\xf4\xbf\xe8\xe8Gw,s\xf7?\xac\xaa@c\x01_\xf5?X\xc85\\(m\xc2\xbf\x99!#\xd9N\xfa\xf5?\xcdi\xb1\xd22\xaf\xfb\xbf\xcb\t\xb6\x91=\xb2\xf5\xbf\x9da\xb8\xa6\xce\x88\xf4\xbf\xc7d\xcc]\xa1g\xef?\xf1A5+e@\xfa?\xf3\x87\xdd\xfc\xeb\xea\xdf\xbfV.4kA\xab\x00@"\x0f\x0f\'\x8a\xd7\xd2?\x046E\x8e\x15\xb8\xf9?\xda\x98\xb0\x1f\xbe\x08\xf1\xbf\xbe\n\xf2*N\x97\x00\xc0\xd8\xc3r\xbf\xf7\xd4\xe6?\\\t8|\xc8\x88\xf2\xbf\x85\x9e|b@\xc8\xf4\xbf\xea\x8fW\x7f\x93\xba\xff\xbf\xb4v\x1ao\xed\x86\xf6?\xd9}\xdcX\xa3\x0b\xf7?\xbdU\xb8\xf4u\xfe\xd9?Oz\xbd\xe65\'\xe9?\xe0\xcd{o\xbe\x87\xf8?\xfe\xf6=\x87O\xb6\xc6?Z\xd1\xbf[\x02\xc1\x00\xc0M,\x07h\xe7\x87\xdd?+\xb2\x86\xa2s9\xca?\xea\xae\r\x18\xf7\xa0\xe5?\xf6r\x8bB{^\xf3?{+I_\x1b\xc7\xfe\xbf^\xceq\xb2\x18\xd7\xf2\xbf\xc3\xc8\xf7\x04\xaa\xba\xfd\xbf\xc0wY\x19\xb7\xe3\xd2?vG\xe7\xc14&\xe2\xbf?\xc9\x0b\x1802\x01\xc0\x97\xe4\x88N\xa43\xf7?#&\x91\xad\xed\xfe\xaa?\xd4\x1b\x18G\xc6p\xd4?W%\xeb\xfb\t+\x05\xc0-\xb1\x12d\xa4\xe2\xec\xbfP\xe2&<a\'\xef\xbf\xd2e\xeeU\x86\xdc\x02@VUJ\xde3\xf1\xc1?M\xe2\xe6\xf35v\xe0\xbf\x1f\tV\xd5\x1f\x8b\xef\xbf\\G\xac\x83v\x8e\xf5?\xe8\xc5\xcd\xb1;,\xf8?\x8b\x9b\x98.}+\xfc?![\xb84\x98(\xea\xbfL\xac\x9f\xa1U;\xfe\xbf\xf5\x85A{S\xc6\xef?\xe5\x8c\x9e\x88V+\xe3\xbf56e~Z\xfe\xf1\xbf\xc5\x12<\xc5\xb1\x95\xeb\xbf\xffM\xab\x98nG\xe3\xbf\xb3\xda\x9d\x9af\x8a\x00@\x1f\x04\xe3f.\x82\xf0?Ny|l\xbdB\xf1?\x06\xec\x88\xad4Q\xed?<\xe5Gdca\xe2\xbfR\x9f\x9a\xa7\xcam\x01\xc0\xd0\xe5\x81\xe5_H\xf4?\x92N\xe6\x100\x83\xfd\xbf\x02\xf7\x06\xde\xba\x9b\x00\xc0\x0b\xf6\xf1\xe7\xbc\x90\xaa?\xf0uG~]|\xe5?\xd0\xdf\x16\x16b\x7f\xfe\xbf\r\xc9#\n\xee\x8dx?s\x01\xd3\xebo\xbf\xfa?F\x07\xe0$b)\x01@\x8a\xda\t!\xf3\t\xf2?w6\x8d\x08\x87\xc5\xe8\xbf\xd0\xc8\xa2z\xd0\xc9\xfe?\xc3\x17\xb0\x03\x82}\xe7\xbf\xf4\xaa\xb3\xd7\x07F\xca\xbf7lT\xfd\xf5\xfd\xe6?\x1d\xf5\xf0\xbb\xed\xaa\xc5?t\xe3\x04\x9fij\xe5?l\xd6<\x06\x93\xe2\xf4?m\xb6\x1c0\x01}\xf5\xbf\x18nROK5\xc9\xbf1\r\x95\x88\t\xb8\xf8\xbf\x99\xdc\\\x10$\xa7\xd4\xbfK5oK\xd2,\xfe?i\xfe\xe2\x98\xf6\xfc\x05\xc0\x16\xe2\x1a\xd8H\x08\xbd?;\x8f\xe1\xd3\x8e\x0c\xec?7\xb1z\x81\xff\xce\xf7\xbf\xd7\x1c\xe4\xa6:\xe4\xf0?\xae\xe8\xccw7>\xfc\xbf\xfc\t\xa5V\xf6\xc3\xe1??_\xd8\xa9d\xf3\xf6\xbf\x8a\xa3\xc4~\x9f\xf1\xf1?w\x00\x9e\xc3\xe7\xfe\x02@]\x03b\r\x9a\xe4\xf1\xbf\x93e\x1e\x86\xb8y\xe5\xbf\x88\xcf\x80\xf4\xf6\xe9\xff?`\x01tL\x10\x0c\xfb?\x13S61d\xf5\xf2?\xe2\x90\xee(\x19\xd6\xfc\xbf8\xb9\xd0\xbe\x00i\xd9?0\x18\xd3\xa5\x12N\xe8\xbfi\xbfp(\x02u\xe5\xbf\xa5.e~[\xa7\xb6\xbfo"\x90d76\x01\xc0\x05\x81\xed,?\x06\xd6\xbf\x1a\xaf\x18?\xd2\xdf\xff\xbf8:\x8a\xbf\xa7=\x01\xc0i*\xb1%*\xe1\xda\xbf\x03\x18\x9f\x9b"\xf2\xf8?\\\xb6X\xdb\xad\xa3\xe3\xbf/\xdd/A<3\x02\xc0\x0ctu}\x7f\x1f\xda?\xebq\x8f21\xda\xd1?PX\xc0\xd4\xbbz\xec\xbf\xc0\xe0\xcb\x8ee\x9a\xd6\xbf\xea\xfc\xfc]a|\xdd?\x98\xc4h\xf0\xc7\x07\xeb?\n~\xbc\x17bx\xde?tl\x03\x93\tt\x01@/\xd9.\x84\xa1\xd4\xf1\xbf\xe4V\x11db\x98\xea?d\xe5\x8b\xaeb\xda\xf9\xbf\x14\xefB>\xe7\x8d\xec\xbfoZ\xb2\xd9\x03\xb4\xfa?\xa8\xfc\xbd\x9c\x1a\\\xfe?\xb4f\xc8\xac\x90x\xfe\xbf\xc0\xdb\xd6!\xc0#\x02@\x1d\xa9\xaao\xef\xb7\xf7?n\xcd8\xac\x04U\xc3\xbf\xd5\xd9\x12_7\xa7\xd6\xbf\xa0S\x98\xc0\x14\xa0\xd1?\xa4R5x\xb7w\xf7\xbfz\x02\x89Z\xb0\xb9\xf5\xbf\xf6e\'=7\xd1\xef?\xbc=\xee\xe5bO\xf3\xbf\x94\xbe\xa8\xd2\xa4\xd2\xfe\xbf\x16\x0f\xcc\x0c{\x82\xcf?k\x8d\xb5\xfe\xe1\xc7\xcd?f7\t\xfb%\xb3\x02@5\xf7@|\x9fy\xe6\xbf\x02MU\xdcb\xe3\xf1?\x99\xb9<\xa4\xda\xcf\xf7\xbf\x7f\xa7\xad\x85\xa5}\xf5?K6p\x7f\xd9\xbf\xed\xbf\xf6\xd0\x1a\xe3}\xc1\xf3?\x94x\x7f\xa5\xe0\xd8f?\xfeu\x14H\xa0}\xef\xbf3\x85\xcf\x8eA\x82\xf5?\x90\xa5\x85:\xcc\xdb\xe6\xbf\xffOG\x9fE\x94\xd4?\x86\x18&\xcf>,\xe4?1\x81;\x9cKm\xeb\xbf\xec\x8a\x19\x85.8\xde?\xbd\xc7?\x064\xbc\xf5?6\x95\xae \x0b\xf5\t\xc0\x02\x86\xfa/I\x88\xfc\xbf\x1e\xb7\xe6G\xc3\xde\xfa\xbf\xb8\xf503\xa0\x88\x00@q\xa5M1\x19\xbf\xea?~2i\xc8\xdb\x00\xc8\xbf\xc5\xc7%\xccm\xc8\xf5?K\x89\x80yrW\xe9?\x9dt\x1c_\xc1\xae\xc4\xbf\x835v?\x10\xc5\xef\xbfz\xdc\xed\xbc.\x87\xf5\xbf]\x13\x9a\xd7P\xa1\xf5\xbf\'\x9e \xec\xb2T\xf3\xbfg\xef_\'\x0b\x08\xe5?\xb7\xfbU\xc4m\xad\x02@\xb1\xafD\x18\xffJ\xf3?\x1f\xf5U\xe8\x1f\xe8\xed?Y\x89\xf8\xba\xd5f\xf7\xbf\xb0\x01E\xc2\x9c\xbf\xb5?C\x8b\xa6OiY\xf1\xbf\x07L\x13\xc0\xa5\x99\xfa\xbf\x0e\x1d\x1d\xa78\xf1\xe7\xbf\xdfU$\xf0}!\xe4\xbf\xb5\xc8\xdf\xa1\x90\x12\xf6?\xef\t;fho\xfa?\xd5W\x85w\x07\x1e\xfa?\xc9\x12:\xdb\x8ee\xea\xbf\xa4\xce\xd9\xfd\xa8s\xf7?\xc6\x9d\xbf\x0b}\xd5\xf6?\xf4LVW\xf0L\xf6?\xb0\x9cAa5\xd8\xf9?1\x8fU\xd2Qv\x01\xc0\xa0\x99K\xd9\xd9\x0c\xdf\xbf\xa5\xb8\tC\x8d\x9d\xfb\xbf\x84*N\xb4O\x1c\xe8?\x12\xef@\xcd(\'\xea\xbf\xe7\x00\xb3\x9f\xdf%\xda?\x89]\x84\xc1t2\xfe?n\x8ah\xcf\xa8u\xfc?1<\x1a\xb8\x9d\xf9\xd2?\x0c\xb6s\x8ay\xc7\xe5?\x0e:\xad\xa0\xe6\xbf\xe9?\xfc1\xa8[7\xb6\xe4\xbf\x84\x90Lj\xac[\xfe?\x1d\x8d\xaf|Kk\xc2?\xb9q9\r\n\x85\xf5\xbf]\xe5\xf7\x0f\xc9\x1a\xf8\xbf\xaf\xac\xb9-ne\xf9?\xb5X\x1d\xa4)U\xf9\xbf@3\xd1\xd0[\x90\xf8\xbf\xfd8\x08\xccQ\xfd\xf2?k\x1e\x90\xec\xf3O\xd3\xbf\x8e\'P\xd4\'\xe4\xf4\xbf\xd1\xbfM\xd7\x06\r\xf9?b=\x9eth\xd9\xfe?7yd\xda\xbcg\x00\xc0\re\x13\x05e\xb7\xe8\xbf\x97j9\xcb\xfej\xf2\xbf\xec\xa6\x1d\x02\x84\xa3\xeb?\x1dG5V\xbf\xd8\xf7\xbf!\xae\xd4\xa7\x94|\xe5\xbfz[\x0b\x04\x19\xd4\xf1\xbf\xd00\xf2\xa7\xba\x87\xee?G\xd3pxw\xc9\xe5\xbf\xafGr\xf2\xa6\xd4\xf4\xbf0\x89\x11\x99R\xfc\xc8\xbf\x8aV\xd3\x9d\x99\xce\x01\xc06\xac+\xdf<V\xec\xbfA\x8cR_\xe1Q\xfd\xbf\x18~\x0c\xa1Z\xb5\xa7?\x0e\x7fV\xee\xd7\xb8\xfd?\x0ed\xf7\xc2t\xec\xdd?I(\xfby\x9b\xd4\x03@\xbd\xe0\x92il[\xf3\xbf~\xaf\x94\x0b\xb9C\xf2\xbfx1\xac\xa24\xee\xef?\x142\xf6\xb6\xb2\x84\xf2\xbf\xd1\x10?\xb8\x00\'\xea?A\xd3o@I\xd4\xfa\xbf\xd5Y\xc8\x1cm\xbf\xe7\xbf\x01FU\x18\xe8\xf3\xf7\xbfj\xe4\xec\xd0*~\xeb\xbfQW\x9c\xf7\xe1\x7f\xec\xbf?2\xa3h\ro\xfb\xbf$\xd7\xb0\xf1\xa8C\x9b\xbf\xfe\x9e\xa7\xb8\xf9\x0b\xfd\xbfL}\xb5n\x01\xe5\xfb\xbf\xb71\x9e\x1b\xcd\x00\xc8?\xadt\xa94D\xf5\xf9\xbf\t\'|\xbc\x0e\x0b\x00@lii\xac\xe3\r\xd6?\xac\xe6Kn\xff\xfc\x00\xc0#\xb67>\xf4f\xe4?=\xd2;PVl\xa6?`\x13#\x02"\xd1\xd6?Q\xd2\x8d^(\xd8\xfb?\x8d\x10dQ\x84R\xe8?g\x9dap\xa4\xbd\xde\xbf\x06>\xcdS\x18\x1a\x01\xc0e\xa6bd1\xf9\x00\xc0\x8b\xe0h\x1f\xc47\xc5?|+\x98\xf3\x02s\x00@M\x11\x0b\x00\x93m\xee\xbftj@\xe2IQ\xff\xbf\xaa\xb6|\x93\xe3\x0b\x00@\xbb;P\x0c\xfax\xf5\xbf\xfcB#\xd0g\x02\xda?\x1d\xa4\rK(\xce\xf6?\x1b]W]#/\xd4\xbf\xb9\xe7Vi\xeb\xca\xb5\xbf\x01\xf6\xc9\x96U\xab\xe0\xbf\xd6\xc1$\xdb{.\xfb\xbf!\xc6B\xb6\xbb-\xf9\xbf\xd0N\xb9c\xf2\x03\xf3\xbfW\x814\xd4\xe9\xeb\xf1?\xac\xc2\xb3:\x16m\x01@Y\x8d\xd0\x0e\xa6\x1c\xca\xbfM\xb0\xbcd$\xb9\xeb\xbf\x1d\x03wA\xd8J\xdd\xbfK\xe3\xd3m\x14\x88\xff\xbfH\n\xbf\xcb[ed?_V5\xc7\x0c\x8a\xe2\xbft\xe7\xd3T\xed\xa0\xd6?\xac\xea\x1afq\x17\xcc\xbf\x066v\xfd\xe3 \x01@\x9d)t\xfd\x88\x91\xf4?\xcb\xf6\xfb\xb3\xaa\x00\xda\xbf\x94\x05C\xeedQ\x02\xc0\x00\x85\x19\\\xfd\x13\xe5\xbfj\x8cP\x88:\t\x01@\xe5$Y\xca\xfd\x08\xe7\xbf\xe8\xf7.\xa4\x17\xfe\xeb\xbf\xf0K\x82D\xb1\x1d\xea?\x18\\\xafU\x10_\x03@Q\x0b\x1b@\x17d\xf8?\xaa\xf9TpS\xa9\xf0?\x84\xfd (\xacx\xf5?\x0f\x87y[\xbe\x0c\xbf\xbf\x00\x04xBJv\xfc\xbf\xb8\xfb7\x9cT3\xe9?M\x1e\xbbC\x01\xab\xf4\xbfL\xcb`\x8b\x12\xff\xf9\xbf\x1e\xb4\x900\xab~\xf2?\x87\x9e\xb2p\x19\xd5\xe7?\xcfv\t\xc4\x1cJ\xf2?\xb8Y%0\x9b\xdc\xe8\xbf`DMT\xf1>\xfa\xbf\x15S7\x94E\xd2\xe3\xbfel\xe3m\x1c\xa7\x01@\x11\xca\xaf\xb1\xcf\xc4\xee?\xf6#\xa9`\xbc\xce\xf7\xbfx*\xc6Gly\xdf??x,CU\xc2\xfd\xbf\xf2\xf8 \xca\x80\xc6\x00@\x00\xffb\x03\x86\x88\xe8\xbf\x11\x89#\xe4a?\xc5\xbfW\x8d&:l\x18\x01@\x1b\xbaO\xa8+\xcd\xda?\xa7\x1b\x00GZ\x86\xcd?\xc2\xc7y\xf5\n\x0b\xff?\x90\xcaO\xcb\x89\xec\xe4\xbf\x93\xc9\xff\x89\x8c\xf3\xe3?\x93\xc7\xaf\t\xd3\xdf\xfb\xbf\x11\xc3\x9a#\x0cY\xf1\xbf\x07\x9b\x90|\xb5\xf8\xf1?\x99>\x88\x8e+\xde\xfa\xbf\x98\xa2\x8e\x99r\xc0\xf3\xbfs\xfb7H\xdb7\xfb\xbf\x1ft\xf0\x98\xbf-\xf8\xbf\xefK\x7ff\xc0\xc7\xd0?\x88)=iC\xd2\xf6?LZ\x1b\xe9\xb4\xe0\x00\xc0|\'\x99~\xe1\xc8\xed?\x99U\x80?Mv\xdd\xbf\xdbm\xceC4:\xb5\xbf\x90\xc6f\x95\x8b\xc8\xe9\xbf\xc9\xc6\x89,\x9c\xfa\xff?\'\x8awo/\xd6\xff\xbf\xff[Z\x18|\x07\xf8?\x87\xa5)A\xb7p\xea?\x04~\xb5\x80$/\xd7\xbf*[\x8a\x1d\n\x10\x02@U\xf1N\xc2\xbc\x8f\xff?\xc5.]\x1dF\xfb\xe2?\xd9\xd8\xf8\x90\xdbU\xe5\xbf\x06\xee\x12\xc3\x9fy\xf4\xbf\xb2\x94w\x93\xea\x06\xe1\xbf\xf6\xc2\xe20\x17\x00\xff?8\xb2\x1a9\xa9\xa2\xaa?}\x1du\xae\x03H\xf3\xbfy\xaa\x82\x08@h\xbb\xbfYQ\x88d\x0c\n\xf4?\xbd\xc1qE\x19\x06\x00@\x98\x90\xd7\xaf\x00}\xd7?\x0fc\xc2\x96\xbd"\xf6\xbf\xfc\xc9\x94T\xaa+\xfc?\x91sd4u\x16\xe3?dP+\xfftq\xe3?\xab\x04\xef=\x9c\x9f\xf8?<\x9c]5\x80l\xf3?\x91\xaf\xa9\\\xdb\xe7\xf7\xbf,\x18X(\xdc\x9b\xf9?:B\xf8Zr\x06\xfe\xbf\xa5\x95T\x8eh\xa4\xf3\xbf\xc2\x83\xb06\x1c\xa3\xfd\xbf\xd0#\x1d\t\xed\xfb\xee?V\x1c\xe6m\xfb=\xe1?\xfd\x90\xe6)Wz\xf0?7\xdeNfLZ\xc1\xbf?)\xb0`5\x9d\xf8\xbf9\x0f\x18\xcf\x1c\xcf\xf4?'
p60
tp61
bssS'transf'
p62
(ineurolab.trans
TanSig
p63
(dp64
bsS'out_minmax'
p65
g18
(g19
(I0
tp66
g21
tp67
Rp68
(I1
(I57
I2
tp69
g28
I00
S'\x00\x00\x00\x00\x00\x00\xf0\xbf\x00\x00\x00\x00\x00\x00\xf0?\x00\x00\x00\x00\x00\x00\xf0\xbf\x00\x00\x00\x00\x00\x00\xf0?\x00\x00\x00\x00\x00\x00\xf0\xbf\x00\x00\x00\x00\x00\x00\xf0?\x00\x00\x00\x00\x00\x00\xf0\xbf\x00\x00\x00\x00\x00\x00\xf0?\x00\x00\x00\x00\x00\x00\xf0\xbf\x00\x00\x00\x00\x00\x00\xf0?\x00\x00\x00\x00\x00\x00\xf0\xbf\x00\x00\x00\x00\x00\x00\xf0?\x00\x00\x00\x00\x00\x00\xf0\xbf\x00\x00\x00\x00\x00\x00\xf0?\x00\x00\x00\x00\x00\x00\xf0\xbf\x00\x00\x00\x00\x00\x00\xf0?\x00\x00\x00\x00\x00\x00\xf0\xbf\x00\x00\x00\x00\x00\x00\xf0?\x00\x00\x00\x00\x00\x00\xf0\xbf\x00\x00\x00\x00\x00\x00\xf0?\x00\x00\x00\x00\x00\x00\xf0\xbf\x00\x00\x00\x00\x00\x00\xf0?\x00\x00\x00\x00\x00\x00\xf0\xbf\x00\x00\x00\x00\x00\x00\xf0?\x00\x00\x00\x00\x00\x00\xf0\xbf\x00\x00\x00\x00\x00\x00\xf0?\x00\x00\x00\x00\x00\x00\xf0\xbf\x00\x00\x00\x00\x00\x00\xf0?\x00\x00\x00\x00\x00\x00\xf0\xbf\x00\x00\x00\x00\x00\x00\xf0?\x00\x00\x00\x00\x00\x00\xf0\xbf\x00\x00\x00\x00\x00\x00\xf0?\x00\x00\x00\x00\x00\x00\xf0\xbf\x00\x00\x00\x00\x00\x00\xf0?\x00\x00\x00\x00\x00\x00\xf0\xbf\x00\x00\x00\x00\x00\x00\xf0?\x00\x00\x00\x00\x00\x00\xf0\xbf\x00\x00\x00\x00\x00\x00\xf0?\x00\x00\x00\x00\x00\x00\xf0\xbf\x00\x00\x00\x00\x00\x00\xf0?\x00\x00\x00\x00\x00\x00\xf0\xbf\x00\x00\x00\x00\x00\x00\xf0?\x00\x00\x00\x00\x00\x00\xf0\xbf\x00\x00\x00\x00\x00\x00\xf0?\x00\x00\x00\x00\x00\x00\xf0\xbf\x00\x00\x00\x00\x00\x00\xf0?\x00\x00\x00\x00\x00\x00\xf0\xbf\x00\x00\x00\x00\x00\x00\xf0?\x00\x00\x00\x00\x00\x00\xf0\xbf\x00\x00\x00\x00\x00\x00\xf0?\x00\x00\x00\x00\x00\x00\xf0\xbf\x00\x00\x00\x00\x00\x00\xf0?\x00\x00\x00\x00\x00\x00\xf0\xbf\x00\x00\x00\x00\x00\x00\xf0?\x00\x00\x00\x00\x00\x00\xf0\xbf\x00\x00\x00\x00\x00\x00\xf0?\x00\x00\x00\x00\x00\x00\xf0\xbf\x00\x00\x00\x00\x00\x00\xf0?\x00\x00\x00\x00\x00\x00\xf0\xbf\x00\x00\x00\x00\x00\x00\xf0?\x00\x00\x00\x00\x00\x00\xf0\xbf\x00\x00\x00\x00\x00\x00\xf0?\x00\x00\x00\x00\x00\x00\xf0\xbf\x00\x00\x00\x00\x00\x00\xf0?\x00\x00\x00\x00\x00\x00\xf0\xbf\x00\x00\x00\x00\x00\x00\xf0?\x00\x00\x00\x00\x00\x00\xf0\xbf\x00\x00\x00\x00\x00\x00\xf0?\x00\x00\x00\x00\x00\x00\xf0\xbf\x00\x00\x00\x00\x00\x00\xf0?\x00\x00\x00\x00\x00\x00\xf0\xbf\x00\x00\x00\x00\x00\x00\xf0?\x00\x00\x00\x00\x00\x00\xf0\xbf\x00\x00\x00\x00\x00\x00\xf0?\x00\x00\x00\x00\x00\x00\xf0\xbf\x00\x00\x00\x00\x00\x00\xf0?\x00\x00\x00\x00\x00\x00\xf0\xbf\x00\x00\x00\x00\x00\x00\xf0?\x00\x00\x00\x00\x00\x00\xf0\xbf\x00\x00\x00\x00\x00\x00\xf0?\x00\x00\x00\x00\x00\x00\xf0\xbf\x00\x00\x00\x00\x00\x00\xf0?\x00\x00\x00\x00\x00\x00\xf0\xbf\x00\x00\x00\x00\x00\x00\xf0?\x00\x00\x00\x00\x00\x00\xf0\xbf\x00\x00\x00\x00\x00\x00\xf0?\x00\x00\x00\x00\x00\x00\xf0\xbf\x00\x00\x00\x00\x00\x00\xf0?\x00\x00\x00\x00\x00\x00\xf0\xbf\x00\x00\x00\x00\x00\x00\xf0?\x00\x00\x00\x00\x00\x00\xf0\xbf\x00\x00\x00\x00\x00\x00\xf0?\x00\x00\x00\x00\x00\x00\xf0\xbf\x00\x00\x00\x00\x00\x00\xf0?\x00\x00\x00\x00\x00\x00\xf0\xbf\x00\x00\x00\x00\x00\x00\xf0?\x00\x00\x00\x00\x00\x00\xf0\xbf\x00\x00\x00\x00\x00\x00\xf0?\x00\x00\x00\x00\x00\x00\xf0\xbf\x00\x00\x00\x00\x00\x00\xf0?\x00\x00\x00\x00\x00\x00\xf0\xbf\x00\x00\x00\x00\x00\x00\xf0?\x00\x00\x00\x00\x00\x00\xf0\xbf\x00\x00\x00\x00\x00\x00\xf0?\x00\x00\x00\x00\x00\x00\xf0\xbf\x00\x00\x00\x00\x00\x00\xf0?\x00\x00\x00\x00\x00\x00\xf0\xbf\x00\x00\x00\x00\x00\x00\xf0?\x00\x00\x00\x00\x00\x00\xf0\xbf\x00\x00\x00\x00\x00\x00\xf0?\x00\x00\x00\x00\x00\x00\xf0\xbf\x00\x00\x00\x00\x00\x00\xf0?\x00\x00\x00\x00\x00\x00\xf0\xbf\x00\x00\x00\x00\x00\x00\xf0?'
p70
tp71
bsS'out'
p72
g18
(g19
(I0
tp73
g21
tp74
Rp75
(I1
(I57
tp76
g28
I00
S"3M<\x10\x9f\xfe\xef?WB\xd2\xeat\xa0\xeb?\x17k\xa0\xfc\xe8\xf8\xef\xbf\x15\xe9L\xcc\x18\xaa\xcb?Z\xc0\xd3\x08\xfd\xe4\x9f\xbfw\x10\xb6\xfe\xff\xff\xef?X\x93\xe1B3\x9a\xe6?\xbbc\xbf\x11\xf9\xff\xef\xbf\xacf\x8d\x1b[\x13\xb3?\xb35\xe4i\xa5\x17\xe8? ,{f\xda\xff\xef\xbf\xbc\x92\xabg\xfe\xff\xef\xbf\x0e\xc5\x9ca\x15\xca\xec\xbf+Z\x00+\x8a\x11\xee?N\xb1\xab\xe3\xff\xff\xef\xbf\xe9\x08|\xa1\xef\xff\xef\xbf\xd7\xf1\xa6\xca\xf4\xff\xef\xbf\xd5\x03\x8d\x11\xfd\xff\xef\xbfF\x8a\xbb{>\x05\xea\xbf@\x8dO\xdc\xfa\xff\xef\xbf^W\xdf\xf3\x8d\x96\x9b\xbf\xd4\xdb@\x03\x9a\xa0\xef\xbfX\xd1\x97qt\xf2\xe1\xbf\xfa+\x97\x9d\xab\xc5\xef?\x1a\x0f\xa7b4\xd7\xed?\x95q\x93\x15X\x8b\xd1\xbf]\x90\xea\xc7\x03>\xe9?\xa1\xf4\xadU\x00\xea\xef\xbf\r\xd3f\x15\xbb(\xe5?\xa4d\xad~Ie\xea?\x1e\x87\xd8&\xafE\xdb\xbfX\xb1\xab\x1a\xf5\xfe\xef?)\x0esR\xe2\xe3\xef\xbf\xf5\x8e%\xd0w\x1b\xba\xbf7\xbaB\xb6\xf9\x94\xde\xbf\x90\xb3\xa5V\xe6w\xd5?R\xde\xc9\x1a=\xee\xd6?\x18x\x17U\xef\x9a\xce\xbfDEW\xbf\xfc\xff\xef\xbf\xce)\xfa\xf94\r\xee\xbf\xda\xc9;&f\x92\xea?)\n\xcb*[\r\xe9?\xe8\xd8u\x9aD\xfe\xef?\xdb\xd9\x0c\x10\x1e4\xef?x<\x9c{\x10\xfd\xef?\x9d]!}R$\xed?B\xe8#\xb3-'\xe2?R\xb7^\x9f\xcc\xe0\xee?\xb5W\xce\xb5s\x89\xef\xbfy\x91\xd1\xdbf\xff\xef\xbfr9c\xbf\xf2\xd5\xeb\xbfp\xfd\xed\x1aQ\r\xe8\xbfD\x7fx\xa4\xfc\xff\xef?o\xb76\x8a\x1cN\xef\xbfb\xaa\x97gl\xfd\xe3\xbfz\x8f#>J\xf4\xef\xbf,(\xaf\xb5\xef\xfb\xef?"
p77
tp78
bsbag0
(g8
g2
Ntp79
Rp80
(dp81
g12
g13
sg14
I57
sg15
I1
sg16
I1
sg17
g18
(g19
(I0
tp82
g21
tp83
Rp84
(I1
(I57
I2
tp85
g28
I00
S'\x00\x00\x00\x00\x00\x00\xf0\xbf\x00\x00\x00\x00\x00\x00\xf0?\x00\x00\x00\x00\x00\x00\xf0\xbf\x00\x00\x00\x00\x00\x00\xf0?\x00\x00\x00\x00\x00\x00\xf0\xbf\x00\x00\x00\x00\x00\x00\xf0?\x00\x00\x00\x00\x00\x00\xf0\xbf\x00\x00\x00\x00\x00\x00\xf0?\x00\x00\x00\x00\x00\x00\xf0\xbf\x00\x00\x00\x00\x00\x00\xf0?\x00\x00\x00\x00\x00\x00\xf0\xbf\x00\x00\x00\x00\x00\x00\xf0?\x00\x00\x00\x00\x00\x00\xf0\xbf\x00\x00\x00\x00\x00\x00\xf0?\x00\x00\x00\x00\x00\x00\xf0\xbf\x00\x00\x00\x00\x00\x00\xf0?\x00\x00\x00\x00\x00\x00\xf0\xbf\x00\x00\x00\x00\x00\x00\xf0?\x00\x00\x00\x00\x00\x00\xf0\xbf\x00\x00\x00\x00\x00\x00\xf0?\x00\x00\x00\x00\x00\x00\xf0\xbf\x00\x00\x00\x00\x00\x00\xf0?\x00\x00\x00\x00\x00\x00\xf0\xbf\x00\x00\x00\x00\x00\x00\xf0?\x00\x00\x00\x00\x00\x00\xf0\xbf\x00\x00\x00\x00\x00\x00\xf0?\x00\x00\x00\x00\x00\x00\xf0\xbf\x00\x00\x00\x00\x00\x00\xf0?\x00\x00\x00\x00\x00\x00\xf0\xbf\x00\x00\x00\x00\x00\x00\xf0?\x00\x00\x00\x00\x00\x00\xf0\xbf\x00\x00\x00\x00\x00\x00\xf0?\x00\x00\x00\x00\x00\x00\xf0\xbf\x00\x00\x00\x00\x00\x00\xf0?\x00\x00\x00\x00\x00\x00\xf0\xbf\x00\x00\x00\x00\x00\x00\xf0?\x00\x00\x00\x00\x00\x00\xf0\xbf\x00\x00\x00\x00\x00\x00\xf0?\x00\x00\x00\x00\x00\x00\xf0\xbf\x00\x00\x00\x00\x00\x00\xf0?\x00\x00\x00\x00\x00\x00\xf0\xbf\x00\x00\x00\x00\x00\x00\xf0?\x00\x00\x00\x00\x00\x00\xf0\xbf\x00\x00\x00\x00\x00\x00\xf0?\x00\x00\x00\x00\x00\x00\xf0\xbf\x00\x00\x00\x00\x00\x00\xf0?\x00\x00\x00\x00\x00\x00\xf0\xbf\x00\x00\x00\x00\x00\x00\xf0?\x00\x00\x00\x00\x00\x00\xf0\xbf\x00\x00\x00\x00\x00\x00\xf0?\x00\x00\x00\x00\x00\x00\xf0\xbf\x00\x00\x00\x00\x00\x00\xf0?\x00\x00\x00\x00\x00\x00\xf0\xbf\x00\x00\x00\x00\x00\x00\xf0?\x00\x00\x00\x00\x00\x00\xf0\xbf\x00\x00\x00\x00\x00\x00\xf0?\x00\x00\x00\x00\x00\x00\xf0\xbf\x00\x00\x00\x00\x00\x00\xf0?\x00\x00\x00\x00\x00\x00\xf0\xbf\x00\x00\x00\x00\x00\x00\xf0?\x00\x00\x00\x00\x00\x00\xf0\xbf\x00\x00\x00\x00\x00\x00\xf0?\x00\x00\x00\x00\x00\x00\xf0\xbf\x00\x00\x00\x00\x00\x00\xf0?\x00\x00\x00\x00\x00\x00\xf0\xbf\x00\x00\x00\x00\x00\x00\xf0?\x00\x00\x00\x00\x00\x00\xf0\xbf\x00\x00\x00\x00\x00\x00\xf0?\x00\x00\x00\x00\x00\x00\xf0\xbf\x00\x00\x00\x00\x00\x00\xf0?\x00\x00\x00\x00\x00\x00\xf0\xbf\x00\x00\x00\x00\x00\x00\xf0?\x00\x00\x00\x00\x00\x00\xf0\xbf\x00\x00\x00\x00\x00\x00\xf0?\x00\x00\x00\x00\x00\x00\xf0\xbf\x00\x00\x00\x00\x00\x00\xf0?\x00\x00\x00\x00\x00\x00\xf0\xbf\x00\x00\x00\x00\x00\x00\xf0?\x00\x00\x00\x00\x00\x00\xf0\xbf\x00\x00\x00\x00\x00\x00\xf0?\x00\x00\x00\x00\x00\x00\xf0\xbf\x00\x00\x00\x00\x00\x00\xf0?\x00\x00\x00\x00\x00\x00\xf0\xbf\x00\x00\x00\x00\x00\x00\xf0?\x00\x00\x00\x00\x00\x00\xf0\xbf\x00\x00\x00\x00\x00\x00\xf0?\x00\x00\x00\x00\x00\x00\xf0\xbf\x00\x00\x00\x00\x00\x00\xf0?\x00\x00\x00\x00\x00\x00\xf0\xbf\x00\x00\x00\x00\x00\x00\xf0?\x00\x00\x00\x00\x00\x00\xf0\xbf\x00\x00\x00\x00\x00\x00\xf0?\x00\x00\x00\x00\x00\x00\xf0\xbf\x00\x00\x00\x00\x00\x00\xf0?\x00\x00\x00\x00\x00\x00\xf0\xbf\x00\x00\x00\x00\x00\x00\xf0?\x00\x00\x00\x00\x00\x00\xf0\xbf\x00\x00\x00\x00\x00\x00\xf0?\x00\x00\x00\x00\x00\x00\xf0\xbf\x00\x00\x00\x00\x00\x00\xf0?\x00\x00\x00\x00\x00\x00\xf0\xbf\x00\x00\x00\x00\x00\x00\xf0?\x00\x00\x00\x00\x00\x00\xf0\xbf\x00\x00\x00\x00\x00\x00\xf0?\x00\x00\x00\x00\x00\x00\xf0\xbf\x00\x00\x00\x00\x00\x00\xf0?\x00\x00\x00\x00\x00\x00\xf0\xbf\x00\x00\x00\x00\x00\x00\xf0?\x00\x00\x00\x00\x00\x00\xf0\xbf\x00\x00\x00\x00\x00\x00\xf0?\x00\x00\x00\x00\x00\x00\xf0\xbf\x00\x00\x00\x00\x00\x00\xf0?\x00\x00\x00\x00\x00\x00\xf0\xbf\x00\x00\x00\x00\x00\x00\xf0?'
p86
tp87
bsg33
g75
sg40
g18
(g19
(I0
tp88
g21
tp89
Rp90
(I1
(I1
tp91
g28
I00
S'\xfc\xb5\xbc\x80\xc7\x00\xd9?'
p92
tp93
bsg47
(dp94
g21
g18
(g19
(I0
tp95
g21
tp96
Rp97
(I1
(I1
tp98
g28
I00
S'\x8b&3\xa5U\x84\xb0?'
p99
tp100
bsg55
g18
(g19
(I0
tp101
g21
tp102
Rp103
(I1
(I1
I57
tp104
g28
I00
S'z\xb8_\xf3}\xe8\xcb\xbf \xe8"O\x932\xb7\xbf(\xd1\xbb\xa3\xc8\xea\xcf?\xb7hr\x18\xab\xad\xb0?r\xab\x10\xf0\xe4O\xcb\xbfV(\t\x86\x91X\xb1\xbf\'+\xa9Pa<\xa5?2C\xf4\x0e6w\xb7?y\x838\x84\xaaP\xbd?]\xf7i\xc4d\x04\xcb?\xd9p\xed\x9e\xa9C\xc6\xbfq\xd53P\xb3\xe7\xc7?{\x90\xa4\x8d\xff\xd0\xb8\xbf\x00Q\xea\x9d}-\xc0?\xa0\xc7\xbb<\xedg\xb2\xbf\xec?\x0f@\x8a\x89\x8a?\xfeJ\x12\x04\x85j\xc2\xbf\xed\xfa\x1c\xa7\x19\xca\xa4\xbf\x18.\xedm\xcc\x12\xab\xbf\xeb\xca\xd5\xcc\xef\x8c\xd5\xbf\x10\xd4ws\xde\x81\xc7\xbf1c7\x81p\xb7\xb7?\x1bJ\xe9u4s\xc0\xbf\xd0ia\x85\xf6\xc3\xbd?~\xa33\xac\x0cL\xa7\xbf\xbf\x9c\x07\xdb\xef5\x9d\xbf\x15\xfd\xc6\xffhs\x8b?\x1a\xbd\xd9u\x10\x94\xac?\xb6\xa5\xd1\x91\xd7J\xc6\xbf\x03!\x7f\x05\x9f\x80\xc8?\\\xbc\xd8\x87\xa1\x11\xb6\xbf\xd6\x12\xff\xe7\xd7h\xd4\xbfY?\xf4\x00>\x8d\x84\xbf\xb3%\xa5\x16_\xac\x93?\xd4\x7f\x0er\xce\xcc\xa2?\x1a}\x93E\x18^\xcb\xbf\x7fXiy\x81n\xc1\xbfu\xf3\x08?^\x9e\x96?G\x8e,=4O\xd6\xbf!\xc5\xcf"[{\xb9?>\x86\xaa?\x9fH\x9e\xbf\x84#6@0\x88\x9e?\x93\xb1\xb2\x8aX\x90\xd1\xbf\xc6iZ\xdf\xdf\x8e\xbf\xbfY/g(\xf8U\xd7?fG\x16\xff\xfe\x13\xc5?\xef\x86Q\x7f\x1ei\xa0\xbf\x91U\xb3\x9d\xe9\xcf\xbd\xbf\xd5\x07V\x0c\x94~\xc0?\x84\x06K\xca\xb2\x1f\xcd\xbf(\xe0I\x03\xb1\xbb\xc4\xbf\xf7\xa3\x95\xd14\x1c[?T13=;\xae\xcc?WL\x87\xd0b\xd0\xbc?!\xe9\xc2I:#\xaa?\xb9\xd4\xbcVA\xd5\x98?\xf7\xf6*_\xcdg\xc8\xbf'
p105
tp106
bssg62
g63
sg65
g18
(g19
(I0
tp107
g21
tp108
Rp109
(I1
(I1
I2
tp110
g28
I00
S'\x00\x00\x00\x00\x00\x00\xf0\xbf\x00\x00\x00\x00\x00\x00\xf0?'
p111
tp112
bsg72
g18
(g19
(I0
tp113
g21
tp114
Rp115
(I1
(I1
tp116
g28
I00
S'\na"\xfe\xdc\xcd\xd7?'
p117
tp118
bsbasg14
I10
sg15
I1
sg17
g18
(g19
(I0
tp119
g21
tp120
Rp121
(I1
(I10
I2
tp122
g28
I00
S'\x00\x00\x00\x00\x00\x00\x00\x00\x00\x00\x00\x00\x00\x00\xf0?\x00\x00\x00\x00\x00\x00\x00\x00\x00\x00\x00\x00\x00\x00\xf0?\x00\x00\x00\x00\x00\x00\x00\x00\x00\x00\x00\x00\x00\x00\xf0?\x00\x00\x00\x00\x00\x00\x00\x00\x00\x00\x00\x00\x00\x00\xf0?\x00\x00\x00\x00\x00\x00\x00\x00\x00\x00\x00\x00\x00\x00\xf0?\x00\x00\x00\x00\x00\x00\x00\x00\x00\x00\x00\x00\x00\x00\xf0?\x00\x00\x00\x00\x00\x00\x00\x00\x00\x00\x00\x00\x00\x00\xf0?\x00\x00\x00\x00\x00\x00\x00\x00\x00\x00\x00\x00\x00\x00\xf0?\x00\x00\x00\x00\x00\x00\x00\x00\x00\x00\x00\x00\x00\x00\xf0?\x00\x00\x00\x00\x00\x00\x00\x00\x00\x00\x00\x00\x00\x00\xf0?'
p123
tp124
bsg33
g36
sS'trainf'
p125
g0
(cneurolab.core
Trainer
p126
g2
Ntp127
Rp128
(dp129
S'_train_class'
p130
cneurolab.train.spo
TrainCG
p131
sS'__module__'
p132
S'neurolab.train.spo'
p133
sS'params'
p134
(dp135
S'epochs'
p136
I4000
sS'train'
p137
(dp138
S'rr'
p139
I0
ssS'goal'
p140
F2e-05
sS'show'
p141
I0
ssS'defaults'
p142
(dp143
g136
I500
sg137
(dp144
g139
I0
ssg140
F0.01
sg141
I100
ssS'error'
p145
(lp146
cnumpy.core.multiarray
scalar
p147
(g28
S'\x85\x13<\xd5,dP@'
p148
tp149
Rp150
ag147
(g28
S'\xdb(,\xa8]wN@'
p151
tp152
Rp153
ag147
(g28
S'\x80\xe1\xc3g\x96\x1fN@'
p154
tp155
Rp156
ag147
(g28
S'\x15\xb5\xf8az\xac;@'
p157
tp158
Rp159
ag147
(g28
S'\x8a\x8fr\xb4\x0e\xc3:@'
p160
tp161
Rp162
ag147
(g28
S'\xcc\xbf\xa3>\xd0\xa5:@'
p163
tp164
Rp165
ag147
(g28
S'\x8b\xe8\xaa\xfb\xb0\xaf7@'
p166
tp167
Rp168
ag147
(g28
S'\xaf\xbf\xfa\xecC\xa07@'
p169
tp170
Rp171
ag147
(g28
S'\xf4\x1e\xc1M\x9e\x1d5@'
p172
tp173
Rp174
ag147
(g28
S'i\x1d\xe85\xd9\x923@'
p175
tp176
Rp177
asS'__name__'
p178
S'TrainCG'
p179
sS'__doc__'
p180
S'\n    Newton-CG method\n    Using scipy.optimize.fmin_ncg\n\n    :Support networks:\n        newff (multi-layers perceptron)\n    :Parameters:\n        input: array like (l x net.ci)\n            train input patterns\n        target: array like (l x net.co)\n            train target patterns\n        epochs: int (default 500)\n            Number of train epochs\n        show: int (default 100)\n            Print period\n        goal: float (default 0.01)\n            The goal of train\n        rr float (defaults 0.0)\n            Regularization ratio\n            Must be between {0, 1}\n        \n    '
p181
sbsS'connect'
p182
(lp183
(lp184
I-1
aa(lp185
I0
aa(lp186
I1
aasS'errorf'
p187
(ineurolab.error
SSE
p188
(dp189
bsg65
g18
(g19
(I0
tp190
g21
tp191
Rp192
(I1
(I1
I2
tp193
g28
I00
S'\x00\x00\x00\x00\x00\x00\xf0\xbf\x00\x00\x00\x00\x00\x00\xf0?'
p194
tp195
bsg72
g115
sb.