Target,Output
 0.26446281, 0.21716148
 0.1446281, 0.01629047
 0.17768595, 0.02520972
 0.10330579, 0.08299604
 0.11983471, 0.08691054
 0.0785124, 0.10261268
 0.13636364, 0.17564709
 0.08264463, 0.13743644
 0.18595041, 0.09565735
 0.08264463, 0.27859756
 0.08264463, 0.19977222
 0.18595041, 0.21309971
 0.21487603, 0.27753234
 0.28512397, 0.22862498
 0.62809917, 0.40320384
 0.69421488, 0.72700837
 0.90495868, 0.72405669
 0.88016529, 0.78955069
 0.81404959, 0.78001114
 0.62809917, 0.7131041
 0.54132231, 0.49462551
 0.35950413, 0.4341443
 0.47520661, 0.27439494
 0.41735537, 0.3049398
 0.3677686, 0.25922164
 0.17355372, 0.14460839
 0.21900826, 0.09729029
 0.28512397, 0.12433599
 0.19834711, 0.10874786
 0.11570248, 0.12528169
 0.19421488, 0.14623287
 0.24380165, 0.1647344
 0.22727273, 0.26102532
 0.12809917, 0.2871739
 0.1446281, 0.17047658
 0.18595041, 0.19742741
 0.19008264, 0.22903384
 0.2107438, 0.23348095
 0.26446281, 0.36619872
 0.30165289, 0.5298185
 0.54958678, 0.4763312
 0.69834711, 0.67362293
 0.59504132, 0.63853286
 0.71487603, 0.55526903
 0.5661157, 0.71417355
 0.35950413, 0.50117332
 0.18181818, 0.28821995
 0.11570248, 0.27436808
 0.15702479, 0.1499073
 0.11157025, 0.10453992
 0.12809917, 0.12910527
 0.07438017, 0.10974817
 0.06198347, 0.09709646
 0.03719008, 0.13443356
 0.18181818, 0.19016985
 0.0661157, 0.20628857
 0.06198347, 0.13846755
 0.06198347, 0.13205344
 0.16528926, 0.1169467
 0.2107438, 0.21543925
 0.16942149, 0.3327167
 0.12396694, 0.29441615
 0.04958678, 0.26995281
 0.11983471, 0.24453961
 0.25619835, 0.15130484
 0.31818182, 0.22261126
 0.30578512, 0.25533476
 0.39256198, 0.2780927
 0.40909091, 0.44235436
 0.40082645, 0.40196352
 0.45041322, 0.34513798
 0.24793388, 0.39521998
 0.09917355, 0.13309239
 0.04545455, 0.05762255
 0.08264463, 0.12507811
 0.04545455, 0.13143097
 0.18595041, 0.13330231
 0.09917355, 0.23922716
 0.11157025, 0.0855658
 0.10330579, 0.11659146
 0.03719008, 0.09218633
 0.02479339, 0.02541369
 0.16528926, 0.095139
 0.23140496, 0.20660661
 0.19421488, 0.18758064
 0.21487603, 0.15544739
 0.18181818, 0.18313395
 0.11983471, 0.12512633
 0.20661157, 0.17230993
 0.24793388, 0.30299097
 0.24793388, 0.31511305
 0.22727273, 0.33696075
 0.3677686, 0.27733521
 0.43801653, 0.41960195
 0.38429752, 0.39942922
 0.34710744, 0.30678687
 0.17768595, 0.23629081
 0.09090909, 0.14357463
 0.17768595, 0.12923113
 0.40909091, 0.19961396
 0.41322314, 0.31861984
 0.19008264, 0.28754486
 0.19008264, 0.15126236
 0.04132231, 0.13818193
 0.04132231, 0.11275881
 0.08264463, 0.1194605
 0.19834711, 0.15576534
 0.21900826, 0.23854034
 0.16115702, 0.22985122
 0.08264463, 0.20059306
 0.08264463, 0.08772215
 0.16942149, 0.14447724
 0.23140496, 0.24004889
 0.22727273, 0.32643104
 0.2892562, 0.29863918
 0.31404959, 0.40162622
 0.3553719, 0.36679391
 0.40909091, 0.36768925
 0.38429752, 0.39545948
 0.37603306, 0.32064597
 0.2892562, 0.30482818
 0.12809917, 0.21999677
 0.17768595, 0.15863014
 0.1446281, 0.23296345
 0.09504132, 0.20507316
 0.08264463, 0.1529431
 0.12809917, 0.07151373
 0.11570248, 0.08336216
 0.10743802, 0.11777179
 0.23140496, 0.1503123
 0.19834711, 0.23489154
 0.16115702, 0.23695542
 0.20247934, 0.19692003
 0.11983471, 0.1567092
 0.18181818, 0.09176627
 0.17355372, 0.19666481
 0.19834711, 0.19995858
 0.20247934, 0.22476273
 0.30578512, 0.27399341
 0.2768595, 0.34188862
 0.37603306, 0.27151925
 0.45867769, 0.43726641
 0.35950413, 0.48601252
 0.40082645, 0.37982042
 0.4214876, 0.37748643
 0.57024793, 0.34644832
 0.6322314, 0.41091558
 0.48760331, 0.4674451
 0.70247934, 0.29419614
 0.61983471, 0.52286473
 0.51239669, 0.39126954
 0.21487603, 0.27357711
 0.12396694, 0.20311103
 0.10743802, 0.17276407
 0.04132231, 0.14773485
 0.04132231, 0.11014594
 0.05785124, 0.07896966
 0.12809917, 0.08622036
 0.23553719, 0.09343507
 0.28512397, 0.23288153
 0.23140496, 0.23959031
 0.31404959, 0.30141456
 0.28099174, 0.46995285
 0.24380165, 0.34869394
 0.23140496, 0.30772434
 0.26033058, 0.32002621
 0.32644628, 0.30869156
 0.25206612, 0.29027951
 0.41735537, 0.274742
 0.52892562, 0.43355503
 0.55785124, 0.52564852
 0.52066116, 0.58196575
 0.75619835, 0.455134
 0.33057851, 0.69465513
 0.53719008, 0.19321221
 0.40495868, 0.3091568
 0.60743802, 0.25071008
 0.45454545, 0.28686346
 0.23553719, 0.29305828
 0.0785124, 0.2055935
 0.10330579, 0.13280544
 0.09090909, 0.13663715
 0.19008264, 0.125605
 0.15702479, 0.16194206
 0.18181818, 0.13478674
 0.24793388, 0.15802263
 0.19834711, 0.26279896
 0.29752066, 0.18867154
 0.35950413, 0.29897569
 0.42975207, 0.46154812
 0.49586777, 0.47218837
 0.65289256, 0.57729059
 0.55371901, 0.65966371
 0.32644628, 0.59249864
 0.26446281, 0.34649465
 0.39256198, 0.28222565
 0.42561983, 0.31444781
 0.2892562, 0.30925235
 0.08677686, 0.20933656
 0.20247934, 0.18444886
 0.10330579, 0.15246739
 0.03719008, 0.14743209
 0.08677686, 0.14842987
 0.18181818, 0.12948599
 0.21487603, 0.17575359
 0.26859504, 0.23473003
 0.33884298, 0.38370743
 0.33884298, 0.46222711
 0.38429752, 0.42336552
 0.41735537, 0.44405513
 0.39669421, 0.44479862
 0.54545455, 0.41166161
 0.4214876, 0.4595333
 0.38842975, 0.34881769
 0.50826446, 0.37101145
 0.47520661, 0.43021375
 0.29752066, 0.3677025
 0.32231405, 0.23701884
 0.18595041, 0.25553344
 0.17355372, 0.13499549
 0.08677686, 0.14601875
 0.09917355, 0.14519951
 0.08677686, 0.15745361
 0.10330579, 0.14320398
 0.16115702, 0.14437484
 0.14876033, 0.12935911
 0.2107438, 0.14077432
 0.11157025, 0.19798358
 0.17355372, 0.1634055
 0.29338843, 0.26219495
 0.36363636, 0.33119506
 0.3553719, 0.38226864
 0.34297521, 0.43925282
 0.25619835, 0.37833672
 0.13636364, 0.28098351
 0.35123967, 0.2217838
 0.45867769, 0.40678247
 0.21487603, 0.40808043
 0.23966942, 0.24122867
 0.20661157, 0.27055313
 0.1322314, 0.1813612
 0.12809917, 0.12511791
 0.17355372, 0.17502465
 0.16528926, 0.14332589
 0.10743802, 0.11649503
 0.14049587, 0.15652502
 0.18595041, 0.13026338
 0.18595041, 0.18700466
 0.18181818, 0.19275867
 0.17355372, 0.16843827
 0.24380165, 0.13815903
 0.34710744, 0.20132122
 0.18595041, 0.27752763
 0.25206612, 0.19149451
 0.23553719, 0.31226025
 0.25619835, 0.2509681
 0.28099174, 0.30123966
 0.32644628, 0.2734399
 0.21487603, 0.30499639
 0.21487603, 0.24107431
 0.17768595, 0.30132023
 0.30991736, 0.21463898
 0.38842975, 0.28439012
 0.14049587, 0.33213269
 0.35950413, 0.11773279
 0.11157025, 0.28910923
 0.04545455, 0.1339988
 0.22727273, 0.13353401
 0.23553719, 0.24318415
 0.09090909, 0.2214284
 0.20247934, 0.08829312
 0.09504132, 0.23782737
 0.04132231, 0.09417938
 0.1322314, 0.1438581
 0.38429752, 0.21189749
 0.51652893, 0.37097474
 0.4338843, 0.4755938
 0.45041322, 0.39380778
 0.44628099, 0.47952203
 0.69834711, 0.44245056
 0.54958678, 0.55447764
 0.38016529, 0.46085494
 0.3677686, 0.34954305
 0.37190083, 0.30141311
 0.2892562, 0.27324259
 0.16115702, 0.21925668
 0.20661157, 0.19046659
 0.12396694, 0.18698249
 0.26446281, 0.13365613
 0.18595041, 0.22804424
 0.09504132, 0.10567128
 0.12809917, 0.12509385
 0.14049587, 0.1910505
 0.08264463, 0.18542381
 0.12809917, 0.07652495
 0.14876033, 0.17597223
 0.17355372, 0.11699403
 0.13636364, 0.1980271
 0.11157025, 0.2071816
 0.2231405, 0.20122911
 0.13636364, 0.38355962
 0.26859504, 0.16080692
 0.2768595, 0.29107426
 0.30991736, 0.35843476
 0.38842975, 0.35626876
 0.37190083, 0.36907222
 0.48760331, 0.35939137
 0.4338843, 0.45259914
 0.23966942, 0.31721326
 0.26446281, 0.1750301
 0.23553719, 0.19230609
 0.20661157, 0.17529641
 0.17355372, 0.17281712
 0.11570248, 0.17362278
 0.02892562, 0.08442283
 0.08264463, 0.10302751
 0.11983471, 0.1388027
 0.12809917, 0.16731329
 0.18595041, 0.14766882
 0.1322314, 0.18522084
 0.15702479, 0.14372667
 0.16528926, 0.14491639
 0.19834711, 0.19226808
 0.2231405, 0.20126184
 0.12396694, 0.28299993
 0.1446281, 0.1614039
 0.34297521, 0.20450769
 0.37190083, 0.42877298
 0.39256198, 0.36572184
 0.28099174, 0.43521339
 0.39669421, 0.3214593
 0.3677686, 0.44121083
 0.2107438, 0.32241446
 0.18595041, 0.16952978
 0.09504132, 0.19496312
 0.11570248, 0.14268901
 0.18181818, 0.13087263
 0.2231405, 0.17849017
 0.20247934, 0.16459752
 0.21900826, 0.17692362
 0.1446281, 0.19478407
 0.16115702, 0.15057018
 0.14876033, 0.19216013
 0.1446281, 0.16894239
 0.16942149, 0.15602175
 0.09504132, 0.16247842
 0.11157025, 0.11726706
 0.17355372, 0.14062896
 0.19008264, 0.19732725
 0.19421488, 0.23183811
 0.25619835, 0.25110835
 0.32231405, 0.40458382
 0.26859504, 0.37478335
 0.33884298, 0.32238584
 0.34710744, 0.3611708
 0.32231405, 0.32798243
 0.3677686, 0.266462
 0.19008264, 0.25150355
 0.25619835, 0.14836324
 0.42975207, 0.2244224
 0.23553719, 0.34282662
 0.27272727, 0.2041946
 0.2231405, 0.25006714
 0.2231405, 0.19288054
 0.16528926, 0.17502961
 0.0785124, 0.1700986
 0.18181818, 0.11621441
 0.19834711, 0.17132859
 0.18181818, 0.19370969
 0.11570248, 0.17171642
 0.09917355, 0.14267073
 0.11983471, 0.13935944
 0.24793388, 0.17466973
 0.23553719, 0.30162515
 0.26446281, 0.26156077
 0.28099174, 0.31645335
 0.28512397, 0.33480712
 0.37603306, 0.27728428
 0.17768595, 0.35425398
 0.77272727, 0.20843721
 0.47520661, 0.71164374
 0.24793388, 0.37168588
 0.2231405, 0.21728148
 0.28512397, 0.25364959
 0.30991736, 0.28534205
 0.19834711, 0.22504903
 0.1322314, 0.20420788
 0.0785124, 0.07152296
 0.09917355, 0.12794205
 0.12396694, 0.16312699
 0.11983471, 0.16317582
 0.15289256, 0.19435852
 0.15289256, 0.15011303
 0.12396694, 0.16750751
 0.10330579, 0.0710826
 0.08264463, 0.1581648
 0.12809917, 0.14541293
 0.17355372, 0.16425311
 0.2107438, 0.24011033
 0.25619835, 0.19682424
 0.2231405, 0.31409867
 0.37190083, 0.19992604
 0.44214876, 0.46715344
 0.35123967, 0.43736736
 0.39256198, 0.43677079
 0.28512397, 0.36209266
 0.2892562, 0.20266427
 0.08677686, 0.26351665
 0.27272727, 0.15124764
 0.26033058, 0.23456054
 0.1446281, 0.19814448
 0.05371901, 0.13832607
 0.12396694, 0.07416955
 0.18595041, 0.17915346
 0.13636364, 0.14433642
 0.16942149, 0.18047089
 0.12396694, 0.16226532
 0.0661157, 0.12211207
 0.09917355, 0.09741465
 0.10743802, 0.12605608
 0.14876033, 0.13242031
 0.17355372, 0.18360296
 0.28099174, 0.25755036
 0.34297521, 0.32024796
 0.33057851, 0.36512257
 0.38016529, 0.38401279
 0.3677686, 0.46448559
 0.74380165, 0.43444858
 0.45867769, 0.64734968
 0.2107438, 0.39846549
 0.24793388, 0.1647625
 0.46694215, 0.25900672
 0.37190083, 0.327611
 0.23140496, 0.26885835
 0.18595041, 0.1991245
 0.11983471, 0.12475886
 0.10330579, 0.1560886
 0.09090909, 0.16925165
 0.0661157, 0.16235211
 0.13636364, 0.12177532
 0.12396694, 0.13753868
 0.06198347, 0.13187195
 0.09917355, 0.0747385
 0.14876033, 0.15266168
 0.20247934, 0.19141802
 0.27272727, 0.27324771
 0.32644628, 0.30662096
 0.47520661, 0.3781999
 0.54545455, 0.61174897
 0.55371901, 0.50688476
 0.49586777, 0.53090481
 0.52892562, 0.53522848
 0.54545455, 0.5780077
