ccopy_reg
_reconstructor
p0
(cneurolab.core
Net
p1
c__builtin__
object
p2
Ntp3
Rp4
(dp5
S'layers'
p6
(lp7
g0
(cneurolab.layer
Perceptron
p8
g2
Ntp9
Rp10
(dp11
S'initf'
p12
cneurolab.init
initnw
p13
sS'ci'
p14
I58
sS'co'
p15
I43
sS'cn'
p16
I43
sS'inp_minmax'
p17
cnumpy.core.multiarray
_reconstruct
p18
(cnumpy
ndarray
p19
(I0
tp20
S'b'
p21
tp22
Rp23
(I1
(I58
I2
tp24
cnumpy
dtype
p25
(S'f8'
p26
I0
I1
tp27
Rp28
(I3
S'<'
p29
NNNI-1
I-1
I0
tp30
bI00
S'\x00\x00\x00\x00\x00\x00\x00\x00\x00\x00\x00\x00\x00\x00\xf0?\x00\x00\x00\x00\x00\x00\x00\x00\x00\x00\x00\x00\x00\x00\xf0?\x00\x00\x00\x00\x00\x00\x00\x00\x00\x00\x00\x00\x00\x00\xf0?\x00\x00\x00\x00\x00\x00\x00\x00\x00\x00\x00\x00\x00\x00\xf0?\x00\x00\x00\x00\x00\x00\x00\x00\x00\x00\x00\x00\x00\x00\xf0?\x00\x00\x00\x00\x00\x00\x00\x00\x00\x00\x00\x00\x00\x00\xf0?\x00\x00\x00\x00\x00\x00\x00\x00\x00\x00\x00\x00\x00\x00\xf0?\x00\x00\x00\x00\x00\x00\x00\x00\x00\x00\x00\x00\x00\x00\xf0?\x00\x00\x00\x00\x00\x00\x00\x00\x00\x00\x00\x00\x00\x00\xf0?\x00\x00\x00\x00\x00\x00\x00\x00\x00\x00\x00\x00\x00\x00\xf0?\x00\x00\x00\x00\x00\x00\x00\x00\x00\x00\x00\x00\x00\x00\xf0?\x00\x00\x00\x00\x00\x00\x00\x00\x00\x00\x00\x00\x00\x00\xf0?\x00\x00\x00\x00\x00\x00\x00\x00\x00\x00\x00\x00\x00\x00\xf0?\x00\x00\x00\x00\x00\x00\x00\x00\x00\x00\x00\x00\x00\x00\xf0?\x00\x00\x00\x00\x00\x00\x00\x00\x00\x00\x00\x00\x00\x00\xf0?\x00\x00\x00\x00\x00\x00\x00\x00\x00\x00\x00\x00\x00\x00\xf0?\x00\x00\x00\x00\x00\x00\x00\x00\x00\x00\x00\x00\x00\x00\xf0?\x00\x00\x00\x00\x00\x00\x00\x00\x00\x00\x00\x00\x00\x00\xf0?\x00\x00\x00\x00\x00\x00\x00\x00\x00\x00\x00\x00\x00\x00\xf0?\x00\x00\x00\x00\x00\x00\x00\x00\x00\x00\x00\x00\x00\x00\xf0?\x00\x00\x00\x00\x00\x00\x00\x00\x00\x00\x00\x00\x00\x00\xf0?\x00\x00\x00\x00\x00\x00\x00\x00\x00\x00\x00\x00\x00\x00\xf0?\x00\x00\x00\x00\x00\x00\x00\x00\x00\x00\x00\x00\x00\x00\xf0?\x00\x00\x00\x00\x00\x00\x00\x00\x00\x00\x00\x00\x00\x00\xf0?\x00\x00\x00\x00\x00\x00\x00\x00\x00\x00\x00\x00\x00\x00\xf0?\x00\x00\x00\x00\x00\x00\x00\x00\x00\x00\x00\x00\x00\x00\xf0?\x00\x00\x00\x00\x00\x00\x00\x00\x00\x00\x00\x00\x00\x00\xf0?\x00\x00\x00\x00\x00\x00\x00\x00\x00\x00\x00\x00\x00\x00\xf0?\x00\x00\x00\x00\x00\x00\x00\x00\x00\x00\x00\x00\x00\x00\xf0?\x00\x00\x00\x00\x00\x00\x00\x00\x00\x00\x00\x00\x00\x00\xf0?\x00\x00\x00\x00\x00\x00\x00\x00\x00\x00\x00\x00\x00\x00\xf0?\x00\x00\x00\x00\x00\x00\x00\x00\x00\x00\x00\x00\x00\x00\xf0?\x00\x00\x00\x00\x00\x00\x00\x00\x00\x00\x00\x00\x00\x00\xf0?\x00\x00\x00\x00\x00\x00\x00\x00\x00\x00\x00\x00\x00\x00\xf0?\x00\x00\x00\x00\x00\x00\x00\x00\x00\x00\x00\x00\x00\x00\xf0?\x00\x00\x00\x00\x00\x00\x00\x00\x00\x00\x00\x00\x00\x00\xf0?\x00\x00\x00\x00\x00\x00\x00\x00\x00\x00\x00\x00\x00\x00\xf0?\x00\x00\x00\x00\x00\x00\x00\x00\x00\x00\x00\x00\x00\x00\xf0?\x00\x00\x00\x00\x00\x00\x00\x00\x00\x00\x00\x00\x00\x00\xf0?\x00\x00\x00\x00\x00\x00\x00\x00\x00\x00\x00\x00\x00\x00\xf0?\x00\x00\x00\x00\x00\x00\x00\x00\x00\x00\x00\x00\x00\x00\xf0?\x00\x00\x00\x00\x00\x00\x00\x00\x00\x00\x00\x00\x00\x00\xf0?\x00\x00\x00\x00\x00\x00\x00\x00\x00\x00\x00\x00\x00\x00\xf0?\x00\x00\x00\x00\x00\x00\x00\x00\x00\x00\x00\x00\x00\x00\xf0?\x00\x00\x00\x00\x00\x00\x00\x00\x00\x00\x00\x00\x00\x00\xf0?\x00\x00\x00\x00\x00\x00\x00\x00\x00\x00\x00\x00\x00\x00\xf0?\x00\x00\x00\x00\x00\x00\x00\x00\x00\x00\x00\x00\x00\x00\xf0?\x00\x00\x00\x00\x00\x00\x00\x00\x00\x00\x00\x00\x00\x00\xf0?\x00\x00\x00\x00\x00\x00\x00\x00\x00\x00\x00\x00\x00\x00\xf0?\x00\x00\x00\x00\x00\x00\x00\x00\x00\x00\x00\x00\x00\x00\xf0?\x00\x00\x00\x00\x00\x00\x00\x00\x00\x00\x00\x00\x00\x00\xf0?\x00\x00\x00\x00\x00\x00\x00\x00\x00\x00\x00\x00\x00\x00\xf0?\x00\x00\x00\x00\x00\x00\x00\x00\x00\x00\x00\x00\x00\x00\xf0?\x00\x00\x00\x00\x00\x00\x00\x00\x00\x00\x00\x00\x00\x00\xf0?\x00\x00\x00\x00\x00\x00\x00\x00\x00\x00\x00\x00\x00\x00\xf0?\x00\x00\x00\x00\x00\x00\x00\x00\x00\x00\x00\x00\x00\x00\xf0?\x00\x00\x00\x00\x00\x00\x00\x00\x00\x00\x00\x00\x00\x00\xf0?\x00\x00\x00\x00\x00\x00\x00\x00\x00\x00\x00\x00\x00\x00\xf0?'
p31
tp32
bsS'inp'
p33
g18
(g19
(I0
tp34
g21
tp35
Rp36
(I1
(I58
tp37
g28
I00
S'm\xdb\xb6m\xdb\xb6\xc9?$I\x92$I\x92\xda?\x92$I\x92$I\xc2?I\x92$I\x92$\xb9?\xdb\xb6m\xdb\xb6m\xcf?\xb6m\xdb\xb6m\xdb\xd2?m\xdb\xb6m\xdb\xb6\xd3?\xff\xff\xff\xff\xff\xff\xd1?\xda\xb6m\xdb\xb6m\xc7?I\x92$I\x92$\xd9?I\x92$I\x92$\xc1?\x91$I\x92$I\xca?\xb7m\xdb\xb6m\xdb\xd8?\xda\xb6m\xdb\xb6m\xd5?\xdb\xb6m\xdb\xb6m\xd9?\xb6m\xdb\xb6m\xdb\xe3?m\xdb\xb6m\xdb\xb6\xd1?\xb6m\xdb\xb6m\xdb\xca?\xb6m\xdb\xb6m\xdb\xc6?m\xdb\xb6m\xdb\xb6\xc1?n\xdb\xb6m\xdb\xb6\xe0?I\x92$I\x92$\xe1?%I\x92$I\x92\xe5?\xdb\xb6m\xdb\xb6m\xe8?\x00\x00\x00\x00\x00\x00\xeb?$I\x92$I\x92\xe3?n\xdb\xb6m\xdb\xb6\xd5?I\x92$I\x92$\xb9?H\x92$I\x92$\xcd?I\x92$I\x92$\xd9?\x92$I\x92$I\xd4?\x92$I\x92$I\xd8?\xdb\xb6m\xdb\xb6m\xcf?\xfe\xff\xff\xff\xff\xff\xcb?\xfe\xff\xff\xff\xff\xff\xcb?m\xdb\xb6m\xdb\xb6\xc9?\x91$I\x92$I\xce?\xb6m\xdb\xb6m\xdb\xd0?I\x92$I\x92$\xe0?n\xdb\xb6m\xdb\xb6\xe0?$I\x92$I\x92\xd6?\xda\xb6m\xdb\xb6m\xd5?\x92$I\x92$I\xd0?\xda\xb6m\xdb\xb6m\xcb?\xb7m\xdb\xb6m\xdb\xd8?\xb5m\xdb\xb6m\xdb\xce?\x92$I\x92$I\xd6?\x91$I\x92$I\xd2?\xdb\xb6m\xdb\xb6m\xb3?I\x92$I\x92$\xb9?\xdb\xb6m\xdb\xb6m\xb3?\x91$I\x92$I\xc6?\xb6m\xdb\xb6m\xdb\xb6?\x00\x00\x00\x00\x00\x00\xb0?I\x92$I\x92$\xc1?\xb6m\xdb\xb6m\xdb\xd0?\xb5m\xdb\xb6m\xdb\xce?\xb5m\xdb\xb6m\xdb\xce?'
p38
tp39
bsS's'
p40
g18
(g19
(I0
tp41
g21
tp42
Rp43
(I1
(I43
tp44
g28
I00
S'\xa0\xe4n\xa7\x0b\x10\xdf?\xc6M\x88a\xb6\xda\x03@^\\\x9d\x944\x07\t\xc0\x95\xb4X\xab\xecq\n@&9\x91@"C\x1d@&_\x16\xa7\xfc,\xe2\xbfb\xc8\x84\xe5\xb8m\n\xc0\xfa\x81\xa1H[\xc5\n\xc0ET\x95\xb4\x8d7\xf8\xbf\x05\x15s\x13b\xf1\x01\xc0\xf6\x17\x98v\xcc\x88\xf5?g\x1d\xe0\xf0\xed\xea\x17\xc0\xed\xee"C\xbci\xf1?\xd3R\xd6\x11\x1d\x81\x0c@\xee)\x8eS\x9b\x8b\xec?\xaas\xcdTr\x94\x03\xc0\xee\x1e\xaet2>\xf1\xbf0\'\x06\x98\x0f\x92\xdf?\xf9\xb4\xb5&\x07S\x07\xc0\xe2\x0f\x1aJ\xa7\x8d\xed?\xa1RE\xf9X*\xf7?\xfe4\x82\x96\xe9T\xff?JRi\xf4\xa4\x85\xfa?Hz}Z\x89\x0f\xbf\xbf\xf8\x7f\xf4\x1e\xa6^\xf9\xbf\x8cR"\xc1WX\x03\xc0y\xef\xa1\xc2\xd5\xe7\x06\xc0\xeb\x1b\xc6\x95\x0c\xdc\x01@L\xb3\x80WL \x0b\xc0?\x16N=\xf5\xac\xfd\xbf\x80\x02d@\x83\xb2\x05\xc01\x8d\x8b]\r\xbc\x04\xc0\x16x\x9dS\xf1\xb2\x11@\x7f\xa54=S\xc6\x04\xc0\x087\x02~-\x9d\xc3\xbf\xfc}V\xbb.\xca\xfb\xbf\xcf\x80\x8e\xfeE\xc3\xfc?,`\xdaD\x87}\xe8\xbf\x95\x00\x88\xa1\xd88\xf9\xbf\xf6#\x83)\xef0\x08@9\xf4\xc2\xfd\xce\xef\xee\xbf\x87f\x9d\xf1x\xb3\x0b@\x0c\x967r\xab\xff\xf6\xbf'
p45
tp46
bsS'np'
p47
(dp48
g21
g18
(g19
(I0
tp49
g21
tp50
Rp51
(I1
(I43
tp52
g28
I00
S"\x1e_w\xe3#w\xfe?c\xb66A\xd7\x18\xfd?\x8e\x96?\xe8c\xab\t\xc0\x05\xd0\xbcDdl\x0e@\xd2\rE\xbe\xfd\x85!@\xb3\xc1+\x088\xa8\xd1?\xdb\r\xd3\xff\xd7(\x11\xc0e{\x00l\x8d\x07\x0e\xc0\x83\xbc\xdb\xb5\xe7\xbf\xfc\xbf\xb2\xb3\x810KI\xf5\xbf\x1c\t#\xc3G=\xed?:C\x86\x03\x9e\xc1\x1d\xc0\x93\xad\xe5!|\xc5\x02@\xa0Q\x17\x1b\xe7(\x12@\x1a(EC3&\xf3?\xf5\xe4\xd0\x9a\x19\xa0\x07\xc0\x85\x9c)\xc9r\xf3\xe0\xbfa\x96\xc4[\xeb\x83\xe2?*R\xda\xebe\xda\x12\xc0KU\x05-\xaa\xd8\xdb?\xb0\x0e8{\xe9D\xc9?2xIw\x05\xd8\n@\xc6\x18\xfd6\x15/\xf3?\x0c\xf8\xa6p\xdf\xa2\xe9\xbf\x13\xc9L\xb8<!\t\xc0\xeb\xb4\x8c2t\xe2\n\xc0\xe7\xf7\xe5\xdf\xae\xda\x12\xc0r\x93txsq\r@R\xff\xae\xbe\x9f\xe1\x12\xc0_\x86\x8e~a\xd9\xd2\xbfz \x07B\xda\x86\x11\xc0DGT^\x84\xf2\x05\xc0\xed\x17@(\xae\xdc\x16@\x8eH\xb4)\xd8\x05\x04\xc0\x04\xba\x15`L\xaa\xc9?\x01\xff\xbby\ra\n\xc0\xf2\xdf\xcb\xbc\x86;\xff?UF\xb3\x8br\xd9\xf4\xbf<G.T\xb2\xb0\x05\xc02\x7f\x06\x89\xd5A\x13@\x92\xcd\xb5!G\xb3\xe3\xbf\xee\x19v\xed\\\xea\x0f@j\xd8fO'\xaf\x07\xc0"
p53
tp54
bsS'w'
p55
g18
(g19
(I0
tp56
g21
tp57
Rp58
(I1
(I43
I58
tp59
g28
I00
S'\x93\x1e\xdf\x87\t\xe2\xc5?\xf5\x11\x8c\x03\xf1\x94\xd4\xbf\xa0B9\xa4\xf6+\xe3\xbf\x9dcm\xdcIy\xe2\xbf\xc5\x87\x91@\xd9\x95\xcc\xbf\xea\xbc>[\x95B\xa2?i\x10\x8a\xd3\x01\x96\xca\xbf\ny\xbd\x01&\x98\xc5\xbf\xff\xe8\xed\xb3&\x04\xd4?\xf0\xe1\xbd,\x81I\xdb\xbf^V\xab\x93\x15\x9f\xd7\xbf\x7f\xbb\xb7\xb1\xd6\x01\xae\xbf\x11\xb1\x04\x99\xf4\x0eX\xbf&\x03\x8e\xb8\xc4m\xe0\xbf\x83\xa9\xaa.8/\xd8?\x8cnY\xa3@\xde\xd2\xbf\xd5\xa4\x1f\xbe\xdb\xe5\xe1\xbf\n\xf6\xa2?\xed[\xcb?\xdc\x7f\xfd\xe0\xd5G\xb9\xbf<ro\x9a%\xb1\xd7\xbf2\x97\x9a#n!\xe6\xbf\x95zDb)4\xd4\xbf\xa7d\xb2\x1f\x00-\xc9?\xbb\xf8*\xf34m\xcc?\xd2x\x03\xaa\xaaV\x87\xbfs\xab\xb57\xf6\x16\xbe\xbf\x87Ozc\xec4\xd5\xbf\xb7\x9a\x04\x18\x99K\xd9?\xd7\xee!\x91\xc7Z\xd0\xbf2\xd5^\xb6\\!\xd0?\x1f\xe9#\xfa\x93\x91\xd6\xbf\x0e\xc4gc\xfd\x00\xde\xbfHU\xb9X\xd8\xf0\xd0\xbf\xde\x86I\xc2\xbc\xcc\xc6\xbf{\x11\x9c(q\'\xd7?\x1b"\x8e9\n\xc6\xe4?\xb8\xeb\xa6\xc8\xdat\xe4\xbf\x84?\xa7\xcb\x0c\xa7\xd8?\xd6\x1b\xa6\xd2\x0c\xb4\xd7\xbf\xfd\xee\n\xf7!\x9f\xd3?\r+U\x1b\xc9p\xe2?p\x80\x04kX\x8f\xdb?\xee\xa2\xfa?B\xf0\xd9?#\xcc{,\x9a\x89\xd2?\xe5Q\xcai\x16\xe4\xe1?\xee\x13`.\xc8\xd0\xd7?\xa7\'5*\xbb6\xe2\xbf(\x064\xfe7\xf0\xe1\xbf\xbc\x8bT\xedX\'\xd4\xbf\\\xc4#\x80\x0fC\xe0\xbfE\xcc5\x01\x88$\xe4?c\xca\x05>\x99\xba\xdb?^\xa3\xb7\x86\xc5\xb6\xd2\xbfC\xd9d\x9d\xdc]\xb7?r\xd1:\x8c\xe0\xd5\xc7\xbfs\x88/m34\xcf\xbf*NJ\xa2\xd5\x00\xd0\xbf\x16\xdd\x02\x97\xee\xfc\xea\xbfR=AT\x02\x00\xd7\xbf\x9c\x17\x88\x12\xe0\xf4\xd4\xbf\xdf\xac\r_\x8d\xa4\xe2\xbf\xe5\xbf_C\x1a\x9f\xa6\xbfW\xbc\xa3\xa4\x82\xd0\xc1?\xf4C\xfc\xf5\xf9\xcc\xa2\xbf\x83\xea\x02u(\x98\xe4\xbf+\xf8]\x81\x917\xbb?\x1dOw\xfa*r\xd6?5\xe0\xc1X\x94\xcf\xd1?2\x90U\xe1.\xb5\xc3?\xb6\xf5e8\x16\x9e\xd7?T\x0f.\x11\x99\xdb\xb4?E\x98\x17|\xc3@\xd7?\x98!\x84\xd4\x08\xe0\xc7?5!\xdd\x05\x11X\xd9\xbf\n\x9e\xb6\x7f\xa0\xdf\xaa?l}\xacvw\xa6\x9f?\x11\xc4&\x9b\xfaO\xcb?\x13\x077@\x01\n\xdb?\xdc\xb3\xde\xdeq\x8d\xe2?\x14D\xa5pGk\xd9?\x11x\x14\xbcr\x06\xce?\xc5\xfa\xb3\xab`\x8d\xd9?4\xcf\x81\xdf\x82s\xcc?\xc9\x9f\xc4\x85\xdeC\xdf\xbf\xe4#k\xbd9\x1b\xe5?s\xf8!\x97\xe4\xf3\xe5?\xaa\xb8\xd4\xab\xf6\xd9\x81\xbf\xb7\'\x7f\xf1\x01\xbf\xe1\xbf\x9d\xdc\x95\x0b\xd0G\xda\xbf\xbeT\x18\xeb\x08\x8b\xbd\xbf\xe3\xf7\xa6E\x974\xc4?\xe3\xa8>h\x10\x04\xdf\xbf\xe9;\x89\xdb\xa44\xe5?\r\x8a\xdd\x08*\xce\xd8?\x9fo>\xdd\\\x9d\xe0\xbf\x9e^\xd92 v\xaa?\xcc\xf1E\xdeoq\xd4\xbf\x94-\x0c?\x9a\xa6\xe3?8\xbc\xf1z\r\x15\xc2\xbf2)\nD\x94:\xc6?/\xf1\x1aQ\xfe\x92\xcc?k=\xa7l\xe1\x1e\xe4\xbfu8\xff\x8f\xfd`\xe1?@\x98P\xd1\xe7\xa6\xa1?\xb1Q\xf8\xad\x80\xf9\xd2?Kw\x96\xbb\x1au\xdb\xbf\x9a\x1c\x1aYn\x9e\xdb\xbfg\n\xe3\xfc\xb7\xf4\xe5?A"\xe4BF\x08\xd3\xbfw\x04\xa0A\x0b\x15\xc4\xbf\xcb#4\xfd\xa0\x97\xda?j\xc8\xaa\xb2:\x8b\xd2\xbf\x0f\x1b`\x1c\xa7d\xd6\xbf\xcb\xa4\x8b\xbb\xb4F\xe4\xbf\xa4\xe8\x104\xcc\xdd\xd3\xbf\x90\xb4\xa8\xe6\xe3\x94\xd5\xbfkn\xc0bO\x97\xdd?\x0e_\xae\x05\xf2E\xa8?\n\xbb\x96R\xca\x99\xc9??\x84\x81Dd9\xe0?\xb3\xb0\xaek\xb9\xb5\x90\xbf\xaf\xda\xd8\xd5R\x0b\xe2\xbfq\x1e\xe2\xe10\x15\xdf\xbf\x17\xc8\x11R@\xb5\xd4\xbf\x10_\x0fBbO\xdf?\xa9\xb7C\xf24\x1e\xd8\xbf+\x8ah\x1e\xc2\xa4\xb1?\xeev#\xdd\xa7d\xc0?\x9f\xb3\x14p\xc9\xda\xe4?\x87\xb7\n\x86FM\xc7\xbf!\xa3P\xe3\xbc\x8d\xa8\xbf\xfc\x87\xc3\x8d\xd4\x07\xda?5Z\x97\xa7#F\xd3\xbf\xf7\x8bD*J\x1f\xd8?"a\xae\x0e\x92\x11\xc7?#\x8e\t\x9a&\xec\xcf\xbf\xefM\xc9\x08s\x1f\xdc\xbf2.K\x11\xb9I\xae?h\x18G\t\xe2\'\xc5\xbf\xd6\xb4z\xc5y1\xd8?*\xb7\rOo\xe7\xb3\xbfG]\x8a\xa7\x9e\xc6\x97\xbf\xa0\x8cP\x8a\xcc\xe8\xe0\xbf=\x98O<*W\xd8?)\x1a\x7fxZ5\xe0?\x87(\xcb\xa5\xd1K\xba?}\xce\xc3\x85\xd2r\xd9\xbf\xcfr3\xbbZ\'\xaf?\xfd\x87\x0e\x90\xcbe\xdb?\x18\x1am\xfd\xb9\x92\xde\xbf|\x95\x03\x14\xd0\xe2\xdc?\xdc\xa2\x9e\xd2\xda\xa1\xd3?\x1b"\xc7\x93\x8ct\xe5?\xe9a\x16\xf4\xa6\xed\xc1?\xab\\fVZ\x98\xcf\xbf\xcd\x0f\x10\x81\xa8\x82\xc4\xbfA\x99*\xe3\x12\x11\xe4\xbf\xa3\xddlH\\\xf1\xdd?\x91]\xfe\x0f\x8a\x9e\xd6\xbf\x1d<7\xdfX7\xc6\xbfZ3o\xa6&\xef\xd6?C\xd5\x91\xf6\x0f\xb2\xd2\xbf\xac\xe8\xc9\x88\x8e\x81\xe5\xbf$\x01 \x8c\n\x02\xe2?\xe3r\xa5\xec\x97F\xd8\xbf\xfdP\xae\xcf\x91>\xe3\xbf{\xf1I9\xa6\x95\xda?\x12\x12\xe1\r\xee\t\xd2?\xd8"`\x13\xb9\x84\xe3?\x03yg\xbaE@\xd9?\x18\x98H\x066\n\xe5\xbf\xfc#\xdfU\xf5"\xc0?*W\xc8J<\xbb\xc0\xbf\x02\xbd\xf2??\xb7\xe4?-\x95\xff\xe9\xabg\xae\xbf\x16g+vsf\xd7?\xe2\x8eE\x0c\xeb\xae\xd1?.\xb9\xf5\xfc\x88E\xb7\xbf_G\x0c\x0e%\xf0\xe0\xbfC\xeb[\x19A\xe5\xcb?\x16\x98\xe3\x9a\xde\xe4\xda\xbf\xeai\xd8|dM\xda?`)P\xc5\xd0\x0e\xd1?2\x95\x97\xd7\x15E\xe6\xbf}\xcb\xd8\xceK\x07\xcb\xbf\xe1\x9cpl\xb9\xf7\xd4\xbf\x0e\xfe\xd7^.\xed\xd6\xbf\xc8=Y\xb9\x85u\xc0?`m\xcbA\x9c\xe2\xcf\xbf\xd6\xf6o\xf2j8\xe2\xbf\x11p\x01\x9f-X\xe0\xbf\xa5\x998M\x91\x86\xdf?\xb4BMB5\xf8\xe1?\xd8\xc9\x02t\x8cu\xc1\xbf\xeex\x97]\x9f\xe2\xd6?$U\xbb\x7f\xfeV\xd7\xbfu\xa9\xa7\x0c\xe4\xac\xd7?\xaf \xf4\xd2\xc6E\xe3?\xe9\x08\xd53\xb1\x12\xde\xbf:/\xc6\xd9]\x05\xc6?(\xf2f\xe4xC\xe1\xbf\xd1\x12\xce\x18Y\xb9\xd9\xbf}\x1eq\xed\x8c8\xc8\xbf\x81h\xeeS\x9d~\xdf\xbf\xf6E\x8a\xcb\xc0\x91\xca?\x12G\x06\xfc\x0f\x17\xe1?\xb9\x9b\xe6\r\x85\xdb\xd0?\x1f\xa4G,5\xfb\xd5\xbf\x9f,TC3\xce\xa7?\xf9{\x82,G\\\xa0\xbfXWU\x97G<\xd4\xbf\x1cR\xa3\xac\xce!\xc1?\x84]\xc0\x96\xc3\xa1\xd9?<6\xe2\xef\xb9\x92\xb1\xbf`\xbcB\xdd{\x1a\xe0?s\x9c\x92C\x0e#\xdb\xbf<\xb1b\x87tY\xde?\xc1\x81\x8b\x8cb\xa4\xb3\xbf+\xe8}\x1d\xc2L\xe6\xbfm\x13\xf6\x14N_\xe1\xbf\xf3\xcfB\xff$\xe8\xb0?\x9e\x96\xd2Z\xf2h\xd6?\n\xda\x92\xfa$\x9f\xe4\xbfF$b}\xd0\xbc\xd4?_c\x8f\xa5\xedK\xa6?\xbf\t\xc2#\x8f\xca\xcf\xbf\xe1\xb6H\x1c\xfc\x08\x99\xbf\x00\t\xa4\xd2\xe7\xee\xd4\xbfF\xcb\x966m_\xe6\xbfJ\xd9\xbf\xf7\x01\x19\xe2?\xd6\xbb\x96Gl\x1e\xe1?N\x80\x92$\xb8\xef\xd1\xbf\x06\xd32d\xe6l\xe5\xbf\xf8\xef\x17\xbb\xf1\x01\xb1\xbf\xbc\xde>mx\xb9\xc3?\xba\x11VA\x99\x83\xe7\xbf\x1eU>[^\x91\xdf?\xbb(\xdc\xe4E\xaa\xa1\xbf\xff\n\xe1\x9aUa\xd5?\x8a\x9es\xb2Aa\xcf\xbf\'\x95\xf2\xa9\x19\xc5\xe2?0\xa6|(\xce\x13\xe2\xbf\xc8\xeeO\xd6J!\xd1\xbf|\xf9:+\xc5s\xb7?~\x19\xc0\xcc\x0c\xd3\xae\xbf\xd0@0\x10F\xce\xc3?\x85\xdca\xc7\x00\x06\xd0\xbf\xcf,\xe2\xe0\x80e\xd0\xbf\xcdq\xba\x89|+\xc0?\xcf\xee\x96&n\xab\x84\xbf\xbb\x16\x9b\xfd\xad\x9d\xb0\xbf>\x14N\xdf07\xe3?\xa1\xb5v\xd2\xe6^\xd4\xbf-\x84\xf3\xacs3\xd9\xbf%5J`\xde\x08\xc2?\x96CQ\x01\x11@\xdc?1&\xbd:(\x94\xe6?\xbb\x10\x93\xe0\xc6\x84\xdb?n#\xd4_\x06\xbd\xd5\xbfKcC\xd82\xc4\xbb\xbf$\xc5\xe9\xb2A\xf3\xcc\xbf(\'l\xb9k#\xe2\xbf\x904-\xe9\xe6\x95\xde\xbf6\xe9\xe3{\xb8\'\xe4\xbf\x1e\xb7\xaa\xb9\xc9c\xc6\xbfs\x11Rs\x8c]\xe4\xbf\xb5T\x02\x87\x9d\x03\xde\xbf6\xeeQ\xf3\x93\x8a\xcb\xbf\xdf\x93\x03\x15\x00\xf0\xa3?\xcbHh\xd1R\x89\xcb\xbf\xb4\x89n\xee\xf2\x05\xd4\xbf\x1d$\xfb\x89\xf6 \xba?\x06Et\x03z\xd0\xd4?.\x9b7\x0c\xaf\xcf\xb9\xbf\xb4.\x89~\xedy\xc1\xbf\xe8\x05\x01\\"\x83\xe3\xbf\x97\xc7m\xd2j\xcf\xde\xbfq\xf0x\xbb\xce1\xdc\xbf\xc5<I\xad$(\xb3\xbf\x13\x87\xec\x9f\xc0\x11\xe1\xbf\xae]z\x9c\x7f|\xc3\xbfA*\x0c\x14\xff9\xe2\xbfn\xe1\xe3\xf7\xe6X\xd0\xbf\x12d6\xad\x8e\xd5\xe3\xbfLz-?$\xf8\xa7\xbf\xc4c\xe7\x91$\x00\xd2\xbf\x08\xff0 .L\xe4?\x0b\xeew\xfbU\xc8\xd2\xbf4\xa0[\xbb\x0c[\xdf\xbfI\x98m\xba?\x99\xdf?KI\x9f%\x85Q\xd8?\xf8\x17\xb3h\xfbs\xc5?\xab\xa6Zq\xe3\x8b\xcb\xbf\xe3\x81\xaax\x13\x97\xe7?\xdaJ\x94N\xd4V\xda\xbf\xee\xb4\r\xce\xe0\xd8\xdd\xbf\xaeo\x89\x19\x0e\x7f\xe0?ST\x07\xc8H\x8a\xdf\xbf\x93\x1a\xac\xd2\xe9\xaa\xc7\xbf*I\xc3\xa8\x1e\x83\xd8\xbf\xd8g\xfd\xfa\x951\xec\xbf\x90\xfcX\xa4\\\x80\xed\xbf\xeb\x15\x92\xf8\xf5a\xd8?\x9dD\xe2\xa7\xc2G\xdc\xbf\xa0m\xc5;Y\x0e\xda?\xc0^A\x0f\x8aE\xb6?!\xac\x1d\xfc\x03w\xc8\xbf\xc5@C\xfe}\xb6\xea\xbf\x11B\x18<$j\xce?\xeem\xe7|\xf0\\\xdc?\xe7\xd2J:W\xfc\xcd?\x1b\x9fn\xbeEs\xda?s\x99-$\xb39\xe3?\xb2\xb3J9\x04W\xe2\xbfW\x9b\xf0\xed2\xc1\xc8\xbf\xa6\x11\x97UE\x86\xc8\xbfl$(7\xe5\xfd\x92\xbf\r\xdc\x0f\x01\xc9\xbc\xd4?\x0e\xc1\xd06h\x1e\xc9?\xcePv\xb8\x90i\xcc?+\x8f(!\x80U\xae\xbf{ \x14\xb1R\xaf\xd7?E\xa8*\\\x82\t\xcf\xbf\xe5\xef\xf1\xf8]\x9e\xc2?1\x00M\xb3\x9cz\xe1\xbfJ\xbc\x04IcT\xc0?\x02\x8b\xba\x89\xa1\xac\xbf\xbf\xd3~\x01h_(\xa6?!~!\xc6\x8c\xc5\x87?\xb2\x8d/\x92\xbd\xdc\xe4\xbf\x81\xf5Q\xa9p\xf5\xd6\xbf\xfa\x80\x97\xb3\xe9S\xa2?/\xf5\xb2ar\xef\xc3\xbf\xe7\xd3\xa6\x19\x86\xb1\xd2?Zf\x06\x81\xf7H\xb8?\x8b?|P2\xfa\xd3\xbfq\x98rPyU\xcf?\xf7}\x04\xdec\xec\xc5\xbf\x88\x0f\x99*\xce\x0f\xca\xbf\x11\xa8(\xd7\xb5Y\xd0\xbf\xdb\xca\x7f\x0bj\x8c\xd1?\x855<\xdcA\xbd\xe5?*V\x91Hu\xc7\xd8\xbf\x88S%k{\x1e\xe4?DK\xba\x9eM\xe9\xae?\x99AE:h\xfc\xe2\xbf\xd2(%\x80\x84\xb2\xca\xbf4\xd3\xb8\xe1\xba\xda\xcf\xbfJ\xe0\xc9\xc8\xc4\xc5\xe3?\xc3pj\xee\x18\x88\xe3?\xee\xe2\xba\xf9z~\x9c?M\xd4aW+P\xe4?\xb9&yz\xbb\x03\xc4?\xf6\xc1IS\xb9|\xc8?\xa3\x00\xc1CY]\xe1\xbfG\xb3\x04I\t(\xd4?\x8d\xd4+\xcdK\xf8\xb0\xbf\x8eO\xfeZy\x9e\xd1?\xb1Tj:\xce\x14\xd3?]\xee3\xab\xec\x13\xcc\xbfp\x03t#\xc6$\xde?\x80\x1f\xba\xe4\xe2\x8d\xe1?8\xd4\x0b\xbf\xdb\x99\xe4?31}N\x01\x1e\xe4\xbf\x86\x1e\x1a\xfa\xfa\x01\xd2\xbf\x9b\xe4x\xd3j#\xc7?_\xd5\x17C\x97\x12\xcb?\xc8\xad\x02w\xdc\xc0\xbe?\xe8\xde^d\x14 \xe6?\xcc\xb7?s\xd0\xf0\xd4\xbf\x0e\x14\x14%\xb0\n\xd0?\xe3\x97\xaf\xba\x80\xf1\xca\xbf\xf0\x03K\xd1n\xa7\xd3?\xe3(`+c@\xd1\xbf\xf3\x9d\xb7l"U\xb5?\xf4o\x17g\n\xb9\xe2\xbf\x8d\xac\xf9\x0b\xde\xa8\xe6\xbfR8FFiw\xcb?\x9d\xec\x82Egf\xad?\xd3\xe0H\x0bH\x06\xd9?h<\xd5\xc3\x17\xe0\xc4?\xe4\x97\xe3\x06xc\xc3\xbf48\xab\xf8\xedS\xe0\xbf\xbc\x90\x84O\x911\xe4?/c\xdd-\xab\x84\xe4\xbf\xfb\x87\n\xea\xa4\xdb\x8e?\x13\x82\x87\xd0\x88]\xdc?\xd7\xbe\xb2\x19u\x0b\xda\xbf3\x95\\\xcd\x07\x07\xd0?3\xef#\xc3\xc6\x93\xd2\xbf_\xbb\xdc\x85\t\xae\xd4\xbfr\x9e\x8b\x9a\xe6Y\xce\xbfm\xde\xcbZ\x94k\xe5?\xf8\xfc\x01\xd9wv\xda\xbf\x889\xf6^\x81N\xd0\xbf<g\xffc\xee\xda\xc8\xbf\xff!\xbd \x1dG\xdb?^\x02\x99\xbam\xa2\xd1\xbf\xe4\xde\x87\xd8\xe2\xea\xd7?\xea\x14\xa5\xfdx\xca\xe0\xbfQ\xcaVz\x17\x9e\xdb?\xc6\xbc\x93\x8e$\xe6z\xbf\x14\xe7n.S\x86\xda?\x05\x8e\xf5\x9c\x9d\xd4\xcb\xbf\x88\xa1\x93\x7f\xcd\r\xd1?KX\xc8n3\xd6\xc3?>\xcf\xce\x16\x19\xee\x9c?Y3\xb3qW\xc7\xae\xbf*y\x07\xca\xf3&\xda\xbfmJp\x80\xc7\xed\xe1?o\xd8g\xf8%e\xe0\xbf{L\x02iJ\xd5\xe1?\xb3^\xd7Ur\xb2\xc9\xbfD\x12\x95\xa7\xac\x9a\xd9\xbf\x8c1\xfb\x80\xc1X\x8b?*3\xe6\xbd~\xc6\xe5\xbf\x9a\\s\'\xac\xdb\xe2?\x8b\xe2\xa2J\xd3K\xb9\xbfc-\xb1\xc1V0\xb1\xbf\x80j\xe4\xe2\xe4\xab\xb2?L\x9c\xcc>\x0f\xc8\xe1?-g\x1bhb\xae\xb9\xbf~@\xc6"=,\xce?\xfa\xa8\xb2\xe5z\x1c\xd8?\xfbe@E\x96\xdb\xd4?\xb2\xbd\x85z[v\xd2\xbf\x08\x8a\x8c\x8b\xe3\xae\xb0?\'\xf0hNh\x00\xe2\xbf\x87\xdd&\xc7\xcb_\xd4\xbf\x16^\xa3\xe3J~\xdd?&80\xbb\x9eJ\xd0?\x11\xc4<_vY\xdf?:\xfa8\xd8)\xb6\xe5\xbftY\x97\x9cF\x1dl\xbfZxht:}\xd3?\xa3=W\xdd\x9e\xfd\xc5?9\xf7\x81Aa\x8b\xc1?\'\xdd\n9T\x10\xd7?f\x81\xd4`\x0b\xe6\xcb?V\xec}D]\x13\xd9?d\x0c\xb7U\x0b\xc9\xc0\xbf\xdd\xae\xa1\xe4j\xb9\xd1?\x96J\xb9\x83g\x19\xa8\xbf \xa3K\x9eV\xa4\xe1\xbf\xd2~\x14m\t\x06\xdd\xbf\xf6a5\xb7B\x19\xe2?\xb6ZV\xabH:\xde?+K\x95\xed\x85\x11\xd1?\'\x02\xd5I\xf1M\xe5\xbfa\xa5\xc3t\x18\x0b\x9e\xbfP20fVP\xcf\xbf\xbf\x884\xe5\xd0\xb9\xcc\xbf\xbd}yA\xe3\x91\xe4\xbf\x8e\x1bs.\x02\x19\xcf\xbf*\xff\xedo\x80\xda\xde?\xcd\x06\xa4\xe2j`\xb8?\xb1\xae\xa9p\xc5\xfd\xdc?\xed\x1c\xae\xc3|T\xdb?7S\xe2\x19\x91\x93\xe3\xbfn\xb8@e\xdd\xfc\xc3?9\x07\x8b\xb2\xf9!\xe2\xbfG~5\x87\x17r\xd9?e\x19l\x99\x9eh\x9c?\x92:\xe5\xdc\xbb?\xe0?\x8c\x1b\x9c\xc9\x16y\xdd\xbf\x04E\x95\x8d\x0eZ\xd0\xbf\xcb\xcd\xb7\x8ce\xd6\xdb?Z\xd6$\xd0+Y\xd3\xbf\xcdl\x8ck\x8d\xfc\xb4\xbfQA\x9et\xda\xf9\xe1?\xf3\xf8\x9f\xf51{h?)\xff\xe4\x88d|\xdf\xbfQ\x80{5\x9c\xb0\xbe?\x15\x85\xd2\x971\x97\xe0\xbfxcy\x98I\x7f\xd0?\xeb]\xd0\x917X\xe2?\x92\x1b\xb9\x83\x9c\xe6\xe1?\x93;\xfc5&\xe6\xd2\xbfh\xbe\x00\x94bx\xd4?[*\xd0\x0c\x8a\xbd\x99\xbf\xd4\x86E;\xcd\xde\xc7?tE\xceB\xa3\xc1\xdf\xbf\xb5^\xdf4\xf0l\xac?s\xcf\xcb\xc5\xd0\xce\xe9\xbf\xf9\xf4|(\x16p\xd3?r\xf8l\xa6\x05z\xce?\xe4\xfa\xd7Yw\x03\xd7?\xbd\xbe{T\x9d\xb2\xe5\xbf\xa4\x1e\xf2\x0e9\xda\xbd\xbf#r2\xfd:\xb8\xcd?\xfa\xbd\xed\xe1i6\xe8?\xc7}\xcb\xfc\xc2`\xaa\xbf\xaf\xe7\xb9\xe4\xf4Z\xd8?\xe3\xe7z\x98\xc8S\xd0?\xaf\x1el\x9e\x14\x91\xd3\xbf\x8d\xdc\xd3\xc0\x06\xab\xc0\xbf\xc0x\xf2\x91E\xfa\xd5\xbfo/\x9f!<\xea\xc2?\x1aD\x87\x86m\xe6\xdc?c\x0ex[\x88\xa9\xd3\xbf\x0ei\x9eSS\x14\xe3\xbf\x16\xd1i~\xfd\x86\xe0\xbf\xf3\x1a\x04J\xd3\x07\xd4?Z\xf6Gh\xba!\xd0?Un\xd8\xd0\x90\x1f\xa9\xbf+\x92\xa7\xc5\xf0g\xcb?\xbb\xc2\xc6\x9b\xee\xd9\xda\xbf\xf3\xbd\xbf\xfcJ\xd4\xd1?\xd9\xaf\xf3u \x11\xdc\xbf\x17\xed\x86\x03\x85\xe3\xd8?\xa2\xe2pc=\xf7\xdc\xbf\x87\xf6dy3\xde\xc0\xbf\xe0\xfe\xd7\xc5\x0bm\xc8?\xb5\x13\xe9\xf9\xfd\x13\xa2?\xa1N\x15+\x11\xeb\xd7?.@\x9b\x0f\x8cw\xc4\xbf\xfe\xbe\x8c\xa1\xdc\x1d\x8a\xbf\x89\xd3\x80\x8e`\xaa\xb1?\xadt\x18\xb9HS\xd1\xbf~\x96\xf3\x17\xe0t\xca\xbf\xdf\x83\x91Q|\xac\x9d\xbf\xbe\x1b!*\xc3\xfc\xf9?\xba:\xe3\xd8\xc4\xcb\xe1?3?\xc1\x13\xa9\xdd\xb4\xbf+\xe9\xd1(\x81\x01\xe5\xbf\x1b\xb5\xedWAa\xdc?@\x11\xa1#F\xd6\xe1?\xa4N\x8e^\x93n\xe2\xbf&(b-\x9c*\xcf\xbf\x8a\xc2\xf9TX\x10\xc8\xbf\xf9\x03\xdch\x1a\x89\xe0?\xdd\x97\x0b\xc0\xfcy\x98\xbf\xa6\x14\xef\n,\x03\xd3\xbf\xfcA\xef\xdb7\xc1\xe4?\xed\xb7T]%>\xc7?\x9fZ\n\xdd\r\x0fl\xbf\x02\x8b\xf8\x01K"\xd6\xbf"\x10\xa5\x04+\t\xdf?\x9c\x8f\xa2\x82\'!\xe3?\xb5C\xb7\xc3\xf5\xd4\xbb?H\x9fD2o\xe3\xe1\xbf7\x98\xfb\x95h\xcf\xb9?~\xf5o"XT\xdc\xbf\xd4\x9d\x85\xe2\x9a\x84\xc3\xbf\xb5\x91\xd8\xb7\x9b\x81\xd5\xbfI\xfdP\x0f\xf9\xa6F?\x03\xbb\xb0\xa2O\xc2\xe3\xbf\xc6o\x1c![q\xca?\x03\xc9\xc4ob!\xa7?1\xf49\x0co\xe4\xad\xbf\x0f\xae\xdd\x1dc\xac\xcf\xbfB\xc2\xa0\xb4q`\x92?\x99\xa4\xec\x04\xf8U\xd8\xbf+\xa7\xf5\x9f\xa4\xe8\xd2\xbfX\xcc\x05>\xd3\x9e\xd1?\xd5\xa5\xdb\x1a\xe7h\xcf?\x084\x07\xfa\x98\xc0\xd5\xbf\x10RK\xcc#\x00\xdf?\x9e%\xeeR\x1f\xe1\xc5?[\xcc]\x8a\xec\xa3\xd5?\x9d)\x1f\x88CN\xe1?GV\xb0-\xe8\xfd\xcb\xbfo\xf5\xfa\xa0\x0ez\xd0?\x97\xa0\x9c\x94*.\xd4\xbfI\x03\xfed\x81\xe1\xda?7-\xe8yvN\xbf?3\x83\x17\xa5\x83D\xb0?Dk\xff\xef\xf0B\xcb\xbf>\x87u\xcfs{\xe5\xbfy9w\xdd\x17<\xb7\xbf2\xa3\x9f]\xc8h\xe5?\xa3\x92\x11\x14K_\xc9?\x96<x\x92\xf6\xa9\xe6?F\xa6\xf8\x9b\x07\xfe\xc5?y\xd48\x15W\xec\xce\xbf\x1c\x8e\x07\xd8\xd4\xde\xe2\xbf,7\x82$Tt\xd3\xbf\xef\x180%\x15\x1f\xe4\xbf\x1cdO\xc9\xcb\x8f\xe4\xbfh\xa1\xe9]\xd7\xd1\xd6\xbf\x91\xb7\x14\xab\x94\xa9\xd5\xbf\x9bE\x9d\r\x0c\xef\xe2\xbf+\xafz`\x007\xe3\xbf\xa5\xed\x12!\x04O\xdb?\xf3*\xadLe$\xdd?-\xae\xb8\xc1\xa2\x80\xdd?\x02\xdc\x96\xa6\x95c\xc1?\x8c\x1b\xec\xf3\xa1\xfe\xd2?*\xa9BZ\x10\xf1\xb5\xbf\xfbwA\xab6\xa6\xd8\xbf\x9a\xfc\xe4k\xe5\xb0\xc4\xbf\xd1\xac\x8b\r*\x9a\xe8\xbf)!\xa5\x83\xcd(\xdb?\x81B\xd4\xb1\x96\xf3\xd6?\x0bIq\xfc\xfc\xfa\xd8?.Q\xb7\xe6\xbf\xe9\xe8?\xf5Q\xbae\xed5\xbc\xbf\x84\xd9a\xc3\xdd\xea\xd1?X\x06\xf0\xd3\xd5G\xda\xbf\x96<DQnC\xaa\xbf\xadu\xd0\x10W\xd2\xcb\xbf\xb6\x86\x92\x9cs\x0b\xe2?\x8a\xd4yr\xfb\xb5\xe4?\xfd\x90\x03\x8d\xda\x1d\x9e\xbf7[\x1cx\xa1\x7f\xcc\xbf\xdeQ\xd8c\xfd~\xb2?\xda\xae\xd5\x8b?_\xdf\xbf\xab/s\x8d\xcc\xf3\xdf\xbf_\xc7\xfe61]\xb3\xbf\xaaW\xae\xab\xa3\xd5\xcf?\xdb\r\xbf\x00\x97(\xe4\xbf\x07\xdfA\x97\x8e\x0f\xbe\xbf\x00m7\xdb\xa2\xe2\xd4\xbf\xcd\xf5\xceY\xa2\xf9\xc2?\xd2Ip\xab\x81\xa5\xe0\xbfW\xe5\x82\xc2\xc9\xc3\xd6?G\xcf;\xd2\x13_`?m\\\x98%O\x80\xd2\xbf\xc2\xf9o%\x97\xad\xe2\xbfk6\xf4i\xa9\xc9\x90\xbf\xbd\xcd\xf6g\r\xd1\xe0\xbf\x8c/k\x155\x00\xe3\xbf\xfb\xf0\xeb\x90\xa3\xc6\xbe?\xa7\xbf-\x08i\x1d\xd3?\x88nw\x97\xbf\x9e\xc2?#\x1b\x9f-z\xa0\xdd?y\x1d\x02\xc0\xc5*\xc5\xbf\x0cN4\xeb\xaer\xcc\xbf=\xbc\xf2\xf3\xa3->?f{\x04\xf3\x98\xf8\xac?c\xc5\x0f\xb1\xa8\xbc\xde?\xa0/\x8et\x1e\x8e\xdd?\x08\xa4\xde\xe1\xd1\xaf\xd1\xbf\xb3Z\x1b\x18%$\xc4?\xecp(N\x93\xe9\xe0?\xd7\x13qJ\x88X\xc4?\xe6m\xbe\x1evS\xe3?\xd8\xa4\xec9S\xfe\xe4?\xb9\x0c7\xa20\x12\xde?8R_\x91o\x01\xe0\xbf\xb5\x84G\x0e\x12\xe1\xdb?[6v\xd1\xfah\xc1\xbfr5l~;Z\xd0\xbf\x0e`\x1be\x8f\xc3\xdf?t\x1f\xe5P\x9eH\xc1?\x95f!$*>\xd5?\x06P\xeb\r\x83\x80\xaa?\xd0\xc1&*A\x85\xdf?\x11\xb8\x8a\xc0.L\xcf\xbf\x84O\xf9)=,\xe3?\x1aM\r\xee\n\xdc\xdf?\x85\x15C\xd9\xc0\xe6\xd0?\x80e20\x12o\xc9?\xb0\x9c\xfd7\x87\xd5\xe2?\x02W\xc3]}i\xd1?E\xf2R\x9a~\x83\xa4\xbf9\x10\x07+\x17\xb4\x82\xbf\xea\xea\x16U\xdc\x10\xb2\xbf\xdb\x8a\xebM<\x98\xe3\xbf\x1ar\x95\xb8\x16j\xd4?\xee\xa8)~\xd5\x1d\xd2\xbf\xbd\x92\'?\x1d\x95\xba?\xea\xa8\xf6{Go\xdd\xbf\x11N\xae\xf8\x02b\xe0\xbfn\x03\xac%\x8cL\xdf\xbf\xd4?\xb2\xed)\x86\xcd\xbf\x1c\xd4\xf4o\xd7_\xe3?*\xde\xdeR\x17T\xdb?\x06nf%/_\xe3\xbf\xe1\xf1\x1f\xf6\xcd\x8d\xdc?\xbd\x0c\x13A\t\x86\xe4?\x006\xdbrf\x8f\xbe\xbfGt\x92\x02\xc67\xad\xbfll/+\xc5J\xe2?\xd3r\xb4\xd7\xc5\xc8\xbf\xbf$&q\xe9\x8fS\xe1?\xb9\x92<\xfb\x00\x86\xbb?\x91\x7f\xd2\x86%d\xe2?1r\x92\x1a{\x91\xc7\xbfFQ\x92\xf2\x07\x1c\xc2\xbf\'yL\x19\x84\x0b\xe1?.S.\x87s9\xc3?K8a\xeb@\xf6\xe0?\x00\x0e\x00G\xa6\xc9\xdd?\x8e\xe5V\xa8\xe6\x18\xd6\xbf%\xf9\xc0ub\x12\xd6?\x17\xf2\x9av}\xe7\xc1\xbf\x8e\x9d\xb2X\x88*\xdb\xbf\'\xd8mi\xb8\x16\xda?\xe4\x93\xc6\xec\xf1\x9c\xb2?v\xa5\xe3\x03\xb9_\xe0?hR\xf8\xae\xb2\xc8\xe2?w\xfd\xa1\x8b\x0e\x87\xb4?\xec}e\xa5\xdd\xe4\xd9\xbf\xc6d0\xa9\xe1l\xde?\xea\xc3\xbd\x89\xf02\xc9\xbfq\xb3\xf8\x1e\x81\xd8\xaa?\xcdR5\xfe5\xe5\xc9\xbfQ\xe3\x9e\xab)\xad\xd4?\xac\x9a\x18\xc5\xb9\x1f\xd1\xbf\r\xe1w\x18\xbe\xa2\xd3?\xc2\xf9\xfd]\x16\xd7\xe3?[\xd04OU\x91\x98?o6\xd5Q\xa1{\xcf?\xe0\xb8^}]\x1f\xd2\xbf^\xc19<\\\xeeg\xbfo\x02=!\xfe\x85\xe0\xbfg\x1d!4\x13\xe2\x98\xbf\xf4: \xec\x986\xdd?\xd2\xcb\xeb\xe2&\xd9\xc8?\x13p\x92\x1d\xda\xe1\x99\xbf\x00j\xab\x1f\x0c\xec\xc3?\xa0\xdf\xfa\xefJ\x7f\xa6\xbf\xa7\xd31\x10\x07\x07\xb2\xbf\xa5N\x1e\x13L\xf0\xd2\xbf\xb3\xc4\x89\xcdI\xc2\xd4?W\x0f\x89\xde\xc6\x96\xcc?u=\x88\xb4\xa54\xd4\xbfk\x05\x8eh\xf0\x1a\xc0\xbfU&2 \xc4\x00\xd8\xbf\x88\xf0\xb1\xce]\r\xdb\xbf\x13\xd1\x99\xf3\n\xc1\xd0\xbf:\xbc\x98Bnw\xdc\xbf\x85\xc1\xec\x9f\xd4@\xdf\xbfFt\xa4\xbf\x05\x16\xcf?\xa9\xf2_\xd4\xb0\x18\xe3?\xc7\xcdS\xe0\xaa\xdd\xc3?\xbc\xdf\x98\xbe&\x9d\xe8\xbfJ*\x91.0\x1f\xe3\xbf\x134\xeel\xf2S\xe1?\'d\xb4\x9e\x05\xec\xd3?\x9b\x871\xb24\xb9\xd3\xbf\xa6\xbf-q\x9e\x00\xd9?!\xee\xa3\xecP8\xe4?s\xf3b\x1b\xc5\x0f\xe1\xbfwo\xc2\xc2\x9f\x13\xe8\xbf\xee\x87\x19\x85\xf6\xb9\xe1?\xfacgT\x93\x80\xb2?y\xf9\xe6\x82\xb6\x90\xd6?\xa7u\xcbc\xca \xd8?{\xba\x93\xac\x9d)\xdd\xbf\xf6\xf0\x830\xd0\xa5\xdc\xbf,l\xee\x8f-k\xd6?}]j\xfe\x8c\xb5\xc4\xbf\xb0:\xbbG\x93\x85\x8a?\xabcV\x842g\xd5\xbf6F\xfd\xac\xd7\\\xda\xbf\xcc=\xbd\xc5\x1aJ\xcf?\x1e\xaaQ\xb5\xa0w\xb4?\xa7\xc5\x05 \x96p\xdc\xbf\x1d\xa7y\x8c\xa8\xde\xd0\xbfhr\r\xff\x9d\xab\xd8\xbfm\xa5\x99]\xdbh\xc6?I\xfc/r\x9e\x04\xef\xbf\xad\xfe]\x13\xa8\xf9\xe1\xbfBt\xdc\x89\xb9\xc1\xcc\xbf-\x88j)[\xe3\x90\xbfC\xb1|(Q\xa4\xe3\xbfK9\x95\xb5\x1d\x16\xc5?\xbdH\x0cF\xecC\xd1\xbf\xd5\xa5jn{\xdc\xdd\xbfNhE\xdb\x17Am?\x88\xca\xa5b\xe2\xe4\xdd\xbf t\xe4P\x89K\xda?\xfe\x92\xb0uO\x0c\xdf?F__\xcf\x0e \xe0\xbf\xee=\xf3\xce\xc60\xe4\xbf\x0f\x16_x\x004\xb5\xbfh\xbb\xd1\xc6\xc8\xba\xa2?\x01\xdd\xee\xdbu\xc2\xbc\xbf\x15\r\xee\xab\xeeM\xdb\xbf\x85RW0Xn\xc7\xbfh\x9a\xdc+\x8d\x07\xe5\xbf\x9c\xb3\xa2\xf2\x03B\x97?\x9e%~H\xc0\x1b\xdc\xbf\xb0\x1c\x91\xa8\x0c\xc7\xdb?\x03\x8e\xabP4"\xe5?\x10\x90\x92\x86V\x0f\xd4?\x8d\xc9\x1f\xbd \x92\xdc\xbfT\x91\x12\x91\x0b\x83\xe1?\xd5\x11\x82\xa4\xfe\xbd\xdf?\xb7]\xec\xea\xfc\xdf\xca\xbf\x8d6\x9aD\xd6\x05\xe2\xbfl9\xee\x99J\x85\xe1\xbf\x04E^eG8\xd0\xbf\xb2\t\x82\xf4\xca\x93\xc7\xbf\x96\xa7\xf6\r\x13\xac\xbd?\xd5n\xbd\xd0*\xf6\xac?n\xccJ\xf0\x8e/\xe5\xbfk\xba6\x0c\xedx\xe3?\xe3\xdd\xb3r\x85\x83\xe2?\xc4\x06\x949\xc99\xcd?\nB\xafX\xea\x01\xa1\xbf\xb4%"\x00\x9f\x96\xd3?\x06\x86+\t\x8e\x1a\xca?t\x14w8\xd0\xfd\xde\xbf\xb1\xdeUQ\xc0H\xe1\xbf\x85\xfe\x11<\xb5B\xc2?\x7f\xc7_.QB\xa9?\xa8\xda\xa8\xe3\xb0\xd2\xe3\xbf\xf0\x89R\x08\xeaR\xe0\xbfv\xa7\x00\xfa\x17\x1b\xc4\xbf\x97z"\xb4Z\xe7\xe1?~\x11N\xc8\x0f\xc8\xd7?\x7fw%\xa5\x1e\x0c\xc6?\xa9\xfa\xebx\xeb>\x8e\xbf\xfd\x19;\xe8\xf9W\x94?TR\xc3\xae\xe7Y\xde?D\xb67^Dt\xb4?.+ &\xaf\x0f\xd2\xbf\x0b\x87X\xa4\xa1\x9e\xdb\xbf\x9e\x06\xda\xe5\x91O\xbc\xbf\x1f\x1f\xfa\x8b\xd3\'\xe0\xbflka\x01:\xde\xdc?\xbedh\xe2ai\xe0\xbf\x16P\x8a%|\xb6\xd5\xbf%\xa1\x1c\xfc\xe6l\xda\xbf\xf0\xb0<\x0e%F\xe3?\xb5\xe3\x92\x0c\xd87\xdd\xbf\xc9l\xaa\x15\x07\x91\xe2?\xca\xdc \xa0\xb6\x99\xda?\xe6\xcc\xfa\xe3\x9ec\xda\xbf\xc6\x08f\xe8\xd6Z\xd4\xbfD{\x1c\xf7\xdba\xc4\xbf\x9b\x98\xab\x01\xf9\x80\xd4?Y(\xeb\x8b\xafC\xdc\xbf\x9c!\xe2a\x167\xc4\xbf\x83\x81sQ \x87\xb2?\x91P\xfeB%\xc9\xd3\xbf,\xe6\xcb[6\'\xd4\xbf\xd7\xfel\xc4\x0e\xc5\xce\xbf^\xcd\xf9\x0cF\xd3\xda\xbf!\xf4\xdb`\x02\xdb\xce?\xc04\xf7\x0c\xec\xec\xd1\xbf\x88P?\xbaH[\xda?Q\xc1\x8c\x0e\xe7\x8a\xb3\xbf\xdd\x9f\xbf\xd0\xf4_\xe5\xbf\xdd.\xb8\xea\xf9N\xce\xbf\x01\xe62xc\x18\xe2?\xd7\xef\x85M\xf3\xa7\xda\xbf\xe1}\xa1\xc9\x1d\x1b\xe5?(\xfa\xd9\x84\xdf\xd9\xbb\xbf5@\xe2I=7\xde?\x99\xbe\x00\x7f\x89\xa8\xd8?\xe8w\xf4\x14\xb2Y\xdd\xbf\xb9v\xd1\\\x02\xa2\xdf?r\'\x9f\x1c\x01\xb9\xdd?\xca\xa9/\xbd\xe6\xbd\xc2?\x1f\xc7\x1b[\xc2O\xdf\xbf\x99p\x94N1]\xbb\xbf\xcdu\xdf\xc5\x16\xdbf\xbf\x8dL\t\x98\xc7F\xc5?7kK\xd1\'\xb7\xe0\xbf\xdb\xb7\xd3,\xdb\xa2\xd6?[\xd9ns\x8d\xae\xda?\xfb\x07n#\xe8\x14\xcd?{\x92\xcd\xc2\x14\x92\xdd\xbf\xb9\xb3\xf3\x17,\x86\xd5\xbf@\xe6;Gs\xa9v\xbf|\xd7\x9b\x84"\x95\xe0?\xf5O\x12\x92\xcf\xb4\x9c?o0\xcc\xb1+v\xdf?\xcc\x85\xa8M\x92\x1d\xd2?s\x181\xc0x\x1b\xe0\xbf\x1c\x96\xc5m\xb2$\xe3?r(J\xfb\xde\x0f\xd2\xbf\xdd\x8a\x9ago\x1ao?\'\xd4\xad\x83\xcdB\xcc\xbf\x04\xf7}\xe1\xf0\xa6\xd4?\xe83>\xa4\xd3L\xcb\xbf:y\x01\xe5\xbe\xa5\xe2?2N&\x05\x9b.\xe0?\r\xc0\x11<[\xc2\xb1?\xf2\x98\nk\xa1\x9b\xdd?\xa3\xb4\x10\x9d[\xcb\xde\xbf\xcb\x99\x08\x9cuC\xd8?k\xb5X\xe1\xa8\xda\xd1\xbfl\xac2\xa3Ma\xd6?\xb2\x9b\x92\xa5\xb8\x0f\xe0\xbf+\x15OB\xdf\x06\xbe?\x9dE\x8fr\x88\x16\xe1\xbf\xac\xdd\x07\xc1$o\xd9\xbfGi\x97Bo!\xaf\xbft\x8f\xefu~\x1b\xe2?\xaa\x99\xe34\x7f\x9e\xc9?\x15\x17\xe3\xc9\xe4\x18\xdc\xbfAW\r{\xd4V\xd9\xbf\xa2\x03\xf5j\x00\xaa\xc5\xbf\x99\x1d\x19[\x11}\xe0?\xa3\xc5Lxx!\xb7\xbf\t\xca\xe5j\xc2\x05\xd3?YX\xbf\xad\x1b\x1c\xb6\xbf\xcf\xa9<\xe3rd\x8c\xbf\xb7^\x14\x1d3\xed\xde?\xe5\x0e\xe2\x97\xcf\xd4\xdb\xbf\x86e\xa2?\xfaC\xcd?\x06\x042n\xc2-\xe5?\xb3\x94\xf8p\xcf0\xdf?\x16\xf7\xbf9n$\xb9?\x1fC\x97\x18\xa7\xe8\xe1\xbf\x1c\x8f\x98\x03\xc7R\xe5\xbf>\x0e/@\xeb\x90\x90\xbfO\xd6\xe6D\xbd\xc1\xe4\xbf\x00C\xc7N0\xb0\xd9?\x87f\xa5\x93r\xc1\xc8\xbfZ\xfb\x06\x91\x86.\xdd?\x0e\x96F?\xd3 \xca?\xd4\xa2/\x18\'\xd8\xd5?\xe5&\x84#L\xaf\xbc\xbfj\xe4\x0e\xa3Ej\xdd?n2?\xc5\xbb\t\xe3\xbfw_j}|\x13\xca?V^\x04`\xf5\xfa\xe1?\x7f\xc8D\xb94\xbf\xb1?k,&`,\xed\xb5\xbfsa\x84|\xd9\xff\xc3\xbf.$\xa5\x8d\x8f\x0f\xc2\xbf\xa2\x85:~$\x87\xcf?\x14=\xd1WNl\xb4?\x0f\xcbP%>\x80\xaf?\n\x91\xdb\r\xad\xab\xb9\xbf\xe8\xa0\x0c\xa0\x85\x19\xb3\xbf\xcd+\x90\xa4\xbe\x9f\xce?:\xe4\xca\xa1\x18\x83\xe3\xbf\xd5\xff\xd8\xb6+\x86\xe2\xbf\x89\x01\xe0\x0bw\xe4\xde?Qv\xc6;\xa2\xda\xdd\xbfn\xe9=\xb2\x16\x82\xe1?`t\xc4<\xe0r\xe1\xbf!\xdb\x81\xdb\xd6u\xbd\xbf\x82\xf5D\xa3\xf9@\xe3?h\x1bm\xea\xd1\x1a\xc0?\xb3fL4\x91\xef\xdd\xbf\x80Hy\x1a\x02\x19\xd7?\xc6\x02~\xb9\xd0\x95\xe7?\xb4\xb4\xce\xa6\xfc#\xd8\xbf\x06d\'8\xaab\xe5?\xb1%\x82\xc4\xa7\xf2\xcb?\xae%\xf2\x9a1\x02\xcf?A\xaf\x05\xe6hx\xc4?G\xf9\x9c\x1f\x98\x13\xd7\xbf*\xa3d\xea{\\\xe0\xbf{\xbd\xb9o\x863\xd9\xbf\x97G^v\xefw\xcd\xbf\xc9p\x12"&\x81\xcf?x\x0f\xa9\xebx\x9e\xe4\xbf0u\xd6\xb7?\xdd\xc7?\x0e\x82c\xb4\x02>\xd2\xbfZ*lgH\xa1\xd2?u?9\xaf(G\xc7\xbf\x0b\xef\xb0\xc8\x81:\xe4\xbf\x80\xda\x91\xc7\x8bW\x87\xbf\x7fK\xad:4\xdf\xca\xbf\xf4\x9b\x88\x08\xe7\xcd\xa0?@\xd0\xe0m\x7fL\xd8?\x08]\x94$9\x81\xd5?\x90\xa4\x9f\xb4G\xd3\xdc\xbf\xefT\xb4F\x1b<\xab?\xfa#f\x03i\xe6\xc3?-\xce\x92\xfee\x16\xc8?\x17\xf2\x02\xe7\x9a\xfa\xe3?\xaa\xbd\xc9\xe4:\xb7\\?\x90q\x8f\x17c\xaa\xb2\xbf\xc6g\xb6bE\x9d\xe5\xbf\x8c\x81\xc2\x96\xf9L\xe5\xbf\xa0IY\xc5U\xf7\xe0\xbf\xbe\xd9\t\x82\x8b\xac\xb2\xbfK_,\xc7\xceP\x96\xbffX\xbdZ\nK\xe0?=\xd9h\xcbu\x13\xda?v\xb4\xa8z\xacu\xe4\xbf\xe5\x10\\\x97"\xa1\x85\xbf\xcd\xa7\x11\\\x84g\xbe\xbf\x85\x9e\xb8[f\xb5\xd8?\x9d\xe2^CS\x82\xdf?@\xad\x9b3\xec\xc3\xb6?2\xb6\x9c5W\x86\xdf?^\xebldF\x0c\xe0\xbf6\xf1\xd1\xbb\x8f\xd6\xe0\xbf\xf9\x8a`h8\x88\xc9?!\x00\x89\xaf\xfd\xf4\xe1\xbfp\x0f.\x02\xab\x86\xcf\xbf\xb3\xbd\xd3\x1bY\x95\xc4\xbf\na\x8a\xfe?Y\xe0?\x97\x8a\xa6\xc8\xb3[\xc4\xbf&\xffL\x8es\x04\xdb?~?\xa50~\xf0\xc4?{\xc5P\xa3T\xf6\xe1?\x84\x06\xc2\xd0\xa3p\xe0?P:\x96\x1a\xf9\\\xe5\xbf\xe0J\xf7\x1a\xf0\xec\xe1?i\x18\xee5\x08(\xde?K#\'g\xabH\xc3?\xf9\xc2\x90I\x00\x98\xa0\xbf\xb8\xd5\xe5\xee\xbah\xe0\xbf\xcb\x1bj@\x9b\xe3\xd7\xbf\x0e\x993y=\x03\xda\xbff-\xd90\xe0>\xd1\xbf\x03\x1c\xf2\xe0i\xe4\xe0?\x1eY\xbb\xf4\xab\x7f\xe5\xbf\xcakY\xd210\xba?\xddJgj\xc4$\xe4?\xfb\xcfZ@\x80\xa9\xc1?\xaa\xce\x14J\xc0J\xc5?\x1b\xca,\x138\x03\xdd?\xb6*\xe6T\xd2\x1f\xc0\xbfY\xbaj\xa7\x18\xe2\xae?\xfcoE\xd4<\x19\xab?\x96\x0bN\x17\xe9\xfe\xc6?m\x95E\xa7\xe0;\xe3\xbf\xef\xa7/\xc5J\x8c\xae?\x96\xebW\xca&\xe7\xd3\xbf<\x0cJ\x01\xfc\xf1\xd5\xbfd43"2V\xd4\xbf\x8a\x03\xe7+\xfa\n\x93\xbfJyby\xf6\x05\xd0\xbfc\xa9\x0b\xbe\xd5B\xd1\xbf\xbd\xef\xc17\x85\x97\xe1?V<|n\xe5B\xe4?\x9f\xa8\x1f\x01\xffw\xe4\xbf\xe9)\xf1\xfe\xb3B\xb4\xbf\xe3\xd9\xbd\x80*B\xd8\xbf0\x99\x95\x12t\xed\xd7?\xe5z\xa2\x07\xe9\xeb\xce\xbf\x8cP\x9e\xae\x84:\xe2?D\x02\x01r\xb9\x96\xda\xbf\xc9\x16\x88\x89\xa8)\xe5\xbfB;\x1dt\xe5\xd3\xcd\xbf\xd8\xcf\xbe\xa3\x9e\x1c\xdf?U@)D?`\xc9\xbf\x9c*\xe5^n\xd9\xc2\xbf?9\x96P\xd4h\xe0?\xefp\xd2d\x03\x83\xc2\xbf\xc1\xfe0\x7f\x01\xe4\xac?T78\x1d\xefP\xe4\xbf;r\xff\x96#\x9e\x91\xbf\xfbF\xf5\xd8g\xd9\xe2\xbf\x0b\xb1\x9b\xc8\xcbN\xcd?\xf96\n\xcf\xc1\xf1\xc2?\xb2\xd1s\xaeMD{\xbfW\x0c\x04\xbb9\xa4\xdd?GA\x7f\xe3\xd4\x01\xdc\xbfZ\xaaa+\n\x92\xc9\xbf\x14\xd9\xc8\x04q\x1a~\xbf%\xa0\x87\xb8\x00\xb8\xdc?hq\xa5Rk\x00\xe1?\xcd\xac26\xc1\xa3\xdf?\xac.f[S\x9b\xb0\xbfk\xaf\xcfRS\xc0\xa3\xbf\'G?\x14\xf3\xe5\xe0\xbf\xcb\xdbWI\xd03\xd5\xbf\x94JDL\xb84\xc4\xbf\x1fg\xc8\xee\x0eO\xd8\xbfPW\xd9\xd0\xc4\x8c\xbe?\xd1\xb8\xe7\x8e\xdf\xf0\xcd?yf")/2\xde\xbf\xfe\xae\xa1\x15\x8fh\xcc\xbf\xc2+@\x86\xc4\x07\xac?\xd2\xd8\xec\x9fj\x17\xc8?\x0b\xd9\xadwg\x10\xe0?\xc5\x8d\xc3\xea&\xb4\xe8\xbf\xca\xeb\x1b\x14\x0e\x12\xd4?\x1fA\xf8;w\xc8\xd9?\xcdD\x81\xf2\x9f\x99\xdb?\xdb\xb3\xac\x11\xf7\x8c\xc8?m\xb3\xab\xa2Y\x1c\xe8?H\x06yh\xf6A\xd3\xbfe\xc8\xe5\xf4LX\xa1\xbf7\\8R\xa7r\xdd?\x0b\xc5\xb3\x97q[\xde?\x13P\xce\x9dd,\xa0\xbfe\xc2\xf0\xdd\x12#\xe7?P\xec\xe9\xe82g\xa6\xbfl;\xaa\xff\x91\x15\xd3\xbf\x7f\x17a\x04\xd6)\xbb?V!\x96D]\x9d\xd4?\xf7\x97\xa7\xdf\xe9\xc4\xe3?Ye\xa0\xaa`\xa3\xd8\xbf\xa4\xaa\xf8\xaa13\xe5\xbf\x91/]\xb3\xf3\x16\xe8? \xf9\r\\\x07\xee\xd4?\'\xcb^(\x06\xd5\xb9\xbfF^\xaaE\xcc\x97\xdf?|q\xf6\xff$?\xc8\xbf\xb2\x9a>\x9a\x15\xe0\xdf\xbf\x15\xdc\x12\x0eq\xca\xda?:>\x1a\xaf+O\xc3?\xfe\xb7\x923w\xe1\xc0\xbf-\x12\xef\xe4`\xba\xdd?]\xeanx\rW\xdd\xbf\x1a\x93\x12\x8e\xff\x9a\xad\xbfn\xd6\xd6P\x9f2\xe5?\x15\xb8\xf0\x8d\xe6\xbf\xd0?\xd0\xe1(\n\x1c\x7f\xc2?%\xd1nR(\x06\xa1\xbfE\xe8\x98\x16\xba`\xdd\xbf\x81\x06/\xa6}W\xad?\x94)\xd8\xa1\xea\x87\xa6?W\x13!\x82$\xfb\xde?V\x1b+^9(\xdf\xbf\xda\x84\xfb\xc1\x1e.\xdc?\x97\xcf\xd9\xe8\xb1\x16\xab\xbf\xc1\x80\xe5}\x0bL\xda\xbf\xf5\xf3<\xb7~I\xd5\xbf\xb0e\xf1\x86$\xd5\xdd?\xca_s\xf2\xb1\xfb\xd8\xbf\xd58O\x14\x1e\xcf\xe1\xbf;\xdf\tKj\x83\xe4?\xd9\xda\x86\xb0R8\xc4?\x1cz>\x174\xf5\xdd\xbfd\x149%\xfd\x9d\xb5?\xf5\xd8\x8c\xc3?c\xc8\xbf\xd6\n\x1cl\xfa\xd0\xdf\xbf\x98)\x95\x19\x11\xb3\xe1?\xd1Z\x91\x95\xb1H\xb8?5\x08\xb5!\x05\xfe\xd8?\xae\xa1m\x89]\xba\xdb?\x97(\x0b!gw\xdb?Q\x015\x14\x1f\x88\xdb\xbfy\x01-\xc5~\xd7\xd4\xbfy\xf6\xb9%\xact\xd7?\x87{\xd3\xed\x9b&\x9b?N\xddR\xf9\xb8e\xe3?\x9b\xb9\xc5\x91\xf8\x7f\xe4\xbfg\xc8[\xbb!U\xc9\xbf\xcfq\x1a\x98J+\xdb?\x0b\xa6n\xd2\xf4=\xd6?/R\x8f\xcc$G\xa3\xbf*4\xac\xc8\xde8\xe0?K\x99\x94\xb5\xafj\xdb\xbf\x87\xf5\xac\x05S\x1d\xd4?\x83\xa1C:J\x0c\xc3\xbfB\x01\x00\xbe>\xbd\xd8\xbf\xce\xf9rl\xd7\x8a\xd3\xbf\xd6d\x06\xd7\xca>\xaa\xbf\x07\r\xfc\xb3\x99\x03\xe0\xbfv\x1b\xf1\xc3\x17\x04\xce?\x16\x1d\xa4\xceg\x9b\xd2\xbf\x96\xb2\xecE\xae\x98\xc7\xbf\xac\x9c\x0c\xc7\x04v\xe0?\x95M\xce\x8b\xf4X\xb1?\xcd\x94\xa5\x063\x9d\xe0\xbf\xf6\x05U#\x9aQ\xba\xbfb}\x88\xe2|M\xd6?$\xcf\r \x8f)\xc4?\x08\xdd\xf6\x0f\xe8\t\xd3\xbf;W\xfb\x83(B\x87?.\'\x06\xee\tX\xd9?9\xdfr\x8e&\xd1\xc1?cfx\xbb\xa4\xf4\xe1?u\xd7\x85\x0b3\x8b\xe3?y\x1f\xe7 ,\xf3\xe4\xbf\xa4\x93\xb3O\xf40\xd3?\xaf\xe7`\xe0\x00T\xe2?|\x00R\xd6\xc8V\xa2?\xfe\x06 X\x80\xfa\xe3\xbf\xc3:8\x9f\x82?\xdf\xbf\xaa\t\xb5:<\xe5\xd7\xbf\x85\x1c\x1bq\xe3o\xd8\xbf\x938\x1e\xb3\xa5\xa8\x9c\xbf\xa9\x1c\xe9\x18}\xdd\xe8\xbf0\x95\x18\x7f\xf0i\xd2\xbf\x94\xbdJ\xa7\x1dY\xa9?\xbd\xbe\'\xb6,/\xc1\xbfs\xe9e\x1c\x05\xc2\xdc?%7~\x9c\xe0i\xe4?\xe1\xde\xf8P\xe2\x14\xca\xbf\x1d\\7>W\x1b\xe2?o\xc0]6B\xa5\xa5\xbf\xeb\xbe\x8d\xef\n\xf4\xd2?*8\x98B\xe1O\xd6?\xd9\xd3\xa3\x1b\x15\xeb\xe5\xbfY\xeb\xc5;\'5\xe4?(\x86\\R0Z\xcd\xbf\xb9\x8e\x04!\xd3B\xa6\xbf\xd3\xde\x05\xb1\xcc\x0f\xdf?\xafp\x1f~\xd6\xe9\x89\xbf\xef\xb0\xb3e(\xbb\xe2?\x977Z\x1f\xb8\x03\xe6\xbf\xcdk\xdb\x81\x8b\x97\xd3\xbf\xeb\x12\xc0\xc5\xb9\xc5\xc0\xbf\x93]\xb1h\xc0\x14\x8a\xbf\x00\xb2\xf4\x89\x1f\xf8\xd5?\xb0\xd09{\'W\xe1?d\xc1@\x1dh\x7f\x87\xbf\x19\xe3\x81K\x1d\x8a\xe0?\xef\xd7\n\t\xa0}\xdd?O\xf4\xa73\x892\xe6\xbf\x8cN=\xfb\x1c\x86\xe2?}\xa8H\xac\xdbj\xcb\xbf\xea\xd9\xca\xaer\x8f\xd0\xbf\xac\xe5\r\xa2^|\xc8\xbf]\xee\xd6.\xc4\x86\x90\xbf\x08\xfb\xdf\x8c\x15\xf2\xb6\xbf\t{\x95\xb8\xea\xba\xd0\xbf\xc0\x1a\xbd\xe4\x9by\x88\xbf\xc3+zG\xc9\xc0\xd6?|Bkpp\x18\xd6\xbf\xba\xd7\xfcz\x9f\xf1\x9b?\x8c\x8f\xcb4f\x0e\xc1\xbf\xa5\xc4\xd7\xe8\xe7\xb5\xd8\xbf\xe4#\xf4n\xcah\xc3\xbf\xca\x16\x0c\xb6\xaen\xd6?\x8b(xz%!\xe0?\xb5\x86\xa85l<\xca?!B6B\x93\xf6\xe7?\x08\xb27\xc7\xcc\xcf\xe4?\xe7\x80\x85[C\xa4\xcd\xbf\xdc\xa3\xeb^\xac\xf2\xac? n\xa6\xe7\xbe7\xb8\xbf\x1d\xf3\xc1|\xb1O\xdf\xbf\xd0\xa1\xe5F\xbaW\xc6\xbf\xeb\x93\x93\x8e\xa0\xf4\xd3\xbf\x02\xd9/\xb1\xe9\xb2\xcd?\xce\xbeh]/\x18\xde\xbf\xec\x0eQs\x82\x99\xd6\xbf\xed\xfeW\xec\x82\xd4\xb7?\xdc\xfb2QYo\xeb\xbfmSr\x07S\x13\xde\xbf\x0f\xf5._\x1f\x85\xd4\xbfp\xd8\x1b\x07\x8c\x1c\xd0\xbf~t\xdbt\x0c)\xe6\xbf\x19\xf79p\xff\xb0\xe3\xbf\x9f\xc0\xad\xbd\xdb\xd2z\xbf-#%\nH}\xba\xbf\xda~\x89\x15\xeaD\xe3\xbf\xf0E\x08\xdf\x9f"\xd7\xbf\xd7v-\x9a\xd4$\x82?\xb0\xa5\xb4\xf5\xfc+\xbe\xbf\xf2\x13\x13v\x85\xff\xe2\xbf\x88//\xcb\xe1A\xc6\xbfHbG\xafGg\xdc\xbf\xdb)\\+\xbe\xf6\xe3\xbfR{\x8b\xd8!\x0e\xc7\xbf\xfe\xae\xa5\x11\xa9P\xda?\x81"y\xbb\x0e\xcf\xdd\xbf\xce\xe2\x17\xef\xaez\xe1?\xde\xde[.\xba\xe3\xda\xbf\xccL\x16\x9f\xe3\xc7\xce\xbf\xb5\x0ej2\xd1\x11\xd7\xbf\xb8v\x82\xea\x1e\r\xcc?\x10\x91<\x9c\xc0\xc8\xcd?\xb9\x10\n\xa9\xba\x1a\xd2?5G6\xf5Y\xaa\xe5\xbf\x1f\xf5<\xe6\xbc\t\xdd\xbfe\x90]\x00\xe0\x93\xac?\xfej\x89\x8a\xcf\xab\xdf?P/\x9fs\x0ej\xdb\xbf\xb3\x8e;\xcc\x8b1\xc4?}\x0e\x83&>\x8e\xcf?\xfd6[\x95\xe2\x86\xda?so\x19\xff\xb3\xd0\xc8?X\xf0g\x85\xd6F\xd3\xbf\x9d\x0fj\xbf*\xa7\xce?\xd1o\x96KX\xbe\xe2?H;#\xc1\x90\xff\xd3\xbf\xc2\xd0oD\x19u\xc4?\t\xd2\xcf\xd9_Z\xdc?\x8a\x93\x8bi}d\xd1?\xb4\x12\x1a\x03\xa7j\xe2\xbf\x85\xf4^\x19\xe3\x19\xd8?!+\xf9\x01[s\xe3\xbf\xaf#*/\xdf\x07\xad\xbf\xd3\xd8\x93\xec\x9f\x9f\xd0\xbfG;\x95\xd2\xe0\x92\xd1\xbf\xde\xd0OT7Z\xd4\xbf\x8f(\xbb`\xa6\xee\xdd\xbfe\x11\x0f \xa92\xdb?\x9bS\x12m\xc8\x1e\xe2?\x0c\x89\x80\xf4\xe1\xe6\xe0?\xe2\tt.\x05Q\xd6\xbf\xa4UeH\x9b\xdc\xa0\xbfKQ4\xd8\xfci\xe7\xbf5\xe6\rB\x8e=\xcb\xbf\xb5g\xac\x058\x90\xd6?\xd7\x02\xb1\xb3\x95v\xdc?_\xfc\xc9c\r\xb2\xd1\xbf\xdaX\x13\x07\xac\n\xd1?\xe4\x9c\x08e\xe4\x9d\xe6\xbf\xdc\\\x0b!\x98j\xe7\xbf\xea\xc1<\x94\x19\x04\xb4?I\xf6zG\x0b\xc6\xd5?F\x87\x03\xbe\xa2\xf5\xda?\xcb\xd3\xe0\xa6i\xf4\xa9?\xcbe\x90\xafSE\xd7?\xdaHgx\xf7\xcb\xd0\xbf#Y\x15\xbc}\xe9\xd8\xbf\xbeAk8 h\xd2\xbfx\xadDAu\x89\xc2\xbf&\xff7\xe3u\xfc\xe4?ot&5\x82>\xdf?\xf7\x11u\xe57\xc8\xb0\xbf\x83\xbb\x8a&\xf8,\xdc\xbfB\x1c\x85<7\x8b\xe1?>\x8c\x02\xffo9\xaf\xbf\xb9\xa12\x8e>\x89\x98\xbf>\x94\x8e\x85y4\xe1?\xcc\xaa\\\xd2\xaf\xcb\xd2\xbfW\xf3\xb9Y\\\t\xc3?\x90\x89r\xb0\x1d\x1a\xcf?^o\x9d\xd1\xe6q\xe4\xbf\x0fUhQ\xc5\xb9\xc9\xbfaYl;\x9f\x8b\xe9?\x17N\x0er|+\xd2\xbf\xeeP@5\xb7\xd7\xdc\xbfI&\x8a\xe6b\xb4\xde?\x8a\xca\xb23H0\xd8\xbf\x9d\x1b\x9d&\xd8\xf5\xdc?Kb\xd6}\xc9\xe4\xda?@\xff\x0e:\xd8\xca\xd7\xbf\r\x8b\xe1q\x1d(\xd3?\x90_\x9d\x7f\xd5\xe6\xb1\xbf\xb5\x93\xc8\x03\xcc\xe0\xda\xbf(\xdc\x0c?\xbe\x0f\xd5?\x93\xcbM\t\xcc{\xd1?\xf7\xfb\x03\xcd]\\\xb5\xbf\xf7/\xb4\xd3 \x06\xbc\xbf\xf7\xc5\xa8@\xce9\xbc?\xc2\xdb\xe5\xcb\x17\x8f\xcb?$\xa0\xec\xfckS\xb5\xbf\xf6\xc8V\x8f\xb92\xd6?\xea\x0f\x04^\x85\xb6\xe2\xbf\xa3\x13\xed\xcd\x11^\xe9\xbf\xde\x85"\x147$\xcb?X\xe6\xcd\x8d2\xdd\xd0\xbf\xd6\xaa\x80\xf3\\\xcc\xd1?!\xfb\x91`\xc2P\xe1\xbf,\xfek,*\xe6\xc8\xbf\x81q\x12\x16u\x13\xd4\xbf\xcb\x93\xd4\xf4\x16p\xd2\xbf\r:\xde\x81e\xaa\xe1\xbf2\xcc\x12\x7f\x06\xc9\xcd?j\x90>\x96\x08\x10\xdc?P\x94H\x8e\x84\xba\xd7?\xccH\\{p\xcc\xaf?Jj\xf0P\xe3?\xc2\xbf\xcdw\xf6\xc9\xbd6\xa9?\xa5\xeaU\x00\xb5\x12\xe5?\x9am\xb5r/\xe0\xdc?K\xdb\xd1$$E\xd5?`m\xb7\xaf\xcc&\xb8?\x89\xcb\xbe\xf3IX\xc7\xbf\xac$D\xfa3\'\xdc\xbf.\x8e\x18Pu\xe9\xd9?\xe0G\xf0\x8e \x18\xa3?\xd8\xda\r\x02\xba\x91\xe2?\xe3\xce\x8b,e:\xb5\xbf\x8b\x8fG\xa0p\xdd\xc6\xbfPU[\x93\xb5\x05\xc8?5\x9d\x03=\x8d\xf3\xaa?TV<\xc4\xa4\xa1\xcc?\xd0\x8d\xf1\x97\x00\xbb\xdb?\xe4\x0f\x9ep\x88\x8e\xcf\xbf\xd9\xc8\xd5{`\xda\xd4\xbf\x91\xd7h\x85\x9aA\xe4?\x1c`_=\x1c\xa0\xd2\xbf?\xcc\xc0\xba\x83\x04\xd8?S:\x1a\xddl\x13\xb0?\xb5\\\x00\x846\x07\xc4?\xc7\xbe\xfa\xfc\x12\\\xc4?pJ\xbdZ\x0e\x05\xdc?\xf2\xddr\xb6>\x1f\xe4?\xcc4\xbck\xfb\xab\xbe\xbf\x00$\xe8b\x86\r\xe1\xbf\xfd\xda\xf6P\xc6 \xea\xbf\xbe\x1cS%\xac#\xc1\xbf\xaej\xa2\xa3\xfd\xfe\xb7?=\x1f\xc2X\xda\x8c\xd1\xbf$\x85\xdb\x9b\xb08\xd3\xbf\x99H9\x0ff\xdd\xde\xbf\xd4.\x08\xcb\xe1#\xca\xbf\xd9\'\x12W\xbfG\xd6?\xfd\x81\xc1P\xeeJ\xb1\xbf.\x17?\x8co:\xdc?\x97<\xab\xe8\xf17\xd2\xbf\x80\xd1\xef\xe4\xbb\xcc\xd7?Q\x9er\xc0r\x1b\xe6\xbfx\xf0\xb7\xb1\xa7r\xde\xbf\xb6L\xebt\xfe\xb1\xc6\xbf\x11m\x98\xddl\x01\xc7?\x96\x01\xee\xae\xd3Q\xd5\xbf>\xe2c\xa6\x02&\xc1?,\xce\xd1T\xf8Z\xc0\xbf\x86\xc4\x97\x10\xa8\x97\xe2?5\x9c`\xb6h*\xb2?\xd9"\xe5h\xcd\xf0\xbb\xbf![(^\x10\x9d\xb3\xbf{k\xb6\xbe\xfe\xfc\xd2\xbf\n?dR\x8c\xad\xd4?a`\n5\x94\xb3\xe8?\xde\x86\xd8\x0f\xa6E\xe4?\xbd\xe7\x1a\xaf\x0e"\xf2\xbfq\x1fb6\x92\xe9\xe0\xbf\xae\xe8\xb07\xc6\xbdF?7K>\xbd9\x06\xe2?U\xb8!\xc6\x8d\xaf\xdd? \xc0\xa3\x8a,V\xd5?:\x01Z\xe4\xfc\xee\xd4?t\x98\xd1Xh\xb8\xd7\xbf\x91s!\'\xbb#\xdc?\xdd\xff\x11\x17\xb2Z\xdf\xbfdr\x94#\x8f~\xbf\xbfMc\x00\x0cO\'p\xbf\x98\xf1j\ns\x13\xd6\xbf\xd6\x01!\xc6D~\xb3\xbf\x0c\xcf!Q\xd7\x8d\xd4?e\xb6\xb0\xd9\n\xdf\xdb?S\xc4lP>~\xae?\xaaG\t\xb4=\x91\xcb?\xb7\xb8\xd1\xbds\x91\xd7?\x0c4\xb4L\x9aV\xdf\xbf\x03T\xb6\xea\xa9\x07\xde?\xaeO\xf0\x15\xf26\xd0\xbfk\xd4(e\x86\xeb\xe1\xbf\xe2\xe3\xeeh\xb7\xc4\xe1?g\x96\xe2\x8e\xa0\xd6\xe0?R\x08Z\xde\xf6\x87\xe1?\x97\x05\x81v\xdbW\xe0?p\xea!x\xff;\xd7\xbf\xd73\x1c\xc6X\xc7\xd6\xbf\x91\x0f\x8f\x03\xc8g\xce\xbf\xea\x98\x0c\x11\xd3\x0b\xda\xbf\x94\x91l]\x8a0\xbd?(\x0e\x14\x8ed\xa0\xa6?\x80\xf9\xe7\xfc\xf6X\xd5?\xea\x93\x9f\x1e\xb8\x9f\xe1?\xf5\xc1\x8e\xb0Cs\xe1?@\x94\x82Ve&\xdb?\x91$\x01\xd5\x80j\xc9\xbf*:I\xa0\xb0\xee\xd7\xbf\xa4\x87\xc7\x98\xcc\xa5\xd4?w\xba\xee-\x8d\x80\xde\xbf\xcf\xa7\xff>eG\xe2?\x0e$\xcca\xdd0\xe3?\xe1k\x17\xfc#\xbd\xd5\xbf\x16\xbe\x8aa\x06e\xc6?+\x03\xf1\xfc\x17\x89\xdf\xbfD\x12\xe7012\xe3\xbf\xafa\x0c\xecZ\xba\xd4\xbf)w\xec\x02\x90[\xd9?\xcfk*\xd1\xc1J\xb2\xbf\xda@\x01\xea4\xa8\xda?|\xb2=\xd0\x81\x8b\xdc\xbft}\x06z#3\xca?\x8f*Y\xda\xc9Z\x8e\xbf,\xb7Q\xed\x90\x10\xc6?;ZR\'\x03\x9d\xe2?~\x91^j\xae\xeb\xbd?\xb5m\x07\x10\x1a\xa3\xe0\xbf\x84I\xa5\xd0I\x9c\xe1?\xe73\t\xdb\x86]\xa2?\xbf\xe0i\xed\xecb\xe2\xbf\xa9\xf7\x1f\x0c\x90C\xac?\xb1\xb3\x82\x81f\xfb\xc3?/u"\t\xc0\xc4\xd2?\xfb\xc3X4\xa3\xa9\xb5?\xd5\xfb\xe9K(\x9e\xd5?\xe34\xc5\xc9\xb4\x15\xbb?]P\x99:\xd0T\xe1?\xbe\xde\xbd\xab;\x04\xd4?\xe8\xeaP*\xa8y\xcc?\xee\x91)H\xd9\xf1\xb2?\xbb\xb1-9<!\xe3\xbf\xe6\xe7\x8c\x85\xeca\xb3?\xc0b?\x18f\xfc\xda?\x93\xee\x11\xe9\x94\xea\xda\xbfV\x89\x85\x83\xd8\xd2\xe1\xbf[\x99L\x0c\x8f\xf5\xce?\xc14AS!\xab\xe1?\xa9@\x04\xbd\xed\xc7\xaf?\x03\xa7D\xf5\xea\xe6\xdb\xbf\xa7|\xab\xe0\x97!\xdc?\x1e2\xcfW\xa4\x00\xc0\xbf\xccI\xc0\xa1\xe1/\xe1?\xb8\r$\x0e\x91\xea\xe1?V\x1a\x10\xa5-<\xd9\xbf\xd5\xcckE\xdd\xaf\xa8?<\xe9\xbd\xee\xf3\xbf\xe2\xbfa\x81[\x9a\xc8\x0b\xdb?5\xf9\x9d+\xc7b\xd5\xbfU\xca\x9b\xa0\xee#\xc4\xbf\xbe\xd4Z\xa2\x7f\x1c\xa3\xbf\xf5\xdb-\xcd\xce\x97\xd4\xbf\xc2[\x82\x93\xaf<\x94?\xa3k\xe0C\xc5S\xca\xbf\xf6S\xba\xaf\xe5\x99\xca\xbfH.\xc7B\xa0\xee\xc1\xbf\x92\x9d\xe2\x17\x12\xbd\xe1\xbf\xf7\xbf?4\x87\x87\xe5?\x1f\xea@\xb0\x0e]\xd8?j\x83\xfd\xe3\xee\xe4\x9b\xbf\x92)\xfc\xa8\xeeY\xe4?L5\xe5"\xf2\x13\xe5\xbfg\xb0 >\xe7D\xd4?xHf\xed\xd1\x85\xdc\xbf\xa7\x81J\xb8\x1b\xe3\xe2\xbf\xf7G\xe7\xf8\xcf\xd6\xde?\x94\x05\x1bD\x19\xef\x92\xbf\xf5\xdb\xb9\xff\xb8d\xe3?\x1f\xf8l\xed\xcd\xa9\xc8?\xe4\x13\xd3A,\xab\xe0?\xd0v\x87$\xbe\xef\xdf\xbfG5\xe9x\xfco\xe0?\x1ft\x82\xa5\xb8[\xe0?\x0b\x95\x9dY\xc5\x88\xb0?\xf8\xf6m\x84\xf9\xbf\xd3?\xde\x021\xa1\x86^\xe0?\xafs\xcd\xe1\x10\x05\xd2?\x9c>\xadx\xd2\xfc\xda?\x88\x88r\x99\xb5#\xda?\xd2l\x8a\xc6\xa1\xf7\xdc?\xce\x1d\x0ey\xd2#\xdf?q\xb2[Jpo\x7f\xbf\xcd/\xd1\x19\xee\xc8\xc2?\xe3\xff\xe2\x82*6\xb2?\x03\tC\xa1\xbf\x9a\xd2\xbf\xc0\x00\x97\x17*\x10\xce?\xf2\x1cb\xce\xdbQ\xca?\x1fC\xec<+\xb6\xd1?+\xd9\x97\xc3\xf6"\xe5\xbf\x14\xf9\xce5\xa1\xfa\xc5\xbfYc2\xae\x8da\xe1?\xc6~\xcc\xb2\x7fq\xd4\xbf\xeb\xb4\xc2\xd0Vz\x94\xbf\x0bV\xac\xedI\xa2\xac\xbf\xc6&\xadNK\xa3\xdc?5\xe2v\x81\nr\xda?_\xca\xc3\x91$\x88\xae\xbf7\xfa\x1e\xcfNR\xea?\x99\xd1\x0b@\xbc\xb3\x9e\xbf)\xed\xf8\x15\xac\x0e\xc3?\x89w;9\xb5z\xe8?\xd6\xf2\x9e\x13\x9d|\xda?\xbcnu\xa3!\x9f\xe6\xbf\xeb\x9fY\xa2\x8fw\x91\xbf\x80`\xf1\x1b\xacN\xcb\xbf\xff\xf8\xfe\x96\xb3\xab\xdf?L\x85\xdb\xac\xb6\xed\xd1?X m\x0c\xc01\xd7\xbf\x9b\x9c\x18\xa2SM\xa0?\xb3\xa1\xa8\xd4"[\xc3\xbfxN\x07+\x17x\xc0\xbf\xe3=\xf1Fv\xfb\xb5\xbf\xdc\xec\xa9\xa0\x07\xea\xc1?\x83\x08\xa0\x07\xebS\xe1\xbf\xdbPe\x1c\x18\xd2\xdc\xbf`\xcfK6\xffL\xe6?\x7fw\xbb0\x13\xea\xd0\xbf^\xaeQ\\\xdb\x0f\xe4?\xf1\x15\x02\xa4f\x02\xe0\xbf\x96\x19\xe8\xa5\x14\xbd\xb1?\xf0\x18\x81\xb2!\x97\xd7\xbfr!\xd0\x14\xfa\xc9\xd0?\x84\x18oN\xfa~\xd2\xbf\xbd\t"8\xfd\x1a\xa0?\xcc\x96\x97\x04\xf3I\x89?C\x9b\x90\xa8D\r\xe9?\xc6\x98\xc4_9^\xaf\xbf\x04\x9aA\xd6\x04\xa0\xdc\xbfW\x00\xdb\x88\xa4\xd5\xe7?\xe5&B\x07(\xeb\xb6\xbf\xfa\xef\xe3\xe1\x06\x82\xe1?(h)X\xff\xba\xd5\xbf\xfa4\xd0)\x93m\xd3?\x8b\xae\xc2a\xf6\xe9\xdb?\xcc\xe6\xe5\xe8\xdf\x82\xb0\xbf\xc3\x9c\xa4\x1f2\'\xcb?\xe0\x99\xea\x8aG\xae\xde\xbf{D\xe9\xed\xdb>\xc6\xbf\x82\x08\xd4\xb5\x0fF\xd5\xbf\xe1\xeb\xe0Je\x8f\xd7\xbfo\xe2\x07\xdf\xa2\xac\xde\xbf\x05\xf4%\xd9\x85\xed\xe2?m}\xbdo;\xe9\xd2\xbf\xd6\x0f\xd0xD\x01\xc7?\x13\xf5\xd2+\xe5\xd5\xe2\xbf\xc4\xf0iL\xea\xf6\xcf?\xff\x90\xcaT\xb8\xfc\xcb?\xe35\xce,e\x8d\xe2?E\xc0;*\xec8\xdb?\x00\x12 \xf5\xd0\x1c\xe1\xbfM\t\xd9N\x96\xc4\xd7\xbfr\x02\x1eC\x91u\xd2?\xcaP\xc2\x8c\x9e;\xc9?\xce\x1e\xd1\xdar\xe0\xda\xbf\xc9\x82\x80\xa3\xfd\r\xd1\xbf\xdfb[\xd4\x83\xf3\xb0?\xde?\xb3Y7\x92\xe2?\xf3N\x85\xf3\'\x0e\xd2\xbf\xa4WZ\xae,W\xd1\xbf\xfe\x91Lt\xa9\x16\xca\xbf\xf8B\xe6D(>\xca?\x18/np\x17\xe6\xe0?}\xf0\xf0\x92yq\xd4?(\x0e\xee\xda\xe1;n?fK\xa3\x9b6S\xc3\xbf\xf1\xa5\xe6\xd1aK\xdf\xbf\xe6\xe0\xd0BG\xb6\xe1\xbf\xefWDC\xc1\xfa\xca\xbfs<\x14\x87\xc6\x82\xc9\xbf\xf4\t\x01\xb2m\xdb\xe0\xbf\xa15K\xa4\xba\xc2c?\xc4\x9cfA^\xc4\xd3?L\xb8]\x18U\x84\xd4\xbf\xc0\xe7\xa4X6\x17\xe5\xbf\x98\xaa\xfe\xb7\xc5\x9c\xe3\xbf\xaa\xc1\x92.t#\xe0\xbfN\x96\x9e3UQ\xd0\xbf\xa6\x94kn\x94\xca\xde\xbf\xa7*19\xa6\xb1\xd5?\x08\x80\xed\xfe\xef\xa4\xe3?\xba\xc1C\xc6\xd7\xb5\xcb?3\xcb\xc8\x94\xa1\x89\xe2?\x8f\xbbn\xfew\xa8\xc1\xbf\xba\xa3\x11\x9b\x8b\x8a\xb0\xbf\xac\xf3\x8e\x98\xcf*\xe2\xbf\x18\x87\x01\xbd1\xaa\xe4\xbf\xdeNe\x96.\x14\xaf\xbf.\x99\xbb\xb1\x07\xdd\xe4\xbf\x16 \xf5\xdb|^\xd1\xbfa\xa4\xed/\xd7\x07\xda?\x90\xb3\xa5w$\xb9\xc9?3d<\xc1\x07J\xe4?J.\xad\xaa\xce6\xd1?\xfc1\x7fB\x8f\xfb\xca\xbf\x1c\xe8\xf4S\xaa0\xe5\xbfo\x11\x1f\xa4\xcb\xcc\xdf?\xa6B\x9at\xcb\xb5\xe5?\x0e\x1dsm\xa65\xb0?k\xbcA\xa93m\xdb\xbf\xea\xbc\xab\xc2\x92\x93\xc4?\xd0}\xedl\x0c*\xc8?\xe5;c\x7f\xd2\\\xd4?\xc4/D\xed^-\xe3?v\x91~\xd2\x06\x93\xcc\xbf\xe6\xc4\xb4B9L\xc9?7n\xb2\x18W\xb6\xa9\xbfW\x96\xbb\xf8*i\xd0\xbf\xf6jW\xcb\x95C\xd4?\xdc\xe9\x00\xd0Y\x8c\xd6?o`\xdd\xd0\xfe\xf0\xe6\xbf\x04g\x03Sun\xd8?\xa7b\xdd+\x19\xc5\xe1\xbf\x8c\x8b}\xbb\xf9\xe3\xd1?S-\x81q^\xe9\xd9?\'\x00-\x982\xdc\xd1\xbf}4D\xe7\xc14\xe7?.\xea\'\xf1\xff\n\xa1\xbf\x16\x85@\xa1\x87 \xdf?\xd5\x02"]O\x9f\xd2?\x97\x8a\xb9\xcb\x12\xc4S?@\xe1\xefB\xd5\x86\xc5?Z\x16\x86\x9dw\x80\xe2\xbf\x11\x07-b8\x90\xe3\xbf_ \xbd\t~Z\xe6?\xe6\x9c\x81\xc6\xe3\xb9\xd6?0\x9e/\x1a\xf1o\xda?I\x00bD\xef\xd0\xd8?GjSp{\x13\xc4\xbf=Bi\x85\x87\xab\xdb\xbf\xf3hj\x97\xf0\xf3\xda\xbf\x17\xaf\xbc6~\xf3\xb0?\xcb\x94\xcd\x97\xeb>\xcc\xbf58\xdbM\xc3,\xd7?\xe1\xb2 \x83\xe9\x88\xdc\xbf\xb5\xe8}\x02\xaf\x0f\xce?_\x1e"\xdf\xcf\xc4\xdc?\x08\xae\xa6\xc2A\xe1\xcb\xbf\xd5\n\x01\xfe\x04\xe2\xda?u\xad%j\'y\xc1?\xc8\x8b\x9f}\x14\xe3\xd2\xbf\xae\xed\x7f\x8c{\xbf\xc4\xbfK\x96o\xdd\x97\x07\xcb\xbf\x88.\xc79\xa0\x81\xd2?`\x88H\x110y\xc3?](\xca\xf9`\xf3\xbb\xbf9\xee\xf3\x1b%\xc9\xb7?g\x00\xc1\xc0\xf6\xd2\xda?\x85\x07\x06\x948\xa2\xdf?*\xf9\x7f\xb8\xb4\xd9\xd0?S\x16w\xdb\r\xf4\xe5\xbf\x95&\x96\x81\xb08\xd2\xbf\xea\x9d\x17\xfcE)\xd5\xbf\x81\x1a\x12OV\xcd\xda?H~\xc1\x1a\x99U\xbe?\'k=\xde\xa9\xde\xb3?\xf3<\x86\xc5\xd3\x98\xc4\xbf\xec\x1d\xa1\xac!F\xe3\xbf\xd6\xed\xe3\xb6\xba1\xd6?\xc0\xe27\x9c\xf6\x05\xcd\xbf}4{\x93h\xfa\xe1\xbf\xdc`\x90\xbaza\xda\xbf\xf9I\x94\x1c5\xde\xe0?C\xc1\xb2\xe8M\xbd\xd8?>\x94\xda\x1bDO\xe4\xbf\r\xf3zw1\x94\xa3?\xe7\x84+&\xc7{\xe1?\xbd\x8b7\\c\xd4\xd8?\xb5\xd7>\xe8 M\xc0\xbf\xda\x17;\xcbG\xae\xc7?R;\xdf\xb1\xc5\xb5\xc1?\x1f\x7f$\x11\x16\x95\xc3?\xc1\x85P\xc5\xd8\xc6\xe4\xbf\xcdO*r\xe8\xd7\xd3?qB\x84\x0b\x7f\xd1\xb9\xbf\x90\x81\x04\x17y1\xd8?\xbf\x1f\x05\x06B\xae\xc8\xbf\xf0\n]\x00\xcd\xd4\xe3\xbf\x01\xea^U\x84\xaa\xe0\xbf\x08\x86\xd83\x9b\xfd\xb9?\xba\x96\x17\xb0\x0f\x8e\xe2\xbf\x97\xeb\xb4 \x05\x16\xb1\xbf\xdc2\x1at \'\xd9\xbf\x95\xf7Vt7\xd3\xc2?\xbe{E\xeb\x80M\xd7\xbf\x93\x0b\xa8\xd3\x14\xb2\xe3\xbf\xd3\xbd|\xe7\xa6\x04\xe4\xbf_)\x95\xc6\xe44\xd8\xbf\xcf\x896\xc8\\\xab\xd1?\x93wR\xd6S6\xda\xbf\xc6(Z\xd1\xe2\x80\xdf\xbfb\xc5\xf8\xacRt\xdb\xbf}\xd5cS\x9d\x95\xe0\xbf]\xee\x90\x98\xedg\xcb\xbf\x12\xfb\xb0C\xd0\xeb\xe2?o\xef\xae8\xd17\xd7?RVF%\x82\xc7\xdf?\xa1\xda"\x05}\xa2\xde\xbf\xa0\x9f\xde\xcd!\x98\xbb?z\xf1\xc5\xe2\xb2q\xcd\xbfN\x0c\x8bX\xfc\xaf\xc8\xbf\xdd2J\x84\r\x86\xda?\xad\xe1\xe8\x1bX\x1f\xb5\xbf\xcb\xc0\xb4\x16K=\xd6?\xdd\xa0\xbe\xe4\xcb\xb9\xdb?t\x86^\x88\x8eZ\xd0?\xdeK\xdc\x150z\xdb?$\xda\x99d\xf5\xcb\xd0?J\x8aN\xa9\xbd\x88\xa7\xbf\xe8\xc3q1\x9co\xdd\xbf;\t\x94uTo\xd9?\xa5\x15\xb1\xed"\x8d\xdf?w\xb4\x1a\r\xae\xd4\xc9\xbf\x84\xec\xd1\x87\x0c\x1f\xb5?\xd7d\xed:\xe4\xbf\xdb\xbf\x9eb\xe4\x9b(\xcb\xd2?4\x97\x02\xedf\x03\xc2\xbf\x9f\xb6\xc0v\x9e\x06\xd5\xbf\xfeR\x1bW\x05-\xde?\xe4\x86\x98\x05\x89\x14\xdd?\xb2\xb7\xf4Mr4\xb8\xbf,\xab\x86\x9bE\xd3\xcd\xbf\xfcmf\xb6\x07\x83\xdb?/\x12\xeb\x8c\xf6\xba\xe2?<\xdc\x9e\xa5\x1e^\xdd?p\xb5\x13\xcb\xc6\x99\xcf?A(Ns\x84E\xce?\xc2W\xd7|\xf8\'\xe4?\x8b\x85\xf5i1H\xe1?\xe4\x03@N\xbc@\xd0?\x1c\xaa]K\xe6/\xd1?;\xbc\xff\xd1\xf9\x03\xe3?\tb"H*\xf9\xc7?\xac\xfa#\rE\xa1\xd1?\xe6\x8c\x93V\xd7\x0b\xaf\xbf\\\'A\x04C\xc0\xd2?P`\xc8\x8dm\xc6\xdd\xbf%\tI\xd8\x95\x93\xbe?<\x89\x93\xc18v\xcc?\xd9\xfe\xc7\x8b\xc2v\xd2?\xb6\xac\xb7\xd4\xa9\x1d\xd6\xbf\xc9n\xc3pp9\xcb?t|\x0c~\x9eI\xe4\xbf\xee\xa9\xc2\x95[\xae\xe3?\xec\x0b6\x9fNi\xc4?^-\xaf\x84\t\x9f\xdd?U\x8eh[Cw\xe3\xbfrS\x8a9^\xc3\xd7?\xa7M\xc8\x82\xf9|\xb6\xbfA\x02\xd3\xac\x12E\xc1\xbf\x9b"\xd9\xac\xf9\xaa\xb6?\x95q\xaeO\xe2 \xe3\xbfqP\x10:\'\xb0\xaa\xbf\xe7\xe8\xf6\xc2D^\x93?H\x89d\x819\x87\xe0\xbf\xed\xc2\xe3^P\xe3\xdd?\t\xda\xa8y\x9bV\xe4\xbfhk\x92z=\x11\xdf\xbfj\xf7\xfd\xa1[\xb4\xe0?7\xa1\x13t\x97\xdd\xd4?\xd6\xf5`!W\x87\xad\xbf\xd3\x02\xb2`\x83\x12\xdb?.`)\xea\xd0{\xe0\xbf\xcc#\xfd\xf0\xeb\xb2\xe1\xbfR\xb4h1&\x83\xbd?\xa6 \xe0\xd9Lq\xc9?1\xf8\x1feq0\xe1\xbf\xfb\x01l\x0e\xaeE\xda?\n7\xad\x12A-\xda?v`\xac\x91\xa5\x9d\xe1?A\x81\x91\xcd\xc5\xc5\xcd\xbf\xc2\xf0l\xa4WZ\xdc\xbf\'k\xb4 \xa3\xae\xe0\xbf\x1f\xe8l-\x99\xd8\xd7?\xbc\xbfh\xea1\xc8\xd6?\x15\xad\xf3=\x7f\xb5\xc7\xbfX>\xe0\x8b\x83\xcf\xe3\xbfB\xcf\xf7\x0biU\xd7\xbfV\xcab?6\r\xa4?s\x05\x0cL\x0bR\xdf?u\x0e\xa6h\xeb\x89\xe2?9NV\x1d\xd7\x85\xd5?k\x9f2\x03\xc91\xc0?\x9ar~\x04I\x9e\xe7\xbf\x85\xc9w\xa9,5\xc0?\xbc\x15\xca\x1b\x87=\xbf\xbfK\xe4\x93[\xbeL\xc8\xbf\x93]\xdbN\x84$\xa1\xbfc\xb8@\xcewS\xa3?\x89\xf1\x1bY\x8d}\xb3?\x99\x92\x99\xe3\x15\x8a\xd3?WW\x9dq\xf4_\xe3\xbfU\xe3\x00@\x02o\xd3?\xa0s\xb1\xf11\x8c\xb4\xbf\xd6\x1d\xbd\xd5G\xf8\xd8?(\xed.\x19\x89!\xdf?n\xc5\xf4N\xac3\xd9?\x8b\'k \x03\xa5\xdc?\xb4\x0e\x06\x1ex\x9e\x8d\xbf\xe3J\xa0"\x8d\n\xe2\xbf\x9c1\xa9jCW\xc4\xbf\x01W\t\xdbs\xc1\xc6?b\xe4\x89\x90,\x9b\x94?\x0b\x85\xe2\x90\x16!\xcb?s\xc0\x06D\x9e\xc2\xda?\xcc8BMS\xec\xdd\xbf\xe3]\xcd\x8c\x9d\xbd\xbc\xbf\x1b\\`\x8fe\xdb\xdf\xbf\x81\xc4\x0f\x180\x86\xe3\xbf\xee\xcc41\xd5)\xc8?\x96\xf9S\x81\x1e\x92\xd8?e\xaa\x10eH\x84\xd2\xbf\x0f\x84\x9ak\xdf\x88\xbd\xbf0\xd5\x8a\x0e\x8a\x12\xe8?dQP\xbdY\xb1\xbb\xbf\xb2\x91\x155\x8aq\xad\xbf>\xeb\x15\x16r\x00\xe6\xbf?\x90\xe5\x07\x12\xf3\xc8?F9g\xb0XP\xde\xbf\x13\xc8\xd1\xcd.z\xdd?\xe0Z={\xf0\xd4\xe4?\xf5\x01\xc2.n\xd5\xb6?O0h\x1bm\xee\xc7?\xc4\x84c\xdb\xbd\x14\xd7\xbfj\xb0\xde\xf4s\xeb\xe1?\xfas\x0c\xf14\xaa\xd4?O\x88"[\x95\x9f\xc2?#n\xc7D\xa3\xe2\xc6\xbf\xca\xb6wP\xbd\xee\xcc?\xf2\x03WC\xc5:\xcb?5\x0b\x8e\x17\xfb\xb2\xde\xbf4\xae\xbe\xd5\x8ff\xd8\xbf\xac\x88~y\xba|\xc4?\xf3\x8c\xfc\x8b\x19H\xe1\xbf8\x94\x93\xcf]\xba\xe2?\x91^\xc0t\xbf\xa8\x86\xbf\xb1\xf8U\xa4%\xeb\xdd\xbf)\xe0\xeb-`\xf8\xbb?\xae0\xe2\xd8\xe5W\x96?~\x86\xe2F\xb3{\xc0?\xce\xe07\xa3\x19i\xa2?S\x9b\xbfV\x16\x88\xe0\xbf*\xe6j\xda\xeaR\xb8\xbf\x87&D\xc3\x86\xa9\xbb\xbfaS\xf3\xdfk\xe1\xe2\xbf\xda\x0b\xc8\x95A\x87\xdd\xbf\xb3v\xe1\xc5\x1e`\xdc\xbf\xd4\xa2\x9f\x84\x0f@\xaf\xbfl/\xa2\xe2\x1db\xe4?\x7fN@C9\x16\xe5?\x1d\xda\x9f\x05\x05\x0f\xc6\xbfG\x85\xe6/\xcc\xe8\xd9\xbf\xf4\xbd\xb2\x0c\xd2\xcf\xd0\xbf5Kf\x1a\xfcG\xda\xbfQ\xad\x8cj)\x03\xca\xbf\xe2\xd4\x04p\xea2\xe4\xbf\xaa\xb3<\xc3\xe3\x8a\xd7?\x85LE\x16\x1cj\xb8?\xb2S\xb2\x9ee\xfc\xbb?\x9f\xe7\x9c\xddm\xfd\x92?\r\xc3\xbd\xfeL\x9d\xe3\xbf\xac\x84\xe9\xb2\x10\xc1\xde\xbf\x83\xefS\xbc\x16s\xcf\xbf\xb5\xbbF\n\xa1\xb4\xe4\xbf\x0b\x15y\xfb|\xcf\xe4\xbf\xeb\xf3"J\xce\xa6\xe0\xbf\xba\x90\x16\xfbhB\xc7?\xb5\x99<j\x8d\xbc\xd5?\xdes\x87g\x1cn\xd9\xbfpn\x1c\xce\xfe\xe8\xc0?R\xfb\xcd\xab\xd0\xed\xdc\xbfT^\xe5\xab\xe4\xa1\x93\xbf\x16\xca\x01\xeb\xadQ\xc0\xbfB\x88\xdb\xd1\xb4\x07\xe5?\xa3\xdeYb\xa3\x05\xde\xbf\x8bJ`\xd8\rw\xe2?-\xf2\x16\x1c\xcaE\xc4\xbf\xef3\xfd\x1b3\xe2\xd0?k\x00\x9dx\xa8}\xc1?\xd0\x848e\x8e\xbb\xdb\xbfNY\xd8\xa2\xae\xf9\xc4\xbf\xfc\xcf\xe6\x1e0\xb0\xdb?\\\xf0q^\x1b\x0c\xe0?\xd6M\xd6p\xdaz\xe3?\x00\x19\x81\xfc\x1d\xa0\xd5\xbf6\xe5V\xbckn\xdb\xbf\xc0]\x0e\x04\x9c/\xe2?\xe1j9\x05cE\xdd?\x16R{\xdfL\x17\xd2?1IE7\x1a\xc0\xd0\xbf\xec\x81\xc8}\x89F\xa7?\xfb\xbdPf\xae\xba\xd0?\x12\x0fYq\xac\xce\xda?\x0emz\x92\xc2\xd1\xe3?\xecVx\xecT\x84\xdd\xbf\x06%\x98i\x16\xb0\xe0?\xa7\x040\x04\xdb\x0c\xc4?j\xa7\xb3\xbdE\xa2\xdd\xbf?\xcb$\x88n\x06\xd2?\x8e\xa3\xa9\xb3\xc8o\xdb\xbf\x9cE,q\x89\x0e\xe2?\x16\'6\x9c\xc0\xe4\xd1?\xd2pF\xe3\xfd\xaf\xe0?\xe3\x86\x13\xcf\x9b0\xc5?\x87\x9f\xbe\x85\x04\x92\xd0?\xcd\xfd\x86\xac\xb9\xbd\x92\xbfJa\x81\x88*\x1d\xd9?\xca\x13\xae\x87\t\xc9\xd5\xbf\xaf\x12w\x7f\x089\xe3\xbf\x93Ef4\x1b\xa6\xe3\xbfT\xd5\xa7\x8c\x9e\x8d\xd6\xbfs\xd8\xcf\xc5\x86\xd8\xe3\xbfQ~\x93\x88\xef\xb2\xbf\xbf\xc5\xad\xef\x85\xe9\xe0\xe2?\xda\xac\x00A\xab\xf1\xe1?\x1a\xc8PI\n\xdd\xb6?\xc9\xd32\x97\x06\x9c\xb8?_h\x92\xceE\x0b\xce\xbf\x90c\x8c2\xba\x0c\xdf?X;\x94\xb2|e\xc0?\x1fAReU\x0e\xe3?\xdb\x87sw\'\xc8\xd1?\xe3+!\xfe_v\xd4?\xb8\xd4\x93\xda\xf33\xe3\xbf\xbd\x9f\xe5\xc3\xcee\xd5\xbf|R\x9b\xd9\x19\xe2\xe1?.\xae\x94?\xc4.\xd0\xbf\xff=5\x93Qz\xe3?\xa96Y\xb2\xd5\xb1\xc3?\xc7C\x9b\xb9\xc3\xe3\xcf\xbf\xa0Iy\xaa\xa3P\x98?\xa0Fw\xc8G\xd1\xd3\xbf\x129\xe24{\xf3\xcc\xbf\xabv\xb4IBk\xc9\xbf\xa5gcc\xd13\xb2?\xb8|S\n\xc2"\xd7\xbfxM\x1fD\xb7\xe9\xe0\xbfZK\x8f\x97\xcf\xf5\xdb\xbf\xae=6>G\x13\xc3?\xef\xd7G\xb8(\xe8\xbb?(5\xaax\x8a\xae\xc9?\xf8*%\xc4E\xba\xe1\xbf\x0f\xce+\xcd<?\xdd\xbf\xe5\xe8\xa7\x80\xa5\xbf\xb6?\xdc-y\x86\xdd\xa6\xdd?7\xc5\x10\xa0 \x19\xdb\xbf\xee\x0f\x1d\x19u\xf5\x8c\xbf\x01X\xb1\x83\x9f\xc2\xe0?I\xdd&+\xc7\xcc\xe2?j\xc3\'`\x92\xbf\xa3?\xa5\t\xb7\xef\xc5\xc1\xd2\xbf\x9e\xddL\xb5\xb9\xdd\xd7\xbf\x93\x1f\x01_\xf61\xc0?\x11e\xf7\xadg\x92\xe2\xbf\x8f\tU\x12\x999\xe6?\x9a$\x05\xbe\xf0\xca\xe5?\xd8\x8c\xd2\xb4\x08\x8d\xbf\xbfJW\xbc\x12\x84\x9b\xab\xbfG\x81\xafx9\xac\xb5\xbf\x81\xba\x94\xf9\xef;\xd5\xbf6e\xabp]\xa8\xb0?\xc9\x0fO\xb5#\xab\xe3\xbf\x03\x17\xf4\x84\x19\xde\xe3\xbf3C\xc4\x15\xd5\xb7\xb1\xbf+\xd0\xef\xcdj\xe8\xd7?\xd9\xb1\xa6.+S\xe0\xbfx\xeb\xcb\x8f\t;\xdd\xbf\xde];\xf3\xc4\\\xd2\xbf\x0fL\xd7\xe5\xaa;\xe3\xbf\xa2\x16\xb3\x1b\xe1}\xc1\xbf\xe6\xa0\x9d\xa8\xe02\xd0?\xa2\xe28\xc0\xb6i\xb0\xbfg\xf9DNl\xac\xcb?7\xd7\xf0i\x8f3\xe1?\xa9!7\xda\x1fE\x98\xbf\xae\xe0G\xca\xa0\x88R\xbf\'/\xa7"u\xc7\xb2?\xd3\xaaM\xecJ\x00\xce?\xdc\x9a\xefQ$j\xc7\xbf\xed\xf1\xb0\x8f"\xe8\xc7?\x19\xf6&=\x8bT\xcc?\x06f\x1a\xce\xf5\x13\xd8?B\xf9\xe0\x9b\x9a\xa3\xe4?\x7f\x0c\xae\x10\xe8w\xe0\xbf\xba\xfa\xd3?\x03\xc1\xdc?\xcd\xd4\xff\x1bi\x8c\xd9?L\x1d\xc6\xa6Uk\xda?\xd6\xf7\xc5\x8c\x852\xe5\xbfZ3\xf2\xb2\xbf\xc6\xd3\xbf.\xfc\xbc\xd7\xce\xcb\xe5?\x07\xfc\xd7\xe2=\x0e\xd7\xbf\x9bW\xb3\xf6\xc1\\\xa1\xbf\xc2\x0fQe\x9f\x90\xc8?\x01\x9d\xc4\xcbd\xff\xd8\xbf\xaf\xed\\\x05\xe9u\xe4\xbf\xcd"UkpV\xa9?\x99\xbeJR5\xa8\xdf\xbf\x99n\x80#z\xf9\xc5\xbf,\xe4\x967N~\xd1\xbffG\x8b\xa6\x96\x8a\xc4\xbf\x11io\xe3\x7f\xe9\xd7?\xc1mR\xbe&)\xd9?\x08\xb5ZBK\x89\xb7\xbf]B\xb3\xfa\xa7V\xe4?u\x88%\xf2\xadv\xd8\xbf\xdb\x9b\x17\xaa!\x9f\xca\xbfX\xcc\x10\xda\xb8\xcf\xe0?\xfe|\xa6\x89\xc3\xac\xe1?\xdd\xba\xf0N\xe0v\xe4\xbf\xe2\xb3J\x8dS\x16\xe1?!\x1e\xfa7\xea\xa0\xd5\xbf\x93j\xb5\x84\x8fr\xe6\xbf|\x7f\xb5\x84d\xd3\xe1?\x9f\x0e6~~F\xd5?\x15\xa1q\xc4\x93\xc9\xe2?\xdd9\xfe\xb2\xc7<\xd3?I\x89\\"2u\xdc?{y\xcd\xf0\xe2q\xd4\xbfY:T#tG\xd1\xbf\xd6>\xb7\x9aR\x8d\xd4\xbf\xab\xa6~\xe9^\x8f\xd2?\xed\xea\n\xa7\xbf\xd0\xaa\xbf3\xfd\x9dddn\xd8?\xdc\xe9,\xcdu\x9b\xd2\xbf\xe5\xd4~\xc5X\x0e\xbf?\xa7\x93\x08JIh\xbb?j|\x90\x91\xb8\x08\xd1\xbf\x81Hw\x07\xa9\x15\xe4\xbf~8\xf8|\x8au\xcb\xbf\xcaG\xe8\x13E7\xe0\xbf\xc3\x1c\x11\xec\xf7g\xe5\xbfm\xd5\xfa_2e\xd0\xbf\xd7K\xbcF\x003\xc5?d\xa0\x88\xd3\xed,\xdb?\x93\x9a(\xda\xd0C\xda?\xd6\xa9\x1f\x9d\xb6\x8b\xd6?\n\x98\xfb\x13T\x0b\xa8?\x18\xc1\xc8s_\xd8\xaa\xbf\xa0\x11\xbc\x9dO\xdf\xd9?\xbd\xae\xed\'\x8a\x11\xd5?\xccH\xb34\xc7_\xe3\xbfWNOrOS\xe4?\x1e <e\xe3 \xc7\xbf\xa6\x96v\xce\xccu\xdf\xbf\x00gQLB\x0b\xd3\xbf\x0edP)\xdd\xbb\xd1\xbf\xc4\x15bV\x7f\xdd\xdc?\x8d\x85S\x8e\x14%\xaf?\x1a\x1b\x18\x17\xa28\xc4?\xa4\xcat\xcc\x05\x10\xde?f2\xdf\xf4$k\x95?\xe3\x89\xd8\x94\x9b\x0e\xe0?4\xc0\xc8\x06NX\xd1?\xf5\xa4\xd3\xda\xb0\x8f\xc2?\xfb\xd6`\xd6\x15C\xcf?<\xa6\x9e\x84\x1eJ\xad?\x89\xe3\x93\xf2{%\xd9?\x08\xba\xddO\xe9\x17\xca?\xa0\xda\xec<\x19\'\xbb?\x90\x19\x7fDt\xb7\xd4?\x8cz\xcb\xcbs\x91\xc3\xbf*\xaf\xf0\xd6\xc26\xb4\xbf/\n\xa3\x1a*\xae\xd0\xbfR\x0f\x92\xc1}\xde\xbb?K.\x8f\xa2\x0fG\xda\xbft\x8d\x97\x84\n \xd3\xbf6\n\xe5\xa6\xb0\x92\xa4?\xbd;!\x91\xdb\x8a\xd4\xbf\xa4\x00R\xab\xd0w\xd4\xbf\xe3\xe03\xdf\xdd\xd6\xca\xbf`\n\xb94\xed\xbc\xc3\xbf\xac\xe1\xe4\x97\\B\xc4\xbf\x1a\xd6\xb1\x0b\x9e\x9c\xb4\xbf\xc7\xe6.\x8bES\xc3\xbfc\xa9\xe9\xe4\x03M\xcf?\x95\x9eH\x97\xed\xd0\xb8\xbf\xb4\xb7\x1a}g\xa3\xe1?\x8c{\xc1\xf9vT\xe9?\xc8\xc3I\xf26"\xc3\xbf$\xbf\xab~\x91,\xe0?\x86l\xac\x93\x81X\xd7\xbf\x10w\x00\x92\xb6o\xe0\xbf\x97&4k\xbe\x9b\xd0?\n\xbcJ\x1b\x1a\x0c\xe1?\xa4Z^\xbe\xa22\xd9\xbfD\xb3\xe3I\xc0\xbf\xc4\xbf\x13jV4q\xbe\xde?9NQ\x87"\xea\xe0?\xd5>X\xfa\xfd\xc6\xe3?5\xddZ\xccpB\x96\xbfR1\xb8\x87\x18;\xd2?Fj1\xe3A\xf5\xd1?=\xb0c\xf8\xb3\x94\xdf\xbff\xb4T\xb1\x8d\xd6\xd7\xbf\x1e\xcbo\xba\xe5\x02\xd8?\x97\x1f\xb6\xcc\xdd\x1b\xde\xbfC\xd8\xf7\xa8\xcd\x7f\xd5?r6K\xad\xfex\xd9?\xd8\xd9\x00\x0b\xa5\xbb\xc2?\xedj\xae\xd9m]\xd3\xbf\xa3\x7fX\xaa\x07\xe2\xea\xbf\xdf\x96\xec-\xa6\x1b\xe1\xbf\xfe\xfezo\x07\xca\xd0?U\xd2\x95\x90\t6\xd3?N\xb9\xb9\x9e\xd4\xb1\xce?\xbc\xa1VLt\xc7\xd1\xbf\xd3\x85\xff\xc4\xc3Y\xa6\xbf\xaa\njOW\x8a\xc2\xbf\xde\x8a\xe5\x97\xcaU\xd5?ZtrFQ\xd6\xe6\xbf\x9e\r\xad\x92\x99G\xd4?M\xc7\x18\x0fVR\xce?\x80\x95\x92\x05\xdc\x89\xaa\xbf\xa5\x01\xc7\xa2P\x83\xce?\xa5\x8c*G\xa4E\xc6\xbf\x9f\x16w\x1e\xc1S\xf6\xbf\xf9\xee\xbd\x8a`z\xdf\xbf,\xc0\t\xd9\x19\x9f\xa7?\x02\x85F\xc6\xe8\xe0\xa8?\xfbtn2\x8b\xc1\xc8\xbf}5]\xb9\x1aK\xbf?\x1e{\x8cf\xf2g\xb9\xbf0\x95\x00X\xe1v\xd3\xbf\xbc\xebf\x11 \x9c\xc1?\x8b\x1a\xc2\x93\x88\x90\xd1\xbf\xc2\xacW\xba@\xf6\xd1?\x00\xfa\rvVa\xbc\xbf\x9a\xb8\xf9\xf7\x80\x00\xe4?\xda\xb8\x81\xfa<\x92\xd2?\xa3%H\x9c\x94y\xe4?\xc4v7b\x82\xf4\xe2\xbf\xb1\x13\xa8\x7f\xba\x8b\xdc?\x03\xf4N\xf9\xb4d\xda\xbf\xdb\xad\x1b\xfe?\xb1\xe4\xbf\x12\xc2\xff\x0fq\x16\xc9?\xb9\xf4a\x05\x08\x7f\xe1\xbf\xa2WV\xed\xcb\x93\xe0\xbf\xe7\xa5>\xaa\x8aV\xa0?\xb8"\xf1\x8c[\xb9\xc2\xbf\xa0\xa4is3\xc2\xd5? Q\xa2\xbf\xe7\xa7\xda?\xd0}{*\xbe\x80\xe3?\xe1\xf8\xb2\x87\xce\xeb\xa3?\x1cd\xa4\x0b\xe3\xc0\xd9?\x8d\xb3\x12\x02\xa0\xa9\xdd\xbf/U\xc0\x90\xa0\xe3\xb2?\xed\x0cm\xa1\x95\x10\xd0\xbf\xfe~7\x17"I\xbd?\xdf\xdf\xca\x9c(T\xde?\xbaZ\xca\xa7+!\xda\xbf:Xxg\x12\x01\xe3?H\xc1E\x96\xaeH\xe3?}\xfb!*\x0eU\xdf\xbfN9:\xe0\x7f\x97\xdf\xbf\x8b\xef\x81s@\x06\xa7?\x01\xc9\x1e\xf8V\xa3\xdd\xbf\\\nM\xa7\xbfv\xd2?\x00\x05\xce\xa4.1\xae?t_\xdc\x1d\xe8o\xbc\xbfY\x1ew\x0e\x9c\xdc\xdb\xbf\xda\xd4\x7f_\x86\x8a\xcc?=a\xa5\x86A^\xb7?3?\xf4\x828\xda\xda?v\xfa&\x99\x01x\x86\xbf\x0bf\xdd\x91c\xf6\xe0\xbf\xd4\xad\xcf-\xb1f\xd0?\x0f\x93T\xca\xec\x9b\xdc\xbf\x9c,\xd2\xf9\xa9y\xe3\xbf$\xed\xc9v\xc7\x01\xd9\xbf\xd2+6\xc8W3\xe4\xbf\xbc\xac\x07jG9\xcd\xbfS\xd7\x87\xb5\xf1\x9e\xe1\xbf&\x08\xc9\xb2\xc5\xec\xdb?x\x17\xb8h\xf6s\xd9?\x80t\xb3T\xb6\x8b\xb9\xbf\xe9\xf8\xdf,\x89\xbd\xcf?0\x11\\\xf1[\xd4\x9d?\xc4\xf1k\x7f\xc7u\xdb\xbf\xfbf\x16\x19J\xc1\xdc?\x7f\x834\xe4\xa2j\xe4?-x\x9d\xa4\x1e\x95a\xbf\x1e\x02(\xcdq2\xd3??\xe5MMg\xbb\xe6\xbf!\x01\xf4/\x9aY\xc9\xbf\xf4\xac&\xa6\x07\x00\xe6\xbf\xb55/\x06\xe2\xb0\xa8?\x1a\xeb\x0e\x95\xeb7\xa8\xbf\xe4l\xde\xe1e\xec\xaf\xbf|{.\x89\x1a\xaa\xc6?\xa6\xd2\xd9\xb8\xb9\x92\xdb\xbfv\xe0\x13S~A\xd8\xbf\xe4sw\xba\\\x81\xd1?\x1e\x05\x86\xd6\xf3\xc8\xdb\xbf\x15-\xb6\xc4\x83\xbf\xbe?\xec(\xffM\xa0S\xe4?R7\x89qFA\xb6?\xe5\xb7\x8d\xa2B\xfe\xdf\xbf\x86 7\x18\x1dm\xc2?\xc9\x1f^\xe1\x91\xcf\xd6?\n\xdc\x91*!n\xe3?\xb8:\x1d\x19\xfa\xa8\xd9\xbfM\x1c\xce\xfez\x8d\xdf?Wl\xf3\xfb\x98g\xc6?\xd4\xa7\xce\xa6\x85B\xa9\xbf<\xef<\xba/\xcd\xc6\xbf\x07\x07\x15!BW\xe5?{\xa5&I\x84\xde\xd3?\x93[x\xa4]-\xd3\xbf\xa7\xe3\xdf\x8eb\xe0\xc4\xbf\xe9Z\x16\xf9\xab\xdf\xc4\xbfW\xe6\x00\r\xb3\x06\xdc?\x16\t\xaa\xd8\xaeW\xc6\xbf\x90\xd9\xec):\xc6\xd5\xbf\xb23\xff\xaf\x98\xfb\xdf\xbf\xbcVjo*\xd8\x9d\xbf\xa5\xed\xa7\xa6\xf3Q\xe0?\x10\x18k\xf2\xc0\xa5\xdb?O]\xe2\xf8\xb9\xc3\xe5?\xcd\x99\'\xf2\xe5\xe6\xe5?\x9c\xf2\xfb"\xb58\xe1\xbf\xe8\x96\xd0\xc6\xc8\xb4\xe5?\x88\xf2\xd5\xb5eM\xc8\xbfo\x8f\xd4&\x85C\xde\xbfD\xc6\x04p\xe9\x8e\xd5\xbf\x99\x9d\xdaqZi\xe1\xbf\x9a=RW\x02\xc0\xc3?5\xa4\xb2(\x92&\x9d?;\xba\x17m\x80\x84\xe4?\xbf\x84\xb1\xc3@\x18\xba\xbf\xe0<\x8c\x81Nx\xb5\xbf\xd5\xd9\x92\xe6Z\xda\xcb?Jy\x8e\xf2\x1b\xda\xdd?\xb6\x85M\x87\xf5\xc3\xd9\xbf\x89\'>\x9d\\\x84\xdf\xbf\x15wn\xb8\x87\xc5\xa1\xbfiw\x14\xd7\x1e\xfb\xe1\xbf\x13\xc7=\xf08\x7f\xda?\xe3\x8e\x04t\xe9O\xb5\xbf\xe8v\x184T\x8e\xd9\xbf\xe9Z\x80;\xd3\xae\xdc\xbf\xce\xa9\xa39\xd8\xab\xe3\xbf#\x11\x8b\x96{\xa8\xc3?+\xbe\x9f\x11\xc7)\xd6\xbf\x86\xfa7)\xe5\xa1\xe0?o\x90H\x9e\x9b\xdd\xd5\xbf\xf8\x96 \xe6\xb5<\xc0\xbf\x84Z{\x08k\x01\xc5\xbf\xb5\xda\xcf\xf1v8\xd9\xbfm[\x8a{w,\xc3?\xc8\x9f\x8d8\x94\xfb\xd2\xbfS\x99j$\xdc\xfb\xd2?\x92Aw\x88\xc06\xe1\xbf\xf3\xc99\\&\xd6\xd0\xbf\xea\x7f\x8e\x90\x17\x96\xd2?\x17\x1b\xcdP2*\xdf?\xcd\x9c\xc2\xd5wy\xd5\xbf3F\xd3\xdc\xff\x8c\xe1\xbf\xa8\xb6\x1a_\xc5\x8d\xdd?\xd7\xa2\xc6\xa8\xe5A\xbb?\xa1\xdaD^\x18\xe5\xd6\xbf\xd9~\xff8;B\xe2\xbf\xf08\xe9\xe8\xad\xea\xe1?T\xd3\x80\x89\xdd}\xe3?\xe4\xe1\xba(o2\xe1\xbf\xa4\xdd6\xc8\x06\x1d\xdc\xbf\xb4$bB\x82\xbb\xb2?\xaa\x03\x0e)\xc70\xd7\xbf\x9d\xd9\xdfd\xaf\x12\xd0?\x15\xf0P\xa7\xa5\xd0\xd4?h\x18\xde\x97e\x0f\xe1\xbf\xb9\x85\xa3\x8e\x08y\xdb?tv\xcd{\xb9\xcb\xb1\xbffR\x87\xc3u\xbd\xe2\xbf\xf7\xc0_\xec%\x8a\xd0\xbf|:Y~t\xfb\xe2?\x1e\x85\x90\xc5\x93\r\xe3\xbf\x0b\x9aD\xf6$g\xd0\xbf;X+\xccW3\xd0\xbf\x10\x05\t@\xd4\\\xe3\xbf\xda\x10\xbbF\xcbT\xa2\xbf\x1b\x8d\x8an\xb7\xf5\xcf?\x06\xb1r\x9e\xd1\xe2\xdd\xbf\xf4-\x1dD\r\x18\xc9?0/\x1e\x98\x1a\x9a\xb3?\xb3\xf2\xde\xd4D\r\xdc\xbfzg\r\xaaS\xe0\xd3?<\x17+^\x07\xdb\xd9?\xbeb\x9eB`\xd1\xdb\xbf\x14Z\xb031\xc9\xc6?\xc3\xecN\xcfA8\xcc\xbfd\xa8\xd4\xa2\x9d3\xe0\xbf\x18\xb1\xab\x88\xce\x8aY\xbfF\x17T~6\xf4\xb1\xbf\xb2h\xb3\xa0\xa0C\xe1?#\xbfu\xa2\x08\xda\xc1?\x04\x11\x04\x8c"\x1dn?\xfbv\xfc%\xdd\xb1\xe0?\xcb\xabuF\xfb\xf4\xcf\xbfT\x0b\xc8\xb9EH\xe0\xbfS\xe6\xc5\xab3k\xe4?\xf1Y\x7f\xf6\x89\xec\xc6\xbfT@\xf6Y(\xb4\xd9\xbfU\xa7l\x8a\xf4\xaa\xd3\xbf\x9d%\xc8\x7f\xa2t\xdf\xbf\x9d\x9f\xaf*\xf2T\xc7?\xa3<a\x1cZ\xf2\xdc\xbf\x83\x80l,\xda\xe6\xe5\xbf\x1c\x0e\xe9\xb3ss\xce?\x19\xed6\x05\xa5Z\xdc\xbf\x83\x83C\x9c`o\xe0?Q\x0b8\xfb\x1dW\xa9\xbfs\xe6\xef\xb1\xa9\xee\xc6\xbf\x8f\xb1\x18\x10\xfa#\xd0\xbfC\xd7kD\xca<\xe1?\x93\xeaS\xb9V\x06\xde\xbf\xf3\xb7S\xf7mI\xd2?\xd4O[\xcc{\x90\xce?\xaer\xfd\xdc\x00I\xd8?\x05,\xd5\xd2G\x91\x82\xbf\xefUxr\xce\xb0\x9f\xbfL\xb4\x8b\xa6/o\xb2?\xa2b\x82)[\xb6\xcc?)C,\xd3j\xc2\xe1\xbf\xfb\x86h[\x0c\xcf\xe2\xbf\x17\xca\x1d\xac-\xbc\xda?5\xda\xba\x93\x1b\xdb\xdf?mt"B\xe6#\xc8?\xdbr[\x88\x1b#\xc2?\r%\x1fP\xc1\xad\xcc\xbf\xc8S\xebZ{\xec\xc9\xbfK\x82\x932%\xb8\xc8\xbf\x1c\xa5}2y\xd5\xc4\xbf[\xf7"vV\x05\xd1\xbf\xbeY\xfe3FG\x93?\xd9\x06n\'\xbbS\xe5?3\xab\x03\xd0\xdf\\\xd8?\xaa\xd7\xfd\xa9ru\xeb?\x00\x92\xe9\x837H\xd9\xbf\x1f\xa5\n_\xab8\xb7\xbfS\xc9\xf8-\x17\xb2\xd1\xbf\x84\x05\xaf\x04.\x8c\x96\xbf\x13\xfc\x8d\xe5H\x11\xe5\xbf\xd8\xc2\x97>\xaf\xc4\xc8?\x97\x90^\xbc\x90\xab\xe0\xbf\xaeA\xdd\xc9\x06U\xd8\xbf\xa4\x1ch\x19R2\xe1?\xb7nqx\xe8K\xe7\xbf\xbdW/\xef\xbd\xbc\xe6?\xe7\xe2b\x11.\xf2\xcb?.:@\xe7\xcc\xf5\xc8\xbf\x9f\x17c,\x81\xe2\xc4?\r\x94\x96\x00\t@\xd4\xbfp!\x84\xf4E\x9f\xd6\xbf\xcc#\x81\x11*\xb8\xc1\xbf\x91D\x8a`\x7f\xc4\x98\xbf\xee\x07\x8a\xc6Q\xc2\xd2?\x0b\x97\x177\xc2\x92\xe4?w\xe6\x8c\xc0\x0cB\xe7\xbf\xb0\\l\x02rY\xd7?\xafI\x9a\xc21P\xe2\xbf\x8b*\xbd\xc9\xc0/\xc1?\xf83o\xd8\xfee\xe3\xbf\x9d\xd6\xba\x00\xf9\x94\xdc?\xe4P\xec\xe4\x0e\xaf\x9d\xbf\x16\xd9k\xd5~\xbf\xab?\x1d\x87>\x7f}\xa8\xd0?`\x18\xb9OO\x8c\xa0\xbf\xb2\xaa\x1c\x82\x970\xc1?$\x17%&\x94\x13\xc5\xbf\xe4n\\\x8f\x1b\x18\xdc?\x12\xd2\x8es-\xc0\xbc?\xc8\xea\xeb\xf3a\xeb\xb9?\x08\x1fi|\xff\x8d\xe2\xbf\x98\x8bn)Q\x86\xbe\xbf;}\x84\xec\n\xbb\xda?\xee\xb1\xc6u\x01\xb0\xe4\xbf\x90\xf3\x11\r\xe3\xa9\xbf?\x87\xf9\x13\xbe\x81f\xd2?G\xc7\x06f>w\xda\xbf\xf7lPE<i\xd0?\xb1\x16\xf2k-\xec\xe1?\'Y\x91\x92\x87\n\xd4?\xda\xf5\xc52zz\xa9?`\ng\x1a\x0b\x18\xd2?)\xd1\xf6F\xd6]\xd3\xbf\xfb\x86\xad\xc5\xd4q\xd6\xbftD\x8d\x8e\xbey\xd5\xbfT\xee\x8ezH\x82\xe3\xbf(\x00\x0c\xb6\'O\xe3\xbfL\xa4b\xc1K\xa4\xdd?\x943wI2\x96\xe5\xbf\x83\x111\xe1(I\xe2\xbf5\xaa\x01*\x1b\xde\xc6?J\xa0\xd7\x89\x13N\xd9?_B\xa6\x1b\xfe\xb4\xcd?\xe7\xb9h\xed[~\xcb?\xfa\x84\xb2\x9f\xad\xf8\xe1\xbf\xdaJz\xcc\xb9\xca\xdd\xbfo\x9dg\xefkH\xb9?5\x93\xd8\r5\x0e\xc2?`\xa4W\xe5{\x89\xe5\xbf\x90\x14\xac\xaa\xa7d\xa2?XZG\x02\xc9\xcd\xc1\xbfF\x19\xa6r\xd4\xbf\xe4?U\xc6\xf2i\xf8(\xb6?\xf2\xe9\xbf\xd3\xa9\x85\xe4?\xc6z\n\xfd(\x1f\xe3?\x95\xcf\\\xa0\xd1\xb2\xb0?\xe6\x05?\x9f\x0b\xc2\xc3\xbf\x9f_\t\xbdS\x82\xd7?\x19V\x93BM\x95\xc9?\xdb\x8a\xacK\nb\xd8?\xb6+\xceh\xd1\xa8\xaf?\xb9\xf3/\xe2d\x89\xe0\xbf\x03\xa2\x06\xbcjw\xde\xbf\x96\xf5\x8f\'_z\xe2?\x1dj\xf2S\xab\x19\xde\xbf\xc7*\r\x1b\x86I\xc9?5(\x90\x82Os\xca?U\xf2\xabx&/\xe2\xbf\xbda\x97\xe3\xdc\xdb\xcb?\x98@3\xc5h\xdf\xbe\xbf$\xc2\x0f\xce\xedg\xd5?\xc1\xde\xfa\xb3\xd22\xe0?^\x8d_\xa2\x99\x93\xdf?P>\x0e\x12\xd0\xf3\xd7\xbfs\t\xa7/\xbeg\xd8?\x7f\xa4\xf4\x9e3\x99\xa2?iV\xbe\xb8Mo\xe3?\x80\xa4\xf0\xe3\x89\x9c\xdc\xbf@\xbb>U\x93\xc4\xe1?.^\x8fe\x0c)\xd0\xbf\xca\x9f\x18\xe5\x7f\x8e\xd7?:KO\xfdW\xd7\xe0?p\xd3\x0f\xf40f\xc9\xbf\x86\xa6\xa9\x9c\xa06\xd2\xbf\xce,\x1e\xca\x01L\xe0\xbf\x15;1Q\x01\xbb\x97?*\x89\x03\x1b\xd2\xec\xd7?\x94\x07oq\x81\x07\xa7\xbf\xea\xb4\xe2@\x17V\xdf\xbf\xc2\xb9n\x07\xdf_\xc6\xbfQ\xa18c\xed\xb7\xe0\xbf\xde\x06\xe9\xb0\x8fA\xd8\xbfJ\xf6\t\x99\xf2\xe0\xa7?e\xa9x\xa5\xc1\xcf\xe0?\x9ba-ij\xff\xd2?\xb9\xe0\xd7/\xa6X\xd1\xbfo1D)P\x92\xc6?\x19\xb9\x87\x14\x9b\xf9\xe1\xbfK\xd9\r\x02\xba,\xde?-\xb1{OS\x15\xe2?\'\x9d\x1e\xf8\'^\xdb\xbf\xadn\xcbv9\x89\xd7?\xea\xf3U\x04\xa4\x87\xd8\xbf\x8d_\x9e\x9b\x13\xd7\xd0\xbf\x0e\xff\xcc\xe1\xfeH\xb7\xbf\xdd\x16\xba\xcf\xcc\xe3\xe2?\xfdf\x19\xabn"\xe5?^\'2\x81\x0eM\xb8?\x1f_\x85\xdb\x94\x10\x95?\xd32\x13\x84\xe5_\xdd?\xbcZG\x07\xa8c\xe2?\xe9a%no\xe2\xa2?'
p60
tp61
bssS'transf'
p62
(ineurolab.trans
TanSig
p63
(dp64
bsS'out_minmax'
p65
g18
(g19
(I0
tp66
g21
tp67
Rp68
(I1
(I43
I2
tp69
g28
I00
S'\x00\x00\x00\x00\x00\x00\xf0\xbf\x00\x00\x00\x00\x00\x00\xf0?\x00\x00\x00\x00\x00\x00\xf0\xbf\x00\x00\x00\x00\x00\x00\xf0?\x00\x00\x00\x00\x00\x00\xf0\xbf\x00\x00\x00\x00\x00\x00\xf0?\x00\x00\x00\x00\x00\x00\xf0\xbf\x00\x00\x00\x00\x00\x00\xf0?\x00\x00\x00\x00\x00\x00\xf0\xbf\x00\x00\x00\x00\x00\x00\xf0?\x00\x00\x00\x00\x00\x00\xf0\xbf\x00\x00\x00\x00\x00\x00\xf0?\x00\x00\x00\x00\x00\x00\xf0\xbf\x00\x00\x00\x00\x00\x00\xf0?\x00\x00\x00\x00\x00\x00\xf0\xbf\x00\x00\x00\x00\x00\x00\xf0?\x00\x00\x00\x00\x00\x00\xf0\xbf\x00\x00\x00\x00\x00\x00\xf0?\x00\x00\x00\x00\x00\x00\xf0\xbf\x00\x00\x00\x00\x00\x00\xf0?\x00\x00\x00\x00\x00\x00\xf0\xbf\x00\x00\x00\x00\x00\x00\xf0?\x00\x00\x00\x00\x00\x00\xf0\xbf\x00\x00\x00\x00\x00\x00\xf0?\x00\x00\x00\x00\x00\x00\xf0\xbf\x00\x00\x00\x00\x00\x00\xf0?\x00\x00\x00\x00\x00\x00\xf0\xbf\x00\x00\x00\x00\x00\x00\xf0?\x00\x00\x00\x00\x00\x00\xf0\xbf\x00\x00\x00\x00\x00\x00\xf0?\x00\x00\x00\x00\x00\x00\xf0\xbf\x00\x00\x00\x00\x00\x00\xf0?\x00\x00\x00\x00\x00\x00\xf0\xbf\x00\x00\x00\x00\x00\x00\xf0?\x00\x00\x00\x00\x00\x00\xf0\xbf\x00\x00\x00\x00\x00\x00\xf0?\x00\x00\x00\x00\x00\x00\xf0\xbf\x00\x00\x00\x00\x00\x00\xf0?\x00\x00\x00\x00\x00\x00\xf0\xbf\x00\x00\x00\x00\x00\x00\xf0?\x00\x00\x00\x00\x00\x00\xf0\xbf\x00\x00\x00\x00\x00\x00\xf0?\x00\x00\x00\x00\x00\x00\xf0\xbf\x00\x00\x00\x00\x00\x00\xf0?\x00\x00\x00\x00\x00\x00\xf0\xbf\x00\x00\x00\x00\x00\x00\xf0?\x00\x00\x00\x00\x00\x00\xf0\xbf\x00\x00\x00\x00\x00\x00\xf0?\x00\x00\x00\x00\x00\x00\xf0\xbf\x00\x00\x00\x00\x00\x00\xf0?\x00\x00\x00\x00\x00\x00\xf0\xbf\x00\x00\x00\x00\x00\x00\xf0?\x00\x00\x00\x00\x00\x00\xf0\xbf\x00\x00\x00\x00\x00\x00\xf0?\x00\x00\x00\x00\x00\x00\xf0\xbf\x00\x00\x00\x00\x00\x00\xf0?\x00\x00\x00\x00\x00\x00\xf0\xbf\x00\x00\x00\x00\x00\x00\xf0?\x00\x00\x00\x00\x00\x00\xf0\xbf\x00\x00\x00\x00\x00\x00\xf0?\x00\x00\x00\x00\x00\x00\xf0\xbf\x00\x00\x00\x00\x00\x00\xf0?\x00\x00\x00\x00\x00\x00\xf0\xbf\x00\x00\x00\x00\x00\x00\xf0?\x00\x00\x00\x00\x00\x00\xf0\xbf\x00\x00\x00\x00\x00\x00\xf0?\x00\x00\x00\x00\x00\x00\xf0\xbf\x00\x00\x00\x00\x00\x00\xf0?\x00\x00\x00\x00\x00\x00\xf0\xbf\x00\x00\x00\x00\x00\x00\xf0?\x00\x00\x00\x00\x00\x00\xf0\xbf\x00\x00\x00\x00\x00\x00\xf0?\x00\x00\x00\x00\x00\x00\xf0\xbf\x00\x00\x00\x00\x00\x00\xf0?\x00\x00\x00\x00\x00\x00\xf0\xbf\x00\x00\x00\x00\x00\x00\xf0?\x00\x00\x00\x00\x00\x00\xf0\xbf\x00\x00\x00\x00\x00\x00\xf0?\x00\x00\x00\x00\x00\x00\xf0\xbf\x00\x00\x00\x00\x00\x00\xf0?\x00\x00\x00\x00\x00\x00\xf0\xbf\x00\x00\x00\x00\x00\x00\xf0?\x00\x00\x00\x00\x00\x00\xf0\xbf\x00\x00\x00\x00\x00\x00\xf0?\x00\x00\x00\x00\x00\x00\xf0\xbf\x00\x00\x00\x00\x00\x00\xf0?'
p70
tp71
bsS'out'
p72
g18
(g19
(I0
tp73
g21
tp74
Rp75
(I1
(I43
tp76
g28
I00
S'5?\x8c\xf7W\xd5\xdc?V\xce\xd3UN\x8e\xef?\xee\n\xd0>\xa7\xe0\xef\xbf\xfb\xf1\x1c\xa3\xfd\xe9\xef?\x08\x7f\x02%\xfe\xff\xef?L\xb3d<\xbaq\xe0\xbf\xba\x0f\xb8\x7f\xe6\xe9\xef\xbfC\x88\xcc\xf4\xb5\xeb\xef\xbfVT\xd9\xbd\xce\n\xed\xbf\x88?}JnI\xef\xbfC]\x95\xe7H\xf0\xeb?(\xb8\x94%\xe5\xff\xef\xbf\xdd\xbf|\x94\xfaz\xe9?\x8e\x8d\xec\x14\xd7\xf2\xef?\xa9`e\xb3\xfc\xcb\xe6?\xc0\xe4\xd7_J\x86\xef\xbf\x95\xd1?D\xd7Z\xe9\xbf\xd61\xf18\x99<\xdd?j\xb5\x18)\x0e\xd0\xef\xbf.=t\xea=H\xe7?<\n\xc7$\x02\xa6\xec?\xfe\xd2\\\xd3#\xc0\xee?R\xf1\xe2O\xb7\xc1\xed?\xdeR\xa7\r\xbf\xe8\xbe\xbf\xaaD\xbb\xf1Rl\xed\xbf\x03\x1e\x05\xab\xfd~\xef\xbf\x13\x85\xcc\x11\xc8\xca\xef\xbf}\xc6\xf5\x89\xa1E\xef?\xe9\xe2\x8e\xd9n\xed\xef\xbfFa\x031Ux\xee\xbf<3u\x8c\x18\xb8\xef\xbf\x1b\xb8*v\xa3\xa4\xef\xbfX\xad\xbbe\xa6\xfd\xef?\xfc\x140\xa3\x8b\xa5\xef\xbf\xae\xab\xb19>v\xc3\xbf\x97\x1b\xcevX\x13\xee\xbf\xf7z`\xe4AJ\xee?\xcc\xba\xa3\x14M\x9d\xe4\xbf"\xbcV\xbe\x89`\xed\xbf\xd2Q\xad\xde_\xd9\xef?\xec#\xb4\n\xbe\xe9\xe7\xbf\x81FU\x8c\xea\xef\xef?\xf2\xb4\xd2\x00\xe8\x94\xec\xbf'
p77
tp78
bsbag0
(g8
g2
Ntp79
Rp80
(dp81
g12
g13
sg14
I43
sg15
I1
sg16
I1
sg17
g18
(g19
(I0
tp82
g21
tp83
Rp84
(I1
(I43
I2
tp85
g28
I00
S'\x00\x00\x00\x00\x00\x00\xf0\xbf\x00\x00\x00\x00\x00\x00\xf0?\x00\x00\x00\x00\x00\x00\xf0\xbf\x00\x00\x00\x00\x00\x00\xf0?\x00\x00\x00\x00\x00\x00\xf0\xbf\x00\x00\x00\x00\x00\x00\xf0?\x00\x00\x00\x00\x00\x00\xf0\xbf\x00\x00\x00\x00\x00\x00\xf0?\x00\x00\x00\x00\x00\x00\xf0\xbf\x00\x00\x00\x00\x00\x00\xf0?\x00\x00\x00\x00\x00\x00\xf0\xbf\x00\x00\x00\x00\x00\x00\xf0?\x00\x00\x00\x00\x00\x00\xf0\xbf\x00\x00\x00\x00\x00\x00\xf0?\x00\x00\x00\x00\x00\x00\xf0\xbf\x00\x00\x00\x00\x00\x00\xf0?\x00\x00\x00\x00\x00\x00\xf0\xbf\x00\x00\x00\x00\x00\x00\xf0?\x00\x00\x00\x00\x00\x00\xf0\xbf\x00\x00\x00\x00\x00\x00\xf0?\x00\x00\x00\x00\x00\x00\xf0\xbf\x00\x00\x00\x00\x00\x00\xf0?\x00\x00\x00\x00\x00\x00\xf0\xbf\x00\x00\x00\x00\x00\x00\xf0?\x00\x00\x00\x00\x00\x00\xf0\xbf\x00\x00\x00\x00\x00\x00\xf0?\x00\x00\x00\x00\x00\x00\xf0\xbf\x00\x00\x00\x00\x00\x00\xf0?\x00\x00\x00\x00\x00\x00\xf0\xbf\x00\x00\x00\x00\x00\x00\xf0?\x00\x00\x00\x00\x00\x00\xf0\xbf\x00\x00\x00\x00\x00\x00\xf0?\x00\x00\x00\x00\x00\x00\xf0\xbf\x00\x00\x00\x00\x00\x00\xf0?\x00\x00\x00\x00\x00\x00\xf0\xbf\x00\x00\x00\x00\x00\x00\xf0?\x00\x00\x00\x00\x00\x00\xf0\xbf\x00\x00\x00\x00\x00\x00\xf0?\x00\x00\x00\x00\x00\x00\xf0\xbf\x00\x00\x00\x00\x00\x00\xf0?\x00\x00\x00\x00\x00\x00\xf0\xbf\x00\x00\x00\x00\x00\x00\xf0?\x00\x00\x00\x00\x00\x00\xf0\xbf\x00\x00\x00\x00\x00\x00\xf0?\x00\x00\x00\x00\x00\x00\xf0\xbf\x00\x00\x00\x00\x00\x00\xf0?\x00\x00\x00\x00\x00\x00\xf0\xbf\x00\x00\x00\x00\x00\x00\xf0?\x00\x00\x00\x00\x00\x00\xf0\xbf\x00\x00\x00\x00\x00\x00\xf0?\x00\x00\x00\x00\x00\x00\xf0\xbf\x00\x00\x00\x00\x00\x00\xf0?\x00\x00\x00\x00\x00\x00\xf0\xbf\x00\x00\x00\x00\x00\x00\xf0?\x00\x00\x00\x00\x00\x00\xf0\xbf\x00\x00\x00\x00\x00\x00\xf0?\x00\x00\x00\x00\x00\x00\xf0\xbf\x00\x00\x00\x00\x00\x00\xf0?\x00\x00\x00\x00\x00\x00\xf0\xbf\x00\x00\x00\x00\x00\x00\xf0?\x00\x00\x00\x00\x00\x00\xf0\xbf\x00\x00\x00\x00\x00\x00\xf0?\x00\x00\x00\x00\x00\x00\xf0\xbf\x00\x00\x00\x00\x00\x00\xf0?\x00\x00\x00\x00\x00\x00\xf0\xbf\x00\x00\x00\x00\x00\x00\xf0?\x00\x00\x00\x00\x00\x00\xf0\xbf\x00\x00\x00\x00\x00\x00\xf0?\x00\x00\x00\x00\x00\x00\xf0\xbf\x00\x00\x00\x00\x00\x00\xf0?\x00\x00\x00\x00\x00\x00\xf0\xbf\x00\x00\x00\x00\x00\x00\xf0?\x00\x00\x00\x00\x00\x00\xf0\xbf\x00\x00\x00\x00\x00\x00\xf0?\x00\x00\x00\x00\x00\x00\xf0\xbf\x00\x00\x00\x00\x00\x00\xf0?\x00\x00\x00\x00\x00\x00\xf0\xbf\x00\x00\x00\x00\x00\x00\xf0?\x00\x00\x00\x00\x00\x00\xf0\xbf\x00\x00\x00\x00\x00\x00\xf0?\x00\x00\x00\x00\x00\x00\xf0\xbf\x00\x00\x00\x00\x00\x00\xf0?\x00\x00\x00\x00\x00\x00\xf0\xbf\x00\x00\x00\x00\x00\x00\xf0?\x00\x00\x00\x00\x00\x00\xf0\xbf\x00\x00\x00\x00\x00\x00\xf0?'
p86
tp87
bsg33
g75
sg40
g18
(g19
(I0
tp88
g21
tp89
Rp90
(I1
(I1
tp91
g28
I00
S'\xa2\x8f\x8f\x9cY\xf9\xc3?'
p92
tp93
bsg47
(dp94
g21
g18
(g19
(I0
tp95
g21
tp96
Rp97
(I1
(I1
tp98
g28
I00
S'\xe2K\x9f\xfd\xce\xbe\xb2?'
p99
tp100
bsg55
g18
(g19
(I0
tp101
g21
tp102
Rp103
(I1
(I1
I43
tp104
g28
I00
S'K\x85\x8c\x14H{\xb0\xbf\xe9\xf9\x9as"\x16\xb3?\xc7t\x98\n\rS\xb7\xbf\xc8\xf3\x98\xaa\t\\\xb2\xbf\xff\xd6S\t\xbb\xe5\xa5\xbf>\xe1@\x0f\xe6\xa9\xb7\xbf\x16\x11\x9a\xca\xe1n\xa0\xbf\xcf\x02\x87\xfd\xae\xa9\xc8\xbfn\xee\xce]b}\xe0?m\x1d\x8c\xad\xc6a\xa9\xbfv\xed7\xff\x888\xb4?+\xcbe\x0e-i\xd3\xbf\x95\xe78h\xa4\xdc\xd0\xbfy\xf6\xc7\\#\xb8\xce\xbf\xbf[V\xb1\xaa\xc2\xb5\xbf\xa5\x1e\xda\xfd\x80Z\xd2?\x05H"\xae\x87U\xb4\xbf\xbf\x08\x0f|\x1a1\xa2?\x16T\xa5\xf91_\xd2\xbf\x80\xc2\x1b\xce\x93\xffB\xbf\x88\x04\x81n\x12\x82\xbb\xbf\'\xfe\x00\xe4UP\xbd?\xb1\xc6Xb\xa7\xfd\xa5\xbf\x92N9#\x93\xc2\xb9\xbf\x02\x19C\\\xa2\xed\xd1?\x8aT\xb57\xc3&\xbf?W\xce\x97\r\xb4\xa8\xc1\xbf\x93V\xedUT?\xd4?\xf1(\xc0\x8f\xd3\xa9\xd4\xbf>Oe\x98\xf0\xf6\xb5\xbf\rF\x15Sg\xa7\x8a?\x07\x91\xf7\xc4B\x16\x91\xbf\x1eO\x17U\x9bf\xcf?\x8c\x01\xb5<\xcb\xc2]?\'\xc2\xa3v\x13\xd0\x94\xbfLl,\xca\xc2B\xb4?\xbc\xc484\x90*\xe1\xbfBP\xee$\xc5\x9f\xcf\xbfM\x96\xb8l\x1fg\xc5?\xd4\xf0\xd7\x91+\x9c\xc6\xbf\xce\x05\xa5\x0c\xca7\xc3?M\xe0\xfd\xc0\x1c\xae\xd3?\x05\x05\x91\x06\xdcZ\xc0\xbf'
p105
tp106
bssg62
g63
sg65
g18
(g19
(I0
tp107
g21
tp108
Rp109
(I1
(I1
I2
tp110
g28
I00
S'\x00\x00\x00\x00\x00\x00\xf0\xbf\x00\x00\x00\x00\x00\x00\xf0?'
p111
tp112
bsg72
g18
(g19
(I0
tp113
g21
tp114
Rp115
(I1
(I1
tp116
g28
I00
S'\x1e\xa4^\xef>\xd0\xc3?'
p117
tp118
bsbasg14
I58
sg15
I1
sg17
g18
(g19
(I0
tp119
g21
tp120
Rp121
(I1
(I58
I2
tp122
g28
I00
S'\x00\x00\x00\x00\x00\x00\x00\x00\x00\x00\x00\x00\x00\x00\xf0?\x00\x00\x00\x00\x00\x00\x00\x00\x00\x00\x00\x00\x00\x00\xf0?\x00\x00\x00\x00\x00\x00\x00\x00\x00\x00\x00\x00\x00\x00\xf0?\x00\x00\x00\x00\x00\x00\x00\x00\x00\x00\x00\x00\x00\x00\xf0?\x00\x00\x00\x00\x00\x00\x00\x00\x00\x00\x00\x00\x00\x00\xf0?\x00\x00\x00\x00\x00\x00\x00\x00\x00\x00\x00\x00\x00\x00\xf0?\x00\x00\x00\x00\x00\x00\x00\x00\x00\x00\x00\x00\x00\x00\xf0?\x00\x00\x00\x00\x00\x00\x00\x00\x00\x00\x00\x00\x00\x00\xf0?\x00\x00\x00\x00\x00\x00\x00\x00\x00\x00\x00\x00\x00\x00\xf0?\x00\x00\x00\x00\x00\x00\x00\x00\x00\x00\x00\x00\x00\x00\xf0?\x00\x00\x00\x00\x00\x00\x00\x00\x00\x00\x00\x00\x00\x00\xf0?\x00\x00\x00\x00\x00\x00\x00\x00\x00\x00\x00\x00\x00\x00\xf0?\x00\x00\x00\x00\x00\x00\x00\x00\x00\x00\x00\x00\x00\x00\xf0?\x00\x00\x00\x00\x00\x00\x00\x00\x00\x00\x00\x00\x00\x00\xf0?\x00\x00\x00\x00\x00\x00\x00\x00\x00\x00\x00\x00\x00\x00\xf0?\x00\x00\x00\x00\x00\x00\x00\x00\x00\x00\x00\x00\x00\x00\xf0?\x00\x00\x00\x00\x00\x00\x00\x00\x00\x00\x00\x00\x00\x00\xf0?\x00\x00\x00\x00\x00\x00\x00\x00\x00\x00\x00\x00\x00\x00\xf0?\x00\x00\x00\x00\x00\x00\x00\x00\x00\x00\x00\x00\x00\x00\xf0?\x00\x00\x00\x00\x00\x00\x00\x00\x00\x00\x00\x00\x00\x00\xf0?\x00\x00\x00\x00\x00\x00\x00\x00\x00\x00\x00\x00\x00\x00\xf0?\x00\x00\x00\x00\x00\x00\x00\x00\x00\x00\x00\x00\x00\x00\xf0?\x00\x00\x00\x00\x00\x00\x00\x00\x00\x00\x00\x00\x00\x00\xf0?\x00\x00\x00\x00\x00\x00\x00\x00\x00\x00\x00\x00\x00\x00\xf0?\x00\x00\x00\x00\x00\x00\x00\x00\x00\x00\x00\x00\x00\x00\xf0?\x00\x00\x00\x00\x00\x00\x00\x00\x00\x00\x00\x00\x00\x00\xf0?\x00\x00\x00\x00\x00\x00\x00\x00\x00\x00\x00\x00\x00\x00\xf0?\x00\x00\x00\x00\x00\x00\x00\x00\x00\x00\x00\x00\x00\x00\xf0?\x00\x00\x00\x00\x00\x00\x00\x00\x00\x00\x00\x00\x00\x00\xf0?\x00\x00\x00\x00\x00\x00\x00\x00\x00\x00\x00\x00\x00\x00\xf0?\x00\x00\x00\x00\x00\x00\x00\x00\x00\x00\x00\x00\x00\x00\xf0?\x00\x00\x00\x00\x00\x00\x00\x00\x00\x00\x00\x00\x00\x00\xf0?\x00\x00\x00\x00\x00\x00\x00\x00\x00\x00\x00\x00\x00\x00\xf0?\x00\x00\x00\x00\x00\x00\x00\x00\x00\x00\x00\x00\x00\x00\xf0?\x00\x00\x00\x00\x00\x00\x00\x00\x00\x00\x00\x00\x00\x00\xf0?\x00\x00\x00\x00\x00\x00\x00\x00\x00\x00\x00\x00\x00\x00\xf0?\x00\x00\x00\x00\x00\x00\x00\x00\x00\x00\x00\x00\x00\x00\xf0?\x00\x00\x00\x00\x00\x00\x00\x00\x00\x00\x00\x00\x00\x00\xf0?\x00\x00\x00\x00\x00\x00\x00\x00\x00\x00\x00\x00\x00\x00\xf0?\x00\x00\x00\x00\x00\x00\x00\x00\x00\x00\x00\x00\x00\x00\xf0?\x00\x00\x00\x00\x00\x00\x00\x00\x00\x00\x00\x00\x00\x00\xf0?\x00\x00\x00\x00\x00\x00\x00\x00\x00\x00\x00\x00\x00\x00\xf0?\x00\x00\x00\x00\x00\x00\x00\x00\x00\x00\x00\x00\x00\x00\xf0?\x00\x00\x00\x00\x00\x00\x00\x00\x00\x00\x00\x00\x00\x00\xf0?\x00\x00\x00\x00\x00\x00\x00\x00\x00\x00\x00\x00\x00\x00\xf0?\x00\x00\x00\x00\x00\x00\x00\x00\x00\x00\x00\x00\x00\x00\xf0?\x00\x00\x00\x00\x00\x00\x00\x00\x00\x00\x00\x00\x00\x00\xf0?\x00\x00\x00\x00\x00\x00\x00\x00\x00\x00\x00\x00\x00\x00\xf0?\x00\x00\x00\x00\x00\x00\x00\x00\x00\x00\x00\x00\x00\x00\xf0?\x00\x00\x00\x00\x00\x00\x00\x00\x00\x00\x00\x00\x00\x00\xf0?\x00\x00\x00\x00\x00\x00\x00\x00\x00\x00\x00\x00\x00\x00\xf0?\x00\x00\x00\x00\x00\x00\x00\x00\x00\x00\x00\x00\x00\x00\xf0?\x00\x00\x00\x00\x00\x00\x00\x00\x00\x00\x00\x00\x00\x00\xf0?\x00\x00\x00\x00\x00\x00\x00\x00\x00\x00\x00\x00\x00\x00\xf0?\x00\x00\x00\x00\x00\x00\x00\x00\x00\x00\x00\x00\x00\x00\xf0?\x00\x00\x00\x00\x00\x00\x00\x00\x00\x00\x00\x00\x00\x00\xf0?\x00\x00\x00\x00\x00\x00\x00\x00\x00\x00\x00\x00\x00\x00\xf0?\x00\x00\x00\x00\x00\x00\x00\x00\x00\x00\x00\x00\x00\x00\xf0?'
p123
tp124
bsg33
g36
sS'trainf'
p125
g0
(cneurolab.core
Trainer
p126
g2
Ntp127
Rp128
(dp129
S'_train_class'
p130
cneurolab.train.spo
TrainCG
p131
sS'__module__'
p132
S'neurolab.train.spo'
p133
sS'params'
p134
(dp135
S'epochs'
p136
I6000
sS'train'
p137
(dp138
S'rr'
p139
I0
ssS'goal'
p140
F2e-05
sS'show'
p141
I0
ssS'defaults'
p142
(dp143
g136
I500
sg137
(dp144
g139
I0
ssg140
F0.01
sg141
I100
ssS'error'
p145
(lp146
cnumpy.core.multiarray
scalar
p147
(g28
S'%\x9bP+\xe2\x0fF@'
p148
tp149
Rp150
ag147
(g28
S'r;.\xca\x06\x9cE@'
p151
tp152
Rp153
ag147
(g28
S'\x97\r\x88@Za?@'
p154
tp155
Rp156
ag147
(g28
S'\x81\x90\xc5\xd2\xd7\xd44@'
p157
tp158
Rp159
ag147
(g28
S'f\x05\x1a9\x92\x874@'
p160
tp161
Rp162
ag147
(g28
S'Ayx\r8M/@'
p163
tp164
Rp165
ag147
(g28
S'<\xbb\xc5\xb8k\xb5.@'
p166
tp167
Rp168
ag147
(g28
S'\x9c\xdcS\x04!++@'
p169
tp170
Rp171
ag147
(g28
S'j9(?\xedM*@'
p172
tp173
Rp174
ag147
(g28
S'\x12\x87]\xcd\x08\xbf)@'
p175
tp176
Rp177
ag147
(g28
S'\x10\xfb\xf6\x9b\xb9\xb0)@'
p178
tp179
Rp180
ag147
(g28
S'\xf4\xf6C\xcew2&@'
p181
tp182
Rp183
ag147
(g28
S'\xefP\xd25\xe50&@'
p184
tp185
Rp186
ag147
(g28
S'\xdd\xef8\x04J"&@'
p187
tp188
Rp189
ag147
(g28
S'=\xaa\xeb\r\x0b\x89%@'
p190
tp191
Rp192
ag147
(g28
S'\xd7\xe4\x94\x1e\x86\x86%@'
p193
tp194
Rp195
ag147
(g28
S'HU3\x10\x19$%@'
p196
tp197
Rp198
ag147
(g28
S'\xcb\x1f\xc9\x90\x7f#%@'
p199
tp200
Rp201
ag147
(g28
S"N'\xba\x98x<$@"
p202
tp203
Rp204
ag147
(g28
S'\xf4(/\xf4\xe4\x18$@'
p205
tp206
Rp207
ag147
(g28
S'2V\x06\x99N\x0b$@'
p208
tp209
Rp210
ag147
(g28
S'\xa9?#\x9as\t$@'
p211
tp212
Rp213
ag147
(g28
S'\xbc+\xde\xeb\xe7\x8d#@'
p214
tp215
Rp216
ag147
(g28
S'\xe2\xb09\xa1\xed\x8c#@'
p217
tp218
Rp219
ag147
(g28
S'6\xbb\xa3o\xf9o#@'
p220
tp221
Rp222
ag147
(g28
S'\xf5s\xd5\x06\xd4n#@'
p223
tp224
Rp225
ag147
(g28
S'5\xccG\x91?n#@'
p226
tp227
Rp228
ag147
(g28
S"E(\xf6'Hb#@"
p229
tp230
Rp231
ag147
(g28
S'\xdb<\x81\xd8Ea#@'
p232
tp233
Rp234
ag147
(g28
S'\xd2xY\xba\xe7:#@'
p235
tp236
Rp237
ag147
(g28
S'pu|.\xc2:#@'
p238
tp239
Rp240
ag147
(g28
S'\xda0U,\x8c6#@'
p241
tp242
Rp243
ag147
(g28
S'\xd2\x0e\xe4\xe5v4#@'
p244
tp245
Rp246
ag147
(g28
S'}\xf4\xef\x1a13#@'
p247
tp248
Rp249
ag147
(g28
S'\xe7\x04\xf1\xc0\xed1#@'
p250
tp251
Rp252
ag147
(g28
S'|\xd7\x91A{1#@'
p253
tp254
Rp255
ag147
(g28
S'[\x05\xd6\xe6\xfc\x08#@'
p256
tp257
Rp258
ag147
(g28
S';\xb0\xf2\x02\xa7\x08#@'
p259
tp260
Rp261
ag147
(g28
S'YxH\xd7\x18\xe9"@'
p262
tp263
Rp264
ag147
(g28
S'\x9d\xa5\x08\xb5>\xe8"@'
p265
tp266
Rp267
ag147
(g28
S'\xd1\xee\x15\xf8e\xd1"@'
p268
tp269
Rp270
ag147
(g28
S')\xe3\xders\xa2"@'
p271
tp272
Rp273
ag147
(g28
S'\xf4\xc5\xb1\x13\x19\x93"@'
p274
tp275
Rp276
ag147
(g28
S'&\xee\xdfw\xef\x90"@'
p277
tp278
Rp279
ag147
(g28
S'$\xa7?|\xc5\x06"@'
p280
tp281
Rp282
ag147
(g28
S'\x988\x90\xe0\xab\x06"@'
p283
tp284
Rp285
ag147
(g28
S'\xa9\x87\xc1\xc9\x16\xfb!@'
p286
tp287
Rp288
ag147
(g28
S'\x8a\x07\xb7\xe7\xbd\xfa!@'
p289
tp290
Rp291
ag147
(g28
S'\x8e\xbe8!T\xfa!@'
p292
tp293
Rp294
ag147
(g28
S'\xf5O|\x9d\x0c\xf6!@'
p295
tp296
Rp297
ag147
(g28
S'`T\xfc\xbb\xd2\xf4!@'
p298
tp299
Rp300
ag147
(g28
S'bf_\xc5 \xf4!@'
p301
tp302
Rp303
ag147
(g28
S'\xfc\x99\xe5\x15\x03\xe2!@'
p304
tp305
Rp306
ag147
(g28
S'&\xe0U\x15\xf4\xe1!@'
p307
tp308
Rp309
ag147
(g28
S'\xba.=w \xcb!@'
p310
tp311
Rp312
ag147
(g28
S'^z\xe5\x15\xed\xc6!@'
p313
tp314
Rp315
ag147
(g28
S'\x1e\x97Ei\xb1\xc4!@'
p316
tp317
Rp318
ag147
(g28
S'\xa2\xc4\xdd\x9bB\xc4!@'
p319
tp320
Rp321
ag147
(g28
S'<\xd9\xf4\x11\x18Y!@'
p322
tp323
Rp324
ag147
(g28
S'2\xb8\xec\xd3\xfcV!@'
p325
tp326
Rp327
ag147
(g28
S'\xc6\n\xeb\xaf\xbf\x9d @'
p328
tp329
Rp330
ag147
(g28
S'GDW\xad\x93\x91 @'
p331
tp332
Rp333
ag147
(g28
S'\xf9\xd0\x98e|J @'
p334
tp335
Rp336
ag147
(g28
S'dB\xa89\xb0F @'
p337
tp338
Rp339
ag147
(g28
S' \\\x02H\xe4D @'
p340
tp341
Rp342
ag147
(g28
S'\x08\x0c\xc3\xc2\xe0C @'
p343
tp344
Rp345
ag147
(g28
S';\x82\xe0\xdar4 @'
p346
tp347
Rp348
ag147
(g28
S'46\xfbP\xc92 @'
p349
tp350
Rp351
ag147
(g28
S'\x84\x95^\xa0\xfb\x11 @'
p352
tp353
Rp354
ag147
(g28
S'\xc2\x8f8\xce\x97\x11 @'
p355
tp356
Rp357
ag147
(g28
S'\x89\x83\xe07I\xdf\x1f@'
p358
tp359
Rp360
ag147
(g28
S'\xb4B5\x8f8\xde\x1f@'
p361
tp362
Rp363
ag147
(g28
S'*\xdd\xe4\xb1\x9a\xaa\x1f@'
p364
tp365
Rp366
ag147
(g28
S'\xb6E\xcb\xa4\x99\xa9\x1f@'
p367
tp368
Rp369
ag147
(g28
S'R:\xed:\xf1X\x1f@'
p370
tp371
Rp372
ag147
(g28
S'`pE\xb3\xa3W\x1f@'
p373
tp374
Rp375
ag147
(g28
S'\x9c\x8cS\x8cn\x12\x1f@'
p376
tp377
Rp378
ag147
(g28
S'\xbf\x00\x85tY\x05\x1f@'
p379
tp380
Rp381
ag147
(g28
S'\x82\xeb_*3\xdb\x1e@'
p382
tp383
Rp384
ag147
(g28
S'|\xe4\x80\xbd\x9b\xcf\x1e@'
p385
tp386
Rp387
ag147
(g28
S'X\x16\x16{\xde\xbf\x1e@'
p388
tp389
Rp390
ag147
(g28
S'\x9f!SCq\xbf\x1e@'
p391
tp392
Rp393
ag147
(g28
S'\x85g\x0f\xbc\xe4\xbe\x1e@'
p394
tp395
Rp396
ag147
(g28
S'\xaeAG\xa7\xfa\xbb\x1e@'
p397
tp398
Rp399
ag147
(g28
S'\xf8_\xd2\x9bo\xba\x1e@'
p400
tp401
Rp402
ag147
(g28
S'\x0bV\xd7\x98M\xba\x1e@'
p403
tp404
Rp405
ag147
(g28
S'\xaa\x82\xf7\x99=\xb3\x1e@'
p406
tp407
Rp408
ag147
(g28
S'j)L<\xd6\xb2\x1e@'
p409
tp410
Rp411
ag147
(g28
S'\x96\xc25\xd9\x8e\x9f\x1e@'
p412
tp413
Rp414
ag147
(g28
S'FO\xae\xa6\xfa\x9e\x1e@'
p415
tp416
Rp417
ag147
(g28
S'B3\x03\x80\xc2\x91\x1e@'
p418
tp419
Rp420
ag147
(g28
S"\xcc\x9ai',\x91\x1e@"
p421
tp422
Rp423
ag147
(g28
S'\x85\x93nm\xd5\x89\x1e@'
p424
tp425
Rp426
ag147
(g28
S'\xa4\xb4\xc1\xde\x12\x89\x1e@'
p427
tp428
Rp429
ag147
(g28
S'<AZ?Qv\x1e@'
p430
tp431
Rp432
ag147
(g28
S'b\x90\x84~\x1av\x1e@'
p433
tp434
Rp435
ag147
(g28
S'\xdd\x1e\x94\xe5\x8bn\x1e@'
p436
tp437
Rp438
ag147
(g28
S'\x04\xafE\xe6;S\x1e@'
p439
tp440
Rp441
ag147
(g28
S'p\xb6!\xa6\x00R\x1e@'
p442
tp443
Rp444
ag147
(g28
S'mw9\xf4a:\x1e@'
p445
tp446
Rp447
ag147
(g28
S'\x0c|\xc4\xcaR:\x1e@'
p448
tp449
Rp450
ag147
(g28
S'8\x8ct\x01\xaf3\x1e@'
p451
tp452
Rp453
ag147
(g28
S'\xee\x11\x08\x04e3\x1e@'
p454
tp455
Rp456
ag147
(g28
S'\x9a\t1\x81\x1d3\x1e@'
p457
tp458
Rp459
ag147
(g28
S',8\xbe:\xad1\x1e@'
p460
tp461
Rp462
ag147
(g28
S'\xc6!6\x1d\x951\x1e@'
p463
tp464
Rp465
ag147
(g28
S'\x1e\xee\xb5\x81\x1b+\x1e@'
p466
tp467
Rp468
ag147
(g28
S'\x1e\xd0&\xfd\xdb&\x1e@'
p469
tp470
Rp471
ag147
(g28
S'\x11e^\xceT$\x1e@'
p472
tp473
Rp474
ag147
(g28
S'z\x97\x9a\x1f\x1a#\x1e@'
p475
tp476
Rp477
ag147
(g28
S'\x95\xc42*\x84\x1a\x1e@'
p478
tp479
Rp480
ag147
(g28
S'\x85\x84\x1dE.\x1a\x1e@'
p481
tp482
Rp483
ag147
(g28
S'\xb8\x0bE\nk\x15\x1e@'
p484
tp485
Rp486
ag147
(g28
S'\x89\x15y\xae\xf4\x0e\x1e@'
p487
tp488
Rp489
ag147
(g28
S'\x18n5\xc8\xbd\x02\x1e@'
p490
tp491
Rp492
ag147
(g28
S'\x9d\xb3<\xb0\x8e\xfb\x1d@'
p493
tp494
Rp495
ag147
(g28
S'\x0e\xc6\x0f\xde)\xf9\x1d@'
p496
tp497
Rp498
ag147
(g28
S'P\xd4%FF\xe8\x1d@'
p499
tp500
Rp501
ag147
(g28
S'\x99P8\r\x03\xe8\x1d@'
p502
tp503
Rp504
ag147
(g28
S'\xc8\xc6&\xe2h\xe1\x1d@'
p505
tp506
Rp507
ag147
(g28
S'?\xf1\xed,d\xe1\x1d@'
p508
tp509
Rp510
ag147
(g28
S'\x04\xb9\xc3>\x84\xdc\x1d@'
p511
tp512
Rp513
ag147
(g28
S'\x1a%\xf5\xe3b\xdc\x1d@'
p514
tp515
Rp516
ag147
(g28
S'n\xf0\x9f0\ta\x1d@'
p517
tp518
Rp519
ag147
(g28
S'\xd4\x91B0\xce_\x1d@'
p520
tp521
Rp522
ag147
(g28
S'w\xb9 \xfb\x07\xde\x1c@'
p523
tp524
Rp525
ag147
(g28
S'X\x8f\xb1+\xc1\xcc\x1c@'
p526
tp527
Rp528
ag147
(g28
S'I\xbds\xd4w\xc5\x1c@'
p529
tp530
Rp531
ag147
(g28
S'\x1a1t&\x0c\xc1\x1c@'
p532
tp533
Rp534
ag147
(g28
S'O\xf5\xa2\xfc\xd9\x8b\x1c@'
p535
tp536
Rp537
ag147
(g28
S'\x96=\\//\x8a\x1c@'
p538
tp539
Rp540
ag147
(g28
S'\xbe%B&\xd3X\x1c@'
p541
tp542
Rp543
ag147
(g28
S'\xdd\xec>\xcd\x03X\x1c@'
p544
tp545
Rp546
ag147
(g28
S'xO\xb0c\xd8T\x1c@'
p547
tp548
Rp549
ag147
(g28
S'n]z\xf5\xd1.\x1c@'
p550
tp551
Rp552
ag147
(g28
S'f\x1f\x1d\xf7\x14.\x1c@'
p553
tp554
Rp555
ag147
(g28
S'*Y\xd6a\xe7)\x1c@'
p556
tp557
Rp558
ag147
(g28
S'\x9aJp*\x89(\x1c@'
p559
tp560
Rp561
ag147
(g28
S'LQ\xe2N;&\x1c@'
p562
tp563
Rp564
ag147
(g28
S'\xe2\x91\xcf\tQ\xfb\x1b@'
p565
tp566
Rp567
ag147
(g28
S'\xfc>\xa1\xf4\xed\xd4\x1b@'
p568
tp569
Rp570
ag147
(g28
S'\x07\x9a3\xb2\xe9\xd4\x1b@'
p571
tp572
Rp573
ag147
(g28
S'\x80\xa1f\xef\x8b\xd4\x1b@'
p574
tp575
Rp576
ag147
(g28
S'>\x1d\xf0=I\xbc\x1b@'
p577
tp578
Rp579
ag147
(g28
S'\xe7#\x11\x18\x0b\xba\x1b@'
p580
tp581
Rp582
ag147
(g28
S'8\x04w\xa5\x0c\x99\x1b@'
p583
tp584
Rp585
ag147
(g28
S'\n\xef\x80\x05\x1c\x98\x1b@'
p586
tp587
Rp588
ag147
(g28
S'v<hU\xd6}\x1b@'
p589
tp590
Rp591
ag147
(g28
S'\xc0\x82J2\xc8}\x1b@'
p592
tp593
Rp594
ag147
(g28
S'.8\xa2E\xb0y\x1b@'
p595
tp596
Rp597
ag147
(g28
S'\xfe\x93\x89\x8djq\x1b@'
p598
tp599
Rp600
ag147
(g28
S'\xb84_*Vq\x1b@'
p601
tp602
Rp603
ag147
(g28
S'\x9e\x16\x85BOl\x1b@'
p604
tp605
Rp606
ag147
(g28
S'Q\x0e\x91\xfb\xf0k\x1b@'
p607
tp608
Rp609
ag147
(g28
S'\xb8\xe1\xd8_sd\x1b@'
p610
tp611
Rp612
ag147
(g28
S'\xd9\xe9/\xe8\x08d\x1b@'
p613
tp614
Rp615
ag147
(g28
S';\x96\xbaO\xe3^\x1b@'
p616
tp617
Rp618
ag147
(g28
S'\x1e\xfb\xc8\x07\xb5^\x1b@'
p619
tp620
Rp621
ag147
(g28
S'\xdb.u4\xf6\\\x1b@'
p622
tp623
Rp624
ag147
(g28
S'\x0e(a\xe3\xc5\\\x1b@'
p625
tp626
Rp627
ag147
(g28
S'D\x1b\xca\xf5\x8c[\x1b@'
p628
tp629
Rp630
ag147
(g28
S"';\xc7j\xf9Z\x1b@"
p631
tp632
Rp633
ag147
(g28
S'\xe0:\x18\xd3\xfaU\x1b@'
p634
tp635
Rp636
ag147
(g28
S'\xd0\x8f\xb5\x10\xa7T\x1b@'
p637
tp638
Rp639
ag147
(g28
S'8\x07\xf7\xf3\xe5:\x1b@'
p640
tp641
Rp642
ag147
(g28
S'D\xd7\xd2\xc0\xc88\x1b@'
p643
tp644
Rp645
ag147
(g28
S'\xa6e-\xfb\xe01\x1b@'
p646
tp647
Rp648
ag147
(g28
S'\xbb\xbf\xcf\xaa\xc01\x1b@'
p649
tp650
Rp651
ag147
(g28
S"nV\x06\x88\x0b'\x1b@"
p652
tp653
Rp654
ag147
(g28
S'Z\x16QF\xfb&\x1b@'
p655
tp656
Rp657
ag147
(g28
S'\xe0\x11\xca@\xf8#\x1b@'
p658
tp659
Rp660
ag147
(g28
S'\xc76\xebu\xe3#\x1b@'
p661
tp662
Rp663
ag147
(g28
S'\xccc\x07\x1fK"\x1b@'
p664
tp665
Rp666
ag147
(g28
S'j\x8e\x12&>"\x1b@'
p667
tp668
Rp669
ag147
(g28
S'\x18\x1a\xdc\x05.!\x1b@'
p670
tp671
Rp672
ag147
(g28
S'G!\x0c\xdf!!\x1b@'
p673
tp674
Rp675
ag147
(g28
S'\xa2\xd4XE\xe1\x1f\x1b@'
p676
tp677
Rp678
ag147
(g28
S'\x1c\x1b\x85\xea\xcd\x1f\x1b@'
p679
tp680
Rp681
ag147
(g28
S'\xea\x94\x1c\xb6F\x1f\x1b@'
p682
tp683
Rp684
ag147
(g28
S'\xe9*Uq\x94\x1e\x1b@'
p685
tp686
Rp687
ag147
(g28
S'a\xa1X\xd7D\x1d\x1b@'
p688
tp689
Rp690
ag147
(g28
S'S\xdb\xf0~\xc2\x1c\x1b@'
p691
tp692
Rp693
ag147
(g28
S'A\x13F\xf4\x85\x1c\x1b@'
p694
tp695
Rp696
ag147
(g28
S'L\xe3QQ\xcf\x15\x1b@'
p697
tp698
Rp699
ag147
(g28
S'\xe3\xc5\xb7"\x8c\x15\x1b@'
p700
tp701
Rp702
ag147
(g28
S'\xa2\x9f\xe2\xe6\x87\x0e\x1b@'
p703
tp704
Rp705
ag147
(g28
S'\xf7\xf7\x05vz\x0e\x1b@'
p706
tp707
Rp708
ag147
(g28
S'D%|\xd7a\x0b\x1b@'
p709
tp710
Rp711
ag147
(g28
S'a=\xe0\xfc\xdf\n\x1b@'
p712
tp713
Rp714
ag147
(g28
S'[7\x00\x90z\x02\x1b@'
p715
tp716
Rp717
ag147
(g28
S'\x9d\x85"\xe8m\x02\x1b@'
p718
tp719
Rp720
ag147
(g28
S'\x88t\x02\x8a\xdd\xfd\x1a@'
p721
tp722
Rp723
ag147
(g28
S'd\xb4\x14\x89\xd6\xfd\x1a@'
p724
tp725
Rp726
ag147
(g28
S'nr\xf6\x17\xb5\xfd\x1a@'
p727
tp728
Rp729
ag147
(g28
S'\xd9\x9e\xe3"\x91\xfd\x1a@'
p730
tp731
Rp732
ag147
(g28
S'\xd1\x93=\x94\x8a\xfd\x1a@'
p733
tp734
Rp735
ag147
(g28
S'$\xeds>\x9d\xfb\x1a@'
p736
tp737
Rp738
ag147
(g28
S'\x1c\xd9C\xb5\xbf\xfa\x1a@'
p739
tp740
Rp741
ag147
(g28
S'\x00@\xa3k\n\xf6\x1a@'
p742
tp743
Rp744
ag147
(g28
S'\x08\xaa\x87H\xf0\xf5\x1a@'
p745
tp746
Rp747
ag147
(g28
S'7\x1e\x18\xcd%\xf2\x1a@'
p748
tp749
Rp750
ag147
(g28
S'\xc4\xe0R\xde"\xf2\x1a@'
p751
tp752
Rp753
ag147
(g28
S'\xa6_\xf5*\xe6\xf1\x1a@'
p754
tp755
Rp756
ag147
(g28
S'\xb3\xdcG\xa9\x9a\xf1\x1a@'
p757
tp758
Rp759
ag147
(g28
S'\xec\x82\xef\x01\x97\xf1\x1a@'
p760
tp761
Rp762
ag147
(g28
S'\xbe\xb1\x90\xbd~\xf0\x1a@'
p763
tp764
Rp765
ag147
(g28
S'\xca\x17\x10\xc4\x1c\xe5\x1a@'
p766
tp767
Rp768
ag147
(g28
S'\xcbX\xb7\xe6\x17\xdf\x1a@'
p769
tp770
Rp771
ag147
(g28
S'\xcd\x93R\xd7\x01\xd9\x1a@'
p772
tp773
Rp774
ag147
(g28
S'\xd8\xfc\x8a=\x1f\xd1\x1a@'
p775
tp776
Rp777
ag147
(g28
S'sXF\xdd\xd5\xd0\x1a@'
p778
tp779
Rp780
ag147
(g28
S'\x1f\xce\xc4"\xde\xce\x1a@'
p781
tp782
Rp783
ag147
(g28
S'v\xae\xcf\xd1\xac\xce\x1a@'
p784
tp785
Rp786
ag147
(g28
S'\x8e\xc6\xe3\x18+\xcc\x1a@'
p787
tp788
Rp789
ag147
(g28
S'\xe9\xa2\x18\x81N\xcb\x1a@'
p790
tp791
Rp792
ag147
(g28
S':7v\x11\x1b\xc7\x1a@'
p793
tp794
Rp795
ag147
(g28
S'\x12\xbd\x93p\x9a\xc6\x1a@'
p796
tp797
Rp798
ag147
(g28
S'*\x94\xa7"\xf8\xc4\x1a@'
p799
tp800
Rp801
ag147
(g28
S'\x98\xa8.\xd7\xaa\xc4\x1a@'
p802
tp803
Rp804
ag147
(g28
S'\x14^-\xac\xd2\xc3\x1a@'
p805
tp806
Rp807
ag147
(g28
S'}r\x9bw}\xc3\x1a@'
p808
tp809
Rp810
ag147
(g28
S'q\xe4\xe60\xa0\xc2\x1a@'
p811
tp812
Rp813
ag147
(g28
S'\x98j&\xa21\xc2\x1a@'
p814
tp815
Rp816
ag147
(g28
S'\xc7\x8a]\xc1%\xc1\x1a@'
p817
tp818
Rp819
ag147
(g28
S'>\xe6\xfaU\x8d\xc0\x1a@'
p820
tp821
Rp822
ag147
(g28
S'4\xda\xb4\xc2:\xbf\x1a@'
p823
tp824
Rp825
ag147
(g28
S'\xa4\xe1\xc5\x08l\xbe\x1a@'
p826
tp827
Rp828
ag147
(g28
S'\xfc\xe5b\xc2\xc9\xbc\x1a@'
p829
tp830
Rp831
ag147
(g28
S'\x98;\xb3/\xb3\xbb\x1a@'
p832
tp833
Rp834
ag147
(g28
S'\xee6G\x8b\xa8\xb9\x1a@'
p835
tp836
Rp837
ag147
(g28
S'\x00\xf6\x05ch\xb8\x1a@'
p838
tp839
Rp840
ag147
(g28
S'\x86\x8dW\xe1\n\xb7\x1a@'
p841
tp842
Rp843
ag147
(g28
S'\xfbf\\$\x9a\xb5\x1a@'
p844
tp845
Rp846
ag147
(g28
S'\xf9\xab&z\n\x8b\x1a@'
p847
tp848
Rp849
ag147
(g28
S'\xbec(w\xc3\x8a\x1a@'
p850
tp851
Rp852
ag147
(g28
S'\xc6\x1cR\xd8\xb1\x89\x1a@'
p853
tp854
Rp855
ag147
(g28
S'Rw\x0eH\x7ft\x1a@'
p856
tp857
Rp858
ag147
(g28
S'\x96q\xc8\x9a]t\x1a@'
p859
tp860
Rp861
ag147
(g28
S'!\x9f\x93\x13\x90e\x1a@'
p862
tp863
Rp864
ag147
(g28
S'x\x89x_]e\x1a@'
p865
tp866
Rp867
ag147
(g28
S'\xa2\x7f!B7e\x1a@'
p868
tp869
Rp870
ag147
(g28
S'\xb6\xe3\xc3[\xc6c\x1a@'
p871
tp872
Rp873
ag147
(g28
S'x\xce\xbc0\xdab\x1a@'
p874
tp875
Rp876
ag147
(g28
S'\x97.\x98\xd1^\\\x1a@'
p877
tp878
Rp879
ag147
(g28
S'\x9ah\x7f\x85R\\\x1a@'
p880
tp881
Rp882
ag147
(g28
S'#\xdc/\x13\x04\\\x1a@'
p883
tp884
Rp885
ag147
(g28
S'F^\x0e\xef\xfeX\x1a@'
p886
tp887
Rp888
ag147
(g28
S'j\x10\t\xfb\x1bV\x1a@'
p889
tp890
Rp891
ag147
(g28
S'*l\xb7*\xdeU\x1a@'
p892
tp893
Rp894
ag147
(g28
S'\xa8<|\xd2yT\x1a@'
p895
tp896
Rp897
ag147
(g28
S'\xfc\xd4\xf0\xd3[Q\x1a@'
p898
tp899
Rp900
ag147
(g28
S'\xec\xb7\x87\xf7\xedP\x1a@'
p901
tp902
Rp903
ag147
(g28
S'Y\xb4H\x08\x1eN\x1a@'
p904
tp905
Rp906
ag147
(g28
S'\xdf\xd2\x07\xb1\xd3M\x1a@'
p907
tp908
Rp909
ag147
(g28
S'z\xd88\x1a\xadM\x1a@'
p910
tp911
Rp912
ag147
(g28
S'\x1d:\xb3\x82xM\x1a@'
p913
tp914
Rp915
ag147
(g28
S'x\xbf3CsM\x1a@'
p916
tp917
Rp918
ag147
(g28
S'\xba\xfcY\x0c\x98L\x1a@'
p919
tp920
Rp921
ag147
(g28
S'\xbe\x85p\xb0kK\x1a@'
p922
tp923
Rp924
ag147
(g28
S'\x9c\x8f\xa1SZI\x1a@'
p925
tp926
Rp927
ag147
(g28
S'e\xa2\x8a6\x1dH\x1a@'
p928
tp929
Rp930
ag147
(g28
S'\xf0;\xb5\xd7\x90G\x1a@'
p931
tp932
Rp933
ag147
(g28
S'a\x84\x1f\xe8\xa5B\x1a@'
p934
tp935
Rp936
ag147
(g28
S'\x81\x03\xf1\xeb\x9eB\x1a@'
p937
tp938
Rp939
ag147
(g28
S'\x18\x8f\x97\xbf\x9c?\x1a@'
p940
tp941
Rp942
ag147
(g28
S'X\x1d[\x000?\x1a@'
p943
tp944
Rp945
ag147
(g28
S'X\x9e\x96\x97\xf7>\x1a@'
p946
tp947
Rp948
ag147
(g28
S'\x08\xf0\xcc5\xb6>\x1a@'
p949
tp950
Rp951
ag147
(g28
S'p\x1f"T\xaf>\x1a@'
p952
tp953
Rp954
ag147
(g28
S'%\xd2\xf3\xe6\x10=\x1a@'
p955
tp956
Rp957
ag147
(g28
S'T.\xe8\xbf\xd9<\x1a@'
p958
tp959
Rp960
ag147
(g28
S'%T\xd54\x85;\x1a@'
p961
tp962
Rp963
ag147
(g28
S'\x17\xfcZi\x81;\x1a@'
p964
tp965
Rp966
ag147
(g28
S'\xb8\x01\xb0\xdb9:\x1a@'
p967
tp968
Rp969
ag147
(g28
S'\xfd\xcf;1[9\x1a@'
p970
tp971
Rp972
ag147
(g28
S'\xdc\x8f\x97Y\xdf4\x1a@'
p973
tp974
Rp975
ag147
(g28
S'\xaf\nZ\xc7.*\x1a@'
p976
tp977
Rp978
ag147
(g28
S'/\xd7LF\xb0(\x1a@'
p979
tp980
Rp981
ag147
(g28
S"\xe0\r8\x9d\xa0'\x1a@"
p982
tp983
Rp984
ag147
(g28
S'\x83\xc3\xb3N)$\x1a@'
p985
tp986
Rp987
ag147
(g28
S'\xe2%\x99L\xfd \x1a@'
p988
tp989
Rp990
ag147
(g28
S'\xf4\x83!*\xbc\x15\x1a@'
p991
tp992
Rp993
ag147
(g28
S'\x86\x0f\x0e\xf3K\x12\x1a@'
p994
tp995
Rp996
ag147
(g28
S'$\x0e\xdap`\xf0\x19@'
p997
tp998
Rp999
ag147
(g28
S'7\x01h\xf3b\xef\x19@'
p1000
tp1001
Rp1002
ag147
(g28
S'\x0e\xff\xd2\x06\xc8\xb4\x19@'
p1003
tp1004
Rp1005
ag147
(g28
S'\xc0C\xfd\xc49\xb2\x19@'
p1006
tp1007
Rp1008
ag147
(g28
S'\xa4\xf3\xab\xbd=\x0f\x19@'
p1009
tp1010
Rp1011
ag147
(g28
S'\xc2a\x06\x8b\xa1\r\x19@'
p1012
tp1013
Rp1014
ag147
(g28
S' \x0b\xc4\xbf\x8f\xd1\x18@'
p1015
tp1016
Rp1017
ag147
(g28
S'\x8f\xeb\xb4\x88\xfd\xd0\x18@'
p1018
tp1019
Rp1020
ag147
(g28
S'\xdc9\xcdQ\xdc\xac\x18@'
p1021
tp1022
Rp1023
ag147
(g28
S'8j\xa9ta\xaa\x18@'
p1024
tp1025
Rp1026
ag147
(g28
S'\x9c\xad\n\xb8\xe1\x9a\x18@'
p1027
tp1028
Rp1029
ag147
(g28
S'\xc6\xe8+\x96\xad\x9a\x18@'
p1030
tp1031
Rp1032
ag147
(g28
S'\xfeTS\xbe2\x9a\x18@'
p1033
tp1034
Rp1035
ag147
(g28
S'\x02\x84\x17\xad\xf4\x96\x18@'
p1036
tp1037
Rp1038
ag147
(g28
S'z\xc2P\xe0\xdd\x96\x18@'
p1039
tp1040
Rp1041
ag147
(g28
S'b\x17 ?2\x93\x18@'
p1042
tp1043
Rp1044
ag147
(g28
S'\x16T\x15D)\x93\x18@'
p1045
tp1046
Rp1047
ag147
(g28
S'\xfd\xbd",\xc9\x8a\x18@'
p1048
tp1049
Rp1050
ag147
(g28
S'~\x86W\xb9\xb5\x8a\x18@'
p1051
tp1052
Rp1053
ag147
(g28
S'\x82\xf4\xc6N\xb2\x86\x18@'
p1054
tp1055
Rp1056
ag147
(g28
S'\xc8_u\x05\xa4\x86\x18@'
p1057
tp1058
Rp1059
ag147
(g28
S'\xe4\x84\x00H\xb9\x83\x18@'
p1060
tp1061
Rp1062
ag147
(g28
S'j\xa5J\xab\xac\x83\x18@'
p1063
tp1064
Rp1065
ag147
(g28
S'@\x07\xa0rS\x80\x18@'
p1066
tp1067
Rp1068
ag147
(g28
S' $\x86hE\x80\x18@'
p1069
tp1070
Rp1071
ag147
(g28
S'\x12sM1\x00}\x18@'
p1072
tp1073
Rp1074
ag147
(g28
S'jA\x13H\xef|\x18@'
p1075
tp1076
Rp1077
ag147
(g28
S'\x8f)\x954\x0ey\x18@'
p1078
tp1079
Rp1080
ag147
(g28
S'\xffIr\xaa\xf6x\x18@'
p1081
tp1082
Rp1083
ag147
(g28
S'\x80\xa3W\xb2xs\x18@'
p1084
tp1085
Rp1086
ag147
(g28
S',G\xba\xd2Ws\x18@'
p1087
tp1088
Rp1089
ag147
(g28
S'\xdb\xe4S\x17\xdel\x18@'
p1090
tp1091
Rp1092
ag147
(g28
S'\xf9\x8eVD\xb8l\x18@'
p1093
tp1094
Rp1095
ag147
(g28
S'Vl\x0e\xa0(g\x18@'
p1096
tp1097
Rp1098
ag147
(g28
S'\x81\xb2%\xbc\x08g\x18@'
p1099
tp1100
Rp1101
ag147
(g28
S'\xc9e*\x94\xa6b\x18@'
p1102
tp1103
Rp1104
ag147
(g28
S'\x0c\xb35\xdb:b\x18@'
p1105
tp1106
Rp1107
ag147
(g28
S'j\x1bvA\x0cb\x18@'
p1108
tp1109
Rp1110
ag147
(g28
S'h\xd8\xb8T\x02V\x18@'
p1111
tp1112
Rp1113
ag147
(g28
S'\xe9\x8a\xd5J~T\x18@'
p1114
tp1115
Rp1116
ag147
(g28
S'4A\x04\xa6\x08K\x18@'
p1117
tp1118
Rp1119
ag147
(g28
S'z%O]\xf5J\x18@'
p1120
tp1121
Rp1122
ag147
(g28
S'J\xa4\x18\xa7\x11F\x18@'
p1123
tp1124
Rp1125
ag147
(g28
S'`\xc3\xd4\xfb\x9eE\x18@'
p1126
tp1127
Rp1128
ag147
(g28
S'tD\xda\xf9\x7f@\x18@'
p1129
tp1130
Rp1131
ag147
(g28
S'N\xbfgH)=\x18@'
p1132
tp1133
Rp1134
ag147
(g28
S'Vd07\xe48\x18@'
p1135
tp1136
Rp1137
ag147
(g28
S'\xa27\xb5\xe0\x935\x18@'
p1138
tp1139
Rp1140
asS'__name__'
p1141
S'TrainCG'
p1142
sS'__doc__'
p1143
S'\n    Newton-CG method\n    Using scipy.optimize.fmin_ncg\n\n    :Support networks:\n        newff (multi-layers perceptron)\n    :Parameters:\n        input: array like (l x net.ci)\n            train input patterns\n        target: array like (l x net.co)\n            train target patterns\n        epochs: int (default 500)\n            Number of train epochs\n        show: int (default 100)\n            Print period\n        goal: float (default 0.01)\n            The goal of train\n        rr float (defaults 0.0)\n            Regularization ratio\n            Must be between {0, 1}\n        \n    '
p1144
sbsS'connect'
p1145
(lp1146
(lp1147
I-1
aa(lp1148
I0
aa(lp1149
I1
aasS'errorf'
p1150
(ineurolab.error
SSE
p1151
(dp1152
bsg65
g18
(g19
(I0
tp1153
g21
tp1154
Rp1155
(I1
(I1
I2
tp1156
g28
I00
S'\x00\x00\x00\x00\x00\x00\xf0\xbf\x00\x00\x00\x00\x00\x00\xf0?'
p1157
tp1158
bsg72
g115
sb.